2010-09-01-00-03	  -69.5	  21.5	  480894059287.3	1037415852788.4	16.6	
2010-09-01-00-03	  -56.0	 -53.5	   33159580176.4	84521236747.0	19.4	
2010-09-01-00-03	   23.0	 -38.0	   39300138474.5	78330111509.5	15.2	
2010-09-01-00-03	    7.5	 -48.0	    4176604016.8	14991950255.0	27.3	
2010-09-01-03-06	  -69.5	  22.0	  466572808884.3	992184801857.6	16.4	
2010-09-01-03-06	  -55.0	 -53.0	   46823069198.6	114513995752.8	18.6	
2010-09-01-03-06	   23.5	 -37.5	   12359174290.8	22534726664.9	13.9	
2010-09-01-03-06	    7.5	 -47.5	    4176604016.8	14727060947.2	26.8	
2010-09-01-06-09	  -69.5	  22.5	  398783966484.3	866227588050.5	16.8	
2010-09-01-06-09	  -54.0	 -52.0	   55011829655.5	131750970947.0	18.4	
2010-09-01-06-09	   24.0	 -36.5	    2484784349.4	3624681573.7	11.2	
2010-09-01-09-12	  -70.0	  23.0	  270340276460.2	635515334587.9	18.2	
2010-09-01-09-12	  -53.0	 -51.5	   57468079800.4	147135402294.2	19.7	
2010-09-01-09-12	  -60.5	  27.0	   30281429028.4	50131552284.6	12.7	
2010-09-01-12-15	  -71.0	  23.5	  258015030813.0	616354615556.8	18.6	
2010-09-01-12-15	  -53.0	 -51.5	   67363326188.5	170473041074.0	19.6	
2010-09-01-15-18	  -71.5	  24.0	  209114000222.1	530354200087.1	19.7	
2010-09-01-15-18	  -53.0	 -51.5	   42667833638.7	118646224459.1	21.4	
2010-09-01-15-18	   30.0	 -45.0	   13209117102.9	28065846343.3	16.4	
2010-09-01-15-18	  -61.5	  19.5	    8732219754.2	16660569511.1	14.7	
2010-09-01-18-21	  -72.0	  24.5	  211006730735.3	546039502985.3	20.0	
2010-09-01-18-21	   30.5	 -44.5	   33220257161.0	71983303833.6	16.6	
2010-09-01-18-21	  -62.0	  20.0	   29045967784.0	56272224272.7	14.8	
2010-09-01-18-21	  -53.0	 -51.5	   17486173502.6	44407688632.1	19.4	
2010-09-01-18-21	  -51.0	 -39.5	   14430011574.5	29771363476.7	15.8	
2010-09-01-18-21	  -53.0	 -44.0	    2223535157.0	4731038480.0	16.3	
2010-09-01-21-24	  -72.5	  25.5	  210407659466.8	551083613203.4	20.1	
2010-09-01-21-24	  -50.0	 -39.0	   50595792428.4	108721970839.6	16.4	
2010-09-01-21-24	  -53.0	 -44.0	   51288836083.2	104477387699.1	15.6	
2010-09-01-21-24	  -63.0	  20.0	   34771047776.0	68338847497.6	15.0	
2010-09-01-21-24	   30.5	 -44.5	   30978068914.5	64645495314.5	15.9	
2010-09-02-00-03	  -73.0	  25.5	  203970891942.6	515017790572.7	19.4	
2010-09-02-00-03	  -51.5	 -44.5	  167921821775.7	339200537599.3	15.5	
2010-09-02-00-03	  -49.5	 -38.5	   75136016368.0	164764657236.1	16.7	
2010-09-02-00-03	  -64.0	  20.5	   43323456331.4	79852105883.6	14.0	
2010-09-02-00-03	  -33.0	 -40.5	   23591167082.8	48113442862.9	15.5	
2010-09-02-00-03	   30.5	 -44.5	   11042217569.0	21344032539.8	14.7	
2010-09-02-03-06	  -51.0	 -45.0	  294395925222.2	636561554439.8	16.6	
2010-09-02-03-06	  -73.0	  26.0	  194730335795.3	466592502527.0	18.3	
2010-09-02-03-06	  -49.0	 -38.0	   87811533548.0	189715358080.2	16.5	
2010-09-02-03-06	  -64.5	  21.0	   66163455271.8	121725544336.5	14.0	
2010-09-02-03-06	  -31.0	 -41.0	    9366680894.3	17251961763.4	14.0	
2010-09-02-06-09	  -50.5	 -45.0	  366162067020.2	807138097618.7	16.9	
2010-09-02-06-09	  -73.5	  26.5	  191001223710.5	449732090359.2	17.9	
2010-09-02-06-09	  -48.0	 -37.0	  103411132082.7	215011101168.4	15.8	
2010-09-02-06-09	  -65.0	  21.5	   85984248586.3	162948448694.8	14.4	
2010-09-02-09-12	  -50.0	 -44.5	  390465445621.1	852216546957.0	16.6	
2010-09-02-09-12	  -73.5	  27.5	  203766457457.0	452391738431.0	16.8	
2010-09-02-09-12	  -65.5	  22.5	  114364108983.9	230778130235.3	15.2	
2010-09-02-09-12	  -47.5	 -36.5	   89413325463.1	193661970248.5	16.3	
2010-09-02-12-15	  -50.0	 -44.5	  375688921431.4	799670081018.5	16.1	
2010-09-02-12-15	  -74.0	  28.0	  200058167365.6	429813812843.0	16.2	
2010-09-02-12-15	  -66.0	  22.5	  119755157691.5	249141619588.7	15.6	
2010-09-02-12-15	  -47.0	 -36.0	   92425955839.0	196279993028.4	15.9	
2010-09-02-12-15	  172.5	 -47.0	   25532443679.1	79519682580.5	23.3	
2010-09-02-15-18	  -49.5	 -44.0	  322826500422.6	663600196279.1	15.4	
2010-09-02-15-18	  -74.0	  28.5	  188201708778.9	382003416180.9	15.2	
2010-09-02-15-18	  -66.5	  23.0	  153597796863.4	294963770991.0	14.3	
2010-09-02-15-18	  173.5	 -46.5	   55357590376.7	164265081357.5	22.1	
2010-09-02-15-18	  -46.0	 -36.0	   77849519114.9	152859913043.8	14.6	
2010-09-02-18-21	  -49.0	 -44.0	  244039792069.7	479111188001.3	14.6	
2010-09-02-18-21	  -73.5	  28.5	  171241732699.9	312711143752.4	13.6	
2010-09-02-18-21	  -67.0	  23.5	  144497248143.2	278977991066.0	14.3	
2010-09-02-18-21	  174.0	 -46.5	   46965252530.8	132914135253.8	21.0	
2010-09-02-18-21	  -45.5	 -35.5	   22710723276.4	41669427145.3	13.6	
2010-09-02-21-24	  -73.5	  29.0	  178139872993.8	320778074633.8	13.3	
2010-09-02-21-24	  -67.5	  24.0	  146651602045.6	277642056542.0	14.0	
2010-09-02-21-24	  175.0	 -46.5	   40426423080.3	110656865166.3	20.2	
2010-09-02-21-24	  -49.0	 -47.0	   50903840163.0	98201293386.8	14.2	
2010-09-02-21-24	  -49.0	 -43.5	   49490551091.4	96089366832.1	14.3	
2010-09-02-21-24	 -150.0	 -39.0	   14430011574.5	30921234399.0	15.8	
2010-09-03-00-03	  -73.0	  29.5	  348272849744.8	657102208476.1	13.9	
2010-09-03-00-03	 -150.0	 -39.5	   88377682321.6	177109354941.6	14.7	
2010-09-03-00-03	  175.5	 -46.5	   38298665518.7	101309385112.5	19.4	
2010-09-03-00-03	 -174.5	 -39.0	   12061744088.9	21089722043.9	12.8	
2010-09-03-00-03	   66.0	 -50.0	    1986906671.9	3184030445.1	11.7	
2010-09-03-03-06	  -73.5	  31.0	  335138371346.6	655222323279.8	14.3	
2010-09-03-03-06	 -150.5	 -38.5	  260754510477.1	600999888673.7	16.9	
2010-09-03-03-06	  175.5	 -46.5	   27660201240.7	69730814126.1	18.3	
2010-09-03-03-06	 -173.5	 -38.5	    7257307243.8	11997832079.6	12.0	
2010-09-03-06-09	 -149.5	 -38.5	  253240907587.4	669527941533.3	19.3	
2010-09-03-06-09	  -72.5	  30.0	  298764198476.0	593584109332.1	14.5	
2010-09-03-06-09	 -146.5	 -42.5	  108115542513.8	208036482466.1	14.0	
2010-09-03-06-09	  175.0	 -47.0	   10599492545.8	24361555688.9	16.6	
2010-09-03-06-09	 -173.0	 -43.5	    6745047773.0	20865818945.7	22.4	
2010-09-03-09-12	 -149.0	 -39.0	  343057856266.3	880016997436.4	18.7	
2010-09-03-09-12	  -72.0	  29.0	  282413313699.3	556758267909.2	14.3	
2010-09-03-09-12	 -142.5	 -41.5	  231182003315.2	465039610953.0	14.6	
2010-09-03-09-12	   66.0	 -50.0	    7988802329.6	20311431910.4	18.4	
2010-09-03-09-12	 -173.0	 -43.5	    4484376492.9	12752914877.2	20.5	
2010-09-03-12-15	 -147.5	 -39.0	  380689717961.5	994057381276.9	19.1	
2010-09-03-12-15	  -73.5	  32.5	  267373546075.2	536844698295.6	14.6	
2010-09-03-12-15	 -141.0	 -42.5	  204167365858.1	422069225134.5	15.0	
2010-09-03-12-15	   66.0	 -50.5	    9954969917.2	27203608219.1	19.7	
2010-09-03-15-18	 -146.5	 -39.0	  425808081565.1	1142897694062.0	19.7	
2010-09-03-15-18	  -71.5	  29.5	  233351836359.8	463647897162.2	14.5	
2010-09-03-15-18	 -140.0	 -43.0	  188323357904.6	399706126747.2	15.4	
2010-09-03-15-18	   66.5	 -50.5	   15915538669.6	47465248034.6	21.6	
2010-09-03-15-18	  -74.5	  35.5	   20099862820.0	43861503323.9	15.8	
2010-09-03-18-21	 -145.5	 -39.5	  472766773216.9	1217874224297.0	19.0	
2010-09-03-18-21	  -71.5	  30.0	  211018077500.1	421465170541.4	14.6	
2010-09-03-18-21	 -139.0	 -43.5	  168868310290.6	352411145483.5	15.2	
2010-09-03-18-21	 -111.5	 -37.0	   37269491687.7	78604133762.7	15.3	
2010-09-03-18-21	   66.5	 -50.5	   21834780516.8	62554692400.5	20.8	
2010-09-03-18-21	  172.0	 -37.0	    4937288658.0	12349444737.8	18.1	
2010-09-03-21-24	 -144.5	 -39.5	  492556131795.7	1185822377584.1	17.8	
2010-09-03-21-24	  -71.5	  30.5	  196661843112.0	393722118246.9	14.6	
2010-09-03-21-24	 -174.5	 -51.0	   94649411587.4	266928439965.6	20.5	
2010-09-03-21-24	 -111.0	 -37.5	   88762716195.9	210039143089.6	17.2	
2010-09-03-21-24	 -137.5	 -44.5	   64253951127.9	129462431576.8	14.6	
2010-09-03-21-24	   66.0	 -50.5	   27795048216.8	75153893366.7	19.6	
2010-09-03-21-24	  172.0	 -37.0	    4937288658.0	12132572774.6	17.8	
2010-09-04-00-03	 -144.0	 -40.0	  454426652020.7	1044480918138.2	16.9	
2010-09-04-00-03	 -111.0	 -38.0	  139444236891.2	386129226993.7	20.2	
2010-09-04-00-03	  -71.5	  31.0	  171929414895.0	351463909838.0	14.9	
2010-09-04-00-03	 -173.5	 -51.0	  116947603702.4	324582381392.1	20.2	
2010-09-04-00-03	   66.0	 -50.5	   35638679904.6	96326568801.5	19.6	
2010-09-04-00-03	 -137.0	 -45.5	   43579017770.5	93698940464.9	15.6	
2010-09-04-00-03	  172.0	 -37.0	    2468644329.0	5661109776.9	16.6	
2010-09-04-03-06	 -143.5	 -40.5	  423113271704.2	943457324820.6	16.3	
2010-09-04-03-06	 -111.0	 -38.0	  201491698066.4	572582670107.7	20.7	
2010-09-04-03-06	 -173.0	 -52.0	  141105802265.2	355639289172.2	18.3	
2010-09-04-03-06	  -71.5	  31.5	  155455910771.1	317485086496.0	14.8	
2010-09-04-03-06	   66.0	 -50.5	   29699000025.6	84436645584.1	20.6	
2010-09-04-03-06	 -137.0	 -46.0	   15127148362.9	33119063614.1	15.8	
2010-09-04-03-06	 -162.0	 -38.5	   16983448033.7	32373584472.0	13.8	
2010-09-04-06-09	 -143.0	 -40.5	  412693601411.7	899217868428.3	15.9	
2010-09-04-06-09	 -110.5	 -39.0	  264473188719.1	701314088205.5	19.3	
2010-09-04-06-09	  -71.5	  32.0	  133763322614.4	273435733008.6	14.8	
2010-09-04-06-09	 -176.5	 -53.0	   56364409315.8	136461630875.1	17.5	
2010-09-04-06-09	 -170.5	 -53.0	   42890862624.6	106124174150.1	17.9	
2010-09-04-06-09	   66.0	 -50.5	   23738732325.6	69597250051.5	21.1	
2010-09-04-06-09	 -161.5	 -38.5	    7257123553.9	13424657803.4	13.3	
2010-09-04-06-09	 -160.5	 -40.5	    2350474072.1	4387303944.2	13.4	
2010-09-04-09-12	 -141.5	 -40.5	  395474933796.0	861640115476.1	15.8	
2010-09-04-09-12	 -110.5	 -39.5	  286052189285.0	728958340998.8	18.5	
2010-09-04-09-12	  -71.0	  32.5	  104451162040.5	213050397918.6	14.7	
2010-09-04-09-12	 -177.0	 -53.0	   46848550871.6	113404155246.0	17.4	
2010-09-04-09-12	   66.0	 -50.5	   17798902657.4	50391402867.2	20.3	
2010-09-04-12-15	 -140.5	 -40.5	  360308744412.4	776244467159.5	15.5	
2010-09-04-12-15	 -110.0	 -40.5	  295402449189.0	718165665382.4	17.5	
2010-09-04-12-15	  -70.5	  33.0	   80384579769.7	160339128985.2	14.3	
2010-09-04-12-15	   66.0	 -50.5	   13846129450.4	39058131136.9	20.1	
2010-09-04-15-18	 -109.5	 -41.0	  271586369239.7	612940672748.2	16.2	
2010-09-04-15-18	 -139.0	 -40.0	  272396562631.7	594674679561.9	15.7	
2010-09-04-15-18	  -70.0	  33.5	   36039958264.8	70656433963.4	14.0	
2010-09-04-15-18	 -155.5	 -41.0	   14085058020.1	25864717269.0	13.1	
2010-09-04-15-18	   66.5	 -50.5	    7906148519.0	22060098697.0	19.9	
2010-09-04-18-21	 -138.0	 -40.0	  241665384146.7	524094634173.4	15.5	
2010-09-04-18-21	 -109.0	 -42.0	  244275852719.1	507254148833.6	14.8	
2010-09-04-18-21	  150.0	 -44.0	   17862554054.6	50996810332.4	20.2	
2010-09-04-18-21	 -154.5	 -40.5	   23504204574.7	43575447603.5	13.1	
2010-09-04-21-24	 -109.0	 -43.0	  237421341257.6	500366980801.2	14.9	
2010-09-04-21-24	 -137.0	 -39.5	  206106524401.5	434779843013.9	14.9	
2010-09-04-21-24	  150.0	 -44.0	   37685641005.3	87596444932.8	16.4	
2010-09-04-21-24	 -153.5	 -41.0	   18697610617.2	33823067627.8	12.7	
2010-09-04-21-24	 -165.5	 -50.0	    1986906671.9	4081037488.3	14.5	
2010-09-05-00-03	 -136.5	 -39.0	  158725763533.1	327869486600.5	14.5	
2010-09-05-00-03	 -107.0	 -43.5	  145943834459.0	300723730477.6	14.5	
2010-09-05-00-03	 -167.0	 -48.5	  100618807771.3	214558829626.3	15.0	
2010-09-05-00-03	  150.5	 -45.0	   87372441604.6	206540032429.8	16.6	
2010-09-05-00-03	 -112.0	 -44.5	   57674242850.1	124362991721.0	15.1	
2010-09-05-00-03	   50.0	 -38.0	   46245920588.8	111108382425.1	16.8	
2010-09-05-00-03	 -151.5	 -42.5	   38959281554.3	73867336770.9	13.3	
2010-09-05-00-03	   29.0	 -57.0	   20337611868.6	58679200257.0	20.2	
2010-09-05-00-03	  146.5	 -45.5	    8685418080.0	13081710800.4	10.5	
2010-09-05-00-03	   58.0	 -35.5	    5032989055.8	12105660043.5	16.8	
2010-09-05-03-06	  151.0	 -45.0	  160059849658.1	390410585090.1	17.0	
2010-09-05-03-06	 -167.0	 -49.0	  174141767815.7	389400904134.1	15.6	
2010-09-05-03-06	 -135.5	 -39.0	  141983258577.8	284301232809.2	13.9	
2010-09-05-03-06	 -149.5	 -43.0	   86665510479.5	178761448143.2	14.3	
2010-09-05-03-06	 -105.5	 -43.5	   80860312407.8	162411867845.3	14.0	
2010-09-05-03-06	   49.0	 -38.5	   60609132612.8	144040312119.1	16.5	
2010-09-05-03-06	  165.0	 -48.5	   18554166697.1	61907067012.5	23.1	
2010-09-05-03-06	  146.5	 -46.0	   21587707502.8	46229423510.8	14.9	
2010-09-05-03-06	   58.0	 -36.0	   20115812702.0	41934706751.4	14.5	
2010-09-05-03-06	 -112.0	 -45.0	    2185722126.6	4940940055.5	15.7	
2010-09-05-06-09	  151.0	 -45.0	  292106990205.9	718951166821.9	17.1	
2010-09-05-06-09	 -167.0	 -49.0	  206402095779.7	448556572180.1	15.0	
2010-09-05-06-09	 -149.0	 -43.0	  100222594608.8	222257588057.3	15.3	
2010-09-05-06-09	 -135.0	 -39.0	  105841142027.8	201894404069.3	13.2	
2010-09-05-06-09	   48.5	 -39.0	   67546943102.5	154846423335.9	15.8	
2010-09-05-06-09	   58.5	 -36.0	   32587394878.1	66272911647.1	14.0	
2010-09-05-06-09	  146.0	 -46.5	   23637852868.4	51614839308.4	15.0	
2010-09-05-06-09	 -105.0	 -44.0	   20179184050.4	38813483043.0	13.2	
2010-09-05-06-09	  164.5	 -49.0	    8131998074.9	25594035821.3	21.7	
2010-09-05-09-12	  153.0	 -45.5	  421212115039.8	1033561721807.9	17.0	
2010-09-05-09-12	 -167.0	 -49.0	  148221119447.2	309649655204.7	14.3	
2010-09-05-09-12	 -148.5	 -43.0	  102464782855.2	227360740789.3	15.2	
2010-09-05-09-12	   48.0	 -39.0	   81738025554.5	179517339755.2	15.0	
2010-09-05-09-12	 -134.5	 -39.5	   64788523851.7	120723402830.9	12.7	
2010-09-05-09-12	   59.0	 -36.0	   52607696952.3	103175766943.5	13.4	
2010-09-05-09-12	  146.0	 -46.5	   17138321996.4	39727445466.3	15.8	
2010-09-05-12-15	  155.5	 -46.0	  446976202520.4	1077345166501.0	16.6	
2010-09-05-12-15	  -52.0	 -41.5	  153564855023.1	324833117879.9	14.4	
2010-09-05-12-15	   47.0	 -39.5	  121973138671.0	269403594355.4	15.0	
2010-09-05-12-15	 -148.0	 -43.0	   86390872561.4	183556561602.7	14.4	
2010-09-05-12-15	   59.0	 -36.5	   59872177129.0	113059544854.2	12.8	
2010-09-05-12-15	   12.5	 -44.5	   28885949030.9	69763733758.5	16.4	
2010-09-05-12-15	 -134.0	 -39.5	   23936485069.0	44603405353.3	12.6	
2010-09-05-12-15	  146.0	 -46.5	   12843999117.0	32006502211.3	16.9	
2010-09-05-12-15	   43.5	 -40.0	    4753054531.3	6311627851.8	9.0	
2010-09-05-15-18	  157.5	 -46.0	  372739600129.9	906018367354.4	16.6	
2010-09-05-15-18	   46.0	 -40.0	  166613111937.0	377062905280.8	15.4	
2010-09-05-15-18	 -147.0	 -43.0	   63716462396.4	124912246521.1	13.3	
2010-09-05-15-18	   14.0	 -45.0	   46105716574.9	98087221950.3	14.4	
2010-09-05-15-18	   59.5	 -36.5	   47289324397.2	82298290791.4	11.8	
2010-09-05-15-18	  -52.5	 -45.0	   11023394976.3	20619350373.7	12.7	
2010-09-05-15-18	  -49.0	 -40.5	    9436754251.6	17075023760.5	12.2	
2010-09-05-15-18	  146.0	 -47.0	    6363625053.7	14854145712.4	15.8	
2010-09-05-18-21	  158.0	 -46.0	  294378641423.8	725773654100.7	16.8	
2010-09-05-18-21	   46.0	 -40.0	  175876861280.0	396883338601.5	15.3	
2010-09-05-18-21	   16.5	 -46.5	   49322910037.7	104304503780.9	14.3	
2010-09-05-18-21	 -144.5	 -43.0	   50134643329.3	100394065999.8	13.5	
2010-09-05-18-21	  -49.5	 -44.0	   28942415150.8	61544374672.2	14.4	
2010-09-05-18-21	   60.0	 -40.0	    4753054531.3	9086503092.0	12.9	
2010-09-05-21-24	  159.0	 -45.5	  257265804403.4	627482906025.0	16.5	
2010-09-05-21-24	   46.0	 -40.0	  173180183936.0	382058031795.4	14.9	
2010-09-05-21-24	 -143.5	 -42.5	   66302709330.9	136934957619.2	13.9	
2010-09-05-21-24	   18.0	 -47.5	   44127488098.0	97114603471.0	14.8	
2010-09-05-21-24	   60.0	 -40.0	    4735806107.4	9760659104.7	13.8	
2010-09-06-00-03	  159.5	 -45.5	  228546965623.3	551087322231.3	16.1	
2010-09-06-00-03	  -29.5	 -46.5	  127513632817.2	304062970632.6	15.9	
2010-09-06-00-03	   45.5	 -40.0	  142008186049.1	299970614644.6	14.1	
2010-09-06-00-03	   20.0	 -48.0	   83123089028.0	198837225291.1	15.9	
2010-09-06-00-03	 -142.5	 -42.5	   64060521084.4	126200797268.3	13.1	
2010-09-06-00-03	  173.5	 -47.5	    4216219861.1	9802044791.9	15.4	
2010-09-06-00-03	   60.5	 -40.0	    2367903053.7	4908965365.9	13.7	
2010-09-06-03-06	  -28.0	 -47.0	  234540978829.8	542682163028.8	15.3	
2010-09-06-03-06	   23.0	 -46.5	  204887516574.1	460674168142.4	14.9	
2010-09-06-03-06	  160.5	 -45.0	  187968114585.2	450693933918.5	15.9	
2010-09-06-03-06	   45.5	 -40.0	   85065358139.3	169299603580.0	13.1	
2010-09-06-03-06	  174.5	 -47.0	   31660463346.9	76975177154.1	16.0	
2010-09-06-03-06	 -141.5	 -42.5	   20673540483.3	38349352548.3	12.2	
2010-09-06-06-09	   24.5	 -46.5	  230604725367.1	549335377985.0	15.7	
2010-09-06-06-09	  161.5	 -45.0	  164745993172.2	382243294452.2	15.2	
2010-09-06-06-09	  -25.5	 -48.0	  156725344140.4	358817149143.2	15.0	
2010-09-06-06-09	  174.5	 -47.0	   31856935235.7	83546437218.7	17.2	
2010-09-06-06-09	 -174.0	 -49.5	   14113766149.6	31879011853.5	14.8	
2010-09-06-06-09	   43.0	 -41.0	    9366680894.3	16996852144.2	11.9	
2010-09-06-06-09	   60.5	 -40.0	    7120957585.1	13761432913.1	12.6	
2010-09-06-06-09	  138.5	 -51.5	    5793761028.0	13750404453.6	15.5	
2010-09-06-09-12	   25.0	 -46.5	  235352070773.0	574669674811.7	15.9	
2010-09-06-09-12	  162.0	 -44.5	  134509160065.6	300120583256.0	14.5	
2010-09-06-09-12	  140.5	 -53.5	  103168966554.7	283646673999.3	17.9	
2010-09-06-09-12	  -22.5	 -50.5	   97504938665.1	243024661377.5	16.2	
2010-09-06-09-12	   23.5	 -37.5	   34213485076.1	72223007009.3	13.7	
2010-09-06-09-12	  175.0	 -46.5	   23385200251.5	59725875191.8	16.5	
2010-09-06-09-12	 -173.5	 -49.5	   18230620843.3	40802664064.8	14.5	
2010-09-06-09-12	   60.5	 -40.5	   14207057206.8	27770432941.1	12.7	
2010-09-06-12-15	   26.0	 -46.0	  267430093998.8	639526427747.8	15.4	
2010-09-06-12-15	  141.5	 -54.0	  170438048414.8	501725586638.5	19.0	
2010-09-06-12-15	  162.0	 -44.5	  110882589661.4	240813652937.8	14.0	
2010-09-06-12-15	  -21.0	 -51.5	   87780336300.9	231589406896.3	16.9	
2010-09-06-12-15	 -114.0	 -46.5	   53462343662.3	131827249578.3	15.8	
2010-09-06-12-15	   28.0	 -35.5	   32759980634.8	69676782166.8	13.6	
2010-09-06-12-15	   23.5	 -38.0	   31695859114.4	67886878211.0	13.7	
2010-09-06-12-15	   28.5	 -54.0	   11031580322.4	29313175694.9	17.0	
2010-09-06-12-15	   60.5	 -40.5	   14154772104.3	27354250800.7	12.4	
2010-09-06-15-18	   27.0	 -45.5	  293503186907.0	699581387389.3	15.3	
2010-09-06-15-18	  142.0	 -54.0	  185189864013.5	547460409830.0	18.9	
2010-09-06-15-18	  -20.0	 -52.0	   84701816164.5	219449198902.6	16.5	
2010-09-06-15-18	  162.0	 -44.0	   89360557276.5	193209239585.6	13.8	
2010-09-06-15-18	 -113.5	 -46.5	   72412784322.0	178536855650.3	15.7	
2010-09-06-15-18	   30.0	 -54.5	   63629534710.1	176230959211.5	17.6	
2010-09-06-15-18	   38.5	 -44.5	   81812152249.0	157840957266.2	12.3	
2010-09-06-15-18	   29.0	 -35.5	   60391843152.4	122677463713.4	12.9	
2010-09-06-15-18	   23.0	 -38.0	   24389753927.8	53054304464.3	13.8	
2010-09-06-15-18	   60.5	 -40.5	    7086280179.5	14372733266.3	12.9	
2010-09-06-15-18	 -157.0	 -51.0	    5877613889.4	13227440070.4	14.3	
2010-09-06-15-18	  158.5	 -62.0	    2902346439.3	9748085197.0	21.3	
2010-09-06-18-21	   27.5	 -45.5	  312711838414.5	724334789415.5	14.8	
2010-09-06-18-21	  143.0	 -54.0	  172501077865.5	509920775137.6	18.9	
2010-09-06-18-21	   37.0	 -45.5	  184253218291.1	439181786215.0	15.2	
2010-09-06-18-21	  163.0	 -62.0	   78694120734.0	281085177940.4	22.7	
2010-09-06-18-21	   31.5	 -54.5	   92694656355.0	257915850369.9	17.7	
2010-09-06-18-21	  162.0	 -44.0	   74132898125.7	158574879350.2	13.6	
2010-09-06-18-21	  -19.0	 -52.5	   58692005431.3	147096284949.1	15.9	
2010-09-06-18-21	 -113.5	 -46.5	   59687314735.1	144982347833.4	15.4	
2010-09-06-18-21	   29.5	 -37.0	   52143277731.2	94819344774.9	11.5	
2010-09-06-18-21	  -94.0	 -54.5	    7245668085.9	18553692605.9	16.2	
2010-09-06-18-21	   23.0	 -38.5	    2419102414.6	4438697158.0	11.6	
2010-09-06-21-24	   36.0	 -45.5	  257814633082.8	700028728743.4	17.4	
2010-09-06-21-24	   27.5	 -45.0	  289443868598.4	636623395439.6	14.1	
2010-09-06-21-24	  161.5	 -62.0	  100578850525.5	359537102748.6	22.8	
2010-09-06-21-24	  144.5	 -54.5	   81490451584.9	235428237441.8	18.4	
2010-09-06-21-24	   32.0	 -54.0	   82057371229.7	216991675033.8	16.9	
2010-09-06-21-24	  162.0	 -43.5	   63090164124.7	132680927269.7	13.4	
2010-09-06-21-24	  -17.5	 -53.5	   38912973834.6	96653863204.1	15.8	
2010-09-06-21-24	 -113.5	 -46.5	   34061500221.7	81044716955.5	15.1	
2010-09-06-21-24	  138.5	 -52.0	   23005432215.0	59579665547.0	16.5	
2010-09-06-21-24	   26.5	 -40.5	   23556489677.2	55534433559.5	15.0	
2010-09-06-21-24	  -94.0	 -54.5	   19766461461.0	54543390142.4	17.6	
2010-09-06-21-24	  -29.5	 -47.5	   21021195402.7	47309283703.5	14.3	
2010-09-06-21-24	   59.5	 -43.5	   15824353689.6	33154588458.2	13.3	
2010-09-06-21-24	   -5.5	 -52.0	    3806115359.0	8489854649.9	14.2	
2010-09-07-00-03	   36.0	 -45.5	  301051610543.0	924482160742.0	19.8	
2010-09-07-00-03	   27.0	 -45.5	  207540232896.4	445292094837.3	13.8	
2010-09-07-00-03	  160.5	 -62.0	  107546915677.1	378562993825.2	22.6	
2010-09-07-00-03	   26.5	 -40.5	   58670413119.5	141131224698.9	15.4	
2010-09-07-00-03	   -5.0	 -52.5	   50674415747.9	118754537335.0	15.0	
2010-09-07-00-03	   32.5	 -53.5	   40642566735.9	102817744777.5	16.2	
2010-09-07-00-03	  162.0	 -43.5	   40689325297.4	84618931715.3	13.3	
2010-09-07-00-03	  -94.0	 -55.0	   17905651162.8	48789929714.1	17.4	
2010-09-07-00-03	  145.0	 -54.5	   10835664293.5	29281298818.5	17.2	
2010-09-07-00-03	  -16.0	 -54.0	   10922954753.4	27132170294.7	15.9	
2010-09-07-00-03	   32.5	 -42.0	   13800496979.7	26582268078.0	12.3	
2010-09-07-00-03	   60.0	 -43.5	    9005719053.0	17413277213.1	12.3	
2010-09-07-00-03	  139.0	 -51.5	    1924241156.9	3602254059.1	11.9	
2010-09-07-03-06	   36.5	 -45.5	  335548028876.1	1142797435900.7	22.1	
2010-09-07-03-06	  160.5	 -62.0	   98698091728.1	341474523167.9	22.2	
2010-09-07-03-06	   26.5	 -45.0	  120103958784.1	245849419387.0	13.1	
2010-09-07-03-06	   26.5	 -41.0	   75102192558.4	176347742961.3	15.0	
2010-09-07-03-06	   -5.0	 -51.5	   40153553891.2	100671020791.5	16.0	
2010-09-07-03-06	   -3.0	 -54.0	   27427376628.4	66544626927.6	15.5	
2010-09-07-03-06	  -94.0	 -55.0	   17773483258.4	48226755855.5	17.4	
2010-09-07-03-06	  162.0	 -43.0	   22697572039.5	45913494905.2	12.9	
2010-09-07-03-06	   32.5	 -53.0	   11225958109.8	26804540727.9	15.3	
2010-09-07-03-06	   36.0	 -38.0	    9792566696.4	18670840673.9	12.2	
2010-09-07-06-09	   37.0	 -45.5	  348386696564.9	1265636556871.3	23.6	
2010-09-07-06-09	   -5.0	 -51.5	   69226074718.9	183865535261.6	17.0	
2010-09-07-06-09	  159.0	 -62.0	   53881717686.0	178546937437.6	21.3	
2010-09-07-06-09	   26.5	 -41.0	   70419922745.0	169099764221.0	15.4	
2010-09-07-06-09	  -33.5	 -52.5	   45627539221.8	152755068678.9	21.5	
2010-09-07-06-09	 -139.0	 -54.5	   48440188992.7	142581674480.6	18.9	
2010-09-07-06-09	   37.0	 -37.5	   59111783591.1	110013805972.2	11.9	
2010-09-07-06-09	   -2.5	 -54.5	   30820763502.2	76105807204.5	15.8	
2010-09-07-06-09	  165.5	 -62.5	   14344622774.6	47722079798.3	21.3	
2010-09-07-06-09	   26.5	 -44.5	   19823086950.7	38162867143.1	12.3	
2010-09-07-06-09	  -94.0	 -55.5	    7069715111.4	19244903755.8	17.4	
2010-09-07-06-09	  -44.5	 -51.5	    3890557428.3	10090311879.2	16.6	
2010-09-07-06-09	   59.5	 -40.0	    4770302955.2	9654156958.7	13.0	
2010-09-07-06-09	  -44.5	 -52.0	    3806115359.0	7578208509.2	12.7	
2010-09-07-06-09	  -43.0	 -52.0	    1903057679.5	3392146485.8	11.4	
2010-09-07-09-12	   37.5	 -45.5	  355591286104.5	1327020338078.0	24.4	
2010-09-07-09-12	   -3.0	 -55.5	   92516187547.8	250268445861.1	17.4	
2010-09-07-09-12	  -33.5	 -52.5	   76069798591.8	240561302893.2	20.4	
2010-09-07-09-12	 -138.5	 -55.0	   76980940347.8	231562183994.9	19.4	
2010-09-07-09-12	   -5.0	 -51.5	   82799921792.8	224840975434.6	17.5	
2010-09-07-09-12	   26.5	 -41.0	   56355332972.5	142908848580.6	16.3	
2010-09-07-09-12	  159.0	 -62.5	   17342349121.5	53316070435.5	19.8	
2010-09-07-09-12	  -44.0	 -52.5	   13257418327.7	20038592985.8	9.7	
2010-09-07-09-12	  166.0	 -62.5	    5709201780.4	17007439647.5	19.1	
2010-09-07-09-12	   60.5	 -39.5	    4770302955.2	8142777147.1	11.0	
2010-09-07-09-12	  -94.0	 -55.5	    1750806041.8	4607188101.3	16.9	
2010-09-07-12-15	   38.0	 -45.0	  392261780957.7	1394876289820.4	23.4	
2010-09-07-12-15	   -3.5	 -56.0	  170329626618.2	527703273995.9	20.1	
2010-09-07-12-15	 -138.0	 -55.0	   96657247481.8	291687293509.0	19.5	
2010-09-07-12-15	  -33.0	 -52.5	   75963887837.6	237628496572.1	20.3	
2010-09-07-12-15	   -5.0	 -51.5	   77069856195.9	203993347799.7	17.1	
2010-09-07-12-15	   26.5	 -41.0	   39955911324.9	94135060757.3	15.2	
2010-09-07-12-15	  -94.0	 -55.5	    3501612083.7	9435513383.8	17.4	
2010-09-07-15-18	   38.5	 -45.0	  414133683963.6	1372215333542.6	21.8	
2010-09-07-15-18	   -2.5	 -56.0	  297600289135.7	979355425008.1	21.6	
2010-09-07-15-18	 -138.0	 -55.0	   89522399478.6	269710743837.3	19.6	
2010-09-07-15-18	  -33.0	 -52.5	   68056556849.6	221300914682.6	21.1	
2010-09-07-15-18	   -5.0	 -51.5	   61698427384.2	159429095711.4	16.8	
2010-09-07-15-18	  -37.0	 -53.0	    7483972073.2	34544121856.8	29.9	
2010-09-07-15-18	   26.5	 -40.5	   14120094698.7	30448077298.1	14.0	
2010-09-07-15-18	  -94.0	 -55.5	    3501612083.7	9577589234.4	17.7	
2010-09-07-15-18	  -30.0	 -52.0	    1903057679.5	8491890455.4	28.9	
2010-09-07-15-18	  -11.5	  58.5	    1615084097.6	5530856210.9	22.2	
2010-09-07-18-21	   -1.0	 -55.5	  429100329199.7	1517705619127.8	23.5	
2010-09-07-18-21	   39.5	 -45.0	  383616757147.0	1199284833066.6	20.7	
2010-09-07-18-21	  -33.0	 -52.5	   62390040763.7	198875247789.3	20.9	
2010-09-07-18-21	 -137.5	 -55.0	   58968556340.3	176577488369.1	19.6	
2010-09-07-18-21	   -5.0	 -51.5	   51930404750.2	132903534082.5	16.7	
2010-09-07-18-21	 -169.0	 -63.0	    8491860172.1	28060962076.1	21.6	
2010-09-07-21-24	    1.0	 -55.5	  554337583133.8	1899875655352.8	23.1	
2010-09-07-21-24	   39.5	 -45.0	  324734532652.4	956661021888.1	19.7	
2010-09-07-21-24	  -33.0	 -52.5	   47210399841.1	151854963333.8	21.2	
2010-09-07-21-24	 -168.5	 -63.0	   14129119454.1	48416425520.4	22.6	
2010-09-07-21-24	 -138.0	 -55.0	   10703903381.1	32781710466.9	20.2	
2010-09-08-00-03	    3.0	 -55.0	  601479102588.5	1941699882073.7	22.0	
2010-09-08-00-03	   40.5	 -45.0	  287015469854.9	794781786734.5	18.6	
2010-09-08-00-03	  -33.0	 -52.5	   26450129548.1	87959186496.4	22.1	
2010-09-08-00-03	   51.5	 -31.5	   31681895367.6	57805705314.0	12.1	
2010-09-08-00-03	 -168.0	 -63.0	   15508458233.6	51357067887.0	22.0	
2010-09-08-03-06	    5.5	 -54.0	  734245587054.0	2349742148986.6	21.9	
2010-09-08-03-06	   40.5	 -45.0	  225510319777.0	586467091805.6	17.4	
2010-09-08-03-06	   52.0	 -31.5	   68756859110.2	129768032462.7	12.5	
2010-09-08-03-06	 -162.5	 -63.0	    8443898506.5	23125667503.2	18.2	
2010-09-08-03-06	  -33.0	 -52.5	    3763458406.4	14037924736.1	24.8	
2010-09-08-06-09	   11.0	 -53.0	  871768847014.5	3016215629561.5	23.8	
2010-09-08-06-09	   41.5	 -45.0	  183952469879.9	431860425581.8	15.6	
2010-09-08-06-09	 -120.5	 -54.0	   69468539272.6	177905748015.4	17.0	
2010-09-08-06-09	   47.5	 -39.0	   41088582516.2	101996015127.7	16.4	
2010-09-08-06-09	   52.0	 -31.0	   53029362493.3	98213074459.4	12.3	
2010-09-08-06-09	 -158.5	 -62.0	    4353519658.9	14029391289.3	21.3	
2010-09-08-06-09	 -162.5	 -63.0	    4209958836.8	12502680019.4	19.6	
2010-09-08-06-09	    9.0	 -48.0	    6224971072.8	12467306557.8	13.2	
2010-09-08-09-12	   13.0	 -52.5	 1019667173423.2	3681215545532.7	24.9	
2010-09-08-09-12	   47.0	 -45.0	  101010122107.4	232483717950.9	15.2	
2010-09-08-09-12	 -120.5	 -54.5	   81877929990.0	220676350309.0	17.8	
2010-09-08-09-12	 -152.5	 -60.0	   41982912134.8	122025577277.8	19.2	
2010-09-08-09-12	   38.0	 -45.0	   46070075949.0	102990450966.2	14.7	
2010-09-08-09-12	   47.5	 -39.0	   36251114104.7	90881447346.4	16.5	
2010-09-08-09-12	 -157.5	 -62.0	   20435121805.0	66265361845.8	21.4	
2010-09-08-09-12	   52.0	 -31.0	   26646608990.8	48003803271.1	11.9	
2010-09-08-09-12	  158.0	  48.5	   10119059326.3	26933634078.5	17.5	
2010-09-08-12-15	   14.0	 -52.5	 1100953080898.3	3986699162527.8	25.1	
2010-09-08-12-15	 -152.0	 -60.0	  107980033185.6	322914990628.9	19.8	
2010-09-08-12-15	   46.5	 -45.0	  100951820194.2	234178724732.8	15.3	
2010-09-08-12-15	 -121.0	 -55.0	   57654193938.6	154460543760.2	17.7	
2010-09-08-12-15	   48.5	 -38.5	   29128691238.3	69086892683.0	15.6	
2010-09-08-12-15	  158.5	  48.5	   24415504226.6	62938528627.8	17.0	
2010-09-08-12-15	 -138.5	 -55.0	    8930933691.2	25173061641.8	18.6	
2010-09-08-12-15	   51.5	 -30.5	   13357581449.7	22596802591.2	11.2	
2010-09-08-12-15	 -158.0	 -62.0	    5804692878.5	18930082480.0	21.5	
2010-09-08-15-18	   14.0	 -52.5	 1140293487067.3	3964967625303.0	24.3	
2010-09-08-15-18	 -151.5	 -60.0	  117812492642.9	354084291239.0	20.0	
2010-09-08-15-18	   46.5	 -45.0	   80922530765.9	179627658863.5	14.7	
2010-09-08-15-18	 -121.5	 -55.0	   24953067392.1	75602647169.8	20.1	
2010-09-08-15-18	   49.0	 -38.5	   24324254393.1	61722814170.7	16.8	
2010-09-08-15-18	 -138.5	 -55.0	    8930933691.2	24752040891.9	18.4	
2010-09-08-15-18	  159.0	  48.5	    2048210449.8	5337399751.7	17.3	
2010-09-08-18-21	   13.0	 -52.0	 1120024649461.4	3651902146455.7	23.0	
2010-09-08-18-21	 -151.5	 -60.5	   92651025864.4	276087097933.8	20.1	
2010-09-08-18-21	   46.5	 -45.0	   52455001474.2	109773732988.7	14.1	
2010-09-08-18-21	   49.5	 -38.0	    9743024782.0	26441010939.4	18.2	
2010-09-08-18-21	 -138.5	 -55.0	    8930933691.2	24077276218.9	18.1	
2010-09-08-21-24	   12.0	 -51.5	 1150406996822.2	3354144063140.5	20.8	
2010-09-08-21-24	    6.5	 -51.0	  160677300231.5	270904173165.3	11.5	
2010-09-08-21-24	 -151.0	 -60.0	   40298637754.7	115891391075.6	19.6	
2010-09-08-21-24	   46.0	 -45.0	   28375741285.7	48728701343.3	11.7	
2010-09-08-21-24	 -138.5	 -55.0	    8930933691.2	23497029633.9	17.9	
2010-09-09-00-03	    6.0	 -49.0	  659212845481.4	1769708420318.3	19.1	
2010-09-09-00-03	   14.5	 -52.0	  253387045134.4	854361292243.6	23.7	
2010-09-09-00-03	   40.5	 -44.5	   15432484414.9	33996535579.9	15.3	
2010-09-09-00-03	   46.0	 -45.5	    8723731697.5	13260900211.2	10.5	
2010-09-09-03-06	    6.0	 -49.0	  652963264571.6	1670525592009.2	18.5	
2010-09-09-03-06	   14.0	 -52.0	  175423956668.8	551599465824.7	22.4	
2010-09-09-03-06	   40.0	 -45.0	   24232344234.2	55702593192.6	16.2	
2010-09-09-03-06	   57.5	 -42.0	    6909316818.6	15361104481.1	15.7	
2010-09-09-06-09	    4.0	 -49.0	  761936055300.9	1883871970254.6	18.2	
2010-09-09-06-09	   14.0	 -52.0	  110773571287.2	327029705944.1	21.3	
2010-09-09-06-09	   58.0	 -42.0	   43696860812.6	93149409390.1	15.3	
2010-09-09-06-09	   40.0	 -45.0	   19841909543.4	43712560079.5	15.8	
2010-09-09-09-12	    2.0	 -49.0	  783245516678.5	1956085222409.1	18.7	
2010-09-09-09-12	   58.5	 -42.0	   73860344360.0	152566403719.6	15.1	
2010-09-09-09-12	   13.0	 -51.5	   32626637078.4	94100549561.5	21.0	
2010-09-09-09-12	   39.5	 -45.0	    8818682412.1	18758775114.7	15.5	
2010-09-09-09-12	    1.0	 -42.5	    6855081692.4	9448189293.9	10.0	
2010-09-09-09-12	   -0.5	 -42.5	    4557963356.6	8399663503.7	13.4	
2010-09-09-09-12	   40.5	 -53.0	    1860256833.4	5616844612.7	22.0	
2010-09-09-12-15	   -2.5	 -50.0	  617201813503.8	1549245359017.2	19.0	
2010-09-09-12-15	    7.5	 -47.5	   81171055980.1	224747774612.1	20.6	
2010-09-09-12-15	   58.0	 -41.5	   97717552232.5	195746111341.5	14.9	
2010-09-09-12-15	    0.0	 -42.5	   20583381734.6	35337995802.6	12.7	
2010-09-09-12-15	   41.0	 -53.0	    1860256833.4	5882642130.9	23.4	
2010-09-09-15-18	   -1.5	 -51.0	  412114328116.2	1092002293023.6	20.3	
2010-09-09-15-18	   58.0	 -41.0	  126447456991.8	254371164144.7	15.2	
2010-09-09-15-18	    7.5	 -47.5	   68925189784.0	186780907663.7	20.4	
2010-09-09-15-18	   -3.0	 -45.0	   50287104819.3	110074156372.0	16.5	
2010-09-09-15-18	    0.0	 -42.5	   18286263398.8	33794173992.3	13.9	
2010-09-09-15-18	  157.5	 -62.5	    8635420994.2	30703400576.8	26.8	
2010-09-09-15-18	    5.5	 -49.5	    2007494492.9	3951499922.5	14.8	
2010-09-09-18-21	   -1.0	 -51.5	  307335023184.8	856483621585.7	21.6	
2010-09-09-18-21	   58.5	 -40.5	  141230102273.5	288408896519.9	15.7	
2010-09-09-18-21	    7.5	 -47.5	   45998401155.0	134306162889.3	22.4	
2010-09-09-18-21	  158.0	 -62.5	   24430670432.7	86391745233.8	27.1	
2010-09-09-21-24	   -1.0	 -51.5	  227979845706.9	633041787194.0	21.9	
2010-09-09-21-24	   58.5	 -40.5	  120467815997.9	247397955056.6	16.1	
2010-09-09-21-24	  158.0	 -62.5	   33065652929.5	119075837122.4	28.1	
2010-09-09-21-24	    7.5	 -47.5	   29314024003.6	92049665518.8	24.5	
2010-09-10-00-03	   -1.0	 -52.0	  158498877244.1	414932706784.5	20.9	
2010-09-10-00-03	   59.0	 -40.0	  106524139670.5	214998000793.7	16.1	
2010-09-10-00-03	  158.0	 -62.5	   41700854675.0	155084575755.7	29.6	
2010-09-10-03-06	   -1.0	 -52.0	  101147450278.6	251150005139.3	20.0	
2010-09-10-03-06	  157.5	 -62.5	   53094301193.5	208130313343.7	31.5	
2010-09-10-03-06	   59.0	 -40.0	   89986380386.5	177216186923.4	15.8	
2010-09-10-06-09	  157.5	 -62.5	   62988725306.9	249770000912.3	32.2	
2010-09-10-06-09	   -1.5	 -51.5	   47934231171.6	113747481730.7	19.2	
2010-09-10-06-09	   59.0	 -40.0	   56843133685.2	110654340031.5	15.8	
2010-09-10-06-09	  176.5	 -46.0	    2147243427.7	3967360713.9	14.9	
2010-09-10-09-12	  157.5	 -62.5	   74501085777.7	290232263666.2	31.9	
2010-09-10-09-12	   59.5	 -40.5	   30729373091.7	59877946831.1	15.9	
2010-09-10-09-12	   -1.0	 -51.5	    7718002184.9	18636918247.6	19.7	
2010-09-10-09-12	  176.5	 -46.0	    6441730283.0	10935009310.7	13.8	
2010-09-10-09-12	  153.5	 -61.5	    1474934803.7	4619102813.5	25.5	
2010-09-10-12-15	  157.0	 -62.5	  105164149404.2	401420002515.1	31.5	
2010-09-10-12-15	   60.0	 -40.5	    9436754251.6	19575731138.2	17.0	
2010-09-10-12-15	 -180.0	 -48.0	    2068334532.2	2487901629.5	9.9	
2010-09-10-15-18	  156.5	 -62.5	  126806027824.7	476277132469.3	31.1	
2010-09-10-15-18	 -174.5	 -49.5	   52781601149.0	132963939693.1	20.7	
2010-09-10-18-21	  157.0	 -62.5	  129181945247.4	485436689517.1	31.1	
2010-09-10-18-21	 -173.5	 -49.5	   90874550037.9	222166902227.3	20.2	
2010-09-10-21-24	  157.0	 -62.5	  124470706601.2	463677977827.8	30.9	
2010-09-10-21-24	 -172.0	 -49.5	   89056627916.8	203303249908.6	18.9	
2010-09-10-21-24	   39.0	 -45.0	   24042444279.0	48970605736.3	16.8	
2010-09-11-00-03	  157.5	 -63.0	  118763139697.6	426922945933.6	29.9	
2010-09-11-00-03	   40.0	 -45.0	   70281250155.5	157829716242.7	18.6	
2010-09-11-00-03	 -170.5	 -49.0	   24557770652.2	52906661300.0	17.8	
2010-09-11-03-06	  157.5	 -63.0	   95477029907.7	336705727472.3	29.4	
2010-09-11-03-06	   40.5	 -44.5	   98994932169.5	214270049054.3	18.0	
2010-09-11-06-09	  158.0	 -63.0	   64200639333.5	225587839776.2	29.3	
2010-09-11-06-09	   40.0	 -45.0	   72240938299.4	154734418337.6	17.9	
2010-09-11-06-09	   40.5	 -45.0	   11023394976.3	21411541121.6	16.2	
2010-09-11-09-12	  158.0	 -63.0	   38368169474.2	126491097395.5	27.6	
2010-09-11-09-12	   38.5	 -45.0	   35027692008.9	71519099069.1	17.1	
2010-09-11-12-15	  158.0	 -63.0	   19981773998.2	59297676930.0	25.0	
2010-09-11-12-15	   39.0	 -45.0	   17542748325.6	35301612068.6	17.0	
2010-09-12-00-03	   37.5	 -45.5	    4352287444.4	9915382689.4	19.3	
2010-09-12-03-06	   37.5	 -45.5	   10890297015.3	22173582497.1	17.2	
2010-09-12-09-12	   31.5	 -53.5	    5559157000.6	12611577610.2	19.0	
2010-09-12-09-12	   37.0	 -39.0	    2402218422.6	5396875280.4	18.8	
2010-09-12-12-15	   32.0	 -53.0	   50180456910.4	126286796245.9	21.0	
2010-09-12-12-15	   38.5	 -38.5	    2419102414.6	5258307661.0	18.1	
2010-09-12-15-18	   32.5	 -53.5	   20462401778.0	48272832548.8	19.5	
2010-09-12-21-24	  -97.5	 -58.0	   67356204659.3	214399075684.7	26.0	
2010-09-13-00-03	  -95.5	 -59.0	  138210028312.2	440766740660.2	26.0	
2010-09-13-03-06	  -93.5	 -60.0	  186377939718.8	624923523690.0	27.1	
2010-09-13-06-09	  -92.0	 -60.0	  209351597178.4	712834477344.6	27.4	
2010-09-13-09-12	  -91.5	 -60.0	  214349207877.6	677133073902.6	25.3	
2010-09-13-09-12	  -50.0	 -46.5	   53071692968.1	114904614913.7	17.2	
2010-09-13-09-12	  -29.5	  63.5	   13743727228.0	56276247681.0	32.5	
2010-09-13-12-15	  -93.0	 -56.5	   94363922701.2	265465884898.0	22.3	
2010-09-13-12-15	  -50.0	 -46.5	   96437684836.2	208372025788.4	17.1	
2010-09-13-12-15	  -90.0	 -61.5	   62789648227.7	186713686894.9	23.5	
2010-09-13-12-15	  -30.0	  63.5	   16429302481.3	66721576885.3	32.0	
2010-09-13-15-18	  -49.5	 -46.0	  116513369683.8	248232552560.8	16.8	
2010-09-13-15-18	  -92.5	 -56.5	   73850031380.3	205417072094.6	21.9	
2010-09-13-15-18	  -29.5	  63.5	    5444350645.1	20655807069.2	29.8	
2010-09-13-18-21	  -49.0	 -45.5	   97982056254.8	201958841337.7	16.2	
2010-09-13-18-21	   60.0	 -51.5	   17338916129.1	38453618237.2	17.4	
2010-09-13-18-21	  -93.5	 -56.0	   13850104484.5	36647949046.9	20.8	
2010-09-13-18-21	   65.5	 -43.0	   18121472025.4	36044988427.4	15.6	
2010-09-13-21-24	   61.0	 -53.0	  109948610482.2	272179700907.1	19.5	
2010-09-13-21-24	  -48.5	 -45.0	   72120008272.5	145783795548.0	15.9	
2010-09-14-00-03	   62.0	 -53.5	  140079389678.1	389599047727.4	22.0	
2010-09-14-00-03	  -49.0	 -44.5	   22197367377.8	43976402266.6	15.6	
2010-09-14-00-03	  -47.5	 -46.0	    2147243427.7	4210699782.2	15.4	
2010-09-14-03-06	   62.5	 -54.5	   76190659343.5	207535739477.4	21.5	
2010-09-14-03-06	  138.0	 -60.0	    6182156592.7	19465333929.1	24.8	
2010-09-14-06-09	   65.0	 -53.5	   11075087001.9	25088044135.5	17.9	
2010-09-14-09-12	  -29.0	  63.0	   19404969737.9	84749015493.9	34.6	
2010-09-14-09-12	   66.5	 -54.0	   12826856816.8	34571565544.0	21.4	
2010-09-14-12-15	   68.0	 -51.0	   87526866199.6	288300474500.9	26.2	
2010-09-14-12-15	  -29.5	  63.0	   23806879058.0	96208105969.9	32.0	
2010-09-14-12-15	   78.0	 -55.5	   22870356041.2	62232181134.7	21.5	
2010-09-14-12-15	  -51.5	  17.5	   11775606484.5	30053768336.8	20.2	
2010-09-14-12-15	   67.0	 -54.0	   10944708093.2	29964198240.5	21.7	
2010-09-14-15-18	   68.5	 -51.5	  145947341701.2	499440602753.9	27.2	
2010-09-14-15-18	   78.0	 -55.5	   49084115228.1	141670426240.2	22.8	
2010-09-14-15-18	  -52.0	  18.0	   38257265284.8	81279052737.4	16.8	
2010-09-14-15-18	  -29.5	  62.5	   18434469621.7	68187734225.7	29.2	
2010-09-14-15-18	  -48.0	 -40.0	   26115384692.0	57362244397.9	17.3	
2010-09-14-15-18	   73.0	 -48.0	   20702841321.3	45466750308.6	17.3	
2010-09-14-15-18	   67.5	 -56.0	    6958629351.0	11762182155.9	13.3	
2010-09-14-18-21	   68.5	 -51.5	  210224179997.8	718758564668.4	27.1	
2010-09-14-18-21	   77.5	 -55.5	   62821553703.3	179901761474.2	22.5	
2010-09-14-18-21	   73.0	 -48.0	   43491773187.0	115884113682.7	21.0	
2010-09-14-18-21	  -52.5	  18.0	   49956622231.6	108988641859.1	17.2	
2010-09-14-18-21	  -47.5	 -41.0	   21136301521.0	43807322039.6	16.3	
2010-09-14-18-21	  -29.5	  62.0	    5709095656.7	19715036793.0	27.1	
2010-09-14-21-24	   69.5	 -52.5	  283467124266.8	940732578796.9	26.2	
2010-09-14-21-24	   77.5	 -56.0	   62755459065.1	177666609437.9	22.1	
2010-09-14-21-24	   73.0	 -49.0	   61562045298.8	172347735450.7	21.8	
2010-09-14-21-24	  -52.5	  18.0	   52879293762.0	116216539664.6	17.1	
2010-09-14-21-24	  -52.0	 -35.5	   40214333683.1	96918609132.7	18.8	
2010-09-15-00-03	   71.0	 -53.0	  359192573251.5	1166055250740.1	25.5	
2010-09-15-00-03	  -51.0	 -34.5	  131181000415.8	298696169184.1	17.6	
2010-09-15-00-03	   73.0	 -49.0	   65253667330.5	188803709449.9	22.4	
2010-09-15-00-03	  -53.0	  18.0	   58699298490.4	125422978666.2	16.5	
2010-09-15-03-06	   71.5	 -54.0	  350725794946.0	1153290756172.0	25.5	
2010-09-15-03-06	  -49.0	 -33.0	  214304807437.2	486133196042.3	17.4	
2010-09-15-03-06	   73.5	 -49.0	   63165365322.0	181097276948.9	21.9	
2010-09-15-03-06	  -53.5	  18.5	   58639945841.7	125776957205.9	16.4	
2010-09-15-03-06	  145.0	 -44.0	   15601543215.4	48208328277.3	23.6	
2010-09-15-06-09	   73.0	 -54.5	  310371029156.6	1036957709313.5	25.6	
2010-09-15-06-09	  -50.5	 -39.0	  130319672147.9	336031775713.3	19.6	
2010-09-15-06-09	  -48.5	 -31.5	  118586080714.7	287201704792.6	18.4	
2010-09-15-06-09	  -54.0	  18.5	   67399514567.7	143547037097.2	16.1	
2010-09-15-06-09	   73.5	 -49.0	   36643607409.2	98988922006.5	20.4	
2010-09-15-06-09	  145.0	 -44.0	   31201559428.1	81646527869.5	19.8	
2010-09-15-06-09	   65.0	 -50.0	   28082959156.2	68063091974.2	18.3	
2010-09-15-06-09	  167.0	 -63.0	    2854600890.2	12614207574.1	33.4	
2010-09-15-06-09	  -41.0	 -41.0	    2332866375.1	4296195402.4	13.9	
2010-09-15-09-12	   74.0	 -55.0	  284570568501.5	983498325261.3	26.2	
2010-09-15-09-12	  -49.5	 -39.5	  160581803237.6	442362733609.5	20.7	
2010-09-15-09-12	  -48.5	 -31.5	  124033269985.6	295856420089.2	17.9	
2010-09-15-09-12	  -54.0	  18.5	   61520158848.7	129659489024.2	15.8	
2010-09-15-09-12	  144.5	 -43.5	   42355352290.2	114436675427.0	20.2	
2010-09-15-09-12	  167.0	 -63.0	   22788521281.1	86012931901.4	28.2	
2010-09-15-09-12	   64.0	 -49.0	   14195196957.8	40150190402.9	21.1	
2010-09-15-09-12	  -41.0	 -41.5	   13908091527.1	25776766532.2	13.8	
2010-09-15-09-12	  158.5	 -62.0	    4353519658.9	14561682162.2	25.0	
2010-09-15-09-12	   73.5	 -49.0	    6124349186.7	13255377033.5	16.2	
2010-09-15-09-12	  134.0	 -50.5	    3932335175.3	10828370496.5	20.6	
2010-09-15-12-15	   75.5	 -55.5	  247442937168.7	842596026803.7	25.5	
2010-09-15-12-15	  -49.0	 -40.0	  197878366427.8	558820012365.4	21.0	
2010-09-15-12-15	  -48.5	 -31.5	  103066591231.8	234711591064.0	16.9	
2010-09-15-12-15	  163.5	 -62.5	   59945430053.0	206192154829.2	25.5	
2010-09-15-12-15	  -54.5	  19.0	   64312109884.6	134761155837.2	15.5	
2010-09-15-12-15	  137.0	 -50.5	   53063237153.9	129678443801.9	18.1	
2010-09-15-12-15	  144.5	 -43.5	   46857869125.4	126952953392.6	20.1	
2010-09-15-12-15	   48.0	 -55.5	   20942646517.3	59433106165.1	21.0	
2010-09-15-12-15	  -34.5	  56.5	    6779204324.7	19352349557.0	21.1	
2010-09-15-12-15	  -40.5	 -42.0	    9242358776.9	16660792638.4	13.3	
2010-09-15-12-15	   64.5	 -48.5	    2048209897.0	5100843268.0	18.4	
2010-09-15-12-15	   73.5	 -48.5	    2048209897.0	4040196366.3	14.6	
2010-09-15-15-18	   76.5	 -55.5	  202868861217.1	660606400980.2	24.1	
2010-09-15-15-18	  -48.0	 -40.0	  209191416568.2	582660448060.3	20.6	
2010-09-15-15-18	  137.5	 -50.5	   83089063288.5	221297453006.4	19.6	
2010-09-15-15-18	  164.0	 -63.0	   58374460727.6	196665067691.7	24.7	
2010-09-15-15-18	  144.5	 -43.5	   69516074048.2	185797437703.9	19.6	
2010-09-15-15-18	  -55.0	  19.0	   81721640491.5	167463877287.0	15.0	
2010-09-15-15-18	   49.0	 -55.5	   43769080964.6	133342689308.0	22.3	
2010-09-15-15-18	  -35.0	  56.0	   42783843282.7	129189978010.1	22.1	
2010-09-15-15-18	  -47.5	 -30.5	   24091955240.7	58761669967.0	17.9	
2010-09-15-15-18	  -32.0	  17.5	   11775606484.5	34385158826.8	21.4	
2010-09-15-15-18	  -49.0	 -33.0	   15655729148.9	24623367706.8	11.5	
2010-09-15-15-18	  -40.0	 -42.0	    2297118335.8	5198890796.3	16.6	
2010-09-15-15-18	   73.0	 -49.0	    2048209897.0	4547100947.1	16.3	
2010-09-15-18-21	  -47.0	 -40.5	  238643645553.5	611188248285.2	18.7	
2010-09-15-18-21	   77.0	 -55.5	  134742548091.8	416223574653.6	22.5	
2010-09-15-18-21	  138.0	 -50.5	  100820488751.2	288750098287.6	20.8	
2010-09-15-18-21	  144.5	 -43.5	   89539573100.0	276381341298.7	22.5	
2010-09-15-18-21	  -55.0	  19.5	   87539193135.1	185833431722.7	15.4	
2010-09-15-18-21	  175.5	  46.5	   59472994896.9	170706864220.6	20.9	
2010-09-15-18-21	  -35.0	  55.5	   53443554786.0	166960469204.1	22.7	
2010-09-15-18-21	   49.5	 -56.0	   38516796599.3	121552148269.7	22.9	
2010-09-15-18-21	  -32.5	  18.0	   44027925975.4	97177048690.7	16.0	
2010-09-15-18-21	  166.0	 -63.0	   28210063705.4	96958100792.3	24.9	
2010-09-15-18-21	  -38.0	 -44.5	    2204712564.3	4469688581.7	14.7	
2010-09-15-18-21	   73.5	 -48.5	    2048209897.0	4311849145.8	15.3	
2010-09-15-21-24	  -46.0	 -41.0	  272088913413.8	645641928409.8	17.2	
2010-09-15-21-24	  144.5	 -43.5	  127545274641.7	412160753371.0	23.4	
2010-09-15-21-24	  138.0	 -50.5	  112571953006.4	311713637747.8	20.0	
2010-09-15-21-24	   77.5	 -55.5	   77311660424.2	225748277656.1	21.1	
2010-09-15-21-24	  175.5	  47.0	   75647073287.3	214681034662.8	20.5	
2010-09-15-21-24	  -55.5	  19.5	   93232476354.7	197293795814.7	15.3	
2010-09-15-21-24	  -35.0	  55.5	   48527280839.1	150130563522.9	22.3	
2010-09-15-21-24	  -33.0	  18.0	   67408407773.8	135152689519.0	14.4	
2010-09-15-21-24	   49.5	 -55.5	   21031434869.6	64743061786.1	22.2	
2010-09-15-21-24	  -38.0	 -45.0	   15413829667.2	31693814719.3	14.8	
2010-09-15-21-24	  167.5	 -63.0	    8419917673.7	28842716105.4	24.6	
2010-09-16-00-03	  -44.5	 -42.0	  286671040470.7	675272514696.5	17.0	
2010-09-16-00-03	  144.5	 -43.5	  153949083204.5	531292857898.7	24.8	
2010-09-16-00-03	  138.0	 -50.5	   94694332881.6	261021505973.6	19.8	
2010-09-16-00-03	  -56.0	  19.5	   87287097852.1	188307737810.5	15.4	
2010-09-16-00-03	  176.0	  48.0	   62324526673.9	174147291571.7	20.0	
2010-09-16-00-03	   77.5	 -55.0	   58456111337.2	159784247080.3	19.6	
2010-09-16-00-03	  -33.5	  18.5	   73097910519.5	149849815642.8	14.7	
2010-09-16-00-03	  -35.5	  55.0	   29717375461.5	87698541406.5	21.1	
2010-09-16-00-03	  142.0	 -40.0	    2367903053.7	4078035043.6	12.3	
2010-09-16-03-06	  -43.0	 -42.5	  310045092755.1	737582550087.2	17.0	
2010-09-16-03-06	  144.5	 -44.0	  194648156593.7	677060857126.8	24.9	
2010-09-16-03-06	  -56.5	  20.0	   93041515346.4	209545889427.9	16.0	
2010-09-16-03-06	  138.5	 -50.5	   66966629020.6	186305197261.9	19.8	
2010-09-16-03-06	  -34.0	  19.5	   72804447982.0	148654429340.1	14.5	
2010-09-16-03-06	  176.5	  48.0	   45359670745.3	120191278193.0	18.8	
2010-09-16-03-06	   77.5	 -55.0	   35544527144.7	95716173194.9	19.1	
2010-09-16-03-06	  -35.5	  55.0	   10504569099.2	28062813884.3	18.9	
2010-09-16-06-09	  144.5	 -44.0	  236568114321.1	836609699952.6	25.1	
2010-09-16-06-09	  -41.5	 -43.5	  349357908778.7	833106263512.9	16.9	
2010-09-16-06-09	  -56.5	  20.0	   95935956119.8	222851561617.2	16.4	
2010-09-16-06-09	  -34.5	  20.0	   75416112104.7	146669112977.1	13.7	
2010-09-16-06-09	  138.5	 -50.5	   45239142367.3	120667858991.6	18.8	
2010-09-16-06-09	  177.0	  48.0	   26726574701.9	65998901084.8	17.4	
2010-09-16-06-09	   78.0	 -55.0	   21274149072.0	56676003399.6	18.7	
2010-09-16-09-12	  144.5	 -44.0	  268352686064.0	960306742655.4	25.3	
2010-09-16-09-12	  -40.0	 -45.0	  371848513365.3	958192643156.1	18.2	
2010-09-16-09-12	  -56.5	  20.0	   95815481356.4	212399324320.0	15.5	
2010-09-16-09-12	  -35.0	  20.5	   80932712380.6	155561241175.5	13.4	
2010-09-16-09-12	  178.0	  48.0	   26686483143.2	60769058465.6	15.9	
2010-09-16-09-12	  138.5	 -50.5	   13804200440.2	34951530991.7	17.7	
2010-09-16-12-15	  -39.0	 -45.5	  402642604618.8	1088878308323.6	19.0	
2010-09-16-12-15	  145.0	 -44.0	  259755334842.3	964901660115.0	26.1	
2010-09-16-12-15	  -57.0	  20.0	   92809452392.9	214720804891.0	16.1	
2010-09-16-12-15	  -35.5	  21.0	  106632222645.0	189426312774.5	12.4	
2010-09-16-12-15	  178.5	  48.5	   20441230644.8	49831660345.9	16.9	
2010-09-16-15-18	  -38.0	 -47.0	  423252823683.5	1203228896155.2	19.9	
2010-09-16-15-18	  145.0	 -44.5	  252881881583.1	922769209817.4	25.5	
2010-09-16-15-18	  -57.0	  20.5	  101352096090.4	233592108177.1	15.9	
2010-09-16-15-18	  -34.5	  21.5	   83251245602.5	145233737201.0	12.0	
2010-09-16-15-18	   88.5	 -31.0	   13316611238.1	29269078365.6	15.2	
2010-09-16-15-18	  -39.0	  22.0	   11443562256.6	18669624474.4	11.2	
2010-09-16-15-18	  179.0	  48.5	    4055859522.2	8608132195.7	14.6	
2010-09-16-18-21	  -37.0	 -47.0	  435014301892.6	1207671670636.2	19.4	
2010-09-16-18-21	  145.0	 -44.5	  232617899322.5	824865456134.5	24.6	
2010-09-16-18-21	  -57.5	  20.5	  127252289661.0	289036370455.1	15.7	
2010-09-16-18-21	  -34.0	  22.0	   20031340969.7	31962220749.9	11.0	
2010-09-16-18-21	   88.5	 -31.0	    5312933713.5	11716290969.0	15.1	
2010-09-16-21-24	  -36.5	 -47.0	  445954121292.7	1131197413529.3	17.7	
2010-09-16-21-24	  145.0	 -44.5	  197927161054.2	687028560640.5	24.0	
2010-09-16-21-24	  -58.0	  21.0	  147267169106.9	325508327842.4	15.2	
2010-09-16-21-24	   76.5	 -57.0	   10258779703.4	23542330499.8	15.8	
2010-09-17-00-03	  -36.0	 -47.5	  367114112844.7	856672757108.9	16.2	
2010-09-17-00-03	  145.0	 -44.5	  144389251394.3	494415341625.3	23.6	
2010-09-17-00-03	  -58.0	  21.5	  158590583446.4	366327620647.2	15.9	
2010-09-17-00-03	  141.5	 -40.0	   18994427107.0	48918057862.3	17.7	
2010-09-17-00-03	  -35.0	 -50.0	    9934382096.2	24064127294.6	16.6	
2010-09-17-00-03	   77.0	 -57.0	    5095682207.1	12489313658.3	16.8	
2010-09-17-03-06	  -35.5	 -47.0	  225210599623.8	484435430079.8	14.8	
2010-09-17-03-06	  145.0	 -45.0	  131207610574.8	439190551198.7	23.0	
2010-09-17-03-06	  -58.5	  21.5	  158052309657.2	395574980472.9	17.2	
2010-09-17-03-06	   57.5	 -54.0	   18386013817.4	49771163046.4	18.5	
2010-09-17-03-06	  141.5	 -40.0	    7120957585.1	15748160483.5	15.1	
2010-09-17-03-06	   36.5	 -46.5	    6422244416.9	12663586246.6	13.5	
2010-09-17-03-06	  -35.5	 -50.5	    1966167587.6	1974230652.3	6.9	
2010-09-17-06-09	  -59.0	  22.0	  172153099047.6	468758491644.3	18.6	
2010-09-17-06-09	  145.0	 -45.0	  124541537287.7	407871093850.7	22.4	
2010-09-17-06-09	  -34.0	 -47.5	   81729075970.1	172579446330.8	14.4	
2010-09-17-06-09	   59.0	 -54.0	   45831799413.8	124040657987.3	18.4	
2010-09-17-06-09	  169.0	 -35.0	   40603902136.2	68555941167.2	11.5	
2010-09-17-06-09	  128.0	  22.0	   22856047945.0	67396470307.0	20.1	
2010-09-17-06-09	  -37.0	 -45.0	    6576156817.4	12962267565.3	13.4	
2010-09-17-06-09	   36.5	 -46.5	    4275000989.2	9184112929.0	14.6	
2010-09-17-06-09	   77.5	 -54.5	    1794998103.8	4653958520.2	17.6	
2010-09-17-06-09	 -180.0	 -29.5	    2690337003.4	3093608337.2	7.8	
2010-09-17-09-12	  -59.0	  22.0	  194821628004.5	546225069190.2	19.1	
2010-09-17-09-12	  145.0	 -44.5	  122413779726.1	386977837906.2	21.5	
2010-09-17-09-12	   60.5	 -54.5	   27120209573.5	70712289020.5	17.6	
2010-09-17-09-12	  128.0	  22.5	   25701400225.0	69188976491.0	18.2	
2010-09-17-09-12	  -33.5	 -47.5	   31342586269.6	68717554425.0	14.8	
2010-09-17-09-12	  169.5	 -34.5	   35570913080.5	58647465221.6	11.2	
2010-09-17-09-12	   77.5	 -55.0	   19567804086.4	55018281177.7	19.0	
2010-09-17-09-12	  172.5	 -55.5	   12299835828.7	36127098116.2	19.9	
2010-09-17-09-12	 -180.0	 -29.5	   16168178021.1	24558672032.5	10.3	
2010-09-17-09-12	  173.5	 -46.5	    4255515123.2	11948838297.3	19.0	
2010-09-17-12-15	  -59.5	  22.5	  205978373538.5	611925741500.8	20.1	
2010-09-17-12-15	  145.0	 -44.5	  105295596183.1	343732837559.6	22.1	
2010-09-17-12-15	   77.5	 -56.0	   55684823293.4	162658852040.5	19.7	
2010-09-17-12-15	  -54.0	 -52.5	   60381642560.8	162475028424.6	18.1	
2010-09-17-12-15	  174.5	 -46.5	   53212130785.9	147474125630.9	18.7	
2010-09-17-12-15	  173.5	 -56.0	   34991687135.4	103294096492.7	19.9	
2010-09-17-12-15	   61.0	 -55.0	   21296987232.2	58784811782.5	18.6	
2010-09-17-12-15	  172.0	 -37.0	   24734298832.1	50059762232.4	13.6	
2010-09-17-12-15	  128.0	  22.5	   11402271647.1	41397503501.4	24.4	
2010-09-17-12-15	 -179.5	 -29.5	   18871695371.7	29834364773.1	10.6	
2010-09-17-12-15	  -33.0	 -47.0	    2108109930.5	4529317281.1	14.5	
2010-09-17-15-18	  -60.0	  22.5	  222696766664.6	674602888148.6	20.5	
2010-09-17-15-18	  145.0	 -44.5	   98721762849.1	314401596805.6	21.5	
2010-09-17-15-18	   77.5	 -56.5	   90024010832.4	276130706838.8	20.7	
2010-09-17-15-18	  -53.5	 -52.5	   87021699700.4	235568022867.5	18.2	
2010-09-17-15-18	  175.0	 -46.5	   66172714936.5	174525532692.2	17.7	
2010-09-17-15-18	  171.5	 -37.0	   66906918757.0	149665733497.8	15.0	
2010-09-17-15-18	  174.0	 -56.5	   36138803131.0	104107901627.4	19.4	
2010-09-17-15-18	   62.0	 -56.0	   17507659137.9	47983047852.6	18.4	
2010-09-17-15-18	 -179.5	 -29.5	   18871695371.7	28884995175.1	10.3	
2010-09-17-18-21	  -60.5	  23.0	  250880884221.3	752358888660.6	20.3	
2010-09-17-18-21	   77.5	 -56.0	  102053650095.2	331898643820.0	21.9	
2010-09-17-18-21	  145.0	 -44.5	   83483179217.6	264611571563.9	21.3	
2010-09-17-18-21	  -52.5	 -52.5	   94972692500.3	247790369050.9	17.5	
2010-09-17-18-21	  171.5	 -37.0	   81765696213.9	195011096808.2	16.0	
2010-09-17-18-21	  175.5	 -46.5	   59789604016.7	164378639387.0	18.4	
2010-09-17-18-21	 -178.0	 -35.0	   38009954597.9	81344202238.0	14.3	
2010-09-17-18-21	  175.0	 -57.0	   18676000802.4	52025335499.2	18.7	
2010-09-17-18-21	  179.0	 -35.0	   12767164424.7	26478146968.9	13.9	
2010-09-17-18-21	   66.5	 -50.5	    5919241847.1	18241306930.8	20.6	
2010-09-17-18-21	   62.5	 -56.0	    5230120717.3	13004884575.0	16.7	
2010-09-17-18-21	 -179.5	 -34.0	    5140225619.7	11679577379.0	15.2	
2010-09-17-18-21	 -180.0	 -29.5	    5380674006.7	7905611953.1	9.8	
2010-09-17-18-21	 -180.0	 -32.5	    2606988598.1	3158371925.0	8.1	
2010-09-17-18-21	 -180.0	 -30.5	    2663362781.0	3031632717.8	7.6	
2010-09-17-21-24	  -61.0	  23.0	  261797760627.1	834923922761.0	21.5	
2010-09-17-21-24	   77.5	 -56.5	   94940283673.9	330888006255.1	23.3	
2010-09-17-21-24	  171.0	 -37.0	   89202777808.0	219924098441.1	16.5	
2010-09-17-21-24	  145.0	 -44.5	   57260021631.4	185520797007.5	21.7	
2010-09-17-21-24	  -52.0	 -52.0	   61042352375.9	154753238926.2	16.9	
2010-09-17-21-24	 -178.0	 -35.0	   58525892117.2	122501677612.0	14.0	
2010-09-17-21-24	  175.5	 -46.5	   32071598870.6	87574415752.2	18.2	
2010-09-17-21-24	   66.5	 -50.5	    5919241847.1	20012224666.9	22.6	
2010-09-17-21-24	 -180.0	 -32.5	    2606988598.1	2967965419.6	7.6	
2010-09-18-00-03	  -61.5	  23.5	  286889540036.5	870743723841.5	20.4	
2010-09-18-00-03	   78.0	 -56.5	  101583495770.5	344603129324.9	22.7	
2010-09-18-00-03	  171.0	 -37.0	   99109258020.3	238745159938.3	16.1	
2010-09-18-00-03	 -177.5	 -34.5	  100006164824.3	187360938469.4	12.5	
2010-09-18-00-03	  145.0	 -44.5	   41830386528.3	123914816505.2	19.7	
2010-09-18-00-03	   66.5	 -50.5	   31727233602.8	84668238862.5	17.8	
2010-09-18-00-03	  -52.0	 -51.5	   30807726864.2	80152865169.4	17.3	
2010-09-18-00-03	  176.0	 -46.5	    8569487844.6	22788742919.2	17.7	
2010-09-18-00-03	  -49.5	  24.0	    8460441834.0	11179705600.3	8.8	
2010-09-18-00-03	 -180.0	 -30.5	    8030651746.9	9790096861.1	8.1	
2010-09-18-00-03	 -180.0	 -32.5	    5213977196.3	7023091909.2	9.0	
2010-09-18-00-03	   64.5	 -48.5	    2048209897.0	6547625249.6	21.3	
2010-09-18-00-03	  126.5	  23.5	    2834704163.1	6180245848.4	14.5	
2010-09-18-03-06	  -61.5	  23.5	  292353432188.9	824691277269.1	18.9	
2010-09-18-03-06	   78.0	 -56.5	  108406912055.3	350042371141.3	21.5	
2010-09-18-03-06	 -176.0	 -33.5	  167595546183.5	289821899925.5	11.5	
2010-09-18-03-06	  171.0	 -37.0	  101576770915.5	231580666426.9	15.2	
2010-09-18-03-06	   65.5	 -50.0	   66280695840.6	176662195195.7	17.7	
2010-09-18-03-06	   68.0	 -57.0	   29137413098.8	98054388242.4	22.4	
2010-09-18-03-06	  125.5	  23.5	   28346394387.1	67305099709.5	15.8	
2010-09-18-03-06	  -49.5	  24.5	   22490368019.1	40116630143.7	11.8	
2010-09-18-03-06	  145.5	 -45.0	   13171304072.5	28327037469.6	14.3	
2010-09-18-03-06	 -180.0	 -30.5	   18710874426.3	26082589402.5	9.3	
2010-09-18-03-06	  -52.5	 -51.5	    7760077299.4	19590941620.0	16.8	
2010-09-18-06-09	  -61.5	  24.0	  283088105176.5	793079052376.8	18.8	
2010-09-18-06-09	   73.5	 -56.5	  203179319581.9	614889272107.2	20.2	
2010-09-18-06-09	 -174.5	 -33.0	  155628332183.4	278369967377.5	11.9	
2010-09-18-06-09	  171.0	 -37.0	   86605965665.7	193897973041.5	14.9	
2010-09-18-06-09	   65.0	 -49.5	   68369465272.5	178982302904.8	17.4	
2010-09-18-06-09	  125.5	  23.5	   45266631916.2	112075059587.5	16.4	
2010-09-18-06-09	  166.0	 -39.5	   21465818861.7	55409382935.9	17.1	
2010-09-18-06-09	 -180.0	 -30.5	   18710874426.3	25808019130.2	9.2	
2010-09-18-06-09	  -50.0	  25.0	   11182858974.9	19763658331.6	11.7	
2010-09-18-06-09	  179.5	 -54.5	    3611888097.8	9268055614.8	17.0	
2010-09-18-09-12	  -62.0	  24.5	  305011671097.7	848918452450.2	18.6	
2010-09-18-09-12	   74.5	 -56.0	  241730977829.3	788866698116.8	21.8	
2010-09-18-09-12	 -174.0	 -33.0	  156167005226.3	272443962822.5	11.6	
2010-09-18-09-12	  171.0	 -37.0	   74135520819.2	169280605069.9	15.1	
2010-09-18-09-12	   65.0	 -49.5	   60567002962.5	155320316133.6	17.0	
2010-09-18-09-12	  125.0	  23.5	   64987693604.9	145943511114.6	14.9	
2010-09-18-09-12	  166.0	 -39.5	   47717191175.7	110431966553.8	15.3	
2010-09-18-09-12	 -179.5	 -54.0	   12870223656.2	30613814227.8	15.7	
2010-09-18-09-12	 -180.0	 -30.5	   10653248457.1	13018707519.1	8.1	
2010-09-18-09-12	 -170.0	 -33.5	    7747608312.8	12903882638.7	11.0	
2010-09-18-09-12	  -53.0	  23.5	    2834704163.1	4433994576.9	10.4	
2010-09-18-12-15	  -62.5	  25.0	  437293533956.6	1108198785418.6	16.9	
2010-09-18-12-15	   75.5	 -56.5	  244022322554.7	850829505410.3	23.2	
2010-09-18-12-15	 -173.5	 -32.5	  146032062898.0	248846783186.7	11.3	
2010-09-18-12-15	  171.0	 -58.0	   77595915437.6	228468321964.6	19.5	
2010-09-18-12-15	  171.0	 -37.5	   66714199153.0	148614620620.7	14.7	
2010-09-18-12-15	  124.5	  23.5	   64943809228.1	148417287355.8	15.1	
2010-09-18-12-15	   64.5	 -49.0	   54688783836.2	143132812099.5	17.3	
2010-09-18-12-15	  166.0	 -39.5	   47717191175.7	110074043870.3	15.2	
2010-09-18-12-15	 -170.0	 -33.0	   46734114843.7	80052413615.1	11.3	
2010-09-18-12-15	 -180.0	 -31.0	    2663362781.0	2945826063.8	7.3	
2010-09-18-15-18	  -63.0	  25.0	  509408256493.1	1274512119432.7	16.7	
2010-09-18-15-18	   75.5	 -56.5	  227402041930.5	801337139230.4	23.4	
2010-09-18-15-18	  171.5	 -57.5	  133454952823.8	414488882422.2	20.5	
2010-09-18-15-18	 -172.0	 -32.5	  229796957160.5	386652650338.3	11.1	
2010-09-18-15-18	   64.0	 -49.0	   56900922482.7	149742052730.5	17.3	
2010-09-18-15-18	  171.0	 -37.5	   56824610302.5	126150404894.1	14.6	
2010-09-18-15-18	  124.0	  24.0	   48024215442.6	106651956662.9	14.6	
2010-09-18-15-18	  166.0	 -39.5	   33441867663.1	77832428575.7	15.3	
2010-09-18-18-21	  -63.5	  25.5	  555875601130.5	1380620142714.6	16.6	
2010-09-18-18-21	   76.0	 -57.0	  197111013494.1	692523861235.4	23.3	
2010-09-18-18-21	  172.5	 -57.5	  129156111026.1	402547674980.0	20.6	
2010-09-18-18-21	 -168.5	 -32.5	  125354220718.4	209180269528.4	11.0	
2010-09-18-18-21	 -173.5	 -32.5	  107178862890.8	181104237245.2	11.1	
2010-09-18-18-21	   64.0	 -49.0	   48769541989.0	130260498586.8	17.6	
2010-09-18-18-21	  124.0	  24.0	   50825683345.8	107009121854.3	13.8	
2010-09-18-18-21	  166.0	  46.5	   44543438986.3	98693082349.8	14.6	
2010-09-18-18-21	  171.5	 -37.0	   39561930077.2	86815142599.7	14.4	
2010-09-18-18-21	  165.5	 -39.5	   14310545907.8	29934115991.4	13.7	
2010-09-18-18-21	  -35.0	  54.0	   10835665399.0	27588062905.8	16.7	
2010-09-18-18-21	  165.0	 -23.5	    5680056443.2	7259514306.3	8.4	
2010-09-18-21-24	  -63.5	  25.5	  577347467202.9	1400799571558.7	16.2	
2010-09-18-21-24	   77.0	 -57.0	  173972238828.1	585912618276.9	22.2	
2010-09-18-21-24	  164.5	  48.0	  100884498684.5	231050922896.5	15.0	
2010-09-18-21-24	  173.0	 -57.5	   77253075882.9	226679565813.6	19.3	
2010-09-18-21-24	 -168.0	 -32.5	  135912708783.5	218642185704.6	10.6	
2010-09-18-21-24	  -34.5	  54.0	   50542759485.2	149164391503.6	19.4	
2010-09-18-21-24	 -173.5	 -32.5	   81069169268.5	141235869934.0	11.4	
2010-09-18-21-24	  123.5	  23.5	   53759235323.0	124488993292.6	15.2	
2010-09-18-21-24	   63.5	 -49.0	   38590261862.8	99071670994.0	16.8	
2010-09-18-21-24	  171.5	 -37.5	   32091626778.3	67929079251.4	13.9	
2010-09-18-21-24	  164.5	 -23.5	   11349248837.1	17203537653.2	9.9	
2010-09-18-21-24	  165.0	 -39.5	    4787369900.2	9685819528.1	13.3	
2010-09-18-21-24	   66.5	 -50.0	    1986906671.9	6085041411.2	20.1	
2010-09-19-00-03	  -64.0	  26.0	  612485870959.7	1454448082574.9	15.8	
2010-09-19-00-03	   78.0	 -57.0	  156305939624.5	496378373486.6	20.9	
2010-09-19-00-03	  164.0	  50.0	  137894880604.8	365950219629.5	17.5	
2010-09-19-00-03	  -33.5	  54.5	   69713251770.4	207277219803.1	19.5	
2010-09-19-00-03	 -167.0	 -32.5	  107081690578.9	170276149876.3	10.4	
2010-09-19-00-03	  123.0	  23.5	   62326585953.4	154632888225.8	16.3	
2010-09-19-00-03	 -173.5	 -32.5	   68020829077.0	119351937358.8	11.5	
2010-09-19-00-03	   64.0	 -49.0	   20319546144.5	50273343625.8	16.2	
2010-09-19-00-03	  171.5	 -37.0	   22233564232.1	45339755744.7	13.4	
2010-09-19-00-03	  173.5	 -57.5	   15128750905.1	40399312093.5	17.5	
2010-09-19-00-03	  164.5	 -23.5	   11349248837.1	16939529595.8	9.8	
2010-09-19-00-03	  171.0	  48.5	    2048210449.8	4618199233.0	14.8	
2010-09-19-03-06	  -63.5	  26.5	  622509678519.1	1483565092221.1	15.9	
2010-09-19-03-06	   78.0	 -57.0	  114067875069.2	343543020165.9	19.8	
2010-09-19-03-06	  164.0	  51.0	  104992604986.7	339988953471.0	21.3	
2010-09-19-03-06	  -33.0	  55.0	   60120845868.2	176749900298.1	19.3	
2010-09-19-03-06	 -173.5	 -32.5	   44372805464.2	80814818754.2	12.0	
2010-09-19-03-06	 -164.5	 -33.0	   39030477870.3	61599358582.9	10.4	
2010-09-19-03-06	  123.0	  23.5	   17007793482.6	33111574895.2	12.8	
2010-09-19-03-06	  171.5	 -37.0	    7422073007.5	14823298781.8	13.1	
2010-09-19-03-06	 -166.5	 -32.0	    7878342441.3	9153816676.5	7.6	
2010-09-19-03-06	 -168.0	 -32.0	    5256959889.9	8369279512.0	10.4	
2010-09-19-06-09	  -63.0	  26.5	  626470036994.1	1497015404227.2	16.0	
2010-09-19-06-09	  163.5	  51.5	   78887311446.3	263236281838.6	22.0	
2010-09-19-06-09	   77.0	 -56.5	   55105818439.4	151758799676.6	18.1	
2010-09-19-06-09	  -32.5	  55.5	   26105215053.1	73689856621.3	18.5	
2010-09-19-06-09	 -173.5	 -33.0	   33830697303.4	56755234598.1	11.0	
2010-09-19-06-09	 -163.0	 -32.5	    2606988598.1	4391302382.9	11.1	
2010-09-19-09-12	  -63.5	  27.0	  644619092716.4	1516519776682.0	15.7	
2010-09-19-09-12	  163.5	  51.5	   67258449035.3	202313267347.3	19.8	
2010-09-19-09-12	   77.5	 -56.5	   22447265015.1	57048143821.3	16.7	
2010-09-19-09-12	 -173.5	 -33.0	   18160771525.1	29391123536.7	10.6	
2010-09-19-09-12	  170.0	  52.0	    9451302968.6	26638988531.3	18.5	
2010-09-19-12-15	  -62.5	  27.0	  623881466023.4	1434711088471.0	15.3	
2010-09-19-12-15	  169.0	  53.0	   52214189576.5	160785353621.5	20.2	
2010-09-19-12-15	  163.5	  51.5	   38377595233.6	108894953592.8	18.6	
2010-09-19-12-15	  145.5	 -44.5	    4409425128.5	10958076199.2	16.3	
2010-09-19-12-15	 -173.5	 -33.5	    5170002172.1	9186545154.6	11.6	
2010-09-19-15-18	  -62.5	  27.0	  594259446425.9	1327839584236.2	14.9	
2010-09-19-15-18	  169.0	  53.0	   61127012035.7	212816176009.1	22.9	
2010-09-19-15-18	  145.0	 -44.5	   17618374386.4	53820921757.2	20.0	
2010-09-19-15-18	  163.5	  51.0	    5772724023.5	15466442942.8	17.6	
2010-09-19-18-21	  -63.0	  27.0	  558877494953.0	1194208142149.3	14.2	
2010-09-19-18-21	  169.0	  53.0	   51826009022.9	178717622965.3	22.7	
2010-09-19-18-21	  145.0	 -44.5	   24213187425.5	66760356341.1	18.1	
2010-09-19-18-21	 -149.5	 -59.0	    9621319093.7	30334725309.9	20.7	
2010-09-19-18-21	 -173.5	 -34.0	   12872847270.8	21575425500.5	11.0	
2010-09-19-21-24	  -63.5	  28.0	  520082745542.8	1103635405514.0	14.2	
2010-09-19-21-24	 -153.0	 -61.0	  139453712856.7	482665254197.8	23.0	
2010-09-19-21-24	  169.0	  53.0	   33267510045.3	102936808371.4	20.4	
2010-09-19-21-24	  145.0	 -44.5	   17618374386.4	53936642872.9	20.2	
2010-09-19-21-24	 -173.5	 -33.5	   10340004344.2	17078086174.2	10.9	
2010-09-20-00-03	  -64.5	  30.0	  484815335116.1	1046001282695.6	14.5	
2010-09-20-00-03	 -152.5	 -60.5	  193992568170.1	751943834709.2	25.9	
2010-09-20-00-03	  145.5	 -45.0	   10985581945.9	23400942813.6	14.1	
2010-09-20-03-06	 -152.0	 -60.5	  230601548379.8	981651378107.0	28.8	
2010-09-20-03-06	  -64.5	  30.5	  441751333454.2	940559719740.0	14.4	
2010-09-20-06-09	 -151.5	 -60.5	  252629645723.0	1095531678036.0	29.6	
2010-09-20-06-09	  -64.5	  30.0	  388732078510.0	782811428654.8	13.7	
2010-09-20-06-09	  -49.0	  34.5	   17754998382.4	45788710303.3	17.4	
2010-09-20-09-12	 -151.5	 -60.5	  252987043483.3	1050746517135.8	28.6	
2010-09-20-09-12	  -65.0	  31.5	  344956238789.8	687798421701.6	13.7	
2010-09-20-09-12	  -48.5	  35.0	    2532062843.5	4879986604.1	13.1	
2010-09-20-12-15	 -151.5	 -60.5	  212993927773.5	848838876278.7	27.6	
2010-09-20-12-15	  -65.5	  33.0	  326487538550.9	664923941762.2	14.1	
2010-09-20-15-18	 -151.5	 -60.0	  172260957154.0	643473879250.0	25.9	
2010-09-20-15-18	  -65.0	  35.0	  243186918510.5	642135395300.2	18.3	
2010-09-20-15-18	  -47.0	  35.0	   20271492910.3	54684160434.4	18.6	
2010-09-20-15-18	  164.5	 -51.0	    9851427233.2	26749764332.0	18.7	
2010-09-20-15-18	  -59.5	  30.5	   10625868164.0	18215837286.5	11.8	
2010-09-20-15-18	  -62.0	  28.5	   10840019972.9	17423851093.7	11.1	
2010-09-20-15-18	  171.5	 -37.0	    2468644329.0	5644735890.9	15.7	
2010-09-20-18-21	  -64.5	  36.0	  301398545073.8	800806404487.9	18.6	
2010-09-20-18-21	 -151.5	 -60.0	  130195834957.0	451819078737.5	24.2	
2010-09-20-18-21	  165.0	 -51.0	   39196223988.8	118539329472.6	21.0	
2010-09-20-18-21	  171.5	 -37.5	   19732452487.6	43040872135.8	15.1	
2010-09-20-18-21	  165.5	 -47.0	    8452087353.2	22047799624.1	18.1	
2010-09-20-18-21	  -59.0	  31.5	    2635577338.4	4963249808.3	13.0	
2010-09-20-21-24	  -64.0	  37.0	  357940905843.6	968544754721.7	19.1	
2010-09-20-21-24	 -151.5	 -60.0	   90141837292.7	294566859290.7	22.8	
2010-09-20-21-24	  165.0	 -51.0	   43127959638.7	127442213466.1	20.6	
2010-09-20-21-24	  165.0	 -47.0	   29313707290.6	80124336135.0	19.0	
2010-09-20-21-24	  171.5	 -37.5	   24685881166.0	54464537802.0	15.4	
2010-09-20-21-24	  -58.0	  32.0	    5242765471.3	8719576626.9	11.6	
2010-09-21-00-03	  -62.5	  38.5	  425607612901.6	1124191012185.4	18.7	
2010-09-21-00-03	 -151.5	 -60.0	   49710018852.1	157583132547.0	22.2	
2010-09-21-00-03	  165.0	 -47.5	   35518553728.2	97192315928.8	19.2	
2010-09-21-00-03	  164.5	 -51.0	   37334198610.7	95776834346.9	18.0	
2010-09-21-00-03	  171.5	 -37.5	   19748779882.7	43254468260.7	15.3	
2010-09-21-00-03	  -56.0	  33.0	    2592396215.6	3861458037.2	10.4	
2010-09-21-03-06	  -61.0	  39.0	  637879577564.5	1519959389230.4	17.1	
2010-09-21-03-06	  165.0	 -49.5	   50662393365.4	126407655545.7	17.5	
2010-09-21-03-06	  171.5	 -37.5	   12343034270.4	26484730436.0	15.1	
2010-09-21-06-09	  -60.0	  40.0	  829543222151.2	1982675463214.4	17.2	
2010-09-21-06-09	  165.0	 -48.0	   14517802805.8	43149069939.8	20.9	
2010-09-21-06-09	  164.5	 -50.5	    7906148519.0	12862812696.8	11.4	
2010-09-21-06-09	  167.0	 -59.5	    3137681357.0	12377575612.4	27.7	
2010-09-21-06-09	  171.5	 -37.0	    4937288658.0	10383766110.9	14.8	
2010-09-21-09-12	  -58.5	  41.5	  924089326516.6	2356245523339.0	18.5	
2010-09-21-09-12	  168.0	 -60.0	   10981645971.2	39656897485.1	25.4	
2010-09-21-09-12	  165.0	 -48.5	    8233088858.4	23012860370.7	19.6	
2010-09-21-09-12	  164.5	 -50.5	    7906148519.0	12449444953.9	11.1	
2010-09-21-12-15	  -57.0	  43.5	  953421732588.8	2440522710036.1	18.6	
2010-09-21-12-15	  168.5	 -60.0	   14142509469.4	47797984024.0	23.7	
2010-09-21-12-15	  165.0	 -48.5	    4096419794.1	11179373412.3	19.2	
2010-09-21-12-15	  164.5	 -50.0	    3973813343.7	5620761920.1	9.9	
2010-09-21-15-18	  -56.0	  44.0	  807325756300.7	2271157835912.3	20.3	
2010-09-21-15-18	  -62.0	  35.5	   30008053909.0	54868422984.7	12.8	
2010-09-21-15-18	  169.0	 -59.5	    6321726996.4	20567568722.7	22.8	
2010-09-21-18-21	  -55.5	  44.0	  812520977047.4	2043068516998.4	18.2	
2010-09-21-18-21	  -43.0	  43.5	   31333319050.9	62462091969.2	14.0	
2010-09-21-18-21	  171.5	 -37.0	    4937288658.0	10491089193.1	14.9	
2010-09-21-21-24	  -55.0	  43.5	  651418563911.5	1485735722232.8	16.4	
2010-09-21-21-24	  172.0	 -37.5	    9858249920.9	20926605751.4	15.0	
2010-09-21-21-24	  -42.5	  43.0	    9005720526.9	17159845331.6	13.5	
2010-09-22-00-03	  -53.5	  42.5	  490466735754.7	1029293661772.5	15.1	
2010-09-22-00-03	  -52.0	  49.0	   80556558631.3	233963306292.7	20.7	
2010-09-22-00-03	  172.0	 -37.0	   22233564232.1	50095481029.6	16.0	
2010-09-22-00-03	    6.5	 -40.0	   19012218125.3	38320882226.2	14.3	
2010-09-22-03-06	  -49.5	  50.0	  208906822732.6	765227902910.1	26.3	
2010-09-22-03-06	  -51.5	  38.5	  251010387609.2	508750041971.2	14.5	
2010-09-22-03-06	  -53.0	  43.0	   49620610339.2	95595144535.6	13.7	
2010-09-22-03-06	    7.0	 -40.0	   40460245968.6	85884814120.7	15.1	
2010-09-22-03-06	  172.0	 -37.0	   29622982449.3	71685298322.3	17.2	
2010-09-22-03-06	  -50.0	  43.5	    2242188799.2	2563741855.4	8.1	
2010-09-22-06-09	  -50.0	  51.5	  318027906647.4	1372768928290.6	31.0	
2010-09-22-06-09	  -51.0	  38.5	  149685952781.8	292507201254.4	13.8	
2010-09-22-06-09	    7.5	 -40.0	   40546667724.7	83117459770.2	14.5	
2010-09-22-06-09	  172.0	 -37.0	   29639309844.5	72264927213.8	17.2	
2010-09-22-06-09	  165.5	 -47.5	   10481125886.3	25912523752.9	17.4	
2010-09-22-09-12	  -51.0	  52.5	  305033859987.0	1696588910846.9	39.9	
2010-09-22-09-12	  171.5	 -37.0	    4937288658.0	12932075773.6	18.4	
2010-09-22-12-15	  -52.0	  53.5	  298980892095.8	1865529437741.2	44.7	
2010-09-22-12-15	    6.5	 -39.5	   38297865905.8	102653006551.3	18.7	
2010-09-22-12-15	  165.5	 -47.0	    2108109930.5	3727444939.6	12.3	
2010-09-22-15-18	  -52.0	  54.0	  291238031530.6	1738162348115.7	42.6	
2010-09-22-15-18	    7.5	 -39.5	   43119186742.9	120119273364.0	19.4	
2010-09-22-15-18	  165.5	 -47.0	    2108109930.5	3721260963.3	12.3	
2010-09-22-18-21	  -52.5	  54.5	  307140689615.7	1461677731153.2	33.9	
2010-09-22-18-21	 -175.5	 -54.5	   23553617150.8	67164583557.6	19.9	
2010-09-22-18-21	    8.0	 -39.5	   26270437185.7	60891546050.6	16.2	
2010-09-22-18-21	  -47.0	  58.5	    6414214203.1	27007945325.9	29.4	
2010-09-22-18-21	  165.0	 -47.5	   10500933808.4	25708859389.0	17.1	
2010-09-22-18-21	   32.5	 -41.5	    9278106816.2	24615796370.1	18.5	
2010-09-22-18-21	  171.5	 -37.5	    7389605591.9	17702743336.6	16.7	
2010-09-22-18-21	  169.5	 -59.0	    1592022819.7	4340557845.9	19.1	
2010-09-22-21-24	  -51.5	  55.0	  403746104863.3	1513366476845.4	26.9	
2010-09-22-21-24	  169.0	 -60.0	   69163897815.3	247011451482.9	25.2	
2010-09-22-21-24	 -175.5	 -54.5	   70285816792.7	184289832997.2	18.5	
2010-09-22-21-24	   34.0	 -41.0	   48898774724.5	115717240779.0	16.6	
2010-09-22-21-24	  172.0	 -37.5	   27154525495.0	61271153742.5	15.9	
2010-09-22-21-24	  165.5	 -48.0	   18774114778.2	48428612974.1	18.1	
2010-09-23-00-03	  -48.0	  57.5	  323580272465.7	1178888368509.0	26.1	
2010-09-23-00-03	  169.0	 -60.0	   49828417385.6	180885063406.2	25.7	
2010-09-23-00-03	 -175.5	 -54.5	   30601850680.3	79564961356.3	18.4	
2010-09-23-00-03	  172.0	 -37.5	   24685881166.0	56927810691.7	16.3	
2010-09-23-00-03	   34.5	 -41.0	   11699547269.4	22378856118.3	13.5	
2010-09-23-03-06	  -47.0	  58.5	  212089722843.6	762959355647.4	25.7	
2010-09-23-03-06	  168.5	 -60.5	   21637077150.4	72001382745.5	23.5	
2010-09-23-03-06	  173.5	 -59.0	   25701868938.2	70352456358.8	19.4	
2010-09-23-03-06	  172.0	 -37.5	   24685881166.0	56481117008.9	16.2	
2010-09-23-06-09	  -46.5	  58.5	  125267114316.9	442380544038.5	25.1	
2010-09-23-06-09	  172.5	 -59.0	   44826888675.3	123985635228.5	19.6	
2010-09-23-06-09	  172.0	 -37.5	   17247668138.1	38654572827.9	15.8	
2010-09-23-06-09	  -35.5	  54.5	    7135935955.9	19197811879.3	19.0	
2010-09-23-09-12	  -45.5	  58.5	   64691294977.4	236988576584.0	25.9	
2010-09-23-09-12	  -35.5	  55.0	   19413339510.8	52611341709.2	19.1	
2010-09-23-09-12	  171.5	 -59.5	    9482590494.5	24331265200.8	18.1	
2010-09-23-09-12	  172.0	 -37.5	    9858249920.9	21382560632.6	15.3	
2010-09-23-12-15	  -45.0	  58.5	   37306385347.5	141057908648.7	26.6	
2010-09-23-12-15	  -58.5	  62.0	   26191185414.8	85383334316.2	22.9	
2010-09-23-12-15	  -35.5	  55.0	   17618341222.8	48274456369.9	19.2	
2010-09-23-12-15	  -51.0	 -40.5	   16488176467.8	32411825160.3	13.8	
2010-09-23-12-15	  141.0	  20.0	    2904663105.7	5269599135.8	12.7	
2010-09-23-15-18	  -50.0	 -40.5	   75509126798.0	161109769242.2	14.9	
2010-09-23-15-18	  -58.5	  62.0	   33208118245.0	120224707318.2	25.3	
2010-09-23-15-18	  -45.0	  58.5	   17788493134.7	71729390238.7	28.1	
2010-09-23-15-18	 -172.5	 -50.0	    9954969917.2	20682751386.1	14.5	
2010-09-23-15-18	  -35.0	  55.0	    3523775547.4	8565828808.6	16.9	
2010-09-23-18-21	  -49.5	 -40.0	  109157064836.7	239042099090.4	15.2	
2010-09-23-18-21	  -58.5	  62.0	   27499241652.8	95732680260.4	24.1	
2010-09-23-18-21	 -171.0	 -52.0	   19326121274.0	41413507326.9	14.8	
2010-09-23-21-24	  -49.0	 -40.0	  123878461429.0	268933986984.8	15.0	
2010-09-23-21-24	  -59.5	  59.5	   35026493602.9	121305787162.1	23.8	
2010-09-23-21-24	 -170.5	 -52.5	   17127084118.9	41574218028.0	16.7	
2010-09-24-00-03	  -48.5	 -39.5	  119674408949.4	250569730028.5	14.3	
2010-09-24-00-03	  -59.0	  59.0	   17441859656.3	58135992663.9	22.7	
2010-09-24-03-06	  -48.0	 -39.5	  107937831864.9	215597449506.9	13.5	
2010-09-24-03-06	  141.0	  24.5	   50513351970.8	107949383831.1	14.4	
2010-09-24-03-06	 -162.0	  53.0	    9279672509.8	28756082876.1	20.9	
2010-09-24-03-06	  145.5	 -45.0	    8780869381.7	22162636629.7	17.0	
2010-09-24-06-09	  141.5	  25.5	   81051018055.9	198627701278.6	16.5	
2010-09-24-06-09	  -48.0	 -39.0	   69761979885.2	133205208665.8	12.9	
2010-09-24-06-09	  166.0	 -58.0	   39630768456.2	130924255563.3	22.3	
2010-09-24-06-09	 -163.0	  52.5	   37461950956.9	116066249848.8	20.9	
2010-09-24-06-09	  145.5	 -45.0	    8780869381.7	22513081531.8	17.3	
2010-09-24-06-09	  172.5	 -56.0	    6958629351.0	19169088989.8	18.5	
2010-09-24-06-09	 -158.5	  53.5	    3677287404.5	11906829398.3	21.8	
2010-09-24-09-12	  167.5	 -58.5	   57304822799.4	188674641727.3	22.3	
2010-09-24-09-12	  141.5	  25.5	   80921058667.5	173106260193.2	14.5	
2010-09-24-09-12	 -161.0	  52.5	   44838282790.6	112941825519.9	17.0	
2010-09-24-09-12	  -43.5	 -37.0	    4937288658.0	8523027188.6	11.6	
2010-09-24-12-15	  169.0	 -58.5	   35782916067.9	118601663063.3	22.4	
2010-09-24-12-15	  141.5	  27.0	   41382253432.1	79516722223.2	13.0	
2010-09-24-12-15	  -43.0	 -37.0	   22298499063.2	39171556142.8	11.9	
2010-09-24-12-15	 -160.5	  52.5	    3763458406.4	7364322737.2	13.2	
2010-09-24-12-15	  142.0	  24.5	    2812761237.7	2868882838.7	6.9	
2010-09-24-15-18	  142.0	  30.0	  258172852841.5	540547897561.9	14.2	
2010-09-24-15-18	  169.5	 -58.5	   32323254735.0	96715990995.5	20.2	
2010-09-24-18-21	  140.5	  31.0	  399753828015.7	1159826950860.4	19.7	
2010-09-24-18-21	  170.0	 -59.0	   16012471097.6	45458037748.2	19.0	
2010-09-24-18-21	 -155.0	  53.5	    1838643702.3	4016223891.3	14.6	
2010-09-24-21-24	  140.5	  31.0	  368238727659.8	1472687364251.2	27.3	
2010-09-25-00-03	  141.5	  32.0	  438871725684.2	1991811696831.8	31.1	
2010-09-25-00-03	  172.5	 -59.5	    3184045639.3	10676799738.4	22.4	
2010-09-25-03-06	  142.0	  32.5	  524060345624.7	2467599320357.9	32.3	
2010-09-25-06-09	  143.0	  34.0	  634202650170.0	2880421903838.2	31.3	
2010-09-25-06-09	  -42.5	 -35.0	   22880235682.2	61379345794.6	17.8	
2010-09-25-09-12	  144.5	  35.5	  689531165221.7	3050674662031.2	30.5	
2010-09-25-09-12	  -42.0	 -35.5	   37931923065.7	98203535422.3	17.2	
2010-09-25-09-12	  123.5	 -57.0	    1683521749.1	7218934624.0	28.4	
2010-09-25-12-15	  145.5	  36.5	  771819518085.0	3168641885224.1	28.4	
2010-09-25-12-15	  -41.5	 -35.5	   35322600113.8	83828581595.7	15.8	
2010-09-25-15-18	  146.5	  37.5	  902894971809.9	3368055041680.4	25.8	
2010-09-25-15-18	  -41.0	 -35.5	   22694578834.2	48462898372.2	14.1	
2010-09-25-18-21	  147.5	  38.5	  972542486556.9	3476493309430.8	24.6	
2010-09-25-21-24	  148.0	  39.0	 1144346671571.2	3613484024745.5	21.8	
2010-09-25-21-24	 -168.5	  47.5	   39676784151.5	106351832110.7	17.7	
2010-09-25-21-24	 -135.0	  53.5	   21867109197.6	63859909517.2	19.2	
2010-09-25-21-24	  129.5	 -58.5	   14764756062.0	47443654873.0	21.2	
2010-09-25-21-24	  -40.0	 -35.0	    2532062659.2	4721719499.6	12.3	
2010-09-26-00-03	  149.0	  40.0	 1144541881950.9	3401045980073.4	20.4	
2010-09-26-00-03	  129.5	 -59.0	   64713846824.6	200625166303.6	20.4	
2010-09-26-00-03	 -166.0	  46.5	   69642689986.0	171770345727.6	16.2	
2010-09-26-00-03	 -135.0	  54.0	   30841552147.7	99855793155.3	21.3	
2010-09-26-03-06	  150.5	  41.5	 1100578096168.3	3058697219247.5	19.0	
2010-09-26-03-06	  130.5	 -59.0	   79873130413.6	242512567140.0	20.0	
2010-09-26-03-06	 -162.5	  46.5	   74508387680.5	169964446870.7	15.0	
2010-09-26-03-06	 -135.5	  54.0	   19832136947.3	57475217385.2	19.0	
2010-09-26-03-06	 -155.5	  45.0	   10909453824.1	24379849905.3	14.7	
2010-09-26-03-06	  151.5	  30.0	    2676952146.8	4305768321.1	10.6	
2010-09-26-06-09	  151.5	  42.5	 1056524946459.5	2761678921917.4	17.7	
2010-09-26-06-09	 -157.5	  45.5	  166177384632.1	364452070831.1	14.4	
2010-09-26-06-09	  131.5	 -59.5	   77704365976.1	229223569777.6	19.4	
2010-09-26-06-09	  152.0	  29.5	    5367289334.4	8527203014.4	10.4	
2010-09-26-09-12	  153.0	  44.0	  949382408655.8	2380765326058.9	16.9	
2010-09-26-09-12	 -155.5	  46.0	  185249607993.5	410029460577.0	14.6	
2010-09-26-09-12	  131.0	 -60.0	   40579311460.4	114356318810.6	18.5	
2010-09-26-09-12	  137.0	 -58.5	    1615083544.9	4121041635.3	16.7	
2010-09-26-12-15	  153.5	  44.5	  742402975049.2	1841364387438.7	16.7	
2010-09-26-12-15	 -155.0	  46.5	  147386203093.2	344377097364.0	15.4	
2010-09-26-15-18	  156.0	  47.5	  268032671772.5	755734973595.2	18.9	
2010-09-26-15-18	  149.0	  38.0	  288703938149.3	613212176839.4	14.2	
2010-09-26-15-18	 -154.5	  46.5	  123022412817.1	306438419057.7	16.6	
2010-09-26-15-18	 -127.0	  44.5	   19670501281.2	38723071017.2	13.1	
2010-09-26-15-18	   28.0	 -35.5	    2516494527.9	4678085018.2	12.3	
2010-09-26-18-21	  157.0	  48.0	  183954578168.0	548312939250.1	20.0	
2010-09-26-18-21	  149.5	  38.0	  195580043513.9	404853808427.1	13.9	
2010-09-26-18-21	 -153.0	  46.5	  139623871401.3	363561673766.6	17.5	
2010-09-26-18-21	 -127.5	  44.5	   56881914357.7	119616800529.5	14.1	
2010-09-26-18-21	  122.5	 -59.5	    7890567674.9	22576033251.5	19.1	
2010-09-26-21-24	  158.5	  49.5	  149600635191.7	451206393324.8	20.4	
2010-09-26-21-24	 -152.0	  47.0	  162130091285.4	415592006237.9	17.4	
2010-09-26-21-24	  149.5	  38.5	  118095950991.3	232729037207.9	13.3	
2010-09-26-21-24	 -127.5	  44.5	   74459796826.3	160458307377.2	14.6	
2010-09-27-00-03	  160.0	  50.5	  144239261703.0	453403743870.9	21.5	
2010-09-27-00-03	 -150.5	  47.0	  155692697152.1	395760191222.3	17.4	
2010-09-27-00-03	 -127.5	  44.5	   72368854989.9	153930086668.4	14.5	
2010-09-27-00-03	  149.5	  39.0	   38348522672.2	69321026451.8	12.3	
2010-09-27-03-06	  161.0	  51.0	  155202420403.1	512868992635.4	22.9	
2010-09-27-03-06	 -149.5	  47.0	  138538143935.2	336975359944.0	16.8	
2010-09-27-03-06	 -127.5	  44.5	   43883518466.5	88395683869.4	13.9	
2010-09-27-03-06	   77.0	 -54.5	    5406886201.7	14443625247.6	18.4	
2010-09-27-06-09	  162.5	  52.0	  166448638013.6	551583667127.6	23.2	
2010-09-27-06-09	 -148.0	  47.0	  127561908616.5	302392104390.8	16.5	
2010-09-27-06-09	   77.5	 -54.5	    1794998103.8	5175785139.3	20.0	
2010-09-27-09-12	  163.0	  52.0	  176272029787.0	551825313956.8	22.0	
2010-09-27-09-12	 -147.0	  47.0	   83881438762.7	186446701235.8	15.5	
2010-09-27-12-15	  163.0	  52.5	  164031108662.4	469478376169.9	20.1	
2010-09-27-12-15	 -147.0	  47.0	   21080619721.8	46428033758.9	15.4	
2010-09-27-15-18	  163.5	  52.5	  124250777589.2	328797158603.4	18.6	
2010-09-27-15-18	  -30.5	  57.5	   66829808990.6	229830828038.6	24.1	
2010-09-27-15-18	  177.0	  51.5	   24908490078.8	76109525132.0	21.4	
2010-09-27-15-18	   -5.0	 -51.5	   11587522055.9	32346552576.6	19.5	
2010-09-27-18-21	  -31.5	  57.5	  117548412562.8	482306310230.7	28.9	
2010-09-27-18-21	   -4.0	 -52.0	   76480099865.0	191954629153.0	17.6	
2010-09-27-18-21	  176.5	  51.5	   51950853468.1	168189114152.2	22.7	
2010-09-27-18-21	  162.0	  51.5	   40174303108.7	108294189350.9	18.9	
2010-09-27-21-24	  -31.5	  57.5	  102950703740.6	419396925597.4	28.7	
2010-09-27-21-24	   -4.0	 -52.0	   97261964496.3	241854187493.1	17.5	
2010-09-27-21-24	  176.5	  51.0	   52120464259.5	160117023317.7	21.6	
2010-09-27-21-24	 -179.5	  51.0	   17359953502.1	49041756720.9	19.8	
2010-09-27-21-24	  162.0	  52.0	   15245355468.4	39310520065.2	18.1	
2010-09-28-00-03	  -32.5	  57.5	  108460562027.0	369138289822.5	24.0	
2010-09-28-00-03	   -3.5	 -52.0	   81699306419.0	196236979718.8	16.9	
2010-09-28-00-03	  177.0	  51.0	   29115326648.4	88243974381.4	21.3	
2010-09-28-00-03	 -179.5	  51.0	   13511617292.7	38704085904.2	20.1	
2010-09-28-03-06	  -34.0	  57.5	  121583409926.8	429667916067.5	25.1	
2010-09-28-03-06	   -5.0	 -51.5	   23048235087.8	54323722116.4	16.6	
2010-09-28-06-09	  -33.5	  58.0	   87684232780.4	300965612753.6	24.5	
2010-09-28-09-12	  -32.5	  58.5	   46649396594.8	154851359512.2	23.8	
2010-09-28-09-12	  144.0	 -42.5	    2278981678.3	4781488381.4	15.0	
2010-09-28-12-15	  -32.0	  58.5	   17604132064.8	55657213456.3	22.9	
2010-09-28-12-15	  144.0	 -43.0	   15952524266.5	46429601582.4	21.0	
2010-09-28-12-15	    6.5	 -54.5	   10857556183.7	23198226861.6	15.4	
2010-09-28-15-18	    6.5	 -54.5	   29004148582.4	75381793358.3	18.9	
2010-09-28-15-18	  144.0	 -43.0	   15952524266.5	49113851830.9	22.4	
2010-09-28-15-18	 -126.5	  44.0	    4428248274.0	9130622935.8	15.0	
2010-09-28-18-21	    6.0	 -54.5	   30842791916.2	82433986470.1	19.6	
2010-09-28-18-21	 -126.5	  43.5	   35740870432.2	75425255698.0	15.5	
2010-09-28-18-21	  144.0	 -43.0	   15952524266.5	46758080370.7	21.5	
2010-09-28-18-21	   21.5	 -54.5	    9040666189.7	23330256233.3	18.9	
2010-09-28-21-24	 -127.0	  43.0	   58379392165.0	122470394112.5	15.6	
2010-09-28-21-24	   21.5	 -54.5	   36139534021.4	102303002599.6	21.0	
2010-09-28-21-24	    6.0	 -54.5	   21693220477.3	55041911286.7	18.8	
2010-09-28-21-24	  144.0	 -42.5	    2278981678.3	4868838900.1	15.8	
2010-09-29-00-03	 -127.0	  43.0	   24752718117.7	47711641955.4	14.5	
2010-09-29-00-03	   22.0	 -55.0	   14315791478.9	36101766368.0	18.9	
2010-09-29-06-09	   78.5	 -56.0	    1728508633.7	4352875629.4	19.3	
2010-09-29-12-15	  -26.5	 -33.0	   10384176692.2	20915519192.0	15.7	
2010-09-29-15-18	  -26.0	 -33.5	   31122752971.6	65751788136.7	16.6	
2010-09-29-18-21	  -26.0	 -33.5	   36322137601.1	74363764212.0	16.3	
2010-09-29-18-21	  163.5	  46.0	   10716567296.3	22217431511.0	16.5	
2010-09-29-21-24	  164.0	  47.0	   42078642379.8	97678706176.8	18.6	
2010-09-29-21-24	  -25.5	 -33.5	   33729741569.7	69365496870.0	16.5	
2010-09-30-00-03	  165.0	  47.0	   60553126915.2	140643186584.6	18.7	
2010-09-30-00-03	  -25.0	 -33.0	   25967540690.1	52492747728.4	16.3	
2010-09-30-03-06	  165.5	  47.5	   35279126598.0	76968622853.2	17.7	
2010-09-30-03-06	  -25.0	 -33.0	   13005757857.2	22144778126.5	13.8	
