2014-05-01-00-03	   42.0	 -59.5	  655509258919.4	2251764222681.8	24.6	
2014-05-01-00-03	  -76.0	 -59.0	    4822189909.5	15648686497.4	22.5	
2014-05-01-03-06	   42.0	 -59.5	  691126466085.7	2418040639025.1	25.0	
2014-05-01-03-06	   -6.0	 -42.0	    4594236671.6	9980996531.5	15.0	
2014-05-01-06-09	   42.0	 -59.5	  699159706625.4	2484060597435.6	25.3	
2014-05-01-06-09	  -38.0	  47.0	   20941646448.5	45728643076.4	15.0	
2014-05-01-09-12	   42.0	 -59.5	  713563785316.7	2520386772906.1	25.1	
2014-05-01-09-12	   81.0	 -62.0	   22099811657.1	85094144377.0	26.5	
2014-05-01-09-12	  -37.5	  47.0	   18873311547.8	40522277600.7	14.8	
2014-05-01-12-15	   41.0	 -59.5	  705374568859.4	2458547150257.2	24.7	
2014-05-01-12-15	 -140.5	  38.5	   86738099669.5	200665949930.2	15.9	
2014-05-01-12-15	   82.0	 -62.0	   26310652647.5	99756712489.8	26.0	
2014-05-01-15-18	   40.5	 -59.5	  670446113600.7	2318466704647.9	24.4	
2014-05-01-15-18	 -141.0	  40.0	  140499310073.2	324359433121.9	15.8	
2014-05-01-15-18	   82.5	 -62.5	   28974724394.1	115776299352.3	27.4	
2014-05-01-15-18	 -174.0	 -29.5	   10787708707.9	22500691177.6	14.3	
2014-05-01-18-21	   40.5	 -59.5	  620614013389.7	2151140025810.4	24.3	
2014-05-01-18-21	 -141.5	  40.5	  136553465124.9	289719407966.8	14.5	
2014-05-01-18-21	 -173.5	 -29.0	   83878033406.7	187655138574.4	15.3	
2014-05-01-18-21	   82.5	 -62.5	   34921650166.1	136902353327.4	26.8	
2014-05-01-21-24	   40.5	 -60.0	  567759576534.1	1969457923051.4	24.2	
2014-05-01-21-24	 -172.5	 -29.0	  140996371740.3	331548765339.4	16.1	
2014-05-01-21-24	   82.5	 -62.0	   35159590274.2	132080428304.7	25.6	
2014-05-01-21-24	 -143.0	  42.5	   36371119049.5	75868010933.7	14.2	
2014-05-01-21-24	 -141.5	  39.0	   16815166000.0	31290953065.6	12.7	
2014-05-01-21-24	 -172.5	 -48.5	    2048209897.0	4611843930.0	15.3	
2014-05-02-00-03	   41.0	 -60.0	  497490926914.3	1722920297197.8	24.1	
2014-05-02-00-03	 -172.0	 -29.0	  206072861067.2	493395479138.8	16.4	
2014-05-02-00-03	   82.5	 -62.0	   36847813341.8	126608916490.6	23.4	
2014-05-02-00-03	 -143.5	  43.0	    2260671464.3	4650679002.5	14.0	
2014-05-02-03-06	   42.0	 -60.0	  398005326848.8	1373214733723.1	23.8	
2014-05-02-03-06	 -171.0	 -29.5	  359114989613.1	894203868681.2	17.1	
2014-05-02-03-06	   82.5	 -62.0	   20672287817.9	65387272919.3	21.5	
2014-05-02-06-09	 -170.0	 -30.5	  430878141522.1	1186162764111.5	19.0	
2014-05-02-06-09	   42.0	 -60.5	  308109438690.2	1042076066259.7	23.2	
2014-05-02-09-12	 -169.5	 -30.5	  454625853463.7	1343344942862.5	20.4	
2014-05-02-09-12	   41.5	 -60.5	  215929822579.6	715357114236.4	22.7	
2014-05-02-09-12	  -46.5	 -36.0	   55375955495.0	120727228894.2	14.8	
2014-05-02-09-12	 -172.0	 -45.0	   26243821868.0	53298836331.0	13.8	
2014-05-02-12-15	 -169.0	 -30.5	  481030611244.4	1388778358128.7	20.0	
2014-05-02-12-15	   41.0	 -60.5	  122674055380.7	398495243396.6	22.2	
2014-05-02-12-15	  -45.5	 -36.0	   67642862196.2	131058092180.4	13.2	
2014-05-02-12-15	 -172.0	 -44.5	   24287635070.6	48439767267.1	13.5	
2014-05-02-12-15	 -174.0	  47.5	   18734341406.5	40308311956.7	14.6	
2014-05-02-15-18	 -168.5	 -30.5	  461898188455.2	1307800694614.6	19.6	
2014-05-02-15-18	 -174.0	  47.0	   69342216280.6	157130674362.8	15.5	
2014-05-02-15-18	   41.0	 -60.5	   45943458168.7	139624111770.9	20.7	
2014-05-02-15-18	  -45.5	 -36.5	   17457291448.1	28710529118.6	11.2	
2014-05-02-15-18	 -172.5	 -43.5	   13452959422.8	26347880861.5	13.3	
2014-05-02-18-21	 -168.0	 -30.5	  440794572861.6	1202906401442.6	18.9	
2014-05-02-18-21	 -174.0	  46.5	  103538474304.9	227689849468.0	15.1	
2014-05-02-18-21	 -172.5	 -43.5	   26924231823.3	54804236527.4	13.9	
2014-05-02-21-24	 -168.0	 -30.5	  435182512624.5	1107459006494.5	17.7	
2014-05-02-21-24	 -173.0	  46.5	  109965550484.0	237933801785.4	14.9	
2014-05-02-21-24	 -172.5	 -43.5	   35929265493.8	75385336217.6	14.4	
2014-05-02-21-24	  -43.0	 -39.0	    9642641674.3	18639037929.6	13.2	
2014-05-03-00-03	 -167.5	 -30.5	  408788128255.0	973888589929.5	16.6	
2014-05-03-00-03	 -172.5	  46.5	  101888035894.3	224895360765.0	15.2	
2014-05-03-00-03	 -172.5	 -43.5	   33705730336.9	71680363368.1	14.6	
2014-05-03-00-03	   28.0	 -59.0	   12851486183.6	37622106116.4	20.1	
2014-05-03-03-06	 -167.0	 -30.5	  385039270508.7	830224858507.3	15.0	
2014-05-03-03-06	 -172.5	  46.5	   68044416367.6	147319950105.6	14.9	
2014-05-03-03-06	 -172.5	 -43.5	   31482195179.9	65732203504.7	14.4	
2014-05-03-03-06	   31.5	 -59.0	   20926658128.6	60292463983.4	19.8	
2014-05-03-03-06	  -41.0	 -40.5	   21206015605.1	48927882101.6	15.9	
2014-05-03-06-09	 -166.5	 -30.5	  328831616641.0	643240248088.7	13.6	
2014-05-03-06-09	  -39.5	 -41.5	   83923257964.3	209430865601.3	17.2	
2014-05-03-06-09	 -172.5	 -43.5	   27016471776.5	56766285220.9	14.4	
2014-05-03-06-09	 -170.0	 -45.0	    2185722126.6	4068396158.2	12.8	
2014-05-03-09-12	 -166.5	 -30.5	  221993114689.3	388896879325.6	12.1	
2014-05-03-09-12	  -38.0	 -42.0	  120373969449.3	287087142919.5	16.5	
2014-05-03-09-12	  -45.0	 -45.0	   17618374386.4	45918523192.3	17.9	
2014-05-03-09-12	 -172.0	 -43.5	   18029748504.2	42420029532.0	16.2	
2014-05-03-12-15	  -37.0	 -42.5	  135336925227.2	321314811704.0	16.4	
2014-05-03-12-15	  -44.5	 -44.5	   62141320068.1	153244403547.7	17.0	
2014-05-03-12-15	 -166.0	 -30.0	   24185853561.5	37632548082.5	10.7	
2014-05-03-12-15	 -172.5	 -43.5	    9005719053.0	21194964859.8	16.2	
2014-05-03-15-18	  -39.5	 -43.5	  284435093995.1	677438510603.9	16.4	
2014-05-03-18-21	  -38.0	 -44.0	  356395492533.1	834850093591.5	16.1	
2014-05-03-21-24	  -37.0	 -44.5	  359583576217.5	910483254449.7	17.4	
2014-05-03-21-24	  -84.0	 -55.5	   61805159307.7	177082881987.1	19.5	
2014-05-03-21-24	   10.5	 -56.0	    3479314675.5	8550691862.8	16.7	
2014-05-03-21-24	  153.0	 -40.0	    2367903053.7	4706601473.9	13.5	
2014-05-04-00-03	  -36.5	 -46.0	  352460161204.7	912145189624.0	17.8	
2014-05-04-00-03	  -83.0	 -56.5	   69021637838.2	188877459749.8	18.7	
2014-05-04-00-03	  153.0	 -41.0	   46829834218.4	103920792769.3	15.1	
2014-05-04-00-03	   11.5	 -56.0	   10437944026.5	32714701506.7	21.3	
2014-05-04-00-03	  -34.5	  56.0	    6869178462.3	27987945599.8	27.7	
2014-05-04-03-06	  -35.5	 -46.5	  314331846395.7	873359382657.9	19.1	
2014-05-04-03-06	  153.0	 -41.5	   62711241761.8	137061886365.8	14.9	
2014-05-04-03-06	   12.5	 -56.0	   32996689633.9	101030973803.1	20.8	
2014-05-04-03-06	  -83.0	 -58.0	   24889200799.6	64973019040.4	17.8	
2014-05-04-03-06	  -33.5	  56.5	   11784396330.6	42394269161.3	24.5	
2014-05-04-06-09	  -34.5	 -46.5	  303322570298.4	831668427733.3	18.8	
2014-05-04-06-09	  153.0	 -42.0	   85206081164.6	181613100591.2	14.5	
2014-05-04-06-09	   13.0	 -56.5	   51291426718.5	137492070116.6	18.2	
2014-05-04-06-09	  -33.5	  57.5	   16607971744.5	57217648006.6	23.4	
2014-05-04-06-09	  -86.5	 -57.5	   15128750905.1	40742656468.1	18.3	
2014-05-04-06-09	  -83.0	 -59.0	   12920422579.7	34938163545.3	18.4	
2014-05-04-09-12	  -33.5	 -47.0	  263180558100.8	684844317443.4	17.8	
2014-05-04-09-12	  153.5	 -42.5	   89470383001.7	187209494286.7	14.2	
2014-05-04-09-12	   14.0	 -57.5	   57258064974.9	144886698199.4	17.2	
2014-05-04-09-12	  -77.0	 -46.5	   30021127764.1	72531316757.7	16.4	
2014-05-04-09-12	  -33.5	  58.0	    9805069030.9	31504741116.2	21.8	
2014-05-04-09-12	  -83.0	 -60.0	    1568840678.5	4215272686.1	18.2	
2014-05-04-09-12	  -82.0	 -59.0	    1592022819.7	3929791985.0	16.7	
2014-05-04-12-15	  -32.5	 -47.5	  215657692019.1	528449550263.7	16.7	
2014-05-04-12-15	  -77.0	 -46.5	   92741088254.3	253736061909.6	18.5	
2014-05-04-12-15	  153.5	 -43.0	   52242962559.4	108405349148.3	14.0	
2014-05-04-12-15	  -84.0	 -61.0	   28684000346.5	91036778291.3	21.5	
2014-05-04-12-15	  156.0	 -39.5	    2385151477.6	4322987608.1	12.2	
2014-05-04-12-15	   14.0	 -58.0	    1638021380.4	4162344327.1	17.2	
2014-05-04-15-18	  -77.0	 -46.5	  145061469370.8	415854963260.6	19.3	
2014-05-04-15-18	  -31.5	 -47.5	  145216842815.1	343511927255.5	15.9	
2014-05-04-15-18	  -85.0	 -62.0	   86608624562.8	301804291535.0	23.5	
2014-05-04-15-18	  153.5	 -43.0	   33943582561.3	66549305313.0	13.2	
2014-05-04-15-18	  157.0	 -39.5	   21619416944.3	41920223094.9	13.0	
2014-05-04-18-21	  -77.0	 -46.0	  180190434563.4	547627077202.0	20.3	
2014-05-04-18-21	  -85.0	 -62.5	  103921784589.6	367147924543.8	23.6	
2014-05-04-18-21	  -31.0	 -47.5	  100603666714.3	226635867093.2	15.0	
2014-05-04-18-21	  157.5	 -39.5	   61987618809.7	120074535910.9	12.9	
2014-05-04-21-24	  -77.0	 -46.0	  215115982473.8	632292013472.8	19.5	
2014-05-04-21-24	  -85.5	 -63.5	  116863873454.4	413272102077.8	23.4	
2014-05-04-21-24	  -28.0	 -48.0	  112121123519.7	262003824772.0	15.4	
2014-05-04-21-24	  158.0	 -40.5	  111036999148.5	219317854333.7	13.1	
2014-05-04-21-24	   78.0	 -39.0	    7240423251.7	11791696689.0	10.7	
2014-05-05-00-03	  -77.0	 -46.0	  227632102351.0	631056539857.5	18.2	
2014-05-05-00-03	  -86.5	 -64.0	  109403013970.8	383751674568.7	23.0	
2014-05-05-00-03	  158.0	 -41.5	  146615960498.5	300160870930.5	13.4	
2014-05-05-00-03	  -26.5	 -47.5	  114886684935.0	268424244962.5	15.3	
2014-05-05-00-03	  146.5	 -46.5	   42571720906.1	99667040368.1	15.3	
2014-05-05-00-03	   78.0	 -38.5	   12128542902.4	21684652997.8	11.7	
2014-05-05-00-03	   28.0	 -35.5	    7565051715.0	16085001885.7	13.9	
2014-05-05-03-06	  -77.5	 -46.0	  221172699702.0	587059953000.4	17.3	
2014-05-05-03-06	  158.0	 -42.5	  164737873600.7	347426340144.6	13.7	
2014-05-05-03-06	  -88.0	 -65.0	   88150909618.2	319138383526.6	23.5	
2014-05-05-03-06	  146.5	 -47.0	  114312513685.7	315899606704.8	17.9	
2014-05-05-03-06	  -25.5	 -47.0	   94779148042.1	214394950128.0	14.7	
2014-05-05-03-06	   29.5	 -35.5	   40402100845.9	74848566560.5	12.0	
2014-05-05-03-06	  168.5	 -34.0	   18013072890.6	38819469303.7	13.9	
2014-05-05-03-06	  -85.0	 -56.5	   13738355450.7	37169442437.5	17.5	
2014-05-05-03-06	   78.5	 -38.0	    4888119650.6	8897818774.1	11.8	
2014-05-05-06-09	  146.5	 -47.0	  180979372070.6	543701075047.6	19.4	
2014-05-05-06-09	  -77.5	 -46.0	  190611498651.2	486432350759.4	16.4	
2014-05-05-06-09	  159.0	 -43.5	  164455375156.2	346801303448.9	13.6	
2014-05-05-06-09	  -88.5	 -66.0	   59133315839.7	219716423160.3	23.9	
2014-05-05-06-09	  -83.0	 -57.0	   40718916317.4	122161694065.1	19.2	
2014-05-05-06-09	  -24.5	 -47.0	   46729650829.7	100272173302.6	13.8	
2014-05-05-06-09	  168.5	 -33.5	   25775471094.0	60191529701.9	15.0	
2014-05-05-06-09	   30.5	 -36.0	   17552039864.3	29144325470.4	10.6	
2014-05-05-06-09	   29.5	 -43.0	    4557963356.6	8294415998.7	11.7	
2014-05-05-09-12	  147.0	 -47.5	  197519024078.9	599824739591.8	19.5	
2014-05-05-09-12	  -77.5	 -46.5	  146858353750.4	361983210334.3	15.8	
2014-05-05-09-12	  160.0	 -44.5	  148470848502.5	336597438957.2	14.5	
2014-05-05-09-12	   31.5	 -43.0	  109083273463.7	215106555002.8	12.6	
2014-05-05-09-12	  -80.5	 -57.5	   40153309585.5	111649204047.3	17.7	
2014-05-05-09-12	  -52.5	 -47.0	   44582407402.1	90520330188.1	12.9	
2014-05-05-09-12	  -88.5	 -66.0	   13977369232.6	53240136047.5	24.3	
2014-05-05-09-12	  169.0	 -33.5	   18042849442.9	42046752315.1	14.8	
2014-05-05-09-12	  -47.5	 -48.0	   10381607613.4	20372699654.2	12.5	
2014-05-05-12-15	  147.0	 -47.0	  210672772963.6	613195329444.4	18.6	
2014-05-05-12-15	  -50.5	 -47.5	  191423399603.6	431353090342.9	14.4	
2014-05-05-12-15	  -77.5	 -46.5	  115464553196.3	273502067500.3	15.1	
2014-05-05-12-15	  160.5	 -45.5	  122253531406.8	267731075282.9	14.0	
2014-05-05-12-15	   32.0	 -42.5	  123494216665.9	245240401110.5	12.6	
2014-05-05-12-15	   49.5	 -63.5	   34310511099.3	126147880696.8	23.4	
2014-05-05-12-15	  -75.0	 -54.5	    7223776195.7	27475628109.5	24.2	
2014-05-05-12-15	  169.0	 -33.5	    2577606140.7	5597861481.2	13.8	
2014-05-05-15-18	  -49.0	 -47.5	  255631616743.1	664237671707.0	16.6	
2014-05-05-15-18	  146.0	 -45.5	  216369161223.8	597176001452.6	17.7	
2014-05-05-15-18	  -77.5	 -47.0	  108184702764.7	260346097749.7	15.3	
2014-05-05-15-18	   49.0	 -63.5	   43116235084.3	152367579186.7	22.5	
2014-05-05-15-18	  159.5	 -46.0	   45245371978.2	94612451245.0	13.3	
2014-05-05-15-18	   34.5	 -33.0	   28500974482.8	71421729558.9	15.9	
2014-05-05-15-18	  -76.5	 -59.5	   20579782923.8	69885686965.6	21.6	
2014-05-05-15-18	  -75.0	 -54.5	   16307949064.9	66405147860.3	25.9	
2014-05-05-15-18	   32.0	 -42.5	   29734884588.7	54866068767.2	11.7	
2014-05-05-18-21	  -47.0	 -48.0	  275040122280.8	765172853363.8	17.9	
2014-05-05-18-21	  145.5	 -45.0	  177470159611.2	513626582367.4	18.5	
2014-05-05-18-21	  -77.0	 -47.5	  103717945944.6	261442671291.2	16.1	
2014-05-05-18-21	  -12.0	 -47.5	   83961938593.1	220832904778.2	16.8	
2014-05-05-18-21	   35.0	 -33.0	   57101126021.2	132701569228.3	14.8	
2014-05-05-18-21	   49.0	 -63.5	   36485455770.6	127183984852.2	22.2	
2014-05-05-18-21	  -76.0	 -59.5	   29736757967.5	95683136490.4	20.5	
2014-05-05-18-21	  -74.5	 -54.5	    7201884305.5	27042295397.7	23.9	
2014-05-05-21-24	  -45.5	 -48.0	  275769908885.0	734439721626.1	17.1	
2014-05-05-21-24	  -11.5	 -47.5	  139177490268.0	407872392520.3	18.8	
2014-05-05-21-24	  145.0	 -44.5	  113517019536.9	357230534581.6	20.1	
2014-05-05-21-24	  -77.0	 -47.0	   89284115205.2	227234462431.0	16.3	
2014-05-05-21-24	   35.0	 -33.0	  116209299378.5	220026585829.5	12.1	
2014-05-05-21-24	   49.5	 -63.0	   29685002930.9	100393630503.1	21.6	
2014-05-05-21-24	   43.5	 -63.0	   31184029757.9	95893128776.0	19.6	
2014-05-05-21-24	  149.5	 -49.0	   28693659264.9	72164131500.9	16.0	
2014-05-05-21-24	  -75.0	 -60.0	    4636617444.5	12634479284.5	17.4	
2014-05-06-00-03	  -44.5	 -48.5	  242026553997.9	614370081446.2	16.4	
2014-05-06-00-03	  -11.5	 -47.5	  165353392022.0	478596697495.1	18.6	
2014-05-06-00-03	   35.5	 -32.5	  173757839949.8	325292647356.3	12.0	
2014-05-06-00-03	  145.0	 -44.5	   96594005287.5	305067112634.1	20.3	
2014-05-06-00-03	  -77.0	 -47.0	   79004702357.0	198687295427.0	16.1	
2014-05-06-00-03	   43.0	 -63.0	   48190978396.1	150517268394.6	20.0	
2014-05-06-00-03	   49.5	 -63.0	   22788521281.1	72147056030.6	20.3	
2014-05-06-00-03	  149.5	 -49.0	   12288947643.7	35366134244.5	18.4	
2014-05-06-03-06	  -11.5	 -47.5	  167541230727.5	450903406177.5	17.4	
2014-05-06-03-06	  -43.5	 -48.5	  173907993617.0	426814782250.1	15.9	
2014-05-06-03-06	   36.0	 -33.0	  158047639475.7	271247533594.6	11.1	
2014-05-06-03-06	  145.0	 -44.5	   79188856338.2	240821242063.2	19.6	
2014-05-06-03-06	   42.5	 -63.0	   65221362601.1	203653355893.4	20.1	
2014-05-06-03-06	  -77.5	 -46.5	   53518680075.4	123473527861.8	14.9	
2014-05-06-03-06	   49.0	 -62.5	    7136502225.5	21400978022.0	19.3	
2014-05-06-06-09	  -11.0	 -47.5	  133270100563.2	344443558460.9	16.8	
2014-05-06-06-09	   41.5	 -63.0	   77045473898.5	238013859767.4	20.0	
2014-05-06-06-09	  -43.0	 -48.0	   89196540459.0	201227174834.1	14.6	
2014-05-06-06-09	  145.0	 -44.5	   50628571766.7	149678750654.3	19.2	
2014-05-06-06-09	  165.0	 -54.5	   30689277664.0	87544784475.4	18.5	
2014-05-06-06-09	  -77.5	 -46.0	   27970818422.6	63314211603.5	14.7	
2014-05-06-06-09	   39.0	 -35.0	   30537924024.7	51717771218.2	11.0	
2014-05-06-06-09	   35.0	 -33.5	   25908775775.3	44970220634.1	11.2	
2014-05-06-06-09	   38.5	 -31.5	   18476424425.8	30769903995.1	10.8	
2014-05-06-06-09	   41.5	 -36.0	    5017229127.8	9680985412.1	12.5	
2014-05-06-06-09	  146.0	 -55.0	    1772969689.9	4618340771.5	16.8	
2014-05-06-06-09	  171.5	 -57.0	    1683521749.1	4536633507.2	17.4	
2014-05-06-06-09	  172.5	 -57.0	    1683521749.1	4505653694.3	17.3	
2014-05-06-09-12	   41.5	 -62.5	   59256613384.1	176318947161.5	19.4	
2014-05-06-09-12	  -10.5	 -48.0	   56598370705.0	151881225060.9	17.5	
2014-05-06-09-12	  165.0	 -54.5	   46688697568.4	142780213843.2	19.9	
2014-05-06-09-12	  172.5	 -57.5	   33714908013.6	96631361331.1	18.7	
2014-05-06-09-12	  145.5	 -44.5	   13209117102.9	35514467739.8	17.5	
2014-05-06-09-12	  -47.5	 -48.5	   12410007193.1	22184277885.4	11.6	
2014-05-06-09-12	  -14.0	 -46.5	    6422244416.9	15515351468.0	15.7	
2014-05-06-09-12	  145.5	 -55.5	    5296745421.5	15106132310.5	18.6	
2014-05-06-09-12	  -42.0	 -48.0	    6205003596.6	14369482604.7	15.1	
2014-05-06-09-12	  -77.0	 -46.0	    6441566307.0	13468875402.0	13.6	
2014-05-06-09-12	   35.0	 -33.5	    7762398203.4	9324996087.8	7.8	
2014-05-06-09-12	   -7.5	 -46.0	    2147243427.7	3872426545.3	11.7	
2014-05-06-12-15	  173.0	 -57.0	   64196320226.3	194791129889.0	19.9	
2014-05-06-12-15	  165.0	 -55.0	   50410036457.8	152685121171.5	19.9	
2014-05-06-12-15	   43.0	 -62.0	   45460147908.9	130751917238.9	18.9	
2014-05-06-12-15	  -10.5	 -48.0	   35698093537.6	95226470909.0	17.5	
2014-05-06-15-18	  173.5	 -57.0	  121026527819.0	387033286207.5	21.1	
2014-05-06-15-18	  165.0	 -54.5	   28916032899.9	89727413716.4	20.4	
2014-05-06-15-18	  -10.0	 -47.5	    8392823877.9	26856392954.9	21.1	
2014-05-06-15-18	   77.5	 -57.5	    6688712465.3	19934101357.3	19.6	
2014-05-06-15-18	   -3.0	 -46.5	    6383272684.8	14519608060.5	15.0	
2014-05-06-15-18	   81.0	 -61.5	    2973518987.9	10826516958.8	23.9	
2014-05-06-18-21	  174.5	 -56.5	  165547809237.3	536327689795.4	21.5	
2014-05-06-18-21	   80.5	 -61.0	   53708279346.6	173534091310.0	21.3	
2014-05-06-18-21	   74.5	 -59.5	    7913749816.0	20389362928.5	17.0	
2014-05-06-18-21	   66.5	 -61.5	    4424804411.2	14820770461.7	22.1	
2014-05-06-18-21	  165.5	 -54.5	    5406886201.7	12221298789.8	14.9	
2014-05-06-18-21	   -2.0	 -46.5	    2127757561.6	4629222098.7	14.3	
2014-05-06-21-24	  174.5	 -56.5	  179916297232.4	573936447965.5	21.2	
2014-05-06-21-24	   80.5	 -60.5	  103672684538.5	346307020812.8	22.2	
2014-05-06-21-24	  102.5	 -37.0	   93612747004.9	197552829583.9	14.0	
2014-05-06-21-24	   75.0	 -60.0	   32688151814.0	117967791957.8	23.9	
2014-05-06-21-24	   44.0	 -31.5	   29060512816.2	61252013706.5	13.9	
2014-05-06-21-24	   67.0	 -61.5	   16342529743.1	55633645000.0	22.5	
2014-05-06-21-24	    3.0	 -47.5	   10500933808.4	25846776287.5	16.3	
2014-05-06-21-24	 -180.0	 -58.5	    6506209850.6	18409248619.6	18.7	
2014-05-07-00-03	   78.5	 -60.5	  195642680010.6	702520443930.8	24.0	
2014-05-07-00-03	  174.5	 -56.0	  171235516907.3	511077582421.4	19.9	
2014-05-07-00-03	  103.5	 -37.5	  168825917173.3	415749193513.0	16.4	
2014-05-07-00-03	 -179.0	 -58.5	   40948040969.8	123871004362.4	20.0	
2014-05-07-00-03	   44.5	 -31.5	   55525615207.8	115275853497.9	13.8	
2014-05-07-00-03	    3.0	 -47.0	   31640655424.8	76540909018.5	16.0	
2014-05-07-00-03	   57.0	 -62.0	   23408194004.5	72125717527.5	20.4	
2014-05-07-00-03	   67.5	 -61.5	    2949869607.5	9005836800.0	20.2	
2014-05-07-03-06	   78.5	 -60.5	  211588266253.5	778683975606.0	24.6	
2014-05-07-03-06	  104.5	 -38.0	  209060026167.6	515569856408.2	16.4	
2014-05-07-03-06	  175.0	 -56.0	  135906425189.6	380891548533.4	18.6	
2014-05-07-03-06	   56.5	 -61.5	   53189550749.6	159276785869.7	19.9	
2014-05-07-03-06	   45.0	 -31.5	   66149870512.0	139652416794.6	14.0	
2014-05-07-03-06	    3.0	 -47.0	   50985004187.9	125161420304.3	16.3	
2014-05-07-03-06	 -177.5	 -58.0	   32804681390.6	89038708752.1	18.0	
2014-05-07-06-09	   79.0	 -61.0	  212429962919.5	801267108564.7	25.2	
2014-05-07-06-09	  105.5	 -38.0	  203388790891.7	466597681906.6	15.3	
2014-05-07-06-09	  172.5	 -57.5	  118969146325.2	316921615156.4	17.7	
2014-05-07-06-09	   56.5	 -61.5	   78947429623.0	228211553453.4	19.2	
2014-05-07-06-09	    3.0	 -46.5	   70580852946.2	175258245762.2	16.5	
2014-05-07-06-09	   45.0	 -31.5	   68911378590.1	143162694659.7	13.8	
2014-05-07-06-09	  178.5	 -55.5	   35125066066.4	95658746897.5	18.0	
2014-05-07-06-09	 -108.5	 -57.0	    3389601978.1	9703474182.2	18.9	
2014-05-07-06-09	   66.5	 -50.5	    1966167587.6	7122032057.0	24.0	
2014-05-07-09-12	   79.5	 -61.0	  205826086894.7	770106602934.4	25.1	
2014-05-07-09-12	  106.0	 -39.0	  151900114412.2	306764250626.9	13.4	
2014-05-07-09-12	   59.0	 -61.0	   76121984387.6	217303721278.3	19.0	
2014-05-07-09-12	  173.0	 -57.5	   73565652371.6	191988432160.8	17.4	
2014-05-07-09-12	    3.0	 -46.0	   64546973694.0	157038375122.9	16.2	
2014-05-07-09-12	   45.5	 -31.0	   50380598911.9	102750144870.5	13.5	
2014-05-07-09-12	   66.0	 -50.5	   25684011039.8	72836648459.3	18.8	
2014-05-07-09-12	  179.0	 -55.5	   19413338773.9	55761531653.9	19.1	
2014-05-07-09-12	 -107.0	 -57.5	   13331669938.6	39124171597.2	19.5	
2014-05-07-09-12	   31.5	 -60.5	    6135318070.0	18100566698.6	19.6	
2014-05-07-09-12	 -180.0	 -55.0	    5340937483.5	13027975104.3	16.2	
2014-05-07-09-12	   71.5	 -53.5	    1838643333.8	4222225488.5	15.2	
2014-05-07-12-15	   81.0	 -61.0	  153698442977.4	575428071597.4	25.1	
2014-05-07-12-15	   60.0	 -60.0	   82556159249.9	230586457401.8	18.7	
2014-05-07-12-15	   50.5	 -60.5	   38520559570.2	109152252619.1	18.9	
2014-05-07-12-15	   66.0	 -50.5	   37438489504.0	108510992401.3	19.4	
2014-05-07-12-15	    3.0	 -46.0	   36771664492.6	84886416832.6	15.4	
2014-05-07-12-15	 -106.5	 -57.5	   24956375099.5	75065298217.7	20.1	
2014-05-07-12-15	  107.0	 -39.5	   33475818600.1	58823194824.8	11.7	
2014-05-07-12-15	   45.0	 -31.0	   29172056051.0	55633174297.4	12.7	
2014-05-07-12-15	   74.5	 -60.5	   10795119313.8	36929134606.0	22.8	
2014-05-07-12-15	  179.0	 -55.0	    7091743525.4	20506045719.8	19.3	
2014-05-07-12-15	 -180.0	 -55.0	    5362965897.5	12716425755.0	15.8	
2014-05-07-15-18	   81.5	 -61.5	  128481220702.8	466052526662.0	24.5	
2014-05-07-15-18	   60.0	 -59.5	   66489219590.7	185690257773.7	18.8	
2014-05-07-15-18	   50.5	 -60.0	   57579296925.8	164968402841.4	19.3	
2014-05-07-15-18	   66.0	 -50.5	   45260633898.3	137464703913.1	20.4	
2014-05-07-15-18	 -105.5	 -57.5	   33395769979.9	96816096200.1	19.5	
2014-05-07-15-18	   45.0	 -31.0	    7962504646.1	14118588560.7	11.9	
2014-05-07-18-21	   82.0	 -62.0	  101971763378.7	356776776051.1	23.8	
2014-05-07-18-21	   50.0	 -60.0	   95415009610.3	267090338184.7	19.0	
2014-05-07-18-21	   66.0	 -51.0	   59022458171.7	177788055634.9	20.4	
2014-05-07-18-21	 -105.0	 -57.0	   52406636317.2	153848227809.3	19.9	
2014-05-07-18-21	   60.0	 -59.5	   47481052039.0	131322404954.4	18.7	
2014-05-07-18-21	   71.0	 -53.5	   14752233829.4	49560226142.0	22.7	
2014-05-07-18-21	   37.0	 -60.5	    3044239773.6	8712533177.6	19.4	
2014-05-07-21-24	   49.0	 -60.0	  128496518273.9	362219853717.6	19.3	
2014-05-07-21-24	   82.0	 -62.0	   74907630804.8	253276709810.8	23.1	
2014-05-07-21-24	   66.0	 -51.0	   62954643557.7	185289594627.8	20.1	
2014-05-07-21-24	 -104.5	 -57.0	   61001215793.2	175883578184.3	19.7	
2014-05-07-21-24	   71.0	 -53.5	   18386013817.4	63600339281.2	23.6	
2014-05-07-21-24	   60.0	 -59.5	   20557203808.7	55730078468.7	18.5	
2014-05-07-21-24	   38.5	 -61.0	   18241670056.4	53665517135.4	20.1	
2014-05-08-00-03	   49.0	 -60.0	  119223755967.1	335983517112.8	19.4	
2014-05-08-00-03	 -103.5	 -56.5	   79845246585.5	233417022578.7	20.1	
2014-05-08-00-03	   66.0	 -51.0	   57014963678.7	167067778098.3	20.1	
2014-05-08-00-03	   83.0	 -62.0	   33589945745.2	110079608118.5	22.5	
2014-05-08-00-03	   39.5	 -60.5	   32010773939.2	94277218630.6	20.2	
2014-05-08-00-03	   71.0	 -53.5	   18386013817.4	66655780226.4	24.9	
2014-05-08-03-06	   46.5	 -60.0	  121502064791.4	341982657664.0	19.5	
2014-05-08-03-06	 -102.5	 -57.5	  102112240348.1	304159540984.4	20.6	
2014-05-08-03-06	   66.0	 -51.0	   47122360803.5	133128494150.9	19.5	
2014-05-08-03-06	   71.0	 -53.5	   22084633014.6	76964046473.4	24.0	
2014-05-08-03-06	   83.5	 -62.0	    5828454462.6	17730537392.6	21.0	
2014-05-08-03-06	   74.0	 -59.0	    1592022819.7	3741841402.3	16.2	
2014-05-08-06-09	 -102.0	 -58.5	  125456590698.3	384339197974.5	21.3	
2014-05-08-06-09	   45.0	 -60.0	   69804754384.7	196213214930.7	19.5	
2014-05-08-06-09	   66.0	 -51.0	   29408061796.1	88142300869.1	20.7	
2014-05-08-06-09	  121.5	 -37.0	   39609970598.6	81164533168.5	14.2	
2014-05-08-06-09	   71.0	 -53.5	   18386013817.4	65387583712.3	24.6	
2014-05-08-09-12	 -101.5	 -59.5	  144556898528.0	487123907844.1	23.4	
2014-05-08-09-12	  122.0	 -37.5	  171709259725.2	368189919399.8	14.9	
2014-05-08-09-12	 -157.5	 -63.0	   26782226837.9	122178278576.4	31.6	
2014-05-08-09-12	   44.5	 -60.0	   31259947751.1	86872151621.2	19.2	
2014-05-08-09-12	   66.0	 -51.0	   15729041122.6	45749120705.4	20.1	
2014-05-08-09-12	   71.0	 -54.0	    9149709989.4	28133718525.8	21.3	
2014-05-08-12-15	 -101.0	 -60.0	  165060686168.9	582892014743.2	24.6	
2014-05-08-12-15	  122.5	 -38.0	  243648176681.2	510068878163.4	14.6	
2014-05-08-12-15	 -157.5	 -63.0	   50852776681.0	229125391105.4	31.2	
2014-05-08-15-18	 -100.5	 -60.5	  175315846426.4	644386007109.8	25.6	
2014-05-08-15-18	  122.0	 -38.5	  259670016699.4	503642498825.7	13.5	
2014-05-08-15-18	 -157.5	 -63.0	   58445216611.5	237545792558.8	28.1	
2014-05-08-15-18	   26.5	 -48.0	   85495964236.8	198521665619.0	16.1	
2014-05-08-15-18	 -163.0	 -62.5	    7160375000.0	26219250850.8	25.3	
2014-05-08-18-21	 -100.0	 -60.5	  207266587216.8	763386706939.0	25.6	
2014-05-08-18-21	  122.0	 -39.0	  207104626086.1	391581006470.7	13.1	
2014-05-08-18-21	 -162.0	 -63.0	   88202271941.6	355020112914.2	27.9	
2014-05-08-18-21	   27.0	 -47.5	  102734938887.8	247527919047.7	16.7	
2014-05-08-21-24	  -99.5	 -61.5	  197232767822.4	711469653801.0	25.1	
2014-05-08-21-24	  122.5	 -39.5	  124033991111.1	231255687195.7	12.9	
2014-05-08-21-24	   27.5	 -47.0	   92928046592.1	223842739712.1	16.7	
2014-05-08-21-24	 -163.5	 -63.0	   49666132448.5	191841208150.2	26.7	
2014-05-08-21-24	   13.5	 -44.5	    4409425128.5	10411950217.4	16.3	
2014-05-09-00-03	  -98.5	 -62.0	  179808239038.6	652215812086.9	25.3	
2014-05-09-00-03	   28.5	 -47.0	   57309173688.4	132845680498.7	16.1	
2014-05-09-00-03	  123.0	 -40.0	   35654720618.2	65103549112.3	12.7	
2014-05-09-00-03	   13.5	 -45.0	    8742722135.2	17038626214.1	13.5	
2014-05-09-03-06	  -97.5	 -62.5	  182250229266.7	668057037784.8	25.7	
2014-05-09-03-06	   29.5	 -46.5	   17158133603.3	39031340087.2	15.8	
2014-05-09-06-09	  -96.5	 -63.0	  177065937699.1	645092145724.6	25.6	
2014-05-09-06-09	  178.0	 -64.5	   20227790565.1	80548858602.1	27.7	
2014-05-09-09-12	  -95.0	 -63.5	  162196062941.7	607700688866.0	26.2	
2014-05-09-09-12	 -173.5	 -65.0	   78947426859.4	317994477574.7	28.0	
2014-05-09-09-12	  177.5	 -64.5	   36341873300.1	159227847007.6	30.4	
2014-05-09-09-12	 -180.0	 -64.0	   19017695381.5	83323893102.2	30.4	
2014-05-09-09-12	  111.5	 -57.0	    3367043498.2	9357057555.4	19.3	
2014-05-09-12-15	 -176.5	 -64.5	  150757619865.9	646771392439.6	29.8	
2014-05-09-12-15	  -94.0	 -64.0	  155101449837.8	556374999179.2	24.9	
2014-05-09-12-15	  175.0	 -64.5	   89402839848.1	412257491475.2	31.9	
2014-05-09-12-15	   -2.0	 -52.5	   41610316662.8	100653587262.9	16.7	
2014-05-09-12-15	  103.5	 -60.5	    6135318070.0	17837529771.8	20.0	
2014-05-09-15-18	 -176.5	 -64.5	  160726724507.0	670475224567.5	28.7	
2014-05-09-15-18	  173.0	 -64.0	  135176067801.9	624738768234.1	31.8	
2014-05-09-15-18	  -93.0	 -65.0	  138362001927.8	472227654698.9	23.5	
2014-05-09-15-18	  105.5	 -59.5	   77607072616.9	223928224711.7	19.8	
2014-05-09-15-18	   -1.5	 -52.5	   77530780887.6	191205116947.1	16.9	
2014-05-09-18-21	  172.0	 -63.5	  165996797772.0	809820463766.7	33.5	
2014-05-09-18-21	 -173.0	 -64.5	   82167588102.0	309934824590.3	25.7	
2014-05-09-18-21	  104.5	 -59.5	   99269742907.1	287697106681.7	19.7	
2014-05-09-18-21	   -1.0	 -52.0	   94677600889.7	239607691053.7	17.2	
2014-05-09-18-21	  -92.0	 -66.5	   41412849864.0	145462246215.4	23.9	
2014-05-09-18-21	 -180.0	 -64.0	   20324041571.8	93192287641.6	31.2	
2014-05-09-21-24	  171.5	 -63.5	  190065416844.7	906098266613.1	32.7	
2014-05-09-21-24	   -1.5	 -52.0	  102183336251.8	257601668305.9	17.1	
2014-05-09-21-24	  105.0	 -59.5	   41229472465.4	121515969468.2	20.0	
2014-05-09-21-24	   99.0	 -60.5	   18405954210.0	52672724714.7	19.4	
2014-05-09-21-24	 -180.0	 -64.0	   12195044164.1	52174071483.7	29.0	
2014-05-09-21-24	 -174.0	 -64.5	    9388091542.8	32956656012.8	23.8	
2014-05-10-00-03	  171.5	 -63.5	  180993443323.0	827850396426.6	31.4	
2014-05-10-00-03	   -2.0	 -52.5	  105925613207.4	265294355163.3	17.1	
2014-05-10-03-06	  171.5	 -63.5	  128715259105.4	578544410308.8	30.9	
2014-05-10-03-06	   -3.5	 -52.5	  111547743776.6	276215954544.0	17.0	
2014-05-10-03-06	   81.5	 -60.5	    6135318070.0	16303843825.4	18.1	
2014-05-10-06-09	  170.5	 -63.5	   65373899170.0	298773909416.6	31.6	
2014-05-10-06-09	   -4.0	 -52.5	  109130110512.5	280865532678.4	17.8	
2014-05-10-06-09	   81.5	 -60.5	    1522119886.8	4005724110.5	18.1	
2014-05-10-09-12	   -4.0	 -53.0	  101453040585.3	267592763940.3	18.5	
2014-05-10-09-12	  172.0	 -64.0	    5468542619.9	23636796476.4	30.2	
2014-05-10-12-15	   -3.5	 -53.0	   89736410894.6	235470005093.2	18.6	
2014-05-10-12-15	  108.0	 -49.5	    4014988985.9	7821176490.8	13.8	
2014-05-10-12-15	   34.0	 -34.0	    2562619479.0	5971365226.6	16.5	
2014-05-10-15-18	   -3.5	 -53.0	   70749643858.0	183386219862.2	18.6	
2014-05-10-15-18	   33.5	 -34.5	   25640597218.5	58603760963.1	16.3	
2014-05-10-15-18	   83.5	 -61.5	    1474934803.7	5551433759.7	26.9	
2014-05-10-18-21	   -3.0	 -53.5	   49966026526.8	131673092860.0	19.0	
2014-05-10-18-21	   33.5	 -34.5	   35920071419.5	77354969748.6	15.5	
2014-05-10-18-21	   83.0	 -61.5	    4448453791.6	16894237475.4	27.3	
2014-05-10-21-24	  154.0	 -61.0	   54559226096.7	167160117955.2	22.1	
2014-05-10-21-24	   82.5	 -61.5	   34277336192.2	117501585711.0	24.7	
2014-05-10-21-24	   34.0	 -34.0	   43637511664.5	94816480713.8	15.6	
2014-05-10-21-24	   25.5	 -45.5	   28298452435.4	60802381573.7	15.5	
2014-05-10-21-24	   -3.0	 -53.5	   22084913984.6	57133805002.9	18.6	
2014-05-11-00-03	  156.0	 -61.0	  105927702887.0	369603803791.4	25.2	
2014-05-11-00-03	   81.5	 -61.5	   62983848036.8	220533137241.2	25.2	
2014-05-11-00-03	   26.0	 -46.0	   49789387617.1	105385256229.8	15.2	
2014-05-11-00-03	   34.0	 -34.5	   41105449005.2	88540323024.3	15.5	
2014-05-11-03-06	  157.5	 -61.0	  111190007194.2	399240838550.4	25.9	
2014-05-11-03-06	   81.0	 -61.0	   81505504574.0	303917508534.0	26.9	
2014-05-11-03-06	   27.0	 -46.5	   53696968509.1	110418496338.6	14.8	
2014-05-11-03-06	   34.0	 -34.0	   38558010932.3	80656877226.1	15.0	
2014-05-11-06-09	   80.5	 -61.0	   91245565445.2	329877100925.7	26.0	
2014-05-11-06-09	  158.5	 -61.5	   74472492062.8	281424758474.4	27.2	
2014-05-11-06-09	   27.5	 -47.5	   50728633555.3	111366667524.1	15.8	
2014-05-11-06-09	   34.0	 -34.0	   30840570687.4	63562888771.2	14.8	
2014-05-11-09-12	   80.5	 -60.5	   76634466423.5	260194851670.0	24.4	
2014-05-11-09-12	  158.5	 -61.5	   41698284767.0	152217987926.9	26.2	
2014-05-11-09-12	   27.5	 -48.0	   50055531582.7	116768474893.9	16.8	
2014-05-11-09-12	   34.0	 -34.0	   30840570687.4	62608527733.8	14.6	
2014-05-11-09-12	   -5.0	 -53.5	   14708866990.0	37467239305.1	18.3	
2014-05-11-12-15	   80.0	 -60.0	   32570465378.2	102073806855.3	22.5	
2014-05-11-12-15	   -4.0	 -53.5	   33181052546.2	96805235089.6	21.0	
2014-05-11-12-15	   34.0	 -34.0	   18013072890.6	35567566478.8	14.2	
2014-05-11-12-15	   28.0	 -48.0	   16725904881.2	35337585747.4	15.2	
2014-05-11-12-15	  158.5	 -61.0	    2997168368.2	10986819937.9	26.3	
2014-05-11-15-18	   -3.5	 -53.5	   53469708576.0	153144554385.6	20.6	
2014-05-11-15-18	   76.0	 -57.5	   20179187366.7	62782250310.0	22.3	
2014-05-11-15-18	   34.0	 -34.0	   12887833932.6	21739185856.3	12.1	
2014-05-11-15-18	   74.5	 -59.5	    4752886317.8	7877609849.9	11.9	
2014-05-11-15-18	 -138.5	 -55.5	    1750806041.8	5088832363.5	20.8	
2014-05-11-18-21	   -2.5	 -54.0	   79206090391.2	241280590334.9	21.8	
2014-05-11-18-21	 -138.5	 -55.5	   29917907504.6	95112212072.5	22.7	
2014-05-11-18-21	   76.0	 -57.5	   30143687969.5	93368622005.8	22.1	
2014-05-11-18-21	  145.5	 -55.0	   28321972293.3	82147943890.2	20.7	
2014-05-11-18-21	   74.5	 -59.5	    7913749816.0	14261260429.4	12.9	
2014-05-11-18-21	   34.5	 -33.5	    7747608312.8	11307349545.8	10.4	
2014-05-11-21-24	   -1.5	 -54.0	  118242410410.1	351667471397.5	21.2	
2014-05-11-21-24	  145.0	 -55.0	   81791064025.1	270611126960.8	23.5	
2014-05-11-21-24	 -138.5	 -56.0	   31490608802.6	95603103434.9	21.5	
2014-05-11-21-24	   76.5	 -57.5	   11784394672.4	34291368364.4	20.6	
2014-05-12-00-03	   -2.0	 -53.0	  227976062837.8	721955592897.9	22.5	
2014-05-12-00-03	  145.0	 -55.0	  111992222973.6	384533150249.0	24.3	
2014-05-12-00-03	 -138.5	 -56.0	   22804135565.2	68943353324.7	21.3	
2014-05-12-00-03	 -142.0	 -60.5	    7657437956.8	22951097245.3	21.1	
2014-05-12-03-06	   -2.0	 -53.0	  344499232017.1	1340780471210.8	27.6	
2014-05-12-03-06	  145.0	 -55.0	  117310191300.5	399872027614.2	23.9	
2014-05-12-03-06	 -141.5	 -62.0	   23550424410.8	79689072443.5	23.6	
2014-05-12-03-06	  -10.5	 -48.0	   18594571836.6	57985878965.2	21.7	
2014-05-12-03-06	 -138.5	 -55.5	   15779150504.2	47493899697.9	21.0	
2014-05-12-06-09	   -2.0	 -53.5	  462177781025.4	2024491933585.0	30.9	
2014-05-12-06-09	  145.0	 -55.0	   85315525139.2	288856108056.1	23.4	
2014-05-12-06-09	  -10.5	 -48.5	   18594571836.6	57433394952.8	21.2	
2014-05-12-06-09	 -141.0	 -62.5	   15723853495.8	52629423939.3	23.0	
2014-05-12-06-09	    7.5	 -47.5	   18754306856.1	46030661157.8	16.9	
2014-05-12-06-09	 -138.0	 -55.5	   10571327195.1	31046668162.5	20.2	
2014-05-12-09-12	   -1.0	 -54.0	  626113573435.9	2661128645656.1	30.0	
2014-05-12-09-12	  145.0	 -55.0	   39157905581.0	127151113866.6	22.2	
2014-05-12-09-12	   -3.0	 -59.5	   17395858700.4	57597298343.2	22.6	
2014-05-12-09-12	 -139.5	 -63.5	   11130206492.6	41578438039.7	25.5	
2014-05-12-09-12	  -10.5	 -48.0	    4136669064.4	12398885556.3	20.4	
2014-05-12-09-12	 -138.0	 -55.5	    3523775731.7	12036966552.8	23.3	
2014-05-12-12-15	    1.0	 -54.0	  883757632875.5	3369004184616.2	27.1	
2014-05-12-12-15	  166.0	  43.0	   29276804418.6	64411817932.5	14.9	
2014-05-12-12-15	  138.5	 -52.0	   22963211180.4	61868683170.0	18.3	
2014-05-12-12-15	  145.0	 -55.0	   12476873070.9	39127974757.7	21.3	
2014-05-12-12-15	 -138.5	 -64.0	    6847774630.8	21596162905.2	21.4	
2014-05-12-12-15	 -138.0	 -55.5	    3523775731.7	11449415156.6	22.1	
2014-05-12-12-15	   39.0	 -46.0	    2147243427.7	5137192098.7	16.2	
2014-05-12-15-18	    4.0	 -54.0	 1074180055320.1	3958944590265.5	26.3	
2014-05-12-15-18	  166.5	  42.5	   61142303066.2	134742161161.4	14.9	
2014-05-12-15-18	  138.5	 -52.0	   32562796648.3	94946322615.6	19.8	
2014-05-12-15-18	   -7.0	 -60.0	   23159197037.2	68195602082.3	20.0	
2014-05-12-15-18	  -33.0	 -49.0	   12228417869.0	26280065332.3	14.6	
2014-05-12-15-18	   39.0	 -45.5	    4333130635.6	8630091891.3	13.5	
2014-05-12-18-21	    6.5	 -53.5	 1254677075468.8	4468458189942.2	25.7	
2014-05-12-18-21	  166.5	  42.5	   93095701279.8	204474007952.8	15.0	
2014-05-12-18-21	  138.5	 -52.0	   38440410537.8	113571621590.4	20.1	
2014-05-12-18-21	  -30.0	 -49.0	    2027929392.6	4730608717.5	15.8	
2014-05-12-21-24	    6.5	 -54.0	 1147970975409.5	3990348329628.6	25.1	
2014-05-12-21-24	  167.0	  42.5	  113656955846.4	247254065596.4	15.0	
2014-05-12-21-24	    7.5	 -49.0	   73195560388.2	186210408487.0	17.5	
2014-05-12-21-24	    9.0	 -59.5	   25609634328.1	60239175842.2	16.1	
2014-05-12-21-24	  138.5	 -52.0	   21123703011.9	55768344583.5	18.1	
2014-05-13-00-03	    6.0	 -53.5	  601635899859.7	1997743619845.7	23.6	
2014-05-13-00-03	    1.0	 -61.0	  309570773442.0	1058570916480.4	24.0	
2014-05-13-00-03	  167.0	  42.0	  104983542830.1	222785433820.1	14.7	
2014-05-13-00-03	    7.5	 -49.0	   46777680480.9	130247034462.6	19.3	
2014-05-13-00-03	   11.5	 -58.0	   39698322111.7	103828648921.7	18.1	
2014-05-13-03-06	    5.5	 -54.0	  491311468001.8	1536967071284.5	22.3	
2014-05-13-03-06	    1.0	 -61.0	  216086945591.7	699382791125.2	22.8	
2014-05-13-03-06	  167.0	  42.0	   80120304024.0	163677380627.4	14.3	
2014-05-13-03-06	    7.5	 -48.5	   10280985727.3	29950401057.4	20.4	
2014-05-13-03-06	   11.5	 -58.0	    3298855863.9	7991842083.8	16.9	
2014-05-13-03-06	  -48.5	  50.0	    1986906671.9	6738178563.8	23.7	
2014-05-13-06-09	    4.0	 -53.5	  358345283717.1	1093712108374.4	21.8	
2014-05-13-06-09	    1.5	 -61.0	  117188795324.0	358697469214.8	21.7	
2014-05-13-06-09	  167.5	  42.0	   38922840025.9	78555733927.3	14.2	
2014-05-13-06-09	   12.0	 -52.0	   19008958321.0	54359236748.2	20.2	
2014-05-13-09-12	    3.0	 -53.0	  344556871762.4	975574166266.0	20.4	
2014-05-13-09-12	    0.5	 -61.5	   29971115294.0	84707176998.7	20.1	
2014-05-13-12-15	    1.5	 -52.5	  316368429663.3	887758157697.8	20.3	
2014-05-13-15-18	    0.5	 -52.0	  276072177297.6	774450906012.0	20.4	
2014-05-13-18-21	   -2.0	 -52.0	  213736005754.3	570622046930.8	19.5	
2014-05-13-21-24	   -3.0	 -52.5	  178846411129.5	465087694639.0	19.0	
2014-05-14-00-03	   -4.5	 -52.5	  195626658918.8	517008564764.4	19.4	
2014-05-14-00-03	  -40.5	  61.0	    4472103632.6	18340927055.9	29.8	
2014-05-14-00-03	  -10.0	 -48.5	    4136669064.4	9509388795.2	16.7	
2014-05-14-03-06	   -5.0	 -52.5	  235810853460.1	664817873686.1	20.7	
2014-05-14-03-06	  -41.0	  60.5	   18076579657.3	82932445423.4	33.4	
2014-05-14-03-06	  -10.0	 -48.0	    4136669064.4	9195040280.7	16.2	
2014-05-14-06-09	   -5.5	 -52.0	  253401571742.3	749588529097.3	21.7	
2014-05-14-06-09	  -41.0	  60.5	   19669303335.8	83165269621.7	30.7	
2014-05-14-06-09	  130.5	 -56.5	   20495000927.0	63011359107.2	22.3	
2014-05-14-06-09	  -10.5	 -48.5	   12349633287.6	31995772107.5	18.8	
2014-05-14-06-09	  122.5	 -56.0	    6958629351.0	14950930553.3	15.6	
2014-05-14-09-12	   -5.5	 -52.0	  234631509380.1	691686876343.5	21.6	
2014-05-14-09-12	  129.0	 -57.0	   86892620070.6	266589917159.3	22.4	
2014-05-14-09-12	   60.0	 -35.5	   50465776846.1	105492985436.9	15.2	
2014-05-14-09-12	  122.0	 -55.5	   29696275446.0	81385119750.2	19.9	
2014-05-14-09-12	  -41.0	  60.0	   10654605864.4	44626649947.6	30.4	
2014-05-14-09-12	  -10.0	 -48.5	   14437935296.0	37861481634.2	19.0	
2014-05-14-09-12	  -95.0	 -55.0	   10747823685.2	28459681911.7	19.2	
2014-05-14-12-15	   -5.0	 -52.5	  188932566016.8	527269812956.3	20.5	
2014-05-14-12-15	  127.5	 -57.0	  150029513277.9	445636443422.4	21.8	
2014-05-14-12-15	   61.0	 -37.0	  179474468549.5	376566158031.1	15.4	
2014-05-14-12-15	  -94.0	 -55.5	   38758846054.4	112517225295.5	21.2	
2014-05-14-12-15	  -10.0	 -48.0	    4136669064.4	10314985039.5	18.2	
2014-05-14-12-15	   63.0	 -41.0	    4683340447.2	7669428892.2	11.9	
2014-05-14-15-18	   61.5	 -39.0	  342880805205.9	752711028689.3	16.2	
2014-05-14-15-18	  129.0	 -57.5	  150262429827.3	442839426968.1	21.7	
2014-05-14-15-18	   -4.5	 -52.5	  131980627678.8	336810071071.1	18.7	
2014-05-14-15-18	  -93.5	 -56.0	   47023175456.9	142344001805.9	22.2	
2014-05-14-18-21	   61.5	 -40.0	  389037943522.5	896559353054.9	17.2	
2014-05-14-18-21	  131.0	 -58.0	  111189582975.6	329810216701.1	21.9	
2014-05-14-18-21	   -4.5	 -52.5	   43297505208.2	100577207734.7	17.1	
2014-05-14-18-21	  -93.0	 -56.0	   24176168480.7	71416762736.4	21.8	
2014-05-14-18-21	  123.5	 -56.0	    1728508633.7	4341755791.1	18.5	
2014-05-14-21-24	   61.0	 -40.0	  338078385264.6	789783965617.3	17.6	
2014-05-14-21-24	  133.0	 -58.5	   71446586823.2	214142199183.5	22.3	
2014-05-15-00-03	   61.0	 -40.5	  283222724613.0	646640540029.1	17.3	
2014-05-15-00-03	  134.0	 -59.0	   53108864650.0	159608646994.0	22.6	
2014-05-15-03-06	   60.5	 -40.5	  228409288680.9	489659210481.9	16.4	
2014-05-15-03-06	  135.0	 -59.5	   43074188619.6	122997235843.3	21.7	
2014-05-15-06-09	   60.5	 -41.0	  161736319153.1	323605802609.7	15.4	
2014-05-15-06-09	  136.0	 -60.0	   26784645390.6	76356121474.2	21.9	
2014-05-15-09-12	   61.5	 -41.5	  120921533119.0	230938258503.8	14.9	
2014-05-15-09-12	  137.0	 -60.0	    3091078296.4	8579111546.2	21.6	
2014-05-15-12-15	   62.0	 -42.0	   90152541787.9	172381260320.5	15.1	
2014-05-15-12-15	  -88.0	 -52.5	   28545140198.1	84448304166.9	23.3	
2014-05-15-15-18	  -87.5	 -53.0	   60125859846.3	187190694532.7	24.8	
2014-05-15-15-18	   61.5	 -41.5	   90349576353.6	171215166105.0	15.1	
2014-05-15-18-21	   61.0	 -41.5	  134630641346.3	256706377354.9	15.4	
2014-05-15-18-21	  -87.5	 -53.5	   46503876076.3	137881860085.7	24.0	
2014-05-15-21-24	   61.5	 -41.5	  189693177698.0	377698369286.3	16.3	
2014-05-15-21-24	  -87.0	 -53.5	    5515930001.3	15516759471.4	22.9	
2014-05-16-00-03	   61.5	 -42.0	  226262052991.4	480366535225.2	17.5	
2014-05-16-03-06	   61.5	 -42.0	  244933206555.2	552218924753.5	18.7	
2014-05-16-06-09	   62.0	 -42.0	  279546833951.6	649855973320.8	19.3	
2014-05-16-06-09	   68.0	 -45.5	   10871140206.5	19962346725.7	15.1	
2014-05-16-06-09	   72.5	 -48.0	    4176604016.8	12148214228.6	23.9	
2014-05-16-06-09	   71.5	 -46.0	    2147243427.7	3610797827.9	13.8	
2014-05-16-09-12	   62.0	 -41.5	  282323330902.3	682218353814.1	20.1	
2014-05-16-09-12	   69.5	 -46.5	   79653506046.7	188317625947.4	19.5	
2014-05-16-12-15	   62.0	 -41.5	  285368978289.4	702297801773.7	20.4	
2014-05-16-12-15	   69.5	 -46.5	  101143941009.7	248374360732.6	20.2	
2014-05-16-15-18	   62.0	 -41.0	  302716907198.1	733889036178.4	20.1	
2014-05-16-15-18	   70.0	 -46.5	   77701422516.3	181959566802.9	19.2	
2014-05-16-15-18	  157.0	 -62.5	   12988829462.7	46192184691.2	29.2	
2014-05-16-18-21	   62.0	 -40.5	  310115939931.3	733405682851.8	19.5	
2014-05-16-18-21	   71.0	 -46.5	   52013751128.8	97305480774.5	15.3	
2014-05-16-18-21	  157.0	 -62.5	   17199007548.2	61376907516.9	29.2	
2014-05-16-21-24	   62.5	 -41.0	  323010798665.7	721813569959.0	18.4	
2014-05-16-21-24	   43.5	 -52.5	   58480884597.4	165927166542.4	23.1	
2014-05-16-21-24	  157.0	 -62.5	   21432947217.9	72127446025.3	27.4	
2014-05-16-21-24	   71.5	 -46.0	   12960748126.5	20933181413.4	13.1	
2014-05-16-21-24	   51.5	 -53.5	    1838643333.8	2535774044.6	11.2	
2014-05-17-00-03	   63.5	 -41.0	  286110027643.8	608628342258.9	17.4	
2014-05-17-00-03	   43.0	 -52.5	   92368735798.4	276115319764.6	24.3	
2014-05-17-00-03	   47.5	 -53.0	    9322615407.0	18361056669.2	16.0	
2014-05-17-00-03	  157.5	 -62.5	    4281901335.3	12188777599.4	23.1	
2014-05-17-00-03	   51.5	 -53.5	    1838643333.8	2484990385.1	10.9	
2014-05-17-03-06	   64.0	 -41.5	  204622688284.9	413362848214.0	16.4	
2014-05-17-03-06	   43.0	 -53.0	  112893975910.8	351937958201.1	25.3	
2014-05-17-03-06	   47.5	 -53.0	   11161258740.8	21580802458.2	15.6	
2014-05-17-06-09	   43.0	 -53.0	  125785102074.4	397478564578.5	25.5	
2014-05-17-06-09	   64.5	 -41.5	  111520871993.1	209561926728.8	15.1	
2014-05-17-06-09	   47.5	 -53.0	    9322615407.0	18252633514.8	15.7	
2014-05-17-09-12	   42.5	 -53.0	  121893259001.2	388054335047.6	25.6	
2014-05-17-09-12	   64.0	 -41.5	   16329707563.5	30089917831.2	14.8	
2014-05-17-12-15	   42.0	 -53.0	  110412809164.9	362313575043.8	26.3	
2014-05-17-15-18	   41.5	 -53.0	  102799024176.2	339843823497.7	26.5	
2014-05-17-18-21	   41.5	 -53.0	   91682265551.1	305460374043.5	26.6	
2014-05-17-21-24	   41.5	 -53.0	   84242234233.0	270480029902.4	25.5	
2014-05-17-21-24	  164.5	 -51.0	   11796705947.3	31479917019.0	21.1	
2014-05-17-21-24	  159.0	 -55.0	    5318773835.5	13442749568.7	20.0	
2014-05-18-00-03	   41.5	 -53.0	   73082255241.3	229308229431.7	24.8	
2014-05-18-00-03	  165.0	 -51.0	   44843327168.8	147385804606.0	25.9	
2014-05-18-00-03	 -142.5	 -43.0	   61474622736.9	137956294953.0	17.7	
2014-05-18-00-03	  164.0	 -57.5	   25138623091.0	69496929833.5	21.8	
2014-05-18-03-06	 -142.5	 -43.5	   97420295955.7	230598732485.9	18.6	
2014-05-18-03-06	  164.5	 -51.0	   62432304358.4	202626175423.4	25.5	
2014-05-18-03-06	   41.5	 -52.5	   60168945715.7	196375182337.7	25.6	
2014-05-18-06-09	 -143.0	 -43.5	  101333658012.0	236378989953.2	18.2	
2014-05-18-06-09	  164.5	 -51.0	   56577367601.1	173687519644.7	24.0	
2014-05-18-06-09	   41.5	 -52.5	   41460300624.9	135787723878.7	25.6	
2014-05-18-09-12	 -143.0	 -43.5	   96663777223.9	220938496521.0	17.8	
2014-05-18-09-12	   41.5	 -52.5	   33848933820.4	113528461343.6	26.0	
2014-05-18-09-12	  164.0	 -51.0	   27379228693.5	66351116429.4	18.8	
2014-05-18-09-12	   48.5	 -38.5	   19419250750.5	49516869332.6	19.8	
2014-05-18-09-12	  172.5	 -57.5	   18427861392.3	48346470370.7	20.3	
2014-05-18-12-15	 -143.0	 -43.5	   97141364079.5	223879095268.5	17.8	
2014-05-18-12-15	   41.5	 -52.5	   30085475414.0	97595119819.3	25.1	
2014-05-18-12-15	   49.5	 -38.0	   19469349261.8	47020340091.0	18.6	
2014-05-18-15-18	 -142.5	 -43.0	  109298102916.9	250841794026.4	17.7	
2014-05-18-15-18	   42.0	 -52.5	   31967204617.2	105712045133.4	25.5	
2014-05-18-15-18	 -131.5	 -44.5	   24383426852.6	51111638845.9	16.1	
2014-05-18-15-18	 -173.5	 -25.5	    5591429303.2	11094475356.7	15.2	
2014-05-18-18-21	 -142.0	 -42.5	  100750063674.8	213738163976.1	16.3	
2014-05-18-18-21	   41.5	 -52.5	   20698589554.7	62137739260.5	23.0	
2014-05-18-18-21	 -130.5	 -45.0	   30769850085.9	59554553973.3	14.9	
2014-05-18-18-21	 -174.0	 -25.0	   28059211574.5	52205897621.0	14.3	
2014-05-18-21-24	 -173.5	 -25.0	   42008166084.0	79917716200.8	14.6	
2014-05-18-21-24	 -141.0	 -43.0	   38685673552.4	75442735613.9	15.0	
2014-05-19-00-03	 -173.0	 -25.5	   47508400089.6	90292603009.1	14.6	
2014-05-19-00-03	 -129.5	 -42.0	   20619131616.3	46991358550.2	17.5	
2014-05-19-03-06	 -173.0	 -25.5	   50263842716.9	91181341448.9	13.9	
2014-05-19-03-06	 -138.5	 -44.0	   46877371757.6	90553305908.5	14.8	
2014-05-19-03-06	 -129.5	 -42.5	   36607754351.6	82292804676.0	17.2	
2014-05-19-06-09	 -135.5	 -45.5	  283741101306.7	649482753900.5	17.7	
2014-05-19-06-09	 -172.0	 -26.0	   47287445675.3	87285550430.8	14.1	
2014-05-19-09-12	 -135.0	 -45.0	  394232297407.7	970912557464.9	19.1	
2014-05-19-09-12	 -171.5	 -26.5	   52713755837.6	94685847194.6	13.7	
2014-05-19-12-15	 -134.0	 -44.5	  419287778261.0	1040134709047.4	19.2	
2014-05-19-12-15	  -32.0	 -39.0	   21754670359.5	54497483083.0	19.2	
2014-05-19-12-15	 -171.0	 -26.5	   30440729235.3	54078373847.9	13.6	
2014-05-19-15-18	 -133.5	 -44.0	  408875816494.7	971830640736.6	18.5	
2014-05-19-15-18	  -31.5	 -39.0	   67646770350.3	148615879046.4	16.9	
2014-05-19-18-21	 -133.0	 -43.5	  357247582508.5	807024412774.1	17.6	
2014-05-19-18-21	  -31.0	 -39.0	   74514297998.9	139881692497.2	14.5	
2014-05-19-21-24	 -132.0	 -43.5	  254820642346.8	544243090012.5	16.7	
2014-05-19-21-24	  -28.5	 -40.5	  115986436947.9	232199025598.5	15.6	
2014-05-20-00-03	 -131.0	 -43.0	  138047149192.8	281301522898.1	16.0	
2014-05-20-00-03	  -27.0	 -40.5	   98907506844.0	191420740462.3	15.2	
2014-05-20-03-06	 -130.5	 -43.5	   69700362158.0	140176715505.0	15.9	
2014-05-20-06-09	 -130.0	 -44.0	   28904094716.3	58414440466.6	16.0	
2014-05-20-12-15	 -172.5	 -27.5	   32975103402.2	75272219201.6	18.3	
2014-05-20-15-18	 -172.0	 -28.0	   46521554890.9	98892046453.1	17.1	
2014-05-20-15-18	 -136.0	 -54.5	    3589996207.6	9908942028.9	22.2	
2014-05-20-18-21	 -137.0	 -54.5	   46931416561.2	135494928636.7	23.3	
2014-05-20-18-21	 -172.0	 -28.5	   62756673039.6	123650134148.1	15.9	
2014-05-20-18-21	  -17.5	 -45.0	    2185722126.6	5290489697.1	19.5	
2014-05-20-21-24	 -139.0	 -54.5	   88364259879.6	249748275823.7	22.8	
2014-05-20-21-24	 -171.5	 -28.5	   84396547913.9	157036453246.9	15.0	
2014-05-20-21-24	 -113.5	 -48.5	   55759345925.2	142508340917.0	20.6	
2014-05-20-21-24	  -16.0	 -45.5	   32592775314.8	93753582808.0	23.1	
2014-05-21-00-03	 -113.5	 -48.5	  115944758323.5	315368367380.4	21.8	
2014-05-21-00-03	 -139.5	 -55.0	   83829159924.5	242545112674.8	23.2	
2014-05-21-00-03	 -172.0	 -29.0	  119343959893.9	224057040805.0	15.0	
2014-05-21-00-03	  -15.0	 -46.0	   49383159763.6	161259665078.0	26.2	
2014-05-21-00-03	 -166.0	 -34.0	   12843070718.5	22590450764.4	14.1	
2014-05-21-03-06	 -172.0	 -29.5	  194485238414.8	385592078217.7	15.9	
2014-05-21-03-06	 -114.0	 -48.0	  142742177806.4	375423800653.8	21.0	
2014-05-21-03-06	  -14.0	 -47.0	   57425758722.0	196065338753.3	27.2	
2014-05-21-03-06	 -165.5	 -34.0	   74265937129.2	137964366456.6	14.8	
2014-05-21-03-06	 -139.0	 -55.0	   49617744261.3	134788370565.2	21.7	
2014-05-21-06-09	 -172.5	 -29.5	  263926402737.4	548883696389.3	16.6	
2014-05-21-06-09	 -114.5	 -48.5	  147906339303.7	373117375451.9	20.1	
2014-05-21-06-09	  -13.5	 -47.0	   69600659274.0	208018939401.9	23.8	
2014-05-21-06-09	 -164.5	 -34.5	   99676100283.1	187549690514.9	15.0	
2014-05-21-06-09	 -139.0	 -55.0	   14227679112.7	34242746449.5	19.1	
2014-05-21-09-12	 -172.0	 -30.0	  308967490572.0	644239444528.7	16.7	
2014-05-21-09-12	  -10.5	 -48.0	   81136979021.1	274494618731.8	26.9	
2014-05-21-09-12	 -164.0	 -34.5	  122431012489.4	231486534189.9	15.0	
2014-05-21-09-12	 -113.5	 -48.0	   62521150010.1	150965548704.0	19.2	
2014-05-21-09-12	 -117.5	 -50.5	   49440470267.4	120523648676.9	19.3	
2014-05-21-09-12	 -139.0	 -55.0	   28542927076.0	78755587483.9	21.9	
2014-05-21-12-15	 -171.5	 -30.0	  327246860165.3	679989161615.7	16.6	
2014-05-21-12-15	 -163.5	 -35.0	  147284639358.9	277407676863.5	14.9	
2014-05-21-12-15	  -10.5	 -48.0	   78969129348.2	248574333126.0	24.9	
2014-05-21-12-15	 -118.0	 -51.0	   60062929943.2	153155672575.2	20.2	
2014-05-21-12-15	 -138.5	 -55.0	   37473317251.5	117319146364.2	24.7	
2014-05-21-12-15	 -113.5	 -48.0	   20742457165.5	48834551144.0	18.6	
2014-05-21-12-15	  142.0	  35.5	   15004026954.5	34032418490.1	17.9	
2014-05-21-15-18	 -171.0	 -30.0	  372392556527.4	737873514939.2	15.7	
2014-05-21-15-18	 -163.0	 -35.5	  197655088714.4	363839900033.1	14.5	
2014-05-21-15-18	 -119.0	 -52.5	   81754432542.5	202268619425.5	19.4	
2014-05-21-15-18	  -10.5	 -48.0	   43493035801.5	128276713332.0	23.1	
2014-05-21-15-18	  142.5	  35.5	   40168015461.5	82230719720.5	16.0	
2014-05-21-15-18	 -138.0	 -55.0	   26792121034.1	78491847457.3	22.9	
2014-05-21-18-21	 -170.0	 -30.0	  401301610317.6	783915111694.0	15.3	
2014-05-21-18-21	 -163.0	 -36.0	  206374007810.8	369713697534.5	13.9	
2014-05-21-18-21	 -119.5	 -53.0	  125295387265.4	324169914964.9	20.1	
2014-05-21-18-21	  144.0	  35.5	  108290789839.1	245219055324.1	17.6	
2014-05-21-18-21	   -6.0	 -50.5	   23759170357.5	58621237483.8	19.1	
2014-05-21-21-24	 -169.5	 -30.0	  385070749278.5	766884457969.1	15.4	
2014-05-21-21-24	 -120.0	 -53.5	  163545800383.6	428344673831.7	20.2	
2014-05-21-21-24	  145.0	  35.5	  150951135305.8	368470375050.2	18.8	
2014-05-21-21-24	 -162.5	 -36.0	  130409898329.4	224285669451.0	13.2	
2014-05-21-21-24	 -152.0	 -59.5	   49210951151.5	145118666745.9	22.6	
2014-05-21-21-24	   -5.0	 -51.0	   15687413164.9	38568292355.1	18.8	
2014-05-22-00-03	 -169.5	 -30.5	  363041068646.5	728476456089.8	15.4	
2014-05-22-00-03	  146.0	  35.5	  213353779921.6	517482667144.5	18.5	
2014-05-22-00-03	 -120.5	 -53.5	  177751829700.9	474426131003.9	20.4	
2014-05-22-00-03	 -151.5	 -59.5	   42681803465.5	122477016199.2	21.8	
2014-05-22-00-03	 -158.5	 -35.0	   38254787590.3	64455876860.5	12.8	
2014-05-22-00-03	   -1.5	 -51.5	   17423358198.4	39662635460.0	17.3	
2014-05-22-00-03	 -153.5	 -62.0	   10229497289.8	25958353672.5	19.2	
2014-05-22-03-06	 -169.5	 -31.5	  372052517828.7	773620850492.3	15.8	
2014-05-22-03-06	  146.0	  36.5	  278568146094.2	692449009756.4	18.8	
2014-05-22-03-06	 -120.5	 -54.0	  177324230811.1	472368162025.1	20.1	
2014-05-22-03-06	 -158.0	 -34.5	   96849799056.6	173423729566.8	13.5	
2014-05-22-03-06	    0.5	 -51.5	   56200045201.0	157135584307.3	21.0	
2014-05-22-03-06	 -153.5	 -62.0	    1451173219.6	4055756266.3	20.9	
2014-05-22-06-09	 -169.5	 -32.5	  367317178039.3	784931920539.4	16.0	
2014-05-22-06-09	  146.5	  38.0	  308802811770.8	782705621728.5	19.0	
2014-05-22-06-09	 -120.5	 -54.0	  156054004632.5	416765897594.8	20.0	
2014-05-22-06-09	 -157.5	 -35.5	  103810077194.6	193091393563.5	13.9	
2014-05-22-06-09	    0.5	 -51.5	   36685631672.7	105550738289.9	21.4	
2014-05-22-09-12	  147.0	  38.5	  321269815886.7	780163792917.4	18.2	
2014-05-22-09-12	 -169.0	 -33.0	  347235952095.5	736324792083.8	15.9	
2014-05-22-09-12	 -120.5	 -54.0	  120616462007.9	320550969803.8	19.8	
2014-05-22-09-12	 -156.5	 -35.5	  111084213341.9	198123243842.1	13.2	
2014-05-22-09-12	 -172.5	 -43.0	   27145847852.7	69832134566.0	19.1	
2014-05-22-09-12	    1.0	 -52.0	    1903057679.5	2461388191.2	9.6	
2014-05-22-12-15	  147.5	  39.0	  347711291744.0	797005456297.8	17.1	
2014-05-22-12-15	 -168.0	 -33.5	  349149313726.7	707705299149.7	15.1	
2014-05-22-12-15	 -121.0	 -54.0	   76541590280.6	198977154701.7	19.2	
2014-05-22-12-15	 -172.5	 -43.0	   54326590885.8	144182679111.6	19.6	
2014-05-22-12-15	 -155.5	 -35.5	   58107121580.1	96698473137.9	12.3	
2014-05-22-15-18	 -167.0	 -33.5	  364433957824.5	726581162363.5	14.8	
2014-05-22-15-18	  148.5	  39.5	  314473174842.2	698559809014.0	16.5	
2014-05-22-15-18	 -172.0	 -43.0	   61052985569.2	167677699793.8	20.2	
2014-05-22-15-18	 -121.0	 -54.5	   38195703567.3	89211581453.0	17.2	
2014-05-22-15-18	 -153.0	 -35.0	   15238502196.3	28389468799.9	13.7	
2014-05-22-18-21	 -166.0	 -34.0	  372061051577.5	754115625198.9	14.9	
2014-05-22-18-21	  149.5	  39.5	  250177943975.1	562111892276.3	16.5	
2014-05-22-18-21	 -172.0	 -43.0	   61052985569.2	163749785313.7	19.6	
2014-05-22-18-21	 -136.5	 -55.0	   31823856134.7	88115158574.5	20.2	
2014-05-22-18-21	 -166.0	 -54.0	   12783489977.4	34586336326.4	19.7	
2014-05-22-21-24	 -165.0	 -35.0	  366490670701.9	763057355869.0	15.2	
2014-05-22-21-24	  150.0	  39.5	  191075623084.1	434000611846.7	16.5	
2014-05-22-21-24	 -137.0	 -55.5	   66814737761.5	192050756199.4	20.8	
2014-05-22-21-24	 -172.0	 -43.0	   47453372535.9	127074560991.1	19.4	
2014-05-22-21-24	   11.0	 -56.5	   18878502398.9	51019578409.2	19.5	
2014-05-22-21-24	  177.0	 -46.0	   12941426236.3	33835354553.8	18.9	
2014-05-22-21-24	 -177.0	 -57.5	    8372234214.4	30450040686.5	26.3	
2014-05-23-00-03	 -164.0	 -35.5	  351108295852.9	748352728318.5	15.4	
2014-05-23-00-03	  150.0	  40.0	  144255684351.5	344287697479.1	17.1	
2014-05-23-00-03	 -138.0	 -55.5	   89860108982.3	279615796642.9	22.3	
2014-05-23-00-03	   12.0	 -57.0	   87623219921.6	264552173431.4	21.7	
2014-05-23-00-03	  177.5	 -45.5	   36753827597.8	93397475950.0	18.2	
2014-05-23-00-03	 -175.5	 -57.5	   28460166220.4	88507572641.1	22.3	
2014-05-23-00-03	 -172.5	 -43.5	   24848383140.9	71727235170.1	20.7	
2014-05-23-00-03	 -160.0	 -36.5	    7486253549.3	16002944841.8	15.3	
2014-05-23-03-06	 -162.0	 -36.0	  530754036325.1	1107525001739.5	14.9	
2014-05-23-03-06	 -139.0	 -55.5	  146137379838.3	564844343587.4	27.4	
2014-05-23-03-06	  151.0	  40.0	  141089804848.5	356107417845.8	17.9	
2014-05-23-03-06	   13.0	 -57.5	  106912871293.8	313246107946.5	20.7	
2014-05-23-03-06	  177.0	 -45.5	   28087731408.0	69572740994.0	17.5	
2014-05-23-03-06	 -172.5	 -43.5	   22606194894.4	59549077378.3	18.6	
2014-05-23-03-06	  176.0	 -54.5	   19963482392.7	54644847769.2	19.3	
2014-05-23-03-06	   18.5	 -48.0	    8293305605.0	21718545150.2	18.5	
2014-05-23-03-06	 -175.0	 -57.0	    1683521749.1	4410153477.4	18.5	
2014-05-23-03-06	 -176.0	 -56.5	    1706080229.0	3827065807.4	15.8	
2014-05-23-06-09	 -160.5	 -36.5	  692627501433.4	1469129378090.6	15.1	
2014-05-23-06-09	 -138.5	 -55.5	  183468137350.0	764626014968.8	29.3	
2014-05-23-06-09	  151.5	  40.5	  138286974471.3	359569100920.3	18.2	
2014-05-23-06-09	   14.0	 -58.5	  110092200875.2	322348403372.0	20.5	
2014-05-23-06-09	  178.5	 -55.0	   39244927046.7	109583447395.3	19.5	
2014-05-23-06-09	 -180.0	 -55.0	   17839295452.7	47197593597.6	18.4	
2014-05-23-06-09	  176.5	 -46.0	   17235913091.7	42635163369.9	17.2	
2014-05-23-06-09	 -172.5	 -43.5	   11284700731.3	29742538602.2	18.4	
2014-05-23-06-09	  -43.5	 -36.5	    9971037898.8	19440402474.9	13.6	
2014-05-23-06-09	 -161.0	 -32.5	   13034744377.2	18882420047.7	10.1	
2014-05-23-06-09	 -160.0	 -33.5	   12887833932.6	17433153491.0	9.4	
2014-05-23-06-09	   18.5	 -48.0	    4136669064.4	10737843025.7	18.1	
2014-05-23-09-12	 -159.0	 -37.5	  764080349925.7	1696784703338.2	15.7	
2014-05-23-09-12	 -137.5	 -55.5	  171174505706.6	667033620572.4	27.2	
2014-05-23-09-12	  152.5	  41.0	  135196021091.4	334643574495.2	17.2	
2014-05-23-09-12	 -178.0	 -55.0	  104791150256.8	314486173427.2	20.8	
2014-05-23-09-12	   15.0	 -58.0	   55802922064.2	157791187749.1	19.6	
2014-05-23-09-12	  179.0	 -55.0	   15956321506.5	43778139597.6	19.0	
2014-05-23-09-12	  -41.5	 -37.0	   12391641706.3	24002222229.2	13.4	
2014-05-23-09-12	  176.5	 -46.0	    6441730283.0	16150845734.3	17.3	
2014-05-23-09-12	 -172.5	 -43.0	    4521342560.1	10783816259.2	16.5	
2014-05-23-12-15	 -158.0	 -38.0	  789326596858.6	1793914159079.4	15.9	
2014-05-23-12-15	 -177.0	 -55.0	  153494905108.4	465110084727.8	20.9	
2014-05-23-12-15	 -137.5	 -55.5	  130806542619.7	447369839978.4	23.6	
2014-05-23-12-15	  153.5	  41.0	  109080119414.6	258838859115.9	16.3	
2014-05-23-12-15	   -3.0	 -35.0	   70857944607.3	152865939387.4	14.8	
2014-05-23-12-15	   21.5	 -61.5	   23976778557.5	80021124543.8	22.9	
2014-05-23-12-15	  179.0	 -55.5	    7047551463.4	21402185717.2	20.8	
2014-05-23-12-15	   16.0	 -58.0	    4936877244.3	13837783923.0	19.2	
2014-05-23-15-18	 -156.5	 -38.5	  716930868427.0	1695201287528.5	16.4	
2014-05-23-15-18	  -33.0	 -39.5	  136417126336.5	344735833149.2	17.2	
2014-05-23-15-18	 -176.5	 -56.0	  121652585101.3	314362045491.2	17.6	
2014-05-23-15-18	   -1.5	 -34.5	  139279294438.8	294764848437.6	14.4	
2014-05-23-15-18	 -138.0	 -55.0	   77938374531.4	241299316529.9	21.1	
2014-05-23-15-18	  154.0	  41.5	   87749963723.8	199924178810.1	15.5	
2014-05-23-15-18	   21.0	 -61.0	   59356177717.6	189279705455.8	21.7	
2014-05-23-15-18	   71.5	 -38.0	   65910091294.2	133189189417.2	13.7	
2014-05-23-15-18	  172.0	 -58.5	   22816990171.6	71207346128.0	21.2	
2014-05-23-18-21	 -155.5	 -39.0	  685044823965.7	1648194307104.1	16.5	
2014-05-23-18-21	  -31.0	 -40.5	  224728620793.1	513631414934.5	15.4	
2014-05-23-18-21	   -0.5	 -35.5	  225136868314.0	507174576644.1	15.2	
2014-05-23-18-21	   21.5	 -60.5	   65889226003.8	220804907122.7	22.6	
2014-05-23-18-21	 -177.0	 -57.5	   67271391525.4	200202191553.3	20.0	
2014-05-23-18-21	  155.0	  42.0	   82435384723.8	184788264239.6	15.1	
2014-05-23-18-21	   72.0	 -37.5	   73923274815.8	140787888087.6	12.8	
2014-05-23-18-21	  172.0	 -58.5	   42403688521.0	129605303160.8	20.5	
2014-05-23-18-21	 -138.0	 -55.0	   30183728861.4	86740280538.3	19.3	
2014-05-23-21-24	 -154.5	 -39.0	  675737720311.8	1579860171040.7	15.8	
2014-05-23-21-24	  -26.5	 -42.5	  291921167723.7	620670456357.7	14.2	
2014-05-23-21-24	    1.5	 -37.0	  249833284287.7	615740703113.6	16.5	
2014-05-23-21-24	   22.5	 -60.5	   67808015053.6	228722962016.8	22.4	
2014-05-23-21-24	  172.0	 -58.0	   69021036838.8	207135770155.9	19.9	
2014-05-23-21-24	  155.5	  42.5	   83947319311.1	187399500994.6	14.8	
2014-05-23-21-24	 -177.0	 -58.0	   48026692215.9	139712051789.3	19.3	
2014-05-23-21-24	 -171.0	 -58.5	   16402777442.4	49779255447.3	20.1	
2014-05-23-21-24	  176.0	 -46.5	   10697245406.2	31689694522.0	19.6	
2014-05-24-00-03	 -153.5	 -39.5	  664495484552.4	1498711492303.9	15.0	
2014-05-24-00-03	    2.5	 -37.5	  301770026615.0	757648773396.5	16.6	
2014-05-24-00-03	  -23.5	 -44.0	  259473404233.5	552688010963.6	14.0	
2014-05-24-00-03	  173.0	 -58.0	   92542684397.6	275166098706.7	19.5	
2014-05-24-00-03	   23.5	 -60.0	   74272346560.8	244096034405.2	21.5	
2014-05-24-00-03	  155.5	  43.0	   85489996803.2	193866452257.9	14.9	
2014-05-24-00-03	 -170.5	 -59.0	   19380633869.6	54682294558.2	18.4	
2014-05-24-00-03	 -151.0	 -59.0	   19242393881.8	53700603082.4	18.2	
2014-05-24-00-03	 -174.0	 -58.5	   13012419701.2	35782029286.8	18.0	
2014-05-24-00-03	  176.5	 -46.0	    6441730283.0	15730022143.9	16.0	
2014-05-24-03-06	 -151.5	 -40.0	  630249780051.3	1390950020645.3	14.6	
2014-05-24-03-06	    3.0	 -38.5	  321790127864.7	781786951692.6	15.9	
2014-05-24-03-06	   25.5	 -60.0	   91366369266.0	291196128041.7	20.7	
2014-05-24-03-06	  -22.0	 -45.0	  118234137917.3	236140072764.4	13.0	
2014-05-24-03-06	  173.0	 -57.5	   76551498295.0	224308642220.1	19.1	
2014-05-24-03-06	 -150.5	 -59.0	   56063171740.5	170040776021.0	19.7	
2014-05-24-03-06	  156.0	  43.5	   73743614695.9	169642054695.4	15.0	
2014-05-24-03-06	   77.5	 -39.0	   21771370661.7	74841954104.2	22.3	
2014-05-24-03-06	  113.0	 -34.5	   15360340723.5	39623195426.2	16.7	
2014-05-24-03-06	 -170.5	 -59.0	    6414212729.2	16878207698.1	17.1	
2014-05-24-03-06	 -174.5	 -59.0	    4799129184.2	16162991043.1	21.9	
2014-05-24-03-06	  177.0	 -46.0	    4294486855.3	9707463890.2	14.7	
2014-05-24-06-09	 -150.5	 -40.5	  529047624643.6	1142557060098.9	14.1	
2014-05-24-06-09	    4.5	 -39.0	  306564599295.4	752771393255.0	16.0	
2014-05-24-06-09	   27.5	 -60.0	   91831066877.6	301812771666.2	21.3	
2014-05-24-06-09	 -150.5	 -59.0	   44735263908.2	131429254259.4	19.0	
2014-05-24-06-09	  173.5	 -57.5	   45135937768.4	130059677498.8	18.6	
2014-05-24-06-09	   78.0	 -38.5	   31530909660.8	97677534318.2	20.0	
2014-05-24-06-09	  156.0	  44.0	   40040259798.9	89183469786.1	14.4	
2014-05-24-06-09	  -19.5	 -50.5	   35819235443.5	81018009592.9	14.6	
2014-05-24-06-09	  113.0	 -34.5	   30659179055.6	70976291761.5	15.0	
2014-05-24-06-09	   17.0	 -40.5	   25941641154.8	53663443790.1	13.4	
2014-05-24-06-09	  -19.5	 -45.5	   15184288442.2	27573325333.7	11.7	
2014-05-24-09-12	 -149.5	 -40.5	  408855366302.9	854402549771.4	13.6	
2014-05-24-09-12	    5.0	 -39.5	  275865186814.4	690069896228.8	16.2	
2014-05-24-09-12	   29.0	 -59.5	   99012595507.7	303511118853.5	19.8	
2014-05-24-09-12	  174.5	 -46.5	   64064605005.9	167410414744.3	16.9	
2014-05-24-09-12	  -18.5	 -50.5	   63362153555.4	155230959084.3	15.8	
2014-05-24-09-12	   78.0	 -38.5	   29145205455.4	86571586114.5	19.1	
2014-05-24-09-12	  113.0	 -34.5	   35769236607.4	83129425578.9	15.0	
2014-05-24-09-12	   36.0	 -61.0	   25734707418.4	79637909742.9	19.9	
2014-05-24-09-12	  -18.0	 -43.5	   27014414523.6	49371261901.4	11.8	
2014-05-24-09-12	 -118.5	 -52.5	   17020298949.2	44198375729.9	16.7	
2014-05-24-09-12	   16.0	 -42.5	   11431181706.4	22115715656.7	12.5	
2014-05-24-12-15	   34.5	 -60.0	  203910149367.7	652395211970.9	20.6	
2014-05-24-12-15	 -148.5	 -41.0	  284011440476.4	577244456114.2	13.1	
2014-05-24-12-15	    6.0	 -40.0	  221752260600.1	572265818578.3	16.6	
2014-05-24-12-15	  -17.0	 -45.5	  224160679891.7	520785427001.4	15.0	
2014-05-24-12-15	  175.5	 -46.5	   68397735641.5	186160875640.8	17.5	
2014-05-24-12-15	  176.5	 -52.5	   56575242178.5	166583572035.1	18.9	
2014-05-24-12-15	   78.5	 -38.0	   31696975993.0	88293269871.8	17.8	
2014-05-24-12-15	  112.5	 -34.5	   30705111288.9	75302071163.2	15.7	
2014-05-24-12-15	  -21.0	 -57.0	   18608072029.0	53293547955.6	18.3	
2014-05-24-12-15	   16.0	 -44.0	   26905406098.5	52252823520.8	12.4	
2014-05-24-15-18	   36.5	 -59.5	  234062748230.6	797960717746.3	21.9	
2014-05-24-15-18	  -15.0	 -46.0	  289884550371.2	715477081942.8	15.8	
2014-05-24-15-18	    6.5	 -40.0	  192008514863.4	510810346359.2	17.0	
2014-05-24-15-18	  178.0	 -53.5	  107294883773.6	336562660030.5	20.0	
2014-05-24-15-18	 -147.0	 -41.5	  158376024645.7	313718095852.6	12.6	
2014-05-24-15-18	  176.0	 -46.5	   53504081981.3	138595716985.9	16.5	
2014-05-24-15-18	   78.5	 -38.0	   34215718833.4	92592620078.6	17.2	
2014-05-24-15-18	 -180.0	 -54.0	   18277109857.9	53749193026.3	18.7	
2014-05-24-15-18	  112.5	 -34.5	   15375327385.2	34345752453.2	14.2	
2014-05-24-15-18	  -20.0	 -57.5	   10055755963.5	25112793124.8	15.9	
2014-05-24-15-18	   15.5	 -44.5	    2204712564.3	4527404891.2	13.1	
2014-05-24-18-21	   37.5	 -59.5	  236878355832.3	769020810644.5	20.7	
2014-05-24-18-21	  -14.0	 -47.0	  284337358822.1	751200170907.3	16.9	
2014-05-24-18-21	    7.0	 -40.5	  184047806398.5	477434754314.3	16.5	
2014-05-24-18-21	 -179.0	 -55.0	  100763945617.9	346693807737.0	21.9	
2014-05-24-18-21	  178.5	 -54.5	   96908792616.5	280947645309.1	18.4	
2014-05-24-18-21	 -143.5	 -42.5	   48091426775.3	98990221351.5	13.0	
2014-05-24-18-21	   79.0	 -38.0	   34314242380.5	83025582604.1	15.3	
2014-05-24-18-21	  176.0	 -46.5	   12844488833.8	33503586225.0	16.5	
2014-05-24-18-21	 -149.0	 -40.0	   11856583134.7	22430599457.3	12.0	
2014-05-24-21-24	  -12.5	 -47.5	  282708563942.8	812182726322.3	18.3	
2014-05-24-21-24	 -177.5	 -56.5	  205911575277.8	676152726301.2	20.8	
2014-05-24-21-24	   39.0	 -59.5	  171746061632.2	511194081441.5	18.8	
2014-05-24-21-24	    8.5	 -41.0	  183463781854.9	433152694589.3	14.9	
2014-05-24-21-24	  179.0	 -55.0	   42966134018.4	119091696005.0	17.5	
2014-05-24-21-24	   79.0	 -37.5	   36864708664.7	86823221811.3	14.8	
2014-05-24-21-24	 -165.5	 -63.5	   18074541749.8	54785953159.9	19.1	
2014-05-24-21-24	 -143.0	 -42.0	   16079478658.0	31199850990.3	12.2	
2014-05-25-00-03	  -11.5	 -48.0	  269278242408.4	839707906926.8	19.7	
2014-05-25-00-03	 -176.5	 -56.5	  271383319890.0	814285405181.6	19.0	
2014-05-25-00-03	    9.5	 -41.0	  143137153227.2	299947601779.3	13.2	
2014-05-25-00-03	   42.5	 -60.0	   43787132870.5	126395827059.6	18.1	
2014-05-25-00-03	   -1.0	 -37.5	   54077286693.9	105118157456.3	12.2	
2014-05-25-00-03	 -165.5	 -64.0	   24849843355.6	77828286905.1	19.6	
2014-05-25-00-03	   79.0	 -37.5	   27072702250.1	63959768145.3	14.8	
2014-05-25-00-03	  175.0	 -46.5	   19227761518.6	44826475435.7	14.6	
2014-05-25-00-03	  179.0	 -55.0	   12454437665.0	35570744227.2	17.9	
2014-05-25-00-03	  -34.0	 -51.0	   11734338905.4	25171858018.3	13.4	
2014-05-25-00-03	   82.5	 -26.0	    8358165265.1	13829237522.4	10.4	
2014-05-25-00-03	   82.0	 -24.5	    5625522475.5	9164656669.4	10.2	
2014-05-25-03-06	 -175.5	 -57.0	  280353765512.6	791030024568.8	17.7	
2014-05-25-03-06	  -11.0	 -48.5	  252328554989.1	770636838350.0	19.2	
2014-05-25-03-06	  175.0	 -46.5	   68026227016.7	168138802514.7	15.4	
2014-05-25-03-06	    0.0	 -38.0	   87781658978.6	163093235318.1	11.6	
2014-05-25-03-06	  -33.0	 -50.0	   60171130280.3	147018344726.8	15.2	
2014-05-25-03-06	   83.5	 -25.5	   66986792162.5	111726344857.8	10.4	
2014-05-25-03-06	   11.0	 -41.5	   32677022823.9	63916522179.7	12.2	
2014-05-25-03-06	   45.0	 -59.0	    1592022819.7	4323335075.7	16.9	
2014-05-25-06-09	  -11.0	 -48.5	  208535042534.2	611425234029.0	18.4	
2014-05-25-06-09	 -177.5	 -54.5	  131652139148.8	338566596167.9	16.1	
2014-05-25-06-09	    2.0	 -39.0	   94173218895.6	179835004386.7	11.9	
2014-05-25-06-09	  -33.0	 -51.0	   63630805984.1	157765616179.9	15.5	
2014-05-25-06-09	   13.5	 -42.5	   75182704917.2	155390564197.0	12.9	
2014-05-25-06-09	  175.5	 -47.0	   59359153972.6	148105004420.8	15.6	
2014-05-25-06-09	   84.0	 -26.0	   69695364945.9	113399675465.4	10.2	
2014-05-25-09-12	  -10.5	 -48.5	  123617615175.2	351014058600.3	17.8	
2014-05-25-09-12	 -177.5	 -54.0	  133138099766.8	344252110923.4	16.2	
2014-05-25-09-12	   14.0	 -43.0	  117634563113.8	254608248105.8	13.5	
2014-05-25-09-12	    4.5	 -39.5	  107771911268.6	217697683908.2	12.6	
2014-05-25-09-12	  174.5	 -46.5	   70076529357.0	174553555831.1	15.6	
2014-05-25-09-12	  -33.0	 -51.5	   45215856866.1	119753551896.2	16.5	
2014-05-25-09-12	  -12.5	 -52.0	   13384663269.7	32417418147.5	15.1	
2014-05-25-09-12	   84.5	 -26.0	   13902719749.8	20443175711.7	9.2	
2014-05-25-12-15	 -163.5	 -63.0	  144147588387.9	582484027624.3	25.3	
2014-05-25-12-15	 -177.0	 -53.5	  164243577599.3	432479430514.1	16.5	
2014-05-25-12-15	   15.5	 -43.5	  168799202364.6	380258321846.8	14.1	
2014-05-25-12-15	    5.5	 -40.0	  111940714269.4	233838302059.3	13.0	
2014-05-25-12-15	  -10.5	 -48.0	   78466059714.1	228692780857.1	18.2	
2014-05-25-12-15	  174.5	 -46.5	   82938880511.0	203473696791.9	15.3	
2014-05-25-12-15	  172.5	 -57.5	   48639098963.9	143397343508.9	18.4	
2014-05-25-12-15	  -33.0	 -52.0	   11545155101.2	34084505592.5	18.4	
2014-05-25-12-15	   -1.5	 -53.5	   12870223656.2	30420483827.5	14.7	
2014-05-25-12-15	   -7.0	 -51.5	    9663280899.0	24333350670.7	15.7	
2014-05-25-12-15	  175.5	 -51.5	   11629597170.5	22446662727.4	12.0	
2014-05-25-12-15	  -31.0	 -50.0	    1986906671.9	4813158213.8	15.1	
2014-05-25-15-18	 -162.5	 -63.0	  237255527890.5	1051723203463.1	27.7	
2014-05-25-15-18	   22.5	 -44.0	  353508641265.2	857338258100.6	15.1	
2014-05-25-15-18	 -176.5	 -53.0	  228710242891.0	620235395647.5	16.9	
2014-05-25-15-18	  176.5	 -51.0	  135369461181.0	394089834010.1	18.1	
2014-05-25-15-18	  175.0	 -46.5	   93536917171.8	225704035852.3	14.9	
2014-05-25-15-18	  -10.5	 -48.0	   61924264227.4	184923596079.0	18.5	
2014-05-25-15-18	    6.0	 -40.0	   89887762691.4	181627173318.8	12.5	
2014-05-25-15-18	   -6.0	 -51.5	   42330819282.3	107250387708.4	15.7	
2014-05-25-15-18	  173.0	 -57.0	   28641784286.4	77125314561.0	16.6	
2014-05-25-15-18	   -1.5	 -53.0	   16827915956.5	38858674165.2	14.3	
2014-05-25-15-18	  165.5	 -47.0	    2108109930.5	3955151242.4	11.6	
2014-05-25-18-21	 -161.5	 -63.5	  305444264620.2	1412344107610.4	28.9	
2014-05-25-18-21	   26.0	 -44.0	  491718850687.9	1290575502721.0	16.4	
2014-05-25-18-21	  176.5	 -50.0	  313015310668.3	913941342567.4	18.1	
2014-05-25-18-21	 -178.0	 -52.5	  274498836125.0	826756883596.0	18.7	
2014-05-25-18-21	   -5.0	 -52.0	   96852107616.4	244705157790.2	15.6	
2014-05-25-18-21	  -10.5	 -48.0	   49596631901.5	146012250911.9	18.1	
2014-05-25-18-21	    6.5	 -40.5	   61143781428.9	117930695409.7	11.9	
2014-05-25-18-21	  -33.0	 -52.5	    9451302968.6	31694602838.8	20.6	
2014-05-25-18-21	  -29.5	 -50.5	    9893055190.9	20890477468.0	13.0	
2014-05-25-18-21	   82.0	 -61.5	    1474934803.7	4321335564.8	18.0	
2014-05-25-21-24	 -160.5	 -63.5	  365220958665.7	1839231206935.2	31.4	
2014-05-25-21-24	   28.0	 -43.5	  607026342409.1	1643446029402.1	16.8	
2014-05-25-21-24	  176.5	 -48.5	  345879791680.2	1081092092772.8	19.3	
2014-05-25-21-24	 -177.5	 -52.0	  324927033744.6	1044802138489.2	19.9	
2014-05-25-21-24	   -5.0	 -52.0	  104527742846.5	268511750714.2	15.7	
2014-05-25-21-24	  -33.0	 -52.5	   26556625825.3	91658147833.3	21.1	
2014-05-25-21-24	  -10.5	 -48.0	   26786942527.3	80678937950.7	18.4	
2014-05-25-21-24	  -29.0	 -50.5	   33693401190.4	79309120027.7	14.4	
2014-05-25-21-24	    7.0	 -40.5	   21153730502.6	40038036009.7	11.6	
2014-05-25-21-24	   82.0	 -61.5	    1474934803.7	4381480520.4	18.1	
2014-05-25-21-24	   -1.0	 -51.5	    1924241156.9	3682978940.5	11.7	
2014-05-26-00-03	 -159.0	 -63.5	  416563913986.5	2223159676782.0	33.2	
2014-05-26-00-03	   29.5	 -43.0	  681097169202.3	1830396767592.9	16.6	
2014-05-26-00-03	 -177.5	 -51.5	  399443973413.9	1370776268187.9	21.1	
2014-05-26-00-03	  177.5	 -48.5	  309274786596.7	877375043886.7	17.4	
2014-05-26-00-03	   -5.0	 -52.0	  114212932033.3	289064025295.9	15.4	
2014-05-26-00-03	  -27.0	 -49.5	   58624498757.7	132916204740.9	13.8	
2014-05-26-00-03	  -33.0	 -52.5	   41736405851.1	128811514700.5	18.7	
2014-05-26-00-03	   86.5	 -49.5	   14154481553.7	35489753407.5	15.2	
2014-05-26-03-06	 -157.5	 -63.0	  434014308497.1	2422816194460.4	34.6	
2014-05-26-03-06	   29.0	 -43.0	  715320564687.9	1832386837480.9	15.8	
2014-05-26-03-06	 -176.5	 -51.5	  485779290013.9	1710042405573.8	21.6	
2014-05-26-03-06	  178.0	 -48.5	  203269552580.4	484828281432.1	14.4	
2014-05-26-03-06	   -3.5	 -52.0	  145231891013.9	376856536902.8	15.7	
2014-05-26-03-06	   87.0	 -50.5	   59706504891.7	155548987567.6	15.7	
2014-05-26-03-06	  -33.0	 -52.0	   34189169290.2	111728072179.4	19.7	
2014-05-26-03-06	  -25.0	 -49.0	   32730173866.7	75001747984.5	13.8	
2014-05-26-03-06	  179.0	 -54.5	   12608358909.2	33889981345.4	16.2	
2014-05-26-06-09	 -156.0	 -63.0	  422439757212.4	2382916045438.6	34.9	
2014-05-26-06-09	 -175.5	 -51.5	  569652835270.8	1962702716091.6	21.2	
2014-05-26-06-09	   28.5	 -43.0	  700498066073.3	1664174083845.9	14.6	
2014-05-26-06-09	   -3.5	 -52.0	  168213526086.0	461072305586.7	16.6	
2014-05-26-06-09	   87.0	 -51.0	   93803703775.7	238270902177.9	15.3	
2014-05-26-06-09	    7.0	 -47.0	   39892904961.1	110568371664.2	16.7	
2014-05-26-06-09	  -24.0	 -48.5	   41224564795.2	97559343139.5	14.2	
2014-05-26-06-09	  -33.0	 -52.0	   15202842962.0	58447767903.5	23.1	
2014-05-26-06-09	  177.0	 -46.0	    6441730283.0	7802823631.7	7.3	
2014-05-26-06-09	  178.5	 -50.5	    3932335175.3	6265777787.3	9.6	
2014-05-26-06-09	  177.0	 -49.5	    2007494492.9	3016267379.2	9.0	
2014-05-26-06-09	  179.0	 -46.0	    2147243427.7	1967617405.9	5.5	
2014-05-26-09-12	 -155.0	 -63.0	  382116775206.4	2045873035151.4	33.0	
2014-05-26-09-12	 -173.5	 -52.0	  552284535947.3	1946111796882.7	21.7	
2014-05-26-09-12	   28.0	 -42.5	  651925105413.1	1449859620767.5	13.6	
2014-05-26-09-12	   -3.0	 -52.0	  177684853093.3	502911834069.2	17.2	
2014-05-26-09-12	   86.5	 -52.0	  111023697753.8	301088823393.2	16.4	
2014-05-26-09-12	    7.5	 -47.5	   81568106525.3	231323350607.2	17.1	
2014-05-26-09-12	  -24.0	 -47.5	   35698093537.6	76030008418.7	12.8	
2014-05-26-09-12	 -179.5	 -49.0	   28429718288.0	66352685136.9	14.1	
2014-05-26-09-12	    4.5	 -49.5	    2007494492.9	3134601977.7	9.4	
2014-05-26-12-15	 -172.0	 -52.5	  582387211882.1	1963415164830.8	20.9	
2014-05-26-12-15	 -154.5	 -63.0	  305200977331.1	1504973239094.3	30.4	
2014-05-26-12-15	   26.5	 -42.5	  544359555070.8	1160581780111.2	13.1	
2014-05-26-12-15	   -3.0	 -52.0	  177281957820.0	501980033496.4	17.3	
2014-05-26-12-15	    7.5	 -47.5	  110053459999.1	331799893958.6	18.4	
2014-05-26-12-15	   86.5	 -53.0	  105196898158.2	296941853559.4	17.2	
2014-05-26-12-15	    4.5	 -50.0	    5960568752.4	11100312651.4	11.3	
2014-05-26-15-18	 -170.5	 -53.0	  662650256203.8	2053627263933.9	19.4	
2014-05-26-15-18	 -154.5	 -62.5	  221099610017.0	997341796774.5	27.9	
2014-05-26-15-18	   -3.0	 -52.0	  152271045252.2	430867115269.2	17.4	
2014-05-26-15-18	   19.5	 -42.0	  204556275459.7	429071456971.6	12.9	
2014-05-26-15-18	   87.0	 -53.5	  122054423190.6	343428522014.5	17.3	
2014-05-26-15-18	    7.5	 -48.0	  108045965506.1	335046349589.9	19.0	
2014-05-26-15-18	   80.0	 -57.0	   95801245299.0	282977284434.2	18.1	
2014-05-26-15-18	   32.0	 -42.0	  129572081996.8	264944783865.1	12.5	
2014-05-26-15-18	    6.5	 -40.0	   78462545470.7	158556353441.6	12.4	
2014-05-26-15-18	   26.0	 -44.0	   17862893613.7	39726981013.2	13.6	
2014-05-26-15-18	    4.5	 -50.5	    1966167587.6	3110213165.6	9.7	
2014-05-26-18-21	 -169.0	 -53.5	  696779856728.7	1955133346472.5	17.7	
2014-05-26-18-21	   82.0	 -58.5	  216171809945.0	709506467922.2	20.4	
2014-05-26-18-21	 -154.0	 -62.5	  145549326461.7	604613457800.0	25.8	
2014-05-26-18-21	   87.0	 -54.5	  153981517456.3	443579432144.5	17.9	
2014-05-26-18-21	   20.0	 -42.0	  193431961229.7	400665441393.4	12.8	
2014-05-26-18-21	    7.5	 -48.0	   97510845667.2	291188751714.7	18.5	
2014-05-26-18-21	   -2.5	 -52.5	  108082869852.0	290637752676.0	16.6	
2014-05-26-18-21	    7.0	 -40.0	   63981158215.2	128552227054.5	12.4	
2014-05-26-18-21	  -99.0	 -40.0	    9506109062.7	26073727242.6	16.9	
2014-05-26-18-21	   31.5	 -42.0	    2297118335.8	3681839592.7	9.9	
2014-05-26-21-24	   82.5	 -58.0	  478016837090.4	1574810637899.9	20.9	
2014-05-26-21-24	 -168.0	 -54.0	  506223222944.9	1268751484064.5	15.8	
2014-05-26-21-24	 -154.5	 -62.5	   98336603413.6	371811504596.4	23.6	
2014-05-26-21-24	   20.0	 -42.0	  161730050482.8	328520347682.5	12.7	
2014-05-26-21-24	    7.5	 -48.0	   68704621542.2	202875470401.2	18.4	
2014-05-26-21-24	  -14.5	 -38.0	   58373537119.4	112683425225.5	12.0	
2014-05-26-21-24	   -1.0	 -52.5	   41652828616.6	104856055224.2	15.7	
2014-05-26-21-24	  -10.5	 -48.0	   22850883809.1	61803817998.3	16.8	
2014-05-26-21-24	    7.0	 -40.0	   23713166269.5	47450393646.9	12.4	
2014-05-26-21-24	 -172.5	 -49.0	   10180207971.9	21074234554.6	12.9	
2014-05-27-00-03	   82.5	 -58.5	  542471672901.6	1905457426558.4	22.5	
2014-05-27-00-03	   20.0	 -41.5	  145976481511.1	289750727767.1	12.4	
2014-05-27-00-03	  -14.0	 -38.0	   97040798571.6	210170844402.2	13.6	
2014-05-27-00-03	 -154.5	 -62.5	   47957667199.1	171860803478.2	22.4	
2014-05-27-00-03	    7.5	 -47.5	   45938028539.3	123911985608.8	16.9	
2014-05-27-00-03	  -10.5	 -48.0	   31203615575.6	86305970191.3	17.3	
2014-05-27-00-03	 -165.0	 -53.5	   36900021338.8	83829510364.1	14.2	
2014-05-27-00-03	 -171.0	 -53.0	   16785115110.4	39765575396.3	14.8	
2014-05-27-03-06	   82.5	 -59.0	  569847825849.1	2235802098719.0	25.2	
2014-05-27-03-06	   20.0	 -41.5	  120606560994.7	233252374686.9	12.1	
2014-05-27-03-06	  -14.0	 -38.0	   99425950049.2	225955376250.6	14.3	
2014-05-27-03-06	  -10.5	 -48.0	   33271950107.8	89596528337.7	16.9	
2014-05-27-03-06	    0.0	 -42.5	   29825391924.5	80217305160.4	16.9	
2014-05-27-03-06	 -154.0	 -61.5	   10324319218.7	35346897700.4	21.4	
2014-05-27-03-06	    7.5	 -47.5	    8392823877.9	29338583580.4	21.9	
2014-05-27-03-06	    6.5	 -40.0	   14259163594.0	29048008645.5	12.8	
2014-05-27-06-09	   81.5	 -59.0	  594097279772.6	2573622338976.4	28.0	
2014-05-27-06-09	  -14.0	 -38.0	   89767527443.4	204954204975.7	14.3	
2014-05-27-06-09	   20.5	 -41.5	   83514738869.8	158754860827.8	11.9	
2014-05-27-06-09	    0.0	 -42.5	   41110092655.7	104416687280.9	15.9	
2014-05-27-06-09	  -10.5	 -48.0	   20842449310.4	56489792922.3	17.0	
2014-05-27-06-09	    7.0	 -40.0	   11891260540.3	23443929305.6	12.4	
2014-05-27-09-12	   80.5	 -59.0	  524748459316.0	2585961006085.2	32.0	
2014-05-27-09-12	  -14.5	 -38.5	   65411910537.6	141384114048.6	13.6	
2014-05-27-09-12	    0.0	 -42.5	   45631262580.5	119236989150.6	16.5	
2014-05-27-09-12	  -10.0	 -48.0	   10381607613.4	27054743428.9	16.4	
2014-05-27-09-12	   21.5	 -41.0	   14050021341.5	26059061533.6	11.7	
2014-05-27-09-12	  -38.5	 -47.5	    4196411938.9	10369495939.1	15.6	
2014-05-27-09-12	   -7.0	 -39.0	    4821320837.1	6164834321.8	8.1	
2014-05-27-12-15	   79.5	 -59.0	  490342569045.9	2379784672680.2	31.8	
2014-05-27-12-15	    0.0	 -42.5	   43352280902.2	107447794679.1	15.8	
2014-05-27-12-15	  -15.0	 -39.0	   26609575490.9	53883258273.1	12.9	
2014-05-27-12-15	  -38.0	 -47.5	   20941964451.2	50416842424.6	15.3	
2014-05-27-12-15	  -33.5	 -45.0	    6595147255.1	15899278806.7	15.4	
2014-05-27-12-15	   -8.0	 -39.0	    7223539259.7	10719953750.0	9.4	
2014-05-27-15-18	   78.5	 -58.5	  456342291443.3	2007796369588.1	29.1	
2014-05-27-15-18	   -0.5	 -43.0	   29533822111.2	66451310437.6	14.5	
2014-05-27-15-18	   -5.5	 -52.0	   21123703011.9	52660536766.6	16.1	
2014-05-27-15-18	  -37.0	 -47.5	   18794239413.4	42144293659.4	14.5	
2014-05-27-15-18	  -33.0	 -45.0	    2185722126.6	5109947828.4	15.1	
2014-05-27-18-21	   78.0	 -58.5	  403300537898.0	1593553345667.4	26.4	
2014-05-27-18-21	   -5.0	 -52.5	   49283212389.7	126111522719.2	16.8	
2014-05-27-18-21	    0.0	 -42.5	    2278981678.3	8513629726.2	24.5	
2014-05-27-21-24	   78.0	 -58.0	  340758906190.6	1210104829817.8	24.0	
2014-05-27-21-24	   -4.0	 -53.0	   54629387521.9	139679862415.9	17.1	
2014-05-27-21-24	   82.0	 -61.0	    7610482992.7	17729118304.4	15.5	
2014-05-28-00-03	   78.5	 -58.0	  253414166013.9	840787252064.6	22.6	
2014-05-28-00-03	   -3.5	 -53.0	   48708092659.5	121831506355.2	16.9	
2014-05-28-00-03	   92.5	 -59.0	   20972656689.3	64771947401.3	20.9	
2014-05-28-00-03	  165.0	 -49.5	    2027929392.6	5980405593.7	19.9	
2014-05-28-03-06	   79.0	 -58.0	  199397265753.9	660337590959.9	22.7	
2014-05-28-03-06	 -165.0	 -35.0	   61179399761.4	119419302481.4	13.3	
2014-05-28-03-06	   -4.0	 -53.0	   42956263773.8	110737158614.1	17.6	
2014-05-28-03-06	   92.5	 -60.0	   32991421585.2	99180307896.0	20.5	
2014-05-28-03-06	  164.5	 -49.5	   18087272176.7	50627975640.9	19.1	
2014-05-28-03-06	   73.5	 -48.5	    2048209897.0	4388086457.7	14.6	
2014-05-28-06-09	   79.0	 -57.5	  167215779805.3	548414369075.1	22.6	
2014-05-28-06-09	   -4.5	 -53.5	   83746288523.4	233498811650.0	19.2	
2014-05-28-06-09	 -164.5	 -35.0	   96345183258.6	187995523221.6	13.4	
2014-05-28-06-09	  164.0	 -49.5	   20074178848.5	60964439759.5	20.8	
2014-05-28-06-09	   73.5	 -48.5	   10281298755.5	25176171067.6	16.8	
2014-05-28-09-12	   79.0	 -57.5	  136330717109.0	444335574369.9	22.5	
2014-05-28-09-12	   -4.0	 -53.5	  123863154001.0	380181197754.0	21.2	
2014-05-28-09-12	 -164.0	 -36.0	  108049633407.9	205496496038.8	13.1	
2014-05-28-09-12	   73.5	 -48.5	   10281298755.5	25085918410.2	16.8	
2014-05-28-09-12	  163.5	 -50.0	    7968214508.5	24053350582.6	20.7	
2014-05-28-09-12	  149.5	 -48.5	    6184878961.4	22677067252.6	25.2	
2014-05-28-09-12	 -149.5	 -47.5	    8392823877.9	20755660583.2	17.0	
2014-05-28-12-15	   -3.0	 -54.0	  143562169956.9	462921591802.6	22.3	
2014-05-28-12-15	   79.0	 -57.5	  108607128490.8	346073042485.9	22.0	
2014-05-28-12-15	 -162.5	 -37.0	  116695899197.9	221422426333.1	13.1	
2014-05-28-12-15	  156.5	 -48.0	   64274799468.0	142469547540.1	15.2	
2014-05-28-12-15	 -148.0	 -48.5	   22790983775.6	58249057819.8	17.6	
2014-05-28-12-15	   73.5	 -48.5	    6164754326.2	13413973791.4	14.9	
2014-05-28-12-15	  163.5	 -50.0	    1986906671.9	7667318577.7	26.5	
2014-05-28-12-15	  149.5	 -48.5	    2068334532.2	7511685708.0	24.9	
2014-05-28-15-18	   -2.5	 -54.0	  124967882775.1	386045400459.8	21.2	
2014-05-28-15-18	   79.0	 -57.0	   85861058639.7	251403158393.6	20.1	
2014-05-28-15-18	  158.0	 -47.5	  106923198091.6	231121655256.4	14.8	
2014-05-28-15-18	 -161.5	 -38.0	   93293365218.2	177909141526.6	13.1	
2014-05-28-15-18	 -147.0	 -48.5	   26686477800.2	70109533578.6	18.0	
2014-05-28-15-18	 -169.0	 -64.0	    4065117897.2	15906632782.1	26.8	
2014-05-28-15-18	   73.0	 -49.0	    2048209897.0	4497088763.6	15.0	
2014-05-28-18-21	   -2.0	 -54.0	   75161961963.9	217260374863.9	19.8	
2014-05-28-18-21	  159.5	 -47.0	   86875051985.7	184248915218.9	14.5	
2014-05-28-18-21	 -161.0	 -38.0	   90838799971.9	167158311165.5	12.6	
2014-05-28-18-21	   79.0	 -57.5	   56865614046.3	158963594253.6	19.2	
2014-05-28-18-21	 -168.5	 -64.0	   13598572062.6	54966977224.2	27.7	
2014-05-28-18-21	 -146.0	 -49.0	   12228417869.0	35636099439.2	19.9	
2014-05-28-21-24	 -160.5	 -37.5	   71209169964.1	124987809781.0	12.0	
2014-05-28-21-24	 -165.5	 -33.5	   46542837122.3	83518414026.2	12.3	
2014-05-28-21-24	  160.0	 -46.0	   27932830546.0	56912974057.1	13.9	
2014-05-28-21-24	 -168.5	 -64.0	   13647060662.1	53863007661.0	27.0	
2014-05-28-21-24	   66.5	 -51.0	   15729041122.6	46175496407.2	20.1	
2014-05-28-21-24	   16.5	 -34.0	   12827889312.3	42791197726.8	22.8	
2014-05-28-21-24	   78.0	 -57.0	   13467916421.5	35210405826.4	17.9	
2014-05-28-21-24	   -2.0	 -54.0	   14622133311.2	32251330289.3	15.1	
2014-05-28-21-24	   80.5	 -58.5	    9736376940.4	23924539020.6	16.8	
2014-05-29-00-03	 -166.0	 -34.0	  104873334985.7	197618469888.9	12.9	
2014-05-29-00-03	   16.0	 -33.5	   46843308616.9	120524799995.5	17.6	
2014-05-29-00-03	 -168.0	 -64.0	   16526276087.5	61472106280.3	25.4	
2014-05-29-00-03	   66.5	 -51.0	   19661226508.6	61085176711.8	21.2	
2014-05-29-00-03	 -165.0	 -29.5	   13451480323.2	21943386723.1	11.1	
2014-05-29-03-06	 -166.0	 -35.0	  150217575597.4	300068974295.7	13.6	
2014-05-29-03-06	   15.0	 -32.5	   99787261767.3	233863103255.8	16.0	
2014-05-29-03-06	 -168.0	 -63.5	   20760427636.2	76198890762.5	25.0	
2014-05-29-03-06	   66.5	 -51.0	   15687413164.9	49375548804.2	21.4	
2014-05-29-03-06	 -164.0	 -29.5	   16154997673.8	26231564876.7	11.0	
2014-05-29-03-06	  172.5	 -47.0	    8471734984.3	19776854596.0	15.9	
2014-05-29-06-09	 -165.5	 -35.0	  167880517532.2	336172536087.7	13.6	
2014-05-29-06-09	   14.0	 -31.5	  126611278327.9	292403721816.1	15.7	
2014-05-29-06-09	 -167.0	 -63.5	   34600712727.0	129658510921.3	25.4	
2014-05-29-06-09	 -164.5	 -44.5	   50764017531.2	111016236038.1	14.8	
2014-05-29-06-09	  -64.5	  39.0	   31040562899.6	77648938356.9	17.0	
2014-05-29-06-09	  173.0	 -46.5	   10677759540.1	24701377110.7	15.7	
2014-05-29-06-09	   66.5	 -51.0	    5898502762.9	16617080958.6	19.1	
2014-05-29-09-12	 -165.0	 -35.0	  195735993821.8	389253342754.2	13.5	
2014-05-29-09-12	   14.0	 -31.5	  137492660027.9	318212067043.0	15.7	
2014-05-29-09-12	 -164.0	 -45.0	  120398625162.8	275181192390.2	15.5	
2014-05-29-09-12	 -167.0	 -63.5	   40069047060.6	153106430903.8	25.8	
2014-05-29-09-12	   35.5	 -56.5	   49740624311.9	128002705432.7	17.4	
2014-05-29-09-12	  -64.5	  38.5	   50462382176.2	120838353862.9	16.2	
2014-05-29-09-12	  -25.0	 -49.0	    2027929392.6	4184125314.0	13.9	
2014-05-29-12-15	   33.5	 -56.0	  198533374671.4	552471240605.8	18.9	
2014-05-29-12-15	 -164.5	 -35.0	  221055162318.3	449255164088.8	13.7	
2014-05-29-12-15	 -164.5	 -45.5	  154465037292.2	368235270709.7	16.1	
2014-05-29-12-15	   13.5	 -31.0	  116674949340.2	269316425450.3	15.6	
2014-05-29-12-15	 -167.5	 -64.0	   50860563326.1	194586444480.2	25.8	
2014-05-29-12-15	 -165.0	 -40.0	   45434252334.8	97801027699.7	14.5	
2014-05-29-12-15	  -64.5	  38.5	   21704390000.8	45049860242.1	14.0	
2014-05-29-12-15	 -172.0	 -43.5	    6763530806.5	18470773869.6	18.4	
2014-05-29-12-15	  -24.0	 -49.0	    4055858785.3	9653208355.9	16.0	
2014-05-29-15-18	   32.5	 -56.0	  298158262696.6	957040140099.8	21.8	
2014-05-29-15-18	 -164.5	 -37.5	  382098815698.2	801595837889.9	14.2	
2014-05-29-15-18	 -165.0	 -46.0	  166634970110.8	396204521602.7	16.0	
2014-05-29-15-18	 -167.5	 -64.0	   54877089448.0	209420412752.8	25.6	
2014-05-29-15-18	   13.5	 -31.0	   84979188242.9	193966691329.5	15.3	
2014-05-29-15-18	   43.0	 -53.0	   39493547514.3	106706344398.8	18.1	
2014-05-29-15-18	 -155.0	 -62.5	   14368495549.1	55217286010.1	25.8	
2014-05-29-15-18	 -172.0	 -43.5	   13508578579.5	35580681948.7	17.7	
2014-05-29-15-18	   39.5	 -56.5	    3412160458.0	10482269140.9	20.6	
2014-05-29-18-21	   33.0	 -56.0	  489077877067.9	1615347556350.5	22.5	
2014-05-29-18-21	 -164.5	 -38.5	  438583172290.8	954195828637.5	14.7	
2014-05-29-18-21	 -165.0	 -46.0	  148938163648.8	352735994555.1	15.9	
2014-05-29-18-21	   44.0	 -53.0	   86253782984.4	251605763739.4	19.5	
2014-05-29-18-21	 -167.5	 -64.0	   53425489522.5	201629960664.9	25.2	
2014-05-29-18-21	   13.5	 -31.0	   53069721756.5	123328675851.3	15.5	
2014-05-29-18-21	  -57.0	  38.0	   43609359579.1	104229375668.1	15.9	
2014-05-29-18-21	 -155.0	 -62.5	   27285490571.6	103150229207.7	25.2	
2014-05-29-18-21	   48.0	 -54.0	   27425701126.2	52056583317.8	12.7	
2014-05-29-18-21	  -19.0	 -50.5	   15915538669.6	40227435464.9	16.9	
2014-05-29-18-21	 -172.5	 -43.5	    9005719053.0	21859506978.4	16.2	
2014-05-29-21-24	   38.0	 -55.0	  879477043808.1	2838832655543.4	22.2	
2014-05-29-21-24	 -164.0	 -40.0	  577540289245.7	1329946672670.6	15.5	
2014-05-29-21-24	 -167.5	 -64.0	   46626203491.2	171417039249.5	24.5	
2014-05-29-21-24	  -56.0	  38.0	   67747895587.2	161871701366.6	15.9	
2014-05-29-21-24	 -155.0	 -62.5	   38870342675.9	147928441373.3	25.3	
2014-05-29-21-24	   13.5	 -31.0	   23900496961.6	57803199801.5	16.1	
2014-05-29-21-24	  -18.0	 -50.0	    6001895657.7	12758932700.6	14.1	
2014-05-30-00-03	   39.0	 -55.0	 1073985471549.5	3529236889314.9	22.8	
2014-05-30-00-03	 -163.0	 -40.0	  574275837187.1	1368105564233.6	16.0	
2014-05-30-00-03	 -154.5	 -62.5	   40321515895.5	154585707790.0	25.4	
2014-05-30-00-03	   44.5	 -55.5	   76411214319.8	144365693219.9	12.5	
2014-05-30-00-03	  -54.5	  38.5	   55485940221.6	123887087383.5	14.8	
2014-05-30-00-03	 -167.5	 -64.0	   30197321175.1	106070842839.9	23.3	
2014-05-30-00-03	  -94.5	 -63.5	   16574556400.7	56603696645.6	22.6	
2014-05-30-03-06	   39.5	 -55.0	 1115295289081.4	3817564445264.0	23.8	
2014-05-30-03-06	 -163.0	 -41.0	  587791259089.5	1291806709844.7	14.8	
2014-05-30-03-06	 -154.5	 -62.5	   37514876670.9	143770960315.7	25.4	
2014-05-30-03-06	  -95.5	 -63.5	   23639009359.2	78135593049.3	21.9	
2014-05-30-03-06	 -168.0	 -64.0	    8202813929.8	28323789784.1	22.9	
2014-05-30-06-09	   39.5	 -55.0	 1099558375456.7	3791597859971.6	24.1	
2014-05-30-06-09	 -161.5	 -41.0	  288698154774.1	592888015929.1	13.8	
2014-05-30-06-09	 -169.0	 -47.0	  202964449595.3	488337120558.2	16.1	
2014-05-30-06-09	 -154.5	 -62.5	   28903655758.3	110612984682.7	25.5	
2014-05-30-06-09	 -164.5	 -45.0	    2185722126.6	3825675858.3	11.6	
2014-05-30-09-12	   39.0	 -55.0	 1036492457105.7	3504321871984.9	23.7	
2014-05-30-09-12	 -168.0	 -46.5	  323969933408.6	810003357685.6	16.9	
2014-05-30-09-12	 -161.0	 -42.0	  104041262416.3	214994813217.5	13.9	
2014-05-30-09-12	 -155.0	 -62.5	   14416129907.8	52815297450.2	24.5	
2014-05-30-09-12	  -46.5	  42.0	    9152201133.6	23332647897.3	17.1	
2014-05-30-12-15	   37.5	 -56.0	  942248931786.0	3065592348641.4	22.8	
2014-05-30-12-15	 -166.5	 -46.5	  496787090327.9	1236842263758.2	17.1	
2014-05-30-12-15	  -46.0	  42.5	   29534347018.4	78131441221.8	17.9	
2014-05-30-12-15	   30.0	 -44.0	   31277867739.3	73040379439.3	15.8	
2014-05-30-12-15	 -160.5	 -42.5	   34347083071.5	63778552559.9	12.5	
2014-05-30-15-18	   36.0	 -56.5	  823877848185.2	2587719827010.3	22.1	
2014-05-30-15-18	 -165.0	 -46.5	  590781512648.7	1451930656637.3	17.0	
2014-05-30-15-18	   31.5	 -44.5	   73295455068.7	171448864159.7	15.9	
2014-05-30-15-18	  -45.5	  43.0	   27182298409.1	64691066755.6	16.2	
2014-05-30-18-21	   33.0	 -58.0	  612217060266.6	1878189927299.2	21.5	
2014-05-30-18-21	 -163.5	 -47.0	  683568379109.5	1660365559207.4	17.0	
2014-05-30-18-21	   40.5	 -53.5	   57296320003.3	171765409374.1	20.6	
2014-05-30-18-21	  -44.5	  43.0	   24755804365.5	55072856669.0	15.2	
2014-05-30-18-21	 -159.0	 -52.5	    1881729203.2	4516576603.6	16.4	
2014-05-30-21-24	 -161.0	 -48.0	  714377156893.6	1728528788723.0	17.0	
2014-05-30-21-24	   32.0	 -58.0	  465298833382.2	1400474760266.7	21.1	
2014-05-30-21-24	  -43.5	  44.0	   20067269935.2	43883554746.2	15.1	
2014-05-30-21-24	   40.5	 -53.5	    7419413834.0	21863433099.4	20.3	
2014-05-31-00-03	   31.0	 -58.0	  359201563000.8	1040212401128.7	20.3	
2014-05-31-00-03	 -171.5	 -48.5	  335283505139.8	782570461402.2	16.3	
2014-05-31-00-03	 -155.5	 -49.0	  286273435171.0	701050042863.7	17.1	
2014-05-31-00-03	   38.5	 -45.5	   86652716673.2	176869910373.5	14.2	
2014-05-31-00-03	  -43.0	  43.5	    8931448649.3	17889421153.3	13.9	
2014-05-31-03-06	 -171.5	 -49.0	  337377245252.9	798232265751.2	16.6	
2014-05-31-03-06	   30.5	 -58.0	  248810481197.4	688992416006.0	19.4	
2014-05-31-03-06	 -152.5	 -50.0	  259834242079.6	634170155107.8	17.1	
2014-05-31-03-06	   41.0	 -45.5	   69729731349.9	157156113493.7	15.7	
2014-05-31-03-06	   -7.0	 -39.0	   36065397746.3	67592170527.8	13.0	
2014-05-31-03-06	   40.5	 -49.0	    8152278579.3	19996930284.7	17.1	
2014-05-31-03-06	  -42.5	  43.5	    4484377598.4	9120123313.3	14.1	
2014-05-31-03-06	   37.5	 -45.5	    2166565317.8	3651926827.9	11.7	
2014-05-31-06-09	 -169.0	 -48.0	  292682286993.2	681053994271.9	16.5	
2014-05-31-06-09	   30.5	 -57.5	  143479535307.5	372172030679.4	18.3	
2014-05-31-06-09	 -150.0	 -51.5	   91352266416.0	206951021801.3	15.9	
2014-05-31-06-09	   -6.5	 -39.0	   31311795093.2	56195825337.7	12.6	
2014-05-31-06-09	   43.5	 -45.5	   23966149786.1	49148815888.5	14.4	
2014-05-31-06-09	   42.0	 -49.5	    4055858785.3	9551687865.4	16.5	
2014-05-31-09-12	 -168.5	 -47.5	  142261426399.9	316366932823.7	15.9	
2014-05-31-09-12	   45.5	 -46.0	   19517914506.2	42675962280.0	15.5	
2014-05-31-09-12	    4.5	 -46.5	    4255515123.2	10209823542.5	17.0	
2014-05-31-12-15	 -168.5	 -47.0	   35953988455.8	73332983366.3	14.7	
2014-05-31-12-15	   44.0	 -49.5	    4014988985.9	14921584731.2	26.7	
2014-05-31-18-21	   48.0	 -46.0	   10774860918.6	29759074493.5	20.4	
2014-05-31-21-24	   48.5	 -46.5	   59925180777.7	151852853846.9	19.0	
