2015-06-01-00-03	   60.0	 -59.5	   79959612785.5	245528667836.7	23.0	
2015-06-01-00-03	  172.5	 -64.5	   31092091317.8	129597883979.7	31.2	
2015-06-01-00-03	   14.0	 -31.5	   52903024946.1	120590456915.1	17.1	
2015-06-01-00-03	  -23.5	  61.0	   16342531861.9	66388175286.6	30.4	
2015-06-01-03-06	   60.0	 -59.5	  111980216804.5	344981459193.4	23.0	
2015-06-01-03-06	  -23.0	  61.0	   28330865038.8	103691399741.0	27.2	
2015-06-01-03-06	   52.0	 -59.5	   27017537988.4	75609694277.3	20.8	
2015-06-01-03-06	   14.0	 -31.5	   29046318029.1	69412005226.5	17.8	
2015-06-01-03-06	  172.5	 -64.0	    4065117897.2	17399385770.5	31.8	
2015-06-01-06-09	   60.0	 -59.0	  132397725661.5	402176100905.2	22.5	
2015-06-01-06-09	  -21.5	  61.5	   65273723795.9	254016506122.5	28.8	
2015-06-01-06-09	   52.0	 -59.0	   62662956934.7	174533668971.0	20.6	
2015-06-01-06-09	   66.5	 -50.5	   11859222778.5	39338968863.4	24.5	
2015-06-01-06-09	   66.5	 -60.0	   12457519306.8	35552708039.2	21.1	
2015-06-01-06-09	   14.0	 -31.5	    7920725609.4	19144968432.2	17.8	
2015-06-01-09-12	   57.5	 -58.5	  239165013241.6	696255747704.1	21.5	
2015-06-01-09-12	  -21.0	  61.0	   93341527708.3	396657269330.2	31.2	
2015-06-01-09-12	   66.0	 -50.5	   33631185411.7	100407370621.6	21.8	
2015-06-01-09-12	   69.0	 -59.5	    4706522035.6	14257426107.4	22.1	
2015-06-01-12-15	   57.0	 -58.5	  246214288294.5	702993094628.5	20.9	
2015-06-01-12-15	  -22.0	  61.0	  101399384625.7	441164345650.9	31.7	
2015-06-01-12-15	   66.0	 -50.5	   45364626318.6	131676783457.9	21.1	
2015-06-01-15-18	   56.5	 -58.0	  223091396446.2	616704821577.5	20.1	
2015-06-01-15-18	  -22.5	  61.0	   77850422364.2	327223108279.5	30.4	
2015-06-01-15-18	   66.0	 -50.5	   57181171877.8	158251430193.5	20.0	
2015-06-01-15-18	  159.0	  50.5	    5877613336.7	12972402619.9	15.9	
2015-06-01-15-18	 -169.0	 -64.0	    2710078598.1	10199583612.0	27.1	
2015-06-01-18-21	   60.0	 -58.0	   80598986570.4	220461717947.3	19.6	
2015-06-01-18-21	   51.5	 -58.0	   76234281358.9	201225800317.9	18.9	
2015-06-01-18-21	   66.0	 -50.5	   57264425213.8	152947548379.6	19.2	
2015-06-01-18-21	  -23.0	  61.0	   38984902238.4	150827881901.1	27.7	
2015-06-01-18-21	  160.0	  50.5	   54631191257.0	133152298623.6	17.5	
2015-06-01-18-21	 -169.0	 -64.0	    9509364629.4	36569515393.4	27.5	
2015-06-01-21-24	  160.5	  51.0	  118958965263.3	317650544995.1	19.0	
2015-06-01-21-24	   60.5	 -58.0	   44612895499.3	116383652385.3	18.6	
2015-06-01-21-24	   66.0	 -50.5	   45552021864.1	116063000510.2	18.1	
2015-06-01-21-24	   51.5	 -57.5	   43338860855.3	113781950798.4	18.7	
2015-06-01-21-24	 -169.0	 -64.0	   12243635939.4	47204405038.6	27.4	
2015-06-02-00-03	  161.0	  51.0	  142487029807.7	396596932618.8	19.7	
2015-06-02-00-03	   66.0	 -50.5	   21689761138.2	58216695391.9	18.9	
2015-06-02-00-03	 -169.0	 -64.0	    8178621218.0	32014872255.2	27.6	
2015-06-02-00-03	   51.5	 -57.5	   11716590447.0	30187403725.9	18.2	
2015-06-02-00-03	   60.5	 -57.5	    6666025199.8	14835108468.2	15.7	
2015-06-02-03-06	  161.0	  50.5	  154990437498.1	425053336608.2	19.2	
2015-06-02-03-06	    3.5	 -58.5	   19655757635.4	73294175019.9	26.0	
2015-06-02-03-06	 -169.0	 -64.0	    4065117897.2	15311500318.8	26.3	
2015-06-02-03-06	  -34.5	  56.0	    5140669460.2	14673426128.1	19.9	
2015-06-02-03-06	   66.5	 -50.5	    1966167587.6	6110455210.5	21.7	
2015-06-02-06-09	  161.5	  50.5	  155991337643.6	403737817791.6	18.0	
2015-06-02-06-09	    6.0	 -59.0	   63053012341.0	227522706400.3	25.0	
2015-06-02-06-09	   45.5	 -30.5	   40042514007.1	65511571652.8	11.3	
2015-06-02-06-09	  -33.5	  56.5	   15241930582.7	45229277074.9	20.5	
2015-06-02-09-12	  162.0	  50.0	  130956940592.5	325166162650.3	17.1	
2015-06-02-09-12	    8.0	 -59.0	   91338166329.7	297491883268.3	22.4	
2015-06-02-09-12	  -31.5	  57.0	   74002288361.0	247965505167.7	23.0	
2015-06-02-09-12	   45.5	 -30.5	   88340158920.6	152179265535.9	11.8	
2015-06-02-09-12	  172.5	 -33.0	   10398769259.0	26076281230.9	17.2	
2015-06-02-12-15	  -32.0	  57.0	   78506623486.5	257221359661.9	22.4	
2015-06-02-12-15	  162.5	  50.0	  105587158442.4	255182347433.5	16.6	
2015-06-02-12-15	   11.0	 -59.5	   66860469907.4	226582521682.8	23.2	
2015-06-02-12-15	   45.5	 -30.5	  114966476168.2	211572647893.2	12.6	
2015-06-02-12-15	  172.5	 -33.0	   33773122043.0	81356904794.2	16.5	
2015-06-02-12-15	  -27.5	 -35.5	   20162516174.9	39106502273.7	13.2	
2015-06-02-12-15	    6.5	 -59.0	   11259340474.1	33463758507.6	20.3	
2015-06-02-15-18	   45.0	 -30.5	  125659474782.4	239882541764.8	13.0	
2015-06-02-15-18	   12.0	 -59.5	   58739299401.7	193311653156.5	22.5	
2015-06-02-15-18	  163.0	  49.5	   79616900542.4	187689857609.1	16.1	
2015-06-02-15-18	  -32.5	  57.0	   48410466791.9	142666704273.4	20.1	
2015-06-02-15-18	  173.0	 -33.0	   38943124215.1	94770764511.7	16.6	
2015-06-02-15-18	  -26.5	 -36.5	   17393110906.2	35072464768.2	13.7	
2015-06-02-15-18	  169.5	 -34.0	    7702845098.8	16416126649.5	14.5	
2015-06-02-18-21	   45.0	 -30.5	  125659474782.4	241524218179.2	13.1	
2015-06-02-18-21	  173.0	 -33.0	   38943124215.1	93197632898.0	16.3	
2015-06-02-18-21	  164.0	  49.5	   37750470449.6	86511002089.7	15.6	
2015-06-02-18-21	   13.5	 -59.5	   23624980574.8	77344420743.1	22.3	
2015-06-02-18-21	  169.5	 -34.5	   20500566343.2	39872067784.0	13.2	
2015-06-02-18-21	  -24.5	 -39.0	   12078444391.0	30043774639.1	16.9	
2015-06-02-18-21	  -33.0	  57.0	    1683521933.3	3703447071.7	15.0	
2015-06-02-21-24	   45.0	 -30.5	  109439191663.8	214120891773.5	13.3	
2015-06-02-21-24	  173.0	 -33.0	   36350728183.8	81519498949.8	15.3	
2015-06-02-21-24	  169.5	 -34.5	   28112129734.6	52953013581.2	12.8	
2015-06-02-21-24	  -23.5	 -40.0	    9506109062.7	21565924642.7	15.4	
2015-06-02-21-24	   23.0	 -38.0	    4904633867.8	12210148800.9	16.9	
2015-06-02-21-24	  177.0	 -46.0	    4294486855.3	10068499781.0	15.9	
2015-06-02-21-24	    3.5	 -59.0	    1592022819.7	5081900229.7	21.7	
2015-06-03-00-03	   45.0	 -31.0	   95963595089.5	185494623004.3	13.2	
2015-06-03-00-03	  176.5	 -46.5	   32110406626.8	83445365652.5	17.7	
2015-06-03-00-03	    5.0	 -59.5	   22172287353.7	59471693312.7	18.3	
2015-06-03-00-03	  169.5	 -34.5	   20347397545.9	35021419539.0	11.7	
2015-06-03-00-03	  172.5	 -33.0	   12991165290.4	31878950129.5	16.7	
2015-06-03-00-03	   22.5	 -38.5	    9709810262.7	22022586665.0	15.4	
2015-06-03-03-06	   45.0	 -31.0	   79960912432.8	148255067740.0	12.7	
2015-06-03-03-06	  176.5	 -46.5	   57759435339.5	146985856317.0	17.4	
2015-06-03-03-06	   98.5	 -55.5	   24599133669.1	67399473276.2	18.7	
2015-06-03-03-06	  170.0	 -35.5	   30257323831.8	54329683239.8	12.2	
2015-06-03-03-06	   22.0	 -39.0	   16866180934.0	32177256106.8	13.0	
2015-06-03-03-06	  172.5	 -47.0	    4216219861.1	8799013387.1	14.2	
2015-06-03-03-06	   21.0	 -38.0	    2435802716.8	3530497325.3	9.9	
2015-06-03-06-09	  176.0	 -46.5	  100193453693.4	261815801952.6	17.9	
2015-06-03-06-09	   45.0	 -31.0	   55953736793.8	98314868965.8	12.0	
2015-06-03-06-09	   21.5	 -39.5	   36015477581.8	70987021551.8	13.5	
2015-06-03-06-09	   97.0	 -56.0	   26127642905.1	62555810486.5	16.4	
2015-06-03-06-09	  170.5	 -36.0	   25085381400.9	41893690032.5	11.4	
2015-06-03-09-12	  175.5	 -46.5	  129920371079.3	336298489670.2	17.8	
2015-06-03-09-12	   21.5	 -40.0	   40614569598.6	82342660948.2	13.9	
2015-06-03-09-12	   45.0	 -31.0	   34595120042.8	56835853571.1	11.2	
2015-06-03-09-12	  170.5	 -36.5	   19989545903.9	35263086435.4	12.1	
2015-06-03-09-12	 -180.0	 -32.5	    2606988598.1	3393901985.3	8.9	
2015-06-03-12-15	  175.0	 -46.5	  142723301414.8	378160932320.3	18.2	
2015-06-03-12-15	   21.5	 -40.0	   47682875806.9	94546002432.1	13.6	
2015-06-03-12-15	  179.0	 -35.0	   25457841823.0	47819397527.7	12.9	
2015-06-03-12-15	 -176.0	 -33.0	   25878209190.6	47084589930.7	12.5	
2015-06-03-12-15	 -180.0	 -33.5	   15524204988.1	31166948662.3	13.8	
2015-06-03-12-15	  170.5	 -36.5	    9971037898.8	19882610583.3	13.7	
2015-06-03-12-15	   45.0	 -31.0	    7976296494.5	12258325402.4	10.5	
2015-06-03-15-18	  175.0	 -46.5	  142546807319.8	391148745825.2	18.9	
2015-06-03-15-18	 -178.0	 -34.0	  115780985995.9	209263225892.6	12.4	
2015-06-03-15-18	  178.5	 -35.0	   60918813842.3	111961412954.0	12.6	
2015-06-03-15-18	   22.5	 -39.0	   55209036488.0	109574317702.3	13.6	
2015-06-03-15-18	  175.5	 -51.0	    7822892603.6	23751979509.5	20.8	
2015-06-03-15-18	  171.0	 -36.5	    2484784349.4	4980592472.5	13.7	
2015-06-03-18-21	  175.0	 -46.5	  148907031623.6	426108863415.2	19.7	
2015-06-03-18-21	 -178.0	 -34.0	  151691663806.4	274954969170.8	12.4	
2015-06-03-18-21	  178.5	 -35.0	   71183498152.6	141267185587.1	13.6	
2015-06-03-18-21	  175.5	 -51.0	   37333897558.3	96069348391.6	17.6	
2015-06-03-18-21	   21.5	 -41.0	   39833554891.7	80947158180.5	13.9	
2015-06-03-18-21	   23.0	 -38.0	   31746701597.3	67932350368.6	14.6	
2015-06-03-21-24	  175.0	 -46.5	  153453176922.8	441750906114.4	19.7	
2015-06-03-21-24	 -178.0	 -34.5	  176621986080.8	330661380581.1	12.8	
2015-06-03-21-24	   39.5	 -62.0	   37824994094.8	131991330123.0	23.8	
2015-06-03-21-24	  175.5	 -51.0	   47370912917.0	116919436033.7	16.8	
2015-06-03-21-24	  178.5	 -35.0	   50990616954.5	102986019192.3	13.8	
2015-06-03-21-24	   21.5	 -40.5	   16452961073.8	35785023295.9	14.8	
2015-06-03-21-24	   23.5	 -38.0	    9776239301.3	18773022672.7	13.1	
2015-06-04-00-03	  175.5	 -46.5	  145040705413.8	421826475660.3	19.8	
2015-06-04-00-03	 -178.0	 -35.0	  198931319530.2	396482180956.7	13.6	
2015-06-04-00-03	   40.0	 -61.5	  102523781205.4	384596546731.3	25.6	
2015-06-04-00-03	   31.0	 -41.5	   67026036573.7	159483323008.1	16.2	
2015-06-04-00-03	  175.5	 -51.0	   52996687620.6	128719741632.6	16.5	
2015-06-04-00-03	   84.0	 -60.0	   20347730472.2	76274457983.5	25.4	
2015-06-04-00-03	  179.0	 -35.0	   33114561970.6	62559930841.4	12.8	
2015-06-04-03-06	   41.0	 -61.0	  169052515675.4	627660178606.8	25.2	
2015-06-04-03-06	   32.5	 -42.0	  197893249913.7	569360068486.6	19.5	
2015-06-04-03-06	 -177.0	 -35.0	  208349137142.9	419604990198.1	13.6	
2015-06-04-03-06	  176.0	 -46.5	  143087463734.4	395007771515.2	18.7	
2015-06-04-03-06	  175.5	 -51.0	   58539665725.6	146407124181.7	16.9	
2015-06-04-03-06	   84.0	 -59.5	   41134338429.4	146132533132.6	24.0	
2015-06-04-03-06	  151.0	  40.0	   18890938958.7	39263213866.0	14.0	
2015-06-04-03-06	  175.5	 -42.5	    4557963356.6	23206128340.6	34.3	
2015-06-04-03-06	  179.0	 -34.5	   10220115103.7	20002555873.5	13.2	
2015-06-04-03-06	 -179.5	 -34.0	    5140225619.7	11587661483.6	15.2	
2015-06-04-03-06	 -180.0	 -32.5	    5213977196.3	6475249352.5	8.4	
2015-06-04-06-09	   42.5	 -60.5	  208442409407.3	760252152913.1	24.7	
2015-06-04-06-09	   33.0	 -42.0	  260419206629.0	679730896970.2	17.6	
2015-06-04-06-09	 -176.0	 -35.0	  251224613667.8	495233435577.0	13.3	
2015-06-04-06-09	  176.5	 -46.0	  143302255233.6	383387011137.9	18.0	
2015-06-04-06-09	  175.5	 -51.0	   64500234478.0	159270375334.6	16.6	
2015-06-04-06-09	   83.5	 -59.5	   42842262742.6	154853925142.4	24.3	
2015-06-04-06-09	  151.5	  40.5	   37589264621.4	77648909490.0	13.8	
2015-06-04-06-09	   23.5	 -36.0	   10018508005.1	33275990584.0	22.3	
2015-06-04-06-09	  179.0	 -55.0	    8886741629.2	23112523492.6	17.4	
2015-06-04-06-09	  176.0	 -42.5	    2278981678.3	9333017038.7	27.4	
2015-06-04-09-12	   43.5	 -60.0	  200453847514.4	694179291920.1	23.3	
2015-06-04-09-12	   34.0	 -41.5	  277014363195.0	662928200834.0	16.1	
2015-06-04-09-12	 -175.0	 -35.0	  273907670338.1	527827690389.3	12.9	
2015-06-04-09-12	  176.5	 -46.0	  156066046544.8	406473018568.7	17.5	
2015-06-04-09-12	  175.5	 -51.0	   66632600684.1	162629629179.5	16.3	
2015-06-04-09-12	  152.5	  41.0	   55862697549.7	120715597306.1	14.4	
2015-06-04-09-12	 -179.5	 -54.0	   38304882601.0	92891341389.3	16.2	
2015-06-04-09-12	   83.0	 -59.0	   20602724259.9	69384132762.1	22.5	
2015-06-04-09-12	   23.5	 -36.0	   22553318741.6	57048030087.6	16.9	
2015-06-04-09-12	  179.0	 -55.0	   10769715575.4	29221901274.0	18.1	
2015-06-04-09-12	 -170.0	 -33.5	   10340004344.2	18273665268.2	11.8	
2015-06-04-09-12	   30.0	 -38.0	    2452316933.9	5757056092.7	15.7	
2015-06-04-09-12	  173.0	 -54.5	    1794998103.8	4057880169.5	15.1	
2015-06-04-12-15	   36.5	 -42.5	  331885673965.9	814622824128.4	16.5	
2015-06-04-12-15	 -174.5	 -35.0	  279223963162.8	525381470977.1	12.6	
2015-06-04-12-15	   45.0	 -59.5	  153046916458.4	496515275074.1	21.7	
2015-06-04-12-15	  176.0	 -46.5	  155793290480.6	411930970326.2	17.7	
2015-06-04-12-15	 -178.5	 -54.0	   66142764827.6	159204019957.4	16.0	
2015-06-04-12-15	  176.0	 -51.0	   59249365832.8	144832464724.1	16.3	
2015-06-04-12-15	  153.0	  41.5	   67133639043.5	144773704194.7	14.4	
2015-06-04-12-15	   23.5	 -36.0	   22553318741.6	57628442707.4	17.0	
2015-06-04-12-15	   30.0	 -36.5	   27395478891.0	53490694210.5	13.0	
2015-06-04-12-15	 -169.5	 -33.0	   28544750893.5	49992197297.3	11.7	
2015-06-04-12-15	 -177.0	 -50.5	    5898502762.9	10471343781.0	11.8	
2015-06-04-12-15	  179.5	 -54.5	    1794998103.8	5017000652.4	18.6	
2015-06-04-15-18	   39.0	 -43.5	  429295733955.3	1131148114624.0	17.7	
2015-06-04-15-18	 -173.0	 -34.5	  326865377014.5	595760994761.5	12.1	
2015-06-04-15-18	  176.0	 -46.5	  142523755622.5	387069882417.3	18.0	
2015-06-04-15-18	 -178.0	 -53.5	  109119785188.6	265445130719.0	16.1	
2015-06-04-15-18	   46.0	 -59.0	   85203226141.3	256496695819.6	20.0	
2015-06-04-15-18	  154.0	  42.0	   68837344016.9	151575868488.0	14.6	
2015-06-04-15-18	  176.0	 -51.0	   57283198245.2	134321246708.8	15.5	
2015-06-04-15-18	 -176.5	 -50.0	   25849011344.3	66889361782.2	17.1	
2015-06-04-15-18	   23.5	 -36.0	   20021256082.4	52720660815.9	17.4	
2015-06-04-15-18	   34.5	 -33.0	   13020151810.4	36187580101.5	18.4	
2015-06-04-15-18	 -180.0	 -49.5	   10220302847.0	23941305320.2	15.5	
2015-06-04-15-18	   32.0	 -36.5	    2484784349.4	3787218917.0	10.1	
2015-06-04-15-18	   25.5	 -35.5	    2516494527.9	2803853355.2	7.4	
2015-06-04-18-21	   40.5	 -44.5	  302941366643.6	935860667056.4	20.5	
2015-06-04-18-21	 -173.0	 -34.5	  327233951944.4	603048397039.7	12.2	
2015-06-04-18-21	 -177.5	 -50.5	  246167554237.4	579664953035.2	15.5	
2015-06-04-18-21	   36.0	 -39.0	  221725640307.8	556787610442.1	16.6	
2015-06-04-18-21	  176.0	 -47.0	  142309104884.6	374592340219.0	17.3	
2015-06-04-18-21	   35.0	 -32.0	  120842489173.7	265847766612.3	14.5	
2015-06-04-18-21	  154.5	  42.5	   86559484573.6	193409045106.7	14.7	
2015-06-04-18-21	   77.5	 -55.5	   45294397829.1	126410058034.6	18.3	
2015-06-04-18-21	  176.0	 -50.5	   41618624346.0	96842609620.2	15.3	
2015-06-04-18-21	   24.0	 -36.0	   10034458255.7	27017119986.6	17.6	
2015-06-04-18-21	   47.5	 -58.5	    6552085521.5	17807551454.6	17.8	
2015-06-04-18-21	  172.5	 -55.0	    5340937483.5	13240305985.4	16.2	
2015-06-04-21-24	   40.0	 -41.5	  885019056481.9	2459101409632.9	18.5	
2015-06-04-21-24	 -177.0	 -50.5	  343460212261.5	800977351032.2	15.2	
2015-06-04-21-24	 -172.5	 -34.5	  315235767315.6	584061830857.4	12.1	
2015-06-04-21-24	   76.0	 -55.5	  129144206006.2	399451125343.3	20.1	
2015-06-04-21-24	  176.5	 -47.0	  116839325430.8	293034856802.8	16.3	
2015-06-04-21-24	  155.0	  42.5	  101925425719.5	227272148577.5	14.5	
2015-06-04-21-24	  176.0	 -50.5	   29677051941.5	66094153759.1	14.4	
2015-06-04-21-24	  149.0	  41.0	    9331465500.4	18668466917.2	13.0	
2015-06-04-21-24	  172.5	 -55.0	    5340937483.5	12764904771.3	15.5	
2015-06-04-21-24	  178.5	 -50.5	    1966167587.6	2868529739.2	9.4	
2015-06-05-00-03	   42.0	 -42.0	 1030071930014.1	2819418449180.0	18.2	
2015-06-05-00-03	 -175.5	 -50.0	  338024484538.7	806668193325.1	15.4	
2015-06-05-00-03	   74.5	 -56.0	  191444605374.3	621630916911.4	21.0	
2015-06-05-00-03	 -172.5	 -34.0	  295213932527.2	540526703959.1	11.8	
2015-06-05-00-03	  153.5	  42.0	  187463193681.5	392863626188.9	13.5	
2015-06-05-00-03	  176.0	 -46.5	   65975924676.5	157751890481.9	15.4	
2015-06-05-00-03	  176.0	 -50.5	   23613698663.3	57079852753.5	15.5	
2015-06-05-00-03	 -180.0	 -49.0	   20379458338.0	48764144615.0	15.4	
2015-06-05-03-06	   42.5	 -42.5	 1017839309387.1	2669334494723.7	17.2	
2015-06-05-03-06	 -174.5	 -49.0	  500415570946.0	1229501709202.5	15.9	
2015-06-05-03-06	   73.5	 -56.0	  211174863348.3	691792305391.5	21.0	
2015-06-05-03-06	 -172.0	 -34.0	  272702433171.4	489518300428.0	11.5	
2015-06-05-03-06	  153.0	  42.0	  198967792011.4	415443475121.0	13.4	
2015-06-05-03-06	   39.5	 -30.5	   77449049211.2	143654932900.0	11.8	
2015-06-05-03-06	  175.5	 -51.0	   37230203611.0	89286139549.8	15.3	
2015-06-05-03-06	  176.0	 -46.5	   29807444668.4	75103976895.6	16.1	
2015-06-05-03-06	  -44.5	  43.5	   17881550572.3	42997880987.8	15.3	
2015-06-05-03-06	 -180.0	 -49.5	   16201610683.6	34574937961.3	13.6	
2015-06-05-06-09	   43.5	 -43.5	  735812859091.1	1933772431825.8	17.1	
2015-06-05-06-09	 -173.5	 -48.5	  641556335824.3	1601624199255.3	16.2	
2015-06-05-06-09	   73.5	 -56.5	  163648597253.6	497725599768.9	19.4	
2015-06-05-06-09	 -172.0	 -33.5	  237272017971.8	416046693011.7	11.2	
2015-06-05-06-09	  152.5	  41.5	  183403412739.7	384875974229.9	13.4	
2015-06-05-06-09	   35.5	 -30.5	  141240998565.2	275507921833.2	12.4	
2015-06-05-06-09	  -43.5	  43.5	   89367384201.8	236062524952.8	16.8	
2015-06-05-06-09	   40.0	 -30.5	   66850355725.5	120147463156.5	11.4	
2015-06-05-06-09	  176.0	 -50.5	   17674018784.3	41747397866.2	15.0	
2015-06-05-06-09	 -180.0	 -49.5	   12146369479.6	29670528737.6	15.5	
2015-06-05-06-09	  176.5	 -46.5	    8569487844.6	19617964769.2	14.5	
2015-06-05-06-09	  179.0	 -55.0	    5362965897.5	14365455373.7	17.0	
2015-06-05-06-09	   44.0	 -32.0	    5256959889.9	12724306669.2	15.4	
2015-06-05-09-12	 -173.0	 -48.0	  731486347370.9	1803232241673.8	16.0	
2015-06-05-09-12	   44.0	 -44.5	  419135676596.8	1132121393820.2	17.4	
2015-06-05-09-12	   40.0	 -36.5	  199127222846.3	410876732295.6	13.2	
2015-06-05-09-12	  -43.0	  43.5	  125048903275.0	353128508683.5	18.0	
2015-06-05-09-12	  153.0	  42.0	  151070969641.9	324196517882.3	13.7	
2015-06-05-09-12	   75.5	 -56.5	   70393286976.3	191944828438.6	17.4	
2015-06-05-09-12	   44.0	 -31.5	   71156167789.3	162183476003.1	14.5	
2015-06-05-09-12	 -173.5	 -33.5	   85215631379.9	144457319112.4	10.8	
2015-06-05-09-12	 -169.0	 -33.5	   82832632040.1	141023585265.1	10.8	
2015-06-05-09-12	   35.5	 -30.0	   66956817365.1	131492696301.2	12.5	
2015-06-05-09-12	   40.0	 -30.5	    8017266706.1	13272140247.7	10.5	
2015-06-05-09-12	 -180.0	 -49.5	    2007494492.9	7949211934.5	25.2	
2015-06-05-09-12	 -180.0	 -48.5	    4116544429.2	5114627576.1	7.9	
2015-06-05-12-15	 -172.5	 -47.5	  702030803492.7	1719475370747.5	16.0	
2015-06-05-12-15	   44.0	 -44.5	  319676847349.8	825666754499.3	16.7	
2015-06-05-12-15	  -42.5	  43.5	  136294766402.8	382133730766.4	18.0	
2015-06-05-12-15	  153.5	  42.0	  136706196898.8	292546847075.2	13.7	
2015-06-05-12-15	   44.5	 -31.5	  105624142933.8	256388412868.7	15.6	
2015-06-05-12-15	   41.0	 -36.5	   75016510167.9	142952270418.1	12.2	
2015-06-05-12-15	 -169.0	 -33.5	   69989952837.1	117646454585.3	10.8	
2015-06-05-12-15	 -173.5	 -33.0	   28529764231.8	48422631300.7	10.8	
2015-06-05-12-15	   76.5	 -57.0	   17015425179.7	46883501162.6	17.6	
2015-06-05-12-15	   56.5	 -47.5	    6284713947.3	17116874353.5	17.4	
2015-06-05-12-15	   35.5	 -30.0	    8070806316.5	14331029853.5	11.3	
2015-06-05-15-18	 -171.0	 -48.5	  612517707160.1	1468690013652.5	15.6	
2015-06-05-15-18	   44.5	 -45.5	  184155191277.8	464116443388.0	16.2	
2015-06-05-15-18	   44.5	 -32.0	  190785302619.9	404153408210.0	13.6	
2015-06-05-15-18	  -42.0	  43.5	  136388534095.6	348938106429.8	16.5	
2015-06-05-15-18	  154.0	  42.5	   95198160858.2	199109080983.1	13.4	
2015-06-05-15-18	 -172.5	 -43.5	   67446027349.5	166952217536.3	15.9	
2015-06-05-15-18	   57.5	 -47.5	   35658637984.4	84594040425.2	15.2	
2015-06-05-15-18	 -169.0	 -33.5	   33670976654.9	55076363051.7	10.5	
2015-06-05-18-21	 -169.5	 -48.0	  557813909025.9	1305218273549.9	15.3	
2015-06-05-18-21	   45.0	 -32.0	  208064558230.9	434755911354.6	13.5	
2015-06-05-18-21	  -41.5	  43.0	  103244919830.3	257947149540.2	16.1	
2015-06-05-18-21	   45.5	 -45.5	   61158910694.4	153076577702.4	16.1	
2015-06-05-18-21	   58.0	 -47.0	   63514011098.2	147955146119.6	15.0	
2015-06-05-18-21	 -172.0	 -43.5	   51771929581.7	134080554441.6	16.7	
2015-06-05-18-21	  154.0	  43.0	   51864003163.8	105017295423.0	13.0	
2015-06-05-18-21	   47.0	 -39.0	   43390420963.2	98755533063.6	14.6	
2015-06-05-21-24	 -168.5	 -47.0	  430893923559.1	979294292817.7	14.8	
2015-06-05-21-24	   45.5	 -31.5	  179488269057.4	348202398289.1	12.5	
2015-06-05-21-24	   58.0	 -46.0	   92356665144.3	207551238108.5	14.5	
2015-06-05-21-24	   48.0	 -39.0	   77372358412.4	191924519961.0	16.0	
2015-06-05-21-24	  -41.5	  43.0	   72043364087.1	175058625199.0	15.7	
2015-06-05-21-24	 -172.0	 -43.5	   38264036384.7	96958377880.6	16.3	
2015-06-05-21-24	   34.5	 -29.5	   29606273303.5	56890270397.6	12.4	
2015-06-05-21-24	   46.0	 -45.0	   19652009588.2	40814559121.2	13.4	
2015-06-06-00-03	 -167.0	 -46.0	  275391414886.1	609398732899.7	14.4	
2015-06-06-00-03	   57.5	 -44.5	  160470328909.5	359102597361.1	14.5	
2015-06-06-00-03	   49.0	 -38.5	  121194729154.5	326234262183.3	17.4	
2015-06-06-00-03	   45.5	 -29.5	   91422419366.0	160421757144.7	11.3	
2015-06-06-00-03	  -41.0	  43.0	   42896277883.2	96647962783.9	14.6	
2015-06-06-00-03	   34.5	 -30.0	   40273313609.0	77158178212.6	12.4	
2015-06-06-00-03	 -172.5	 -43.5	   20290419784.3	55639199142.4	17.7	
2015-06-06-00-03	  -12.0	  58.5	    3230168195.3	10131377537.8	20.2	
2015-06-06-03-06	   58.5	 -44.0	  263383478849.1	651930923739.5	16.1	
2015-06-06-03-06	 -166.5	 -46.0	  195665265297.9	422756444997.5	14.0	
2015-06-06-03-06	   49.0	 -38.5	  145581142579.7	376673946472.8	16.8	
2015-06-06-03-06	   51.5	 -29.0	   59457820123.5	105299133709.1	11.4	
2015-06-06-03-06	   34.5	 -30.0	   37529641688.8	67388325322.1	11.6	
2015-06-06-03-06	   44.5	 -27.0	   38494748839.8	67383917150.3	11.3	
2015-06-06-03-06	  -12.0	  58.5	    6414214203.1	23853846404.6	24.0	
2015-06-06-03-06	  -41.0	  42.5	    9060996255.4	18410147754.4	13.1	
2015-06-06-03-06	   45.5	 -31.0	    5312933713.5	8683751877.6	10.5	
2015-06-06-03-06	  -14.0	  60.5	    1522119794.7	6845226568.2	29.0	
2015-06-06-06-09	   55.5	 -41.5	  481775255540.4	1251175522817.7	17.0	
2015-06-06-06-09	 -166.0	 -46.0	  123094955209.5	259171077139.4	13.6	
2015-06-06-06-09	   52.0	 -28.5	  106143657878.2	186466496865.2	11.4	
2015-06-06-06-09	   43.5	 -26.0	   77567173039.0	160530644928.5	13.4	
2015-06-06-06-09	   34.5	 -30.0	    8044240928.5	15027615911.7	12.1	
2015-06-06-06-09	  -14.0	  60.5	    3044239589.4	10865155998.7	23.1	
2015-06-06-06-09	  -12.5	  58.5	    3207107101.5	10862854414.9	21.9	
2015-06-06-09-12	   60.0	 -43.5	  416480465998.2	1140620353528.5	18.0	
2015-06-06-09-12	   44.0	 -26.5	  118774776460.3	252106482398.2	13.8	
2015-06-06-09-12	   49.0	 -38.5	   75254569481.0	175034570485.5	15.1	
2015-06-06-09-12	   52.5	 -27.5	   71245037208.3	119336735396.1	10.9	
2015-06-06-09-12	 -166.0	 -45.5	   58513448371.9	117404165960.9	13.0	
2015-06-06-12-15	   60.5	 -43.0	  484369739961.7	1345007127146.8	18.3	
2015-06-06-12-15	   44.0	 -26.5	  142821024427.8	302564312531.2	13.8	
2015-06-06-12-15	 -121.0	 -55.5	   23026036617.9	70247719654.9	19.8	
2015-06-06-12-15	   49.5	 -38.5	    7290707848.1	19035619872.5	16.9	
2015-06-06-12-15	   53.0	 -27.0	    5508340864.3	8819337691.5	10.4	
2015-06-06-12-15	 -165.0	 -45.0	    2185722126.6	4119498699.0	12.2	
2015-06-06-15-18	   60.5	 -42.5	  520781164107.0	1489410352298.6	18.8	
2015-06-06-15-18	   44.0	 -26.5	  155784539509.7	322652009990.3	13.4	
2015-06-06-15-18	 -121.5	 -55.5	   37186822032.3	116588650917.3	20.3	
2015-06-06-18-21	   60.5	 -42.0	  572135908743.5	1633603390554.0	18.7	
2015-06-06-18-21	   44.0	 -27.0	  138908342226.7	296976499946.9	13.8	
2015-06-06-18-21	  -50.5	 -49.0	   96080076210.3	284561187199.7	19.1	
2015-06-06-18-21	 -121.5	 -55.5	   53230173111.2	165183544098.6	19.9	
2015-06-06-21-24	   60.5	 -41.0	  591077195678.0	1725037816911.4	19.0	
2015-06-06-21-24	  -49.0	 -49.0	  235750117333.7	712988459160.2	19.4	
2015-06-06-21-24	   44.5	 -28.0	  127645119024.0	265149818156.2	13.3	
2015-06-06-21-24	 -122.0	 -55.5	   72797977197.6	221044327675.8	19.4	
2015-06-07-00-03	   61.0	 -40.5	  626909959687.3	1809494755508.8	18.7	
2015-06-07-00-03	  -47.0	 -49.5	  342273979534.8	1035966499095.2	19.4	
2015-06-07-00-03	 -123.0	 -55.5	   83436471138.6	251192968127.8	19.1	
2015-06-07-00-03	   44.5	 -29.0	  108202677657.2	214295179668.5	12.6	
2015-06-07-03-06	   62.0	 -41.0	  688404254191.0	1906306001481.3	17.9	
2015-06-07-03-06	  -45.0	 -49.5	  407217616127.6	1171709213806.7	18.4	
2015-06-07-03-06	   45.0	 -29.0	   94650504698.7	175782867752.6	11.7	
2015-06-07-03-06	 -122.0	 -55.5	   35524125592.9	112382537784.0	20.0	
2015-06-07-03-06	 -127.0	 -55.0	    7135935587.4	17677090478.5	15.6	
2015-06-07-03-06	 -110.0	  19.0	    5836449854.6	6161582506.0	6.7	
2015-06-07-06-09	   64.5	 -42.0	  736057047602.8	1919348308121.1	16.9	
2015-06-07-06-09	  -43.0	 -49.5	  478062590424.2	1316737505338.2	17.7	
2015-06-07-06-09	   45.5	 -29.0	   81254204666.3	148327709152.1	11.6	
2015-06-07-06-09	 -111.0	  19.0	   43785158158.3	95313681302.5	13.8	
2015-06-07-06-09	 -121.5	 -55.5	   17729291196.4	57291388492.1	20.5	
2015-06-07-09-12	   66.5	 -44.0	  762613180394.9	1840890280577.3	15.7	
2015-06-07-09-12	  -42.0	 -49.5	  517284338093.4	1424188993907.6	17.8	
2015-06-07-09-12	   45.5	 -29.0	   70454346264.2	123690423264.2	11.2	
2015-06-07-12-15	   69.0	 -45.5	  725585201647.9	1669459359248.6	15.0	
2015-06-07-12-15	  -41.5	 -48.5	  519215995383.5	1440678455156.4	18.0	
2015-06-07-12-15	 -149.0	 -40.5	   63680936185.2	135450139522.2	13.6	
2015-06-07-12-15	   45.5	 -29.0	   40654905831.5	69443792704.5	10.9	
2015-06-07-12-15	  -33.0	 -55.0	   17905379404.9	51419022535.1	18.3	
2015-06-07-15-18	  -40.0	 -48.5	  497643116462.3	1343825574658.8	17.6	
2015-06-07-15-18	   71.0	 -46.5	  541334549303.6	1293163458646.0	15.5	
2015-06-07-15-18	 -148.5	 -41.5	  156020783664.8	333626735885.7	13.7	
2015-06-07-15-18	  -31.5	 -55.0	   62645432699.6	183446112138.4	18.8	
2015-06-07-15-18	   46.0	 -29.0	   13543536586.5	21035758305.6	9.9	
2015-06-07-15-18	 -138.0	 -55.5	    7025387815.3	17197667572.0	15.7	
2015-06-07-18-21	  -40.0	 -48.0	  413006262212.5	1079295720022.1	17.0	
2015-06-07-18-21	   72.0	 -47.0	  298525685926.0	868765116304.4	18.9	
2015-06-07-18-21	 -148.5	 -41.5	  247737527823.6	551307597461.6	14.4	
2015-06-07-18-21	  -30.0	 -55.0	   64329205202.9	197159716290.6	19.7	
2015-06-07-18-21	  -33.5	 -52.0	   30617227015.1	80635543116.0	16.9	
2015-06-07-18-21	 -138.0	 -55.5	   21097924339.7	55210646636.5	16.8	
2015-06-07-18-21	  -33.5	 -54.5	    1794998103.8	5347274314.4	19.1	
2015-06-07-18-21	  -31.0	 -50.5	    1986906671.9	5096970124.6	16.4	
2015-06-07-18-21	  -33.5	 -55.5	    1750806041.8	2862900570.6	10.5	
2015-06-07-21-24	 -147.5	 -41.5	  402341676939.6	884400169116.4	14.3	
2015-06-07-21-24	  -39.5	 -47.5	  345368490639.4	856288824883.5	16.1	
2015-06-07-21-24	   72.5	 -47.5	  234488564204.7	762356261203.5	21.1	
2015-06-07-21-24	  -28.0	 -56.0	   92313638601.0	297119385709.9	20.8	
2015-06-07-21-24	  -33.5	 -52.0	   21017641547.2	66790285596.3	20.5	
2015-06-07-21-24	 -138.5	 -55.5	   10571327195.1	26975134410.2	16.4	
2015-06-07-21-24	  -30.5	 -49.5	    8050259950.0	19490240903.7	15.6	
2015-06-08-00-03	 -147.0	 -41.5	  496171972081.6	1132216984540.9	15.0	
2015-06-08-00-03	   73.0	 -47.5	  202935628156.6	704637895109.2	22.6	
2015-06-08-00-03	  -39.0	 -47.5	  268784661084.1	627032050149.7	15.2	
2015-06-08-00-03	  -27.5	 -56.5	  110391193270.1	369185583052.5	21.7	
2015-06-08-03-06	 -146.5	 -41.5	  579042007028.0	1342820650285.2	15.3	
2015-06-08-03-06	   73.5	 -48.0	  189263532794.1	665365826841.3	23.0	
2015-06-08-03-06	  -38.0	 -47.5	  187345351929.1	412771487156.8	14.4	
2015-06-08-03-06	  -27.0	 -57.0	  114084140190.3	387400816253.5	22.1	
2015-06-08-06-09	 -146.0	 -41.5	  644449036979.1	1486018584562.3	15.3	
2015-06-08-06-09	   73.5	 -48.0	  184401132673.7	585704827605.6	20.8	
2015-06-08-06-09	  -26.0	 -57.0	  119610664325.5	381730626471.0	20.9	
2015-06-08-06-09	  -37.0	 -47.5	   90544716168.4	190255793896.5	13.7	
2015-06-08-06-09	  144.0	 -42.5	   16061342000.5	55791258608.8	22.6	
2015-06-08-09-12	 -145.0	 -41.5	  666545157335.7	1514991886497.5	15.2	
2015-06-08-09-12	   73.5	 -48.0	  148465821995.8	409166916612.4	18.1	
2015-06-08-09-12	  -26.0	 -57.0	  124327982609.1	378685568488.6	20.0	
2015-06-08-09-12	  144.0	 -42.5	   45794308439.5	133600946209.1	19.1	
2015-06-08-09-12	  -37.0	 -47.5	   29453314542.7	61002052651.4	13.6	
2015-06-08-12-15	 -144.5	 -42.0	  649275300676.7	1455556868413.9	15.0	
2015-06-08-12-15	   74.0	 -48.0	  104426938191.7	259497557659.6	16.4	
2015-06-08-12-15	  144.0	 -42.5	   68707068099.8	206263234992.4	19.8	
2015-06-08-12-15	  -26.0	 -56.5	   68438816951.4	200864284857.5	19.4	
2015-06-08-12-15	  -19.0	 -56.5	    5118240687.0	15645063965.0	20.1	
2015-06-08-12-15	  147.5	 -51.0	    3911446301.8	9650955646.4	16.3	
2015-06-08-15-18	 -144.0	 -42.0	  608459844736.6	1349549496816.0	15.0	
2015-06-08-15-18	  144.0	 -42.5	   82720455195.0	246214467672.6	19.8	
2015-06-08-15-18	   77.5	 -47.5	   23148952964.3	48485780481.3	13.9	
2015-06-08-15-18	  -26.0	 -56.5	   19013201980.8	43399479187.9	15.2	
2015-06-08-15-18	  147.0	 -47.5	   14677537825.2	26124895565.7	11.8	
2015-06-08-15-18	  150.0	 -51.5	    3869519871.1	8143883876.3	14.0	
2015-06-08-15-18	  149.0	 -49.0	    4055858785.3	6124540340.9	10.0	
2015-06-08-15-18	  -24.0	 -57.5	    1660834483.6	5548587646.8	22.2	
2015-06-08-15-18	  -23.0	 -58.0	    1638021380.4	5168992474.5	21.0	
2015-06-08-15-18	  140.0	 -39.0	    2402218422.6	3250687392.6	9.0	
2015-06-08-18-21	 -143.5	 -42.0	  565962061860.6	1236421326137.4	14.9	
2015-06-08-18-21	  143.0	 -42.0	  111391660629.8	321903602574.5	19.4	
2015-06-08-18-21	  149.0	 -48.5	   41423915658.9	97830225623.7	15.8	
2015-06-08-18-21	  -23.5	 -58.0	   11511651136.7	40142102237.7	23.4	
2015-06-08-18-21	  152.0	 -52.5	   11418056079.2	28912681932.0	17.0	
2015-06-08-21-24	 -143.0	 -42.0	  496138871976.9	1067792792994.5	14.7	
2015-06-08-21-24	  143.0	 -41.5	  104501525861.2	287111734943.2	18.6	
2015-06-08-21-24	  149.5	 -48.5	   51764801419.7	130394007705.4	17.0	
2015-06-08-21-24	  -24.0	 -57.5	   23251179419.2	75464588407.0	21.9	
2015-06-08-21-24	  154.0	 -53.0	   20612417815.9	54160799818.8	17.7	
2015-06-08-21-24	   77.0	 -54.5	    3589996207.6	11859590845.2	22.3	
2015-06-09-00-03	 -142.5	 -42.0	  433188647478.1	912658067577.6	14.5	
2015-06-09-00-03	  144.0	 -42.5	   62033859096.7	167198132060.2	18.3	
2015-06-09-00-03	  149.5	 -48.5	   28875244535.7	81032648209.9	19.0	
2015-06-09-00-03	  -24.0	 -57.5	   20179187366.7	62365875965.6	21.0	
2015-06-09-00-03	  155.0	 -54.0	    9106064759.4	22996207288.9	17.1	
2015-06-09-00-03	   77.0	 -54.5	    5384994311.5	15767583626.4	19.9	
2015-06-09-00-03	   84.5	 -49.5	    2007494492.9	4300177219.8	14.5	
2015-06-09-00-03	  140.0	 -39.0	    2402218422.6	3094058257.8	8.7	
2015-06-09-03-06	 -142.0	 -42.0	  360773865045.0	748813331822.7	14.3	
2015-06-09-03-06	  144.0	 -42.5	   36697387087.7	110179963382.1	20.5	
2015-06-09-03-06	   76.5	 -55.0	    8930933691.2	27433449391.5	20.9	
2015-06-09-03-06	   87.0	 -52.5	   11418056079.2	26616777752.7	15.9	
2015-06-09-03-06	  149.5	 -48.0	    4136669064.4	14580656982.1	24.0	
2015-06-09-03-06	   86.0	 -50.0	    6001895657.7	12600611780.2	14.3	
2015-06-09-03-06	  164.5	 -50.0	    1986906671.9	3386998802.8	11.6	
2015-06-09-06-09	 -141.5	 -42.0	  293619386689.4	604582786650.5	14.2	
2015-06-09-06-09	  159.0	 -54.5	   26769957386.1	84061709989.4	21.5	
2015-06-09-06-09	  144.0	 -42.5	   27437592512.2	82415291624.9	20.5	
2015-06-09-06-09	  164.0	 -51.0	   17757575752.1	51115956771.9	19.7	
2015-06-09-06-09	   88.5	 -53.0	   16892330302.2	40828166073.6	16.5	
2015-06-09-06-09	   77.0	 -55.0	    7157964001.3	20790655305.4	19.8	
2015-06-09-09-12	 -141.0	 -42.5	  238851250670.0	487220727274.1	14.1	
2015-06-09-09-12	  165.0	 -51.0	   41203718481.8	130146759493.9	21.7	
2015-06-09-09-12	  159.0	 -55.0	   22937114505.5	66832339653.0	20.0	
2015-06-09-09-12	  144.0	 -42.5	   18267604413.5	54714129454.0	20.5	
2015-06-09-12-15	 -140.5	 -42.5	  188070585345.8	372983115104.4	13.7	
2015-06-09-12-15	  163.5	 -57.5	   70220023391.1	236608771076.2	23.2	
2015-06-09-12-15	  164.5	 -51.0	   51033807105.3	161908797361.4	21.8	
2015-06-09-12-15	  144.0	 -42.5	   15952524266.5	45573090866.8	19.6	
2015-06-09-15-18	  165.5	 -58.5	  126592900312.6	453810398569.2	24.8	
2015-06-09-15-18	 -140.0	 -42.5	  132790761928.9	257623729775.6	13.4	
2015-06-09-15-18	  164.5	 -51.0	   45156792741.3	127817441752.8	19.5	
2015-06-09-15-18	   77.0	 -54.5	   10835664293.5	32447524914.3	20.6	
2015-06-09-15-18	  144.0	 -43.0	    9079305916.7	19920743288.0	15.1	
2015-06-09-18-21	  167.0	 -59.0	  178720845190.2	650612633453.2	25.3	
2015-06-09-18-21	 -139.5	 -42.5	   71075852570.1	132746231643.9	12.9	
2015-06-09-18-21	   77.0	 -54.5	   25238746232.3	77114386670.4	21.1	
2015-06-09-18-21	  164.0	 -51.0	   25517653051.5	68213423496.1	18.4	
2015-06-09-18-21	  144.0	 -42.5	    2278981678.3	5060364450.1	15.3	
2015-06-09-21-24	  168.5	 -59.0	  217642660643.0	780852957240.1	25.0	
2015-06-09-21-24	   77.0	 -55.0	   28454273957.8	86103387025.4	20.9	
2015-06-09-21-24	 -150.0	 -58.5	    6506209850.6	17564117314.9	18.6	
2015-06-09-21-24	 -139.5	 -42.5	    9152200028.1	16916067074.2	12.7	
2015-06-09-21-24	  164.5	 -50.5	    1986906671.9	3889745682.6	13.5	
2015-06-10-00-03	  169.5	 -58.5	  229425590218.3	791249973002.1	24.0	
2015-06-10-00-03	   78.0	 -56.5	   68521173947.2	198748160806.8	20.0	
2015-06-10-00-03	 -149.0	 -57.5	   16607967322.6	47017958492.2	19.5	
2015-06-10-03-06	  170.5	 -58.5	  221062059992.9	718801128945.3	22.6	
2015-06-10-03-06	   78.5	 -57.0	   93067177392.9	288054511522.7	21.4	
2015-06-10-03-06	 -147.5	 -57.0	   16880076879.5	47960490293.6	19.6	
2015-06-10-06-09	  172.0	 -59.0	  179972090314.1	566345946216.3	21.8	
2015-06-10-06-09	   79.5	 -58.0	   72590724721.4	236799250961.8	22.5	
2015-06-10-06-09	  165.5	 -55.5	   17506456402.2	37180518318.8	14.6	
2015-06-10-06-09	   77.5	 -55.0	    5362965897.5	15757908204.0	20.2	
2015-06-10-06-09	 -147.0	 -56.5	    3412160458.0	9466147776.7	19.1	
2015-06-10-09-12	  173.0	 -59.0	  162922858275.1	490671630869.2	20.9	
2015-06-10-09-12	   80.0	 -58.5	   52253382952.5	174715307015.4	23.1	
2015-06-10-09-12	  165.5	 -54.5	    1794998103.8	3535494494.1	13.6	
2015-06-10-12-15	  173.0	 -58.0	  132767989359.1	375900522606.8	19.6	
2015-06-10-12-15	   80.5	 -58.5	   22633615905.1	69928832278.4	21.4	
2015-06-10-12-15	  150.0	  42.0	   20637271405.9	41859181600.1	14.0	
2015-06-10-12-15	 -154.0	 -30.0	   13397940712.8	31620971587.9	16.3	
2015-06-10-12-15	 -168.5	 -63.5	    8347654869.5	30156683162.4	25.0	
2015-06-10-15-18	  173.0	 -57.5	   92288011744.8	255405333004.4	19.2	
2015-06-10-15-18	 -167.5	 -63.5	   37623711631.6	137068466369.5	25.2	
2015-06-10-15-18	 -153.5	 -30.5	   48061205461.3	103701011204.8	14.9	
2015-06-10-15-18	  150.5	  42.0	   22916253268.5	46686609556.3	14.1	
2015-06-10-15-18	   80.5	 -58.5	    3230167089.8	8793736953.7	18.8	
2015-06-10-15-18	  177.0	 -59.5	    1568840678.5	4798350666.6	21.1	
2015-06-10-18-21	 -166.5	 -63.5	   66995903604.0	250453509672.9	25.9	
2015-06-10-18-21	 -153.0	 -31.0	   98808681323.2	209432746389.7	14.7	
2015-06-10-18-21	  173.0	 -57.0	   66080009770.7	181482205348.0	19.0	
2015-06-10-18-21	  151.0	  42.0	   13728301700.4	24482805920.9	12.3	
2015-06-10-21-24	 -166.5	 -63.5	   94506181572.9	355031465781.2	26.1	
2015-06-10-21-24	 -152.0	 -31.0	  146678822416.1	327564230469.5	15.5	
2015-06-10-21-24	  173.5	 -56.5	   34277170189.6	92531815602.6	18.7	
2015-06-11-00-03	 -166.5	 -63.5	  126224618512.7	468990128838.9	25.8	
2015-06-11-00-03	 -151.5	 -31.0	  170391948520.7	389359533073.1	15.9	
2015-06-11-00-03	  173.5	 -56.0	   12099298442.7	30661620487.7	17.5	
2015-06-11-00-03	 -152.5	 -59.5	    7890567674.9	22268769328.1	19.5	
2015-06-11-03-06	 -166.0	 -63.5	  137015835476.1	508359295778.0	25.8	
2015-06-11-03-06	 -151.0	 -31.5	  175029629045.0	393530610809.1	15.6	
2015-06-11-03-06	 -151.5	 -58.5	   32369869955.7	88053949919.0	18.8	
2015-06-11-03-06	 -146.0	 -30.5	   26741932980.9	48125384129.3	12.5	
2015-06-11-06-09	 -150.0	 -32.0	  267084420424.4	562429241064.9	14.7	
2015-06-11-06-09	 -165.5	 -63.5	  128742752799.7	469903225077.8	25.5	
2015-06-11-06-09	 -150.0	 -58.0	  100573367465.7	287263288693.0	19.9	
2015-06-11-06-09	  151.5	  42.5	    9079306653.6	18455829565.3	14.1	
2015-06-11-09-12	 -149.5	 -32.0	  308072090688.1	675549840028.5	15.4	
2015-06-11-09-12	 -165.0	 -63.5	   91941778717.7	325167510783.2	24.8	
2015-06-11-09-12	 -149.0	 -57.5	   99892539279.7	290640025808.1	20.4	
2015-06-11-09-12	  152.5	  42.5	    6836945587.6	12534397871.1	12.8	
2015-06-11-12-15	 -148.5	 -32.5	  341118836826.1	791581322062.6	16.5	
2015-06-11-12-15	 -148.0	 -57.5	   67178468584.9	190323459656.4	20.0	
2015-06-11-12-15	 -164.5	 -63.5	   37576490713.4	122451828151.4	22.9	
2015-06-11-15-18	 -148.0	 -32.5	  350133343329.9	816138490714.4	16.7	
2015-06-11-15-18	 -147.0	 -57.0	   13558407912.4	35538752658.0	18.6	
2015-06-11-18-21	 -147.5	 -33.0	  364262608704.2	809468324689.0	16.1	
2015-06-11-21-24	 -146.5	 -33.5	  356400482928.2	750149333238.9	15.3	
2015-06-11-21-24	  168.0	 -60.0	    3091078296.4	9197427975.5	21.5	
2015-06-12-00-03	 -146.0	 -34.5	  345512941076.8	716351051395.0	15.2	
2015-06-12-00-03	  168.5	 -62.5	   15986333428.8	61388763963.4	27.9	
2015-06-12-03-06	 -146.0	 -35.5	  368202188667.0	782119782885.1	15.6	
2015-06-12-03-06	  168.0	 -62.5	   33113287288.1	128412049914.0	28.3	
2015-06-12-03-06	  165.5	 -48.0	   16705780246.0	40906198471.7	17.8	
2015-06-12-03-06	  164.5	 -51.0	    9851427233.2	25121520405.7	18.6	
2015-06-12-06-09	 -145.5	 -36.0	  368945823313.6	784302741367.8	15.6	
2015-06-12-06-09	  168.0	 -62.5	   51929466679.0	211653489703.8	29.8	
2015-06-12-06-09	  165.0	 -48.0	   59050844797.8	158368558223.1	19.6	
2015-06-12-09-12	 -145.0	 -36.5	  330843665058.3	707933583242.3	15.8	
2015-06-12-09-12	  166.5	 -62.5	   60993361070.5	244751601096.8	29.4	
2015-06-12-09-12	  165.0	 -48.5	   69207825489.2	182266111244.9	19.3	
2015-06-12-09-12	   66.0	 -50.5	    7906148519.0	23764775697.9	21.9	
2015-06-12-12-15	 -144.5	 -37.5	  277772741855.8	614028471315.9	16.3	
2015-06-12-12-15	  165.5	 -62.0	   62921192747.3	264311056108.2	30.8	
2015-06-12-12-15	  165.0	 -48.5	   57045221657.0	151206921853.3	19.4	
2015-06-12-12-15	 -146.5	 -43.5	   33927689057.5	66946475255.9	14.4	
2015-06-12-12-15	   66.0	 -50.5	   21648133180.5	65217601519.7	22.0	
2015-06-12-12-15	 -143.5	 -43.5	    2242188246.5	4335629517.6	14.1	
2015-06-12-15-18	 -143.5	 -38.0	  299482853694.8	677607752453.2	16.6	
2015-06-12-15-18	  163.5	 -61.5	   58972060726.7	230262839671.0	28.5	
2015-06-12-15-18	   66.0	 -51.0	   33360835003.2	98386100924.8	21.5	
2015-06-12-15-18	  165.5	 -48.0	   36880441509.0	95491437072.9	18.9	
2015-06-12-15-18	 -147.0	 -43.5	   45119807144.4	90503039222.2	14.6	
2015-06-12-18-21	 -143.0	 -39.0	  392901898714.2	910978153903.6	17.0	
2015-06-12-18-21	   66.0	 -51.0	   43273878489.6	121689111575.1	20.4	
2015-06-12-18-21	 -173.5	 -37.0	   34770271561.9	64731772895.1	13.5	
2015-06-12-18-21	  159.5	 -61.5	   16342529743.1	60309304208.6	26.8	
2015-06-12-18-21	  165.5	 -48.0	   18674439346.4	57709073779.1	22.4	
2015-06-12-18-21	 -148.0	 -43.5	   22514297632.5	44014187896.6	14.2	
2015-06-12-18-21	  164.5	 -50.5	    3973813343.7	4964717363.6	9.1	
2015-06-12-21-24	 -142.0	 -40.0	  458826470555.7	1138122868383.7	18.3	
2015-06-12-21-24	   66.0	 -51.0	   45198119646.6	126123592401.0	20.2	
2015-06-12-21-24	 -173.5	 -36.5	   54839188073.3	106747899756.5	14.1	
2015-06-12-21-24	  158.5	 -61.0	    2997168368.2	11012836426.4	26.6	
2015-06-12-21-24	  165.0	 -48.5	    2048209897.0	4536998211.0	16.0	
2015-06-13-00-03	 -141.5	 -40.5	  507307532111.5	1319843501639.3	19.2	
2015-06-13-00-03	   66.0	 -51.0	   47164287234.2	135980421643.3	20.9	
2015-06-13-00-03	 -179.0	 -42.0	   32374671686.4	77191489830.2	17.3	
2015-06-13-00-03	 -173.0	 -36.5	   19989545903.9	36620129577.3	13.3	
2015-06-13-00-03	 -172.5	 -43.0	    6782013840.1	13138350261.6	14.0	
2015-06-13-03-06	 -140.5	 -41.0	  545699764130.1	1443581418226.9	19.5	
2015-06-13-03-06	   66.0	 -51.0	   39196223988.8	112304855080.5	20.8	
2015-06-13-03-06	 -173.0	 -43.0	   43115987554.4	96620613566.1	16.2	
2015-06-13-03-06	 -179.0	 -42.0	   13872519071.0	31493329087.7	16.4	
2015-06-13-03-06	 -164.0	 -37.5	    4937288658.0	7942177637.8	11.6	
2015-06-13-06-09	 -139.0	 -41.5	  610504343619.1	1623097183853.1	19.7	
2015-06-13-06-09	 -170.5	 -53.5	  100815218491.6	315541323315.1	22.7	
2015-06-13-06-09	 -173.0	 -43.0	   56807145577.8	130295858847.0	16.6	
2015-06-13-06-09	   66.0	 -51.0	   27483820639.2	83441773603.4	22.0	
2015-06-13-06-09	 -164.0	 -37.0	   22249891627.3	38360160366.2	12.5	
2015-06-13-09-12	 -138.0	 -42.0	  647763053798.2	1713568679097.6	19.6	
2015-06-13-09-12	 -170.5	 -54.5	  176844503240.7	577319961262.0	23.8	
2015-06-13-09-12	 -172.5	 -43.0	   36206670735.8	87859827086.1	17.6	
2015-06-13-09-12	   66.0	 -51.0	   17715947794.4	52771384645.8	21.6	
2015-06-13-09-12	 -163.0	 -37.0	   22266031647.7	38406033848.0	12.5	
2015-06-13-12-15	 -137.5	 -42.5	  647698798638.1	1645361181077.6	18.8	
2015-06-13-12-15	 -170.5	 -55.0	  221995463229.7	692151496297.6	22.8	
2015-06-13-12-15	   87.5	 -30.5	   37354008559.5	90056435808.4	17.5	
2015-06-13-12-15	 -172.0	 -43.5	   31685500811.1	72191543132.0	16.5	
2015-06-13-12-15	 -162.5	 -37.0	    7422073007.5	12730117744.6	12.4	
2015-06-13-12-15	   66.5	 -50.5	    1966167587.6	6980485804.3	25.7	
2015-06-13-12-15	 -163.5	 -36.5	    2484784349.4	4339721133.7	12.6	
2015-06-13-15-18	 -137.0	 -43.0	  631738355256.1	1550254493869.8	18.2	
2015-06-13-15-18	 -171.0	 -55.5	  239349734505.8	697282709176.2	21.3	
2015-06-13-15-18	   88.0	 -30.5	   90612539923.5	217468607409.0	17.4	
2015-06-13-15-18	 -172.0	 -43.5	   33927689057.5	77109472391.5	16.5	
2015-06-13-18-21	 -136.0	 -43.0	  602195428059.7	1399209312028.8	17.2	
2015-06-13-18-21	 -173.5	 -56.5	  262417160671.5	748464797273.8	20.9	
2015-06-13-18-21	   87.5	 -31.5	  119206286083.6	298570820314.2	18.2	
2015-06-13-18-21	 -172.0	 -43.5	   31648707379.2	72710215827.6	16.7	
2015-06-13-21-24	 -135.5	 -43.0	  540525894705.8	1156555535553.5	15.8	
2015-06-13-21-24	 -174.5	 -57.0	  189840266121.0	530918872344.9	20.5	
2015-06-13-21-24	   88.0	 -31.5	  126776445003.5	315713871718.9	18.2	
2015-06-13-21-24	 -172.0	 -43.0	    9042685120.1	17848087057.8	14.4	
2015-06-14-00-03	 -134.0	 -42.5	  413691367037.8	826829731142.5	14.7	
2015-06-14-00-03	 -175.0	 -56.5	  109919461644.4	295157201773.3	19.6	
2015-06-14-00-03	   88.5	 -31.5	  116410260706.8	262672323599.1	16.5	
2015-06-14-00-03	 -149.5	 -44.5	   15564407092.3	31515034518.0	14.8	
2015-06-14-03-06	 -133.0	 -42.0	  232299012964.2	447771524185.2	14.2	
2015-06-14-03-06	 -175.5	 -56.0	   82095666054.5	215996500545.1	19.3	
2015-06-14-03-06	   88.5	 -31.0	   68939566971.2	137909360448.0	14.6	
2015-06-14-03-06	 -149.0	 -44.0	   44486647494.0	94666415339.0	15.6	
2015-06-14-06-09	 -176.5	 -55.0	   53118286079.7	138360230183.3	19.1	
2015-06-14-06-09	 -131.5	 -41.0	   72735722175.1	132983908033.1	13.4	
2015-06-14-06-09	 -148.5	 -44.0	   49100737411.3	105555153258.9	15.7	
2015-06-14-06-09	 -130.5	 -48.0	   10381607613.4	22514760594.0	15.8	
2015-06-14-09-12	 -148.5	 -44.0	   38077679783.2	78897727008.1	15.1	
2015-06-14-09-12	 -131.0	 -40.0	   16574960260.5	29838836187.1	13.1	
2015-06-14-09-12	 -176.0	 -54.5	   10791743989.4	26231777505.9	17.7	
2015-06-14-09-12	   53.0	 -24.5	    8460441465.5	18587160712.6	16.0	
2015-06-14-12-15	 -148.0	 -43.5	   11266390333.0	21240894143.5	13.7	
2015-06-14-12-15	   54.0	 -24.5	   11273202703.2	20582325493.2	13.3	
2015-06-14-15-18	   55.0	 -24.5	   11273202703.2	18303239538.1	11.8	
2015-06-14-18-21	   88.5	 -41.5	   32624021201.9	66779131134.9	14.8	
2015-06-14-18-21	   55.5	 -24.5	   14097042817.1	25704901112.3	13.2	
2015-06-14-21-24	   88.5	 -41.5	   58035312104.8	123740691427.6	15.4	
2015-06-14-21-24	   56.5	 -24.5	    8460441465.5	15133002780.7	12.9	
2015-06-15-00-03	 -104.0	 -57.0	   69292376445.8	200823323124.1	20.9	
2015-06-15-00-03	   88.5	 -42.0	   57785615844.7	124507770224.1	15.5	
2015-06-15-03-06	 -100.0	 -56.5	  137261872954.5	434562408753.8	22.8	
2015-06-15-03-06	   88.5	 -42.0	   46084835071.1	95986151782.3	14.9	
2015-06-15-06-09	  -97.0	 -56.0	  197394082537.9	631650144497.0	23.0	
2015-06-15-06-09	   66.0	 -54.0	   18321033478.4	50369536221.4	19.6	
2015-06-15-06-09	   88.5	 -42.0	   18430832120.0	38550766138.9	14.9	
2015-06-15-09-12	  -94.5	 -55.5	  280296420924.0	940839905706.8	24.1	
2015-06-15-09-12	   67.5	 -55.0	    3589996207.6	10793426100.5	21.3	
2015-06-15-12-15	  -93.0	 -55.0	  356272239944.0	1138578345185.0	22.9	
2015-06-15-12-15	   74.5	 -59.0	   12782182591.9	46390878066.3	25.7	
2015-06-15-12-15	   65.5	 -50.0	    6001895657.7	14869917246.6	17.5	
2015-06-15-12-15	   68.5	 -56.0	    1728508633.7	2557031388.8	10.4	
2015-06-15-15-18	  -91.0	 -54.0	  428813839507.7	1290684464394.7	21.6	
2015-06-15-15-18	   75.0	 -59.0	  156917799172.0	490578199927.2	22.2	
2015-06-15-15-18	   68.5	 -57.0	   42062658597.1	134243958857.7	22.6	
2015-06-15-15-18	   65.5	 -49.5	    4014988985.9	10698837911.1	18.8	
2015-06-15-18-21	  -90.5	 -53.0	  384985296822.8	1039547836479.2	19.4	
2015-06-15-18-21	   73.5	 -58.5	  282620361482.0	929914893507.6	23.6	
2015-06-15-21-24	   75.0	 -58.5	  274446705049.3	1003677676420.1	26.2	
2015-06-15-21-24	  -91.5	 -52.0	  201663532481.8	487357038008.6	17.2	
2015-06-16-00-03	   76.0	 -58.5	  246354068919.0	894900638714.3	26.0	
2015-06-16-00-03	  104.5	 -33.5	   41373427658.7	79919785832.8	13.7	
2015-06-16-00-03	  -92.0	 -52.0	   21123993930.9	45488038280.4	15.2	
2015-06-16-03-06	   77.0	 -58.5	  202243685904.1	735488049286.3	25.9	
2015-06-16-03-06	  -30.0	 -45.5	   89261990248.1	215347682587.3	17.1	
2015-06-16-03-06	  104.0	 -33.5	   72595362107.7	151012973699.6	14.7	
2015-06-16-03-06	   72.0	 -57.5	   11693903181.5	35852533185.6	21.6	
2015-06-16-06-09	   78.5	 -59.0	  224582820041.7	832983821666.0	26.5	
2015-06-16-06-09	  -29.5	 -46.5	  165406672771.5	416401181461.3	17.9	
2015-06-16-06-09	  104.0	 -33.0	   78042801580.0	163028565292.5	14.8	
2015-06-16-06-09	  169.5	 -58.0	    6597711727.9	18673401292.8	20.0	
2015-06-16-09-12	   80.0	 -58.5	  225256761239.3	790468853140.3	25.2	
2015-06-16-09-12	  -29.5	 -47.0	  155128577810.7	373715476540.1	17.2	
2015-06-16-09-12	  103.5	 -32.5	   70570242414.8	140782020277.8	14.2	
2015-06-16-12-15	   80.0	 -58.0	  163985560759.1	547606107098.6	24.0	
2015-06-16-12-15	  -30.0	 -47.0	   95211516788.7	222390743515.0	16.7	
2015-06-16-12-15	  103.5	 -32.5	   39275164021.3	71335122244.5	13.0	
2015-06-16-12-15	  -20.5	 -51.0	    7864670350.5	17626615196.6	16.0	
2015-06-16-15-18	   79.0	 -57.0	  105028531557.1	327007769079.2	22.4	
2015-06-16-15-18	  -31.0	 -48.5	   82600397925.3	181351303448.2	15.8	
2015-06-16-15-18	   89.5	 -59.5	   41390409483.6	133570563474.8	23.2	
2015-06-16-15-18	  -20.0	 -51.5	   19347599355.3	45154207998.8	16.7	
2015-06-16-15-18	  103.5	 -31.5	    2635577338.4	4119328753.7	11.2	
2015-06-16-18-21	   78.0	 -56.0	   58803600806.7	166319882712.6	20.4	
2015-06-16-18-21	  -30.5	 -49.5	   40433666946.7	91357338135.3	16.2	
2015-06-16-18-21	  -21.0	 -52.5	   24633107452.1	60241431016.0	17.6	
2015-06-16-18-21	   92.0	 -59.5	    3137681357.0	8992725280.1	20.6	
2015-06-16-21-24	   77.0	 -55.0	   23047118761.9	65222206424.3	20.4	
2015-06-16-21-24	  -56.0	 -53.0	   18773774482.1	63448668182.1	24.4	
2015-06-16-21-24	  -21.0	 -53.0	   16828200979.8	40865064661.9	17.5	
2015-06-17-00-03	  -55.0	 -52.5	   81312532557.7	266082313163.8	23.7	
2015-06-17-00-03	   34.5	 -55.5	   33508172706.4	91982433786.0	19.8	
2015-06-17-00-03	   77.0	 -54.5	    3589996207.6	10792752889.4	21.7	
2015-06-17-03-06	  -54.0	 -52.0	  118206478496.7	429330638964.1	26.3	
2015-06-17-03-06	   35.0	 -56.0	   68298001804.8	195624699977.8	20.7	
2015-06-17-03-06	  -26.5	 -54.0	    1838643333.8	5840411697.8	22.9	
2015-06-17-06-09	  -53.5	 -51.5	  153888660843.2	583280818778.6	27.4	
2015-06-17-06-09	   35.0	 -56.0	   95302574825.6	270665430122.8	20.4	
2015-06-17-06-09	  -27.0	 -54.0	   20007127622.7	61972139848.8	22.2	
2015-06-17-09-12	  -53.0	 -51.0	  178572324096.8	624153601067.3	25.1	
2015-06-17-09-12	  158.5	 -46.5	  161280327925.6	392559765346.4	17.4	
2015-06-17-09-12	   35.0	 -56.5	  104438740404.3	285860745096.9	19.6	
2015-06-17-09-12	  -27.0	 -54.5	   28828605916.2	81528712423.1	20.2	
2015-06-17-12-15	  159.0	 -46.0	  322073877500.7	782046643739.5	17.3	
2015-06-17-12-15	  -52.5	 -51.0	  188047650826.7	584256636412.5	22.1	
2015-06-17-12-15	   35.0	 -57.0	   89399909101.1	243769380263.5	19.3	
2015-06-17-12-15	  -27.0	 -55.0	   33883592801.7	94655203609.4	19.8	
2015-06-17-15-18	  159.0	 -45.5	  473683843899.8	1095932632908.8	16.4	
2015-06-17-15-18	  -50.5	 -50.5	  244594611028.8	668287104850.8	19.3	
2015-06-17-15-18	   35.0	 -57.5	   78076858640.7	210192939647.6	18.9	
2015-06-17-15-18	   38.0	 -38.0	   65940522460.5	137309489147.5	14.6	
2015-06-17-15-18	  -27.0	 -55.5	   40665459431.9	112256799708.0	19.3	
2015-06-17-18-21	  159.5	 -44.0	  554535914030.5	1286273450227.4	16.4	
2015-06-17-18-21	  -48.0	 -50.0	  275911532488.2	733039891762.3	18.6	
2015-06-17-18-21	   38.5	 -37.5	  120700847146.2	266022739611.9	15.3	
2015-06-17-18-21	   35.0	 -58.0	   57579069017.7	153089468663.3	18.5	
2015-06-17-18-21	  -27.5	 -55.5	    7047551463.4	16052591322.5	15.8	
2015-06-17-18-21	   39.5	 -58.0	    4914064141.1	12646165552.4	17.9	
2015-06-17-21-24	  159.0	 -42.0	  596634993520.9	1457838268156.6	17.2	
2015-06-17-21-24	  -45.5	 -50.0	  252447659356.0	667761855480.1	18.4	
2015-06-17-21-24	   38.5	 -37.0	  163739743726.9	364420662379.2	15.4	
2015-06-17-21-24	   -2.5	 -54.5	   36336968577.8	112633009932.9	21.4	
2015-06-17-21-24	   36.0	 -58.5	   29346013125.3	77581573215.4	18.2	
2015-06-17-21-24	  -53.5	 -50.5	   17695058921.0	47682298633.8	18.6	
2015-06-17-21-24	   47.0	 -58.5	   11443211827.1	32297180614.9	19.5	
2015-06-17-21-24	   39.5	 -58.0	    3276042760.7	8744201021.1	18.4	
2015-06-18-00-03	  159.5	 -41.0	  578250231263.5	1479689365927.3	17.9	
2015-06-18-00-03	  -44.5	 -49.5	  249722205897.0	640590737126.9	17.7	
2015-06-18-00-03	   39.0	 -36.5	  166853109113.9	368890245092.0	15.2	
2015-06-18-00-03	   -2.5	 -54.0	   85714295036.4	275543744506.0	22.1	
2015-06-18-00-03	   47.0	 -58.0	    9850941385.4	27676675850.0	19.3	
2015-06-18-03-06	  159.5	 -40.5	  577698707114.8	1458929354069.5	17.6	
2015-06-18-03-06	  -44.5	 -49.0	  222802673549.7	522786627869.4	16.1	
2015-06-18-03-06	   -3.0	 -54.0	   97093072803.8	302830723854.7	21.4	
2015-06-18-03-06	   39.5	 -36.5	  144720911844.9	290329817413.1	13.8	
2015-06-18-03-06	  155.0	  32.5	   13034745298.4	30607370016.9	16.0	
2015-06-18-03-06	  174.0	 -46.5	    2127757561.6	4417483357.0	14.2	
2015-06-18-06-09	  159.5	 -39.5	  538536263822.8	1332426718422.5	17.1	
2015-06-18-06-09	  -44.0	 -49.0	  174448620921.3	383665434164.7	15.0	
2015-06-18-06-09	   -3.5	 -53.5	  101679318505.3	293172556492.7	19.7	
2015-06-18-06-09	   30.5	 -56.0	   63836232800.3	158385376754.9	16.9	
2015-06-18-06-09	   40.0	 -36.5	   82392451591.5	155073923345.9	12.8	
2015-06-18-06-09	  155.5	  32.5	   26040305463.3	55539851385.9	14.5	
2015-06-18-06-09	  174.5	 -46.5	   21316223818.1	51799962200.3	16.5	
2015-06-18-06-09	  -33.5	 -52.5	    5666516085.9	23402617210.8	28.1	
2015-06-18-09-12	  160.0	 -39.5	  498688898474.1	1196267989063.0	16.5	
2015-06-18-09-12	   31.5	 -56.5	  132684951402.7	341943445571.5	17.5	
2015-06-18-09-12	   -4.0	 -53.0	   87510444840.7	238360551420.5	18.5	
2015-06-18-09-12	  -43.5	 -48.0	   76483266442.6	159445500017.6	14.1	
2015-06-18-09-12	  175.0	 -46.5	   31935202230.0	81075316779.4	17.2	
2015-06-18-09-12	  -33.5	 -52.5	   15202842962.0	51794194587.0	23.1	
2015-06-18-09-12	   41.0	 -36.5	   17473051376.0	33287654797.6	12.9	
2015-06-18-09-12	  155.0	  32.0	   10442349082.8	20108622094.5	13.0	
2015-06-18-12-15	  160.5	 -39.0	  404188718051.2	955571454528.1	16.1	
2015-06-18-12-15	   33.0	 -56.5	  144439855098.8	374524627109.0	17.6	
2015-06-18-12-15	   -4.5	 -53.0	   56255475140.5	145918242454.4	17.5	
2015-06-18-12-15	  175.5	 -46.5	   31954688096.0	85636609545.6	18.1	
2015-06-18-12-15	   11.5	 -59.5	   17418919425.7	49561450742.6	19.2	
2015-06-18-12-15	  -33.5	 -52.5	   13299785282.4	46960649180.8	23.8	
2015-06-18-12-15	  -94.5	 -47.5	   14697025902.2	35918653325.0	16.5	
2015-06-18-12-15	  -42.5	 -48.0	    8273338128.7	18589244905.5	15.2	
2015-06-18-15-18	  160.5	 -39.0	  367276373646.0	811366564842.7	15.0	
2015-06-18-15-18	   34.0	 -57.0	   85157726878.0	217098152272.0	17.2	
2015-06-18-15-18	   13.5	 -59.0	   75803059706.8	206631829942.4	18.4	
2015-06-18-15-18	  -93.0	 -48.0	   49955703413.8	122142522902.4	16.5	
2015-06-18-15-18	  175.5	 -46.5	   12825002967.7	32829506909.3	17.2	
2015-06-18-15-18	 -154.0	 -37.0	    7438213027.9	12800306213.5	11.6	
2015-06-18-18-21	  161.0	 -39.0	  332423313223.6	703544447971.3	14.3	
2015-06-18-18-21	   15.0	 -59.5	   96079374798.7	282599391138.3	19.8	
2015-06-18-18-21	  -92.0	 -48.0	   57966651151.4	137861952139.6	16.0	
2015-06-18-18-21	 -154.0	 -37.0	    7422073007.5	12583459784.2	11.4	
2015-06-18-18-21	   35.5	 -57.0	    1683521749.1	4193537362.5	16.7	
2015-06-18-21-24	  160.5	 -39.5	  230872595501.8	468844066667.3	13.7	
2015-06-18-21-24	   15.5	 -59.5	  109299720935.4	315247420001.7	19.5	
2015-06-18-21-24	  164.5	 -39.0	   41139600398.1	84599299577.5	13.9	
2015-06-18-21-24	  -90.5	 -49.0	   32829860905.8	72674053352.2	14.9	
2015-06-19-00-03	   16.5	 -60.0	  106461543615.0	299545632508.7	19.0	
2015-06-19-00-03	  161.0	 -40.0	  147157000137.7	283843663652.8	13.0	
2015-06-19-00-03	  164.5	 -38.5	   48662797352.8	103858913644.1	14.4	
2015-06-19-00-03	  -89.0	 -49.0	   20380075919.2	47195881205.8	15.6	
2015-06-19-00-03	   27.0	 -57.0	   10168805934.3	28499225879.8	18.9	
2015-06-19-00-03	  109.5	 -58.5	    3276042760.7	11431280612.5	23.5	
2015-06-19-03-06	   24.5	 -58.5	  207693823977.8	636032532681.9	20.7	
2015-06-19-03-06	  161.0	 -40.0	   71186134295.8	130772155997.0	12.3	
2015-06-19-03-06	  164.5	 -38.0	   39070623964.7	88885006185.4	15.3	
2015-06-19-03-06	  -26.5	 -55.5	   24776842659.8	66246454811.9	17.9	
2015-06-19-03-06	   14.5	 -60.5	   16930437383.8	49481233091.0	19.6	
2015-06-19-03-06	  -88.0	 -49.0	   10220613111.5	21833278289.3	14.3	
2015-06-19-03-06	  113.0	 -58.0	    3276042760.7	9392566669.9	19.2	
2015-06-19-06-09	   26.5	 -58.5	  287961258432.1	913643614556.3	21.4	
2015-06-19-06-09	  -26.0	 -55.5	   28322646805.4	78479674704.7	18.5	
2015-06-19-06-09	  165.0	 -38.0	   26875655155.9	59789691988.7	14.9	
2015-06-19-06-09	   86.0	 -57.5	    6711399730.8	19340621932.1	19.2	
2015-06-19-06-09	  -18.5	 -55.0	    5362965897.5	14693953456.5	18.3	
2015-06-19-06-09	  139.5	  31.5	    7892537412.5	13093237376.9	11.1	
2015-06-19-06-09	  161.5	 -39.5	    4787369900.2	7803762870.3	10.9	
2015-06-19-09-12	   28.0	 -59.0	  351239202616.7	1089751087711.8	21.0	
2015-06-19-09-12	  -18.5	 -54.5	   16242550495.2	46375272001.8	19.0	
2015-06-19-09-12	   87.5	 -57.5	   10033068698.0	27578313761.6	18.3	
2015-06-19-09-12	  165.0	 -38.0	   12244883630.3	22722281129.1	12.4	
2015-06-19-09-12	  -26.0	 -55.0	    7135935587.4	18058887999.9	16.9	
2015-06-19-09-12	  140.0	  31.5	    7906732015.3	14125152691.5	11.9	
2015-06-19-09-12	   79.0	 -58.0	    1638021380.4	5109107177.2	20.8	
2015-06-19-12-15	   29.0	 -59.5	  328948078416.3	979320679701.8	20.0	
2015-06-19-12-15	 -151.0	 -42.5	   77644779523.5	151993632973.9	13.0	
2015-06-19-12-15	   80.0	 -58.5	   21087466913.9	64314200246.3	20.3	
2015-06-19-12-15	  143.0	  32.5	   12991166211.6	27606798737.3	14.1	
2015-06-19-12-15	  -18.5	 -54.0	    1816889994.0	4865271873.5	17.8	
2015-06-19-15-18	   29.0	 -60.0	  175308706288.6	521359271934.6	19.8	
2015-06-19-15-18	 -150.0	 -42.5	  135258411900.6	275099271276.2	13.5	
2015-06-19-15-18	 -107.0	 -58.5	   55002252540.8	180300448946.7	21.7	
2015-06-19-15-18	  143.0	  32.5	   36365520101.1	73568983316.2	13.4	
2015-06-19-15-18	  113.0	 -56.5	    5118240687.0	14138753132.6	18.3	
2015-06-19-18-21	 -149.0	 -42.5	  135482789542.4	278189004503.0	13.6	
2015-06-19-18-21	   28.5	 -60.5	   70762472670.4	202353283393.2	19.0	
2015-06-19-18-21	 -103.5	 -58.5	   51887631909.0	148623757922.4	19.0	
2015-06-19-18-21	  143.5	  32.5	   44127128825.0	90043166381.8	13.5	
2015-06-19-18-21	   56.0	 -44.0	   35891277617.2	87630808253.2	16.2	
2015-06-19-18-21	  145.0	 -44.5	   13227939695.6	39609835715.5	19.8	
2015-06-19-18-21	   92.5	 -59.5	    7913749816.0	24672782794.2	20.6	
2015-06-19-21-24	 -148.5	 -42.5	   96461113494.0	193856604940.8	13.3	
2015-06-19-21-24	 -100.0	 -59.0	   56409302052.4	189976871331.3	22.4	
2015-06-19-21-24	   57.5	 -45.0	   79809741378.0	182846541247.0	15.2	
2015-06-19-21-24	  143.5	  33.0	   31034212978.3	56734952528.0	12.1	
2015-06-19-21-24	  145.0	 -44.5	   17580227140.0	51164580795.3	19.3	
2015-06-19-21-24	 -170.5	 -49.0	   18433577334.8	40507601171.6	14.6	
2015-06-19-21-24	   94.0	 -59.0	    3184045639.3	9263072238.0	19.3	
2015-06-19-21-24	   28.0	 -57.0	    1683521749.1	4315342439.8	17.0	
2015-06-20-00-03	  -98.5	 -58.5	   65103759442.9	209757009415.5	21.4	
2015-06-20-00-03	   58.5	 -45.5	   78408840042.0	181437648402.5	15.4	
2015-06-20-00-03	  145.0	 -44.5	   15394505013.4	42271963010.8	18.2	
2015-06-20-00-03	 -148.0	 -43.0	   13618958875.0	25160408545.9	12.3	
2015-06-20-00-03	   96.0	 -59.5	    3137681357.0	10063603697.9	21.3	
2015-06-20-00-03	  144.0	  33.5	    2577606140.7	3292676089.8	8.5	
2015-06-20-03-06	  -96.0	 -58.0	   70978156825.0	204019538652.0	19.1	
2015-06-20-03-06	   60.0	 -47.0	   85179500300.2	195111755980.1	15.2	
2015-06-20-03-06	 -142.0	 -34.0	   33432966718.8	75813912648.7	15.0	
2015-06-20-03-06	 -145.5	 -32.5	   18292102046.9	31546866840.0	11.4	
2015-06-20-03-06	 -163.5	 -51.0	    5856725015.9	12837040568.1	14.5	
2015-06-20-06-09	 -141.5	 -33.5	  178719120863.7	389471587713.8	14.5	
2015-06-20-06-09	  -93.0	 -57.5	   86891061746.6	271433775806.7	20.7	
2015-06-20-06-09	   58.0	 -39.5	   95987134292.8	188377382849.6	13.0	
2015-06-20-06-09	   60.0	 -47.5	   22990651352.3	52760150822.2	15.2	
2015-06-20-09-12	 -142.0	 -32.5	  309302135937.0	716722194863.8	15.4	
2015-06-20-09-12	  -91.5	 -57.5	  113754876920.2	345556083451.7	20.1	
2015-06-20-09-12	   64.0	 -49.5	   82688624337.6	248345986695.0	19.8	
2015-06-20-09-12	   59.0	 -39.5	  102802222996.3	197932685468.2	12.7	
2015-06-20-09-12	  -31.0	 -48.5	   30701934209.5	76743473385.1	16.5	
2015-06-20-09-12	  103.5	 -59.5	    3137681357.0	8419915800.6	17.7	
2015-06-20-12-15	 -142.0	 -32.0	  466174657489.5	1141490973525.6	16.2	
2015-06-20-12-15	  -89.0	 -57.5	  110142678373.6	338872502846.4	20.2	
2015-06-20-12-15	  -29.0	 -48.0	  119553989643.0	309736422179.0	17.0	
2015-06-20-12-15	   64.5	 -49.5	   96513713651.3	278143897161.7	18.9	
2015-06-20-12-15	   59.5	 -40.0	   45069915721.7	84597735558.4	12.3	
2015-06-20-12-15	  -93.0	 -56.5	    1706080229.0	4749347997.2	18.2	
2015-06-20-15-18	 -141.5	 -32.0	  576359320698.7	1437506715307.5	16.4	
2015-06-20-15-18	  -87.0	 -57.5	  130454748506.0	415305103612.2	20.7	
2015-06-20-15-18	  -27.5	 -47.5	  141174146505.6	360071398529.4	16.6	
2015-06-20-15-18	   66.5	 -50.5	  107188673625.1	295988093235.1	17.9	
2015-06-20-15-18	   59.5	 -42.5	    4576100014.1	8460795039.7	12.0	
2015-06-20-18-21	 -140.5	 -32.5	  605911713543.0	1455558040210.7	15.7	
2015-06-20-18-21	  -85.0	 -57.5	  142125095902.4	422928154430.5	19.2	
2015-06-20-18-21	  -26.0	 -47.5	  100489136722.7	251744042167.6	16.2	
2015-06-20-18-21	   66.5	 -50.5	   68989893390.6	186683962678.9	17.4	
2015-06-20-18-21	   59.0	 -51.5	   17338916129.1	43014229893.8	16.0	
2015-06-20-18-21	   63.5	 -40.0	   11908327485.2	24754691268.7	13.4	
2015-06-20-21-24	 -139.5	 -33.0	  618966556208.7	1406182194243.7	14.9	
2015-06-20-21-24	  -83.0	 -58.0	   86150786579.6	238716809233.7	17.9	
2015-06-20-21-24	  -25.0	 -47.0	   71632112306.3	171966808492.1	15.5	
2015-06-20-21-24	   59.5	 -52.0	   34338755305.9	84301716775.1	15.8	
2015-06-20-21-24	   65.5	 -40.0	    4753054531.3	7975695806.3	10.8	
2015-06-21-00-03	 -138.0	 -33.5	  557554164911.2	1198450783984.5	14.1	
2015-06-21-00-03	  -24.5	 -46.5	   44778553549.9	97733132538.6	14.1	
2015-06-21-00-03	   72.5	 -54.0	    7267421425.6	21756875544.5	19.3	
2015-06-21-03-06	 -137.5	 -33.0	  435694427930.1	883337449840.8	13.3	
2015-06-21-03-06	   74.5	 -55.0	   62469899429.8	191487185286.0	19.9	
2015-06-21-03-06	  -24.0	 -45.5	    4333130635.6	8425407344.7	12.6	
2015-06-21-06-09	 -136.5	 -33.5	  305493590233.8	579156196160.7	12.4	
2015-06-21-06-09	   76.0	 -58.0	  106635858120.0	343560894819.2	21.0	
2015-06-21-06-09	   37.0	 -47.0	   17041222828.8	44828509278.7	17.1	
2015-06-21-06-09	   71.5	  15.0	    8950160696.4	18715242472.7	13.6	
2015-06-21-09-12	   77.5	 -58.0	  167085866293.4	654772914686.9	25.6	
2015-06-21-09-12	 -135.5	 -33.0	  153166839967.9	275915433333.4	11.7	
2015-06-21-09-12	   37.0	 -47.0	   33984048685.2	101219924143.6	19.3	
2015-06-21-09-12	   45.5	 -54.0	   27142923369.9	78746975588.3	18.8	
2015-06-21-09-12	  175.5	 -53.5	   16569123823.4	49564080202.7	19.4	
2015-06-21-09-12	   71.5	  15.0	   11928817473.5	25645756639.9	13.9	
2015-06-21-12-15	   79.0	 -58.5	  165811988439.8	637877807399.2	25.1	
2015-06-21-12-15	  177.0	 -54.0	   74507725512.6	208616397098.6	18.1	
2015-06-21-12-15	   49.0	 -55.0	   66013252780.3	194092396134.9	19.0	
2015-06-21-12-15	   37.0	 -47.0	   38180782680.2	114468074315.4	19.4	
2015-06-21-12-15	 -135.5	 -33.0	   62549759569.8	106606687252.7	11.0	
2015-06-21-12-15	  -77.0	 -47.0	   14716673533.3	35081791717.0	15.4	
2015-06-21-12-15	   71.5	  15.0	   11928817473.5	25348537410.3	13.7	
2015-06-21-12-15	  -14.0	 -46.0	    2147243427.7	4255178020.5	12.8	
2015-06-21-15-18	   80.0	 -59.0	  111654986420.6	391473194796.1	22.6	
2015-06-21-15-18	   51.0	 -55.0	  102399546787.5	317004327413.4	20.0	
2015-06-21-15-18	  178.5	 -54.5	   78179200800.0	211354351453.6	17.4	
2015-06-21-15-18	 -179.0	 -55.0	   53667440684.2	164863512434.7	19.8	
2015-06-21-15-18	   59.5	 -59.0	   38599478414.7	115949994299.5	19.3	
2015-06-21-15-18	   36.5	 -47.0	   33984370741.3	86906983059.4	16.4	
2015-06-21-15-18	   48.0	 -47.0	   17002089331.7	41190656489.4	15.6	
2015-06-21-15-18	   71.5	  15.0	   17892772052.2	38087886520.9	13.7	
2015-06-21-15-18	  175.5	 -46.5	   12825002967.7	34521919734.4	17.3	
2015-06-21-15-18	  -77.5	 -47.0	    6383110919.8	13839342396.8	13.9	
2015-06-21-15-18	  -14.5	 -45.5	    4333130635.6	12181904199.2	18.1	
2015-06-21-18-21	   54.5	 -57.0	  214818740199.4	621806805699.6	18.6	
2015-06-21-18-21	 -178.0	 -55.0	  118337288717.3	354300226589.9	19.2	
2015-06-21-18-21	   49.5	 -47.0	   57133321494.7	153917869314.9	17.2	
2015-06-21-18-21	   81.0	 -59.0	   32070086423.0	99363113653.4	19.8	
2015-06-21-18-21	  176.0	 -46.5	   23424333748.6	62553826419.0	17.1	
2015-06-21-18-21	  -37.5	 -41.5	   27708238077.3	57754808140.8	13.3	
2015-06-21-18-21	   71.5	  15.0	   23864048616.1	49060806561.8	13.1	
2015-06-21-18-21	  179.0	 -55.0	   10637547671.0	31144469495.4	18.7	
2015-06-21-18-21	   36.5	 -47.0	   12766221839.6	30181981940.5	15.1	
2015-06-21-21-24	   56.5	 -58.5	  245086866727.6	718178660468.0	18.8	
2015-06-21-21-24	 -176.0	 -54.5	  124554156247.7	355444500976.2	18.2	
2015-06-21-21-24	   49.0	 -47.0	   74115116872.2	202596709993.7	17.4	
2015-06-21-21-24	  -37.0	 -42.5	   86756010077.0	169183795043.1	12.4	
2015-06-21-21-24	   71.5	  15.0	   29806718199.8	59980580410.8	12.8	
2015-06-21-21-24	  176.0	 -46.5	   14972246395.4	35613836792.0	15.1	
2015-06-21-21-24	  -93.5	 -52.5	   11311559802.0	26588000717.1	14.9	
2015-06-21-21-24	   51.5	 -56.5	    8642412171.8	23101418712.8	17.0	
2015-06-21-21-24	  -94.5	 -55.5	    3523775731.7	8858677761.9	16.0	
2015-06-21-21-24	   36.0	 -46.5	    2127757561.6	5471211257.9	16.3	
2015-06-22-00-03	   57.0	 -58.5	  302500879062.6	962801434025.0	20.3	
2015-06-22-00-03	 -175.0	 -53.5	  117448554915.1	324208300624.1	17.5	
2015-06-22-00-03	  -34.5	 -44.0	  118825917047.8	236807144852.4	12.6	
2015-06-22-00-03	  128.0	 -44.0	   84897735878.3	186877687521.4	13.9	
2015-06-22-00-03	   48.0	 -47.0	   65643381888.0	178340926429.6	17.2	
2015-06-22-00-03	   71.5	  15.0	   23864048616.1	49823028778.0	13.2	
2015-06-22-00-03	   66.5	 -50.5	   13908044176.7	40284622207.3	18.3	
2015-06-22-03-06	   57.5	 -58.5	  376746486126.1	1276154888626.1	21.5	
2015-06-22-03-06	  130.0	 -43.5	  241077711231.0	617452520316.4	16.2	
2015-06-22-03-06	 -174.5	 -52.5	  163345029562.1	446719541162.0	17.2	
2015-06-22-03-06	   66.0	 -50.5	   73632109599.3	204492943369.3	17.4	
2015-06-22-03-06	   47.5	 -47.0	   65525183626.2	173610272967.6	16.6	
2015-06-22-03-06	  -33.0	 -44.5	   77837300329.7	155058197123.7	12.5	
2015-06-22-03-06	   71.5	  15.0	   23864048616.1	49427235777.3	13.0	
2015-06-22-06-09	   57.0	 -58.0	  432976763327.1	1475179210525.9	21.6	
2015-06-22-06-09	  130.5	 -42.0	  318994554250.8	908856204027.5	17.9	
2015-06-22-06-09	 -173.5	 -52.0	  216597159048.4	617614505267.3	17.9	
2015-06-22-06-09	   65.5	 -50.5	  131797603104.8	411709201276.2	19.6	
2015-06-22-06-09	   47.5	 -47.0	   52917101633.6	140764109497.5	16.6	
2015-06-22-06-09	  158.5	 -61.5	   14796422390.7	58969354935.1	24.8	
2015-06-22-06-09	   71.5	  15.0	   23864048616.1	49103741170.1	12.8	
2015-06-22-06-09	   71.0	 -53.5	    9258057167.8	36392569987.0	24.5	
2015-06-22-06-09	  -33.0	 -45.0	   15394839229.5	33247794016.9	13.5	
2015-06-22-06-09	   77.5	 -57.0	    8462725705.3	21339516106.7	15.7	
2015-06-22-09-12	   56.5	 -58.0	  458534476063.3	1489976274261.7	20.6	
2015-06-22-09-12	  131.5	 -41.5	  335384106943.5	973352480704.9	18.3	
2015-06-22-09-12	 -172.5	 -52.0	  245586761124.7	685293000909.6	17.5	
2015-06-22-09-12	   65.0	 -50.5	  181614302660.9	584749035121.7	20.2	
2015-06-22-09-12	   70.5	 -53.0	   52083514590.0	180002185435.2	21.6	
2015-06-22-09-12	  158.5	 -61.5	   32636632792.3	126708423483.9	24.2	
2015-06-22-09-12	   47.5	 -47.0	   44426041074.3	115452183154.8	16.2	
2015-06-22-09-12	   71.5	  15.0	   20885391839.1	43215757680.5	12.9	
2015-06-22-09-12	   77.0	 -57.0	    8462725705.3	21261219802.6	15.6	
2015-06-22-12-15	   56.0	 -58.0	  446678821142.8	1353790848432.0	19.2	
2015-06-22-12-15	   67.5	 -52.0	  297331377109.2	1023663036667.6	21.7	
2015-06-22-12-15	  132.0	 -42.0	  315596215304.3	862362420174.3	17.2	
2015-06-22-12-15	 -172.0	 -52.0	  239950969150.8	618320844070.0	16.2	
2015-06-22-12-15	  158.5	 -61.5	   41390860693.7	166704621634.5	25.1	
2015-06-22-12-15	   47.5	 -47.0	   33827032349.6	87861501285.0	16.2	
2015-06-22-12-15	   71.5	  15.0	   17914057047.2	35741275266.2	12.4	
2015-06-22-12-15	   77.0	 -57.0	    6779203956.2	17472547626.5	16.0	
2015-06-22-15-18	   67.5	 -52.0	  318397139139.1	1091090454520.5	21.7	
2015-06-22-15-18	   52.0	 -58.0	  352212168267.4	1023795975626.0	18.4	
2015-06-22-15-18	  133.0	 -42.0	  302292895511.8	762249759472.6	15.9	
2015-06-22-15-18	 -171.5	 -51.0	  188899835687.1	442253667349.7	14.7	
2015-06-22-15-18	  158.5	 -61.5	   56351011009.6	231334092187.1	25.7	
2015-06-22-15-18	 -105.5	 -59.5	   48932905298.0	148866996397.4	19.0	
2015-06-22-15-18	   66.5	 -57.5	   31393780287.4	88811166473.6	17.7	
2015-06-22-15-18	   47.5	 -47.0	   27503184905.1	70519092440.6	16.0	
2015-06-22-15-18	   71.5	  15.0	   11928817473.5	24708477056.6	12.9	
2015-06-22-15-18	   77.0	 -57.0	    3389601978.1	8819726016.6	16.3	
2015-06-22-18-21	   67.0	 -51.5	  305122890434.0	1011735520651.0	21.1	
2015-06-22-18-21	   47.5	 -58.5	  281206979736.4	860919676919.3	19.4	
2015-06-22-18-21	  133.5	 -42.0	  289130914483.4	712718924601.0	15.6	
2015-06-22-18-21	  158.5	 -61.5	   60704419478.0	248480874742.6	25.8	
2015-06-22-18-21	 -171.5	 -49.0	   77805141889.0	177033357606.0	14.3	
2015-06-22-18-21	 -103.5	 -60.0	   36197450683.3	110905993639.5	19.3	
2015-06-22-18-21	   47.5	 -47.0	   14835360038.0	41691710358.9	17.7	
2015-06-22-18-21	   67.0	 -57.5	    8349546948.9	25196631607.6	19.0	
2015-06-22-18-21	   71.5	  15.0	    8950160696.4	18280469632.7	12.8	
2015-06-22-18-21	   77.0	 -57.0	    3389601978.1	8590261411.4	15.9	
2015-06-22-21-24	   66.5	 -51.0	  286379807084.5	909967771547.3	20.3	
2015-06-22-21-24	   46.5	 -59.0	  281814197659.9	880894198928.1	19.9	
2015-06-22-21-24	  133.5	 -42.0	  277153191837.9	685022107143.2	15.7	
2015-06-22-21-24	  158.5	 -61.5	   57802184229.2	231191738432.1	25.3	
2015-06-22-21-24	 -170.5	 -48.5	   70076859519.7	152084904666.4	13.7	
2015-06-22-21-24	 -102.5	 -60.0	   34419500547.4	107307776497.1	19.7	
2015-06-22-21-24	   79.5	 -60.5	    7657437956.8	25543849640.5	21.1	
2015-06-22-21-24	   47.5	 -47.0	    8471734984.3	21917375293.0	16.3	
2015-06-22-21-24	   71.5	  15.0	    5964408736.7	12740898111.2	13.5	
2015-06-23-00-03	   65.5	 -50.5	  267334201436.1	819372816850.9	19.6	
2015-06-23-00-03	   47.0	 -58.5	  258790389087.8	784219080905.0	19.4	
2015-06-23-00-03	  134.0	 -42.0	  251128059121.4	629112326698.9	16.0	
2015-06-23-00-03	  158.5	 -61.5	   48930397019.3	192400331462.8	25.0	
2015-06-23-00-03	 -101.0	 -59.5	   29875964492.0	92026153684.4	19.6	
2015-06-23-00-03	 -170.0	 -48.5	   37267908859.5	76361186836.5	13.0	
2015-06-23-00-03	   79.0	 -60.5	   15220849544.2	49433039132.8	20.6	
2015-06-23-00-03	   71.5	  15.5	   14900152265.3	32267430059.5	13.7	
2015-06-23-03-06	   65.0	 -50.5	  253560770984.3	761700451281.6	19.3	
2015-06-23-03-06	  134.5	 -42.5	  213497189019.9	532499738675.6	16.0	
2015-06-23-03-06	   47.0	 -58.5	  174580052592.2	495813330858.3	18.2	
2015-06-23-03-06	  158.5	 -61.5	   41509552909.9	159730899736.3	24.5	
2015-06-23-03-06	   79.0	 -61.0	   18241553615.1	60555318566.8	21.1	
2015-06-23-03-06	 -100.0	 -59.5	   11028129642.7	31667818623.0	18.3	
2015-06-23-03-06	   51.5	 -55.0	   12410517360.9	27202255195.1	13.9	
2015-06-23-03-06	   71.5	  15.0	   11928817473.5	24210645501.3	12.9	
2015-06-23-03-06	  -94.5	 -63.5	    4209958836.8	13701733579.3	20.7	
2015-06-23-06-09	   65.5	 -51.0	  241624502003.0	731688181202.3	19.4	
2015-06-23-06-09	  135.0	 -42.5	  169063593814.6	406458023681.3	15.4	
2015-06-23-06-09	   50.5	 -58.0	   57897925897.2	150076414660.2	16.5	
2015-06-23-06-09	  158.5	 -61.5	   32589447709.2	122567323825.8	24.0	
2015-06-23-06-09	  -94.0	 -63.0	   24239586442.4	78260844982.0	20.6	
2015-06-23-06-09	   78.5	 -61.0	   16696014466.9	56536459556.9	21.6	
2015-06-23-06-09	   71.5	  15.0	   11928817473.5	24365995411.3	13.0	
2015-06-23-06-09	   51.0	 -55.0	    3545939379.7	4036300165.6	7.2	
2015-06-23-09-12	   65.5	 -51.0	  231922869348.2	705298162960.5	19.5	
2015-06-23-09-12	  136.0	 -43.0	  122902225840.6	285641286619.8	14.8	
2015-06-23-09-12	  158.5	 -61.5	   28164755501.7	105971661940.3	24.0	
2015-06-23-09-12	  -93.5	 -62.5	   33208109217.1	103420642403.3	19.8	
2015-06-23-09-12	   79.0	 -61.0	   13675310396.0	45959780547.2	21.4	
2015-06-23-09-12	   71.5	  15.0	   14921437260.4	30256030788.3	12.9	
2015-06-23-09-12	    5.0	 -42.0	   11485416832.7	25533519712.8	14.1	
2015-06-23-12-15	   65.5	 -50.5	  228183960715.8	688361513590.2	19.3	
2015-06-23-12-15	  136.5	 -43.0	   86300548547.0	199312662460.0	14.7	
2015-06-23-12-15	 -170.5	 -64.0	   28600358627.1	123506234143.1	27.4	
2015-06-23-12-15	  -93.0	 -62.0	   32257355025.4	97784671908.5	19.3	
2015-06-23-12-15	  158.5	 -61.5	   20672287817.9	78201975464.9	24.0	
2015-06-23-12-15	   71.5	  15.0	   11928817473.5	25167317042.5	13.4	
2015-06-23-12-15	   79.0	 -61.0	    4542823957.7	14849423788.8	20.7	
2015-06-23-15-18	   66.0	 -51.0	  219972854579.2	665374711859.6	19.3	
2015-06-23-15-18	 -170.5	 -64.0	   65086864580.6	275866668110.9	26.9	
2015-06-23-15-18	  137.5	 -43.0	   56732699590.9	127100568660.6	14.2	
2015-06-23-15-18	 -172.0	 -32.5	   36639987042.0	81426496634.3	14.1	
2015-06-23-15-18	  -91.5	 -61.5	   25073330645.0	75491101230.3	19.1	
2015-06-23-15-18	   17.0	 -46.0	   17351349188.4	48767429436.0	17.8	
2015-06-23-15-18	   71.5	  15.0	   11928817473.5	24891654128.6	13.2	
2015-06-23-15-18	  158.5	 -61.5	    4448453791.6	16454837528.6	23.4	
2015-06-23-18-21	   66.0	 -51.0	  211302713895.8	640481879112.4	19.3	
2015-06-23-18-21	 -171.5	 -33.5	  176233155887.7	321593192701.6	11.6	
2015-06-23-18-21	 -170.0	 -64.0	   76240419861.8	313863726149.2	26.1	
2015-06-23-18-21	   17.5	 -46.0	   28106724240.9	73759060931.0	16.6	
2015-06-23-18-21	  138.5	 -43.0	   22587711860.8	46827432266.5	13.1	
2015-06-23-18-21	   71.5	  15.0	    8950160696.4	18439470409.2	13.0	
2015-06-23-21-24	 -171.0	 -34.5	  388028815655.1	773660871976.8	12.7	
2015-06-23-21-24	   66.5	 -51.0	  199158178735.5	601134786430.3	19.2	
2015-06-23-21-24	 -169.5	 -64.0	   61458329887.3	246562577748.5	25.4	
2015-06-23-21-24	   18.5	 -46.0	   38589796834.5	92017352772.8	15.1	
2015-06-24-00-03	 -171.0	 -35.5	  491873342162.9	1019634342861.6	13.3	
2015-06-24-00-03	   67.0	 -51.5	  171457804132.5	512056962063.1	19.0	
2015-06-24-00-03	 -169.0	 -63.5	   33052447064.6	130207996128.7	25.0	
2015-06-24-00-03	   19.0	 -46.0	   25766265228.2	66476142608.1	16.3	
2015-06-24-00-03	 -101.5	 -52.0	   11481896509.3	32082463071.2	17.7	
2015-06-24-03-06	 -171.0	 -35.5	  550862102731.1	1158224832922.3	13.5	
2015-06-24-03-06	   68.0	 -52.0	  147094358942.8	424703873253.7	18.4	
2015-06-24-03-06	 -100.5	 -52.0	   42161647909.5	122235221122.4	18.4	
2015-06-24-03-06	 -168.5	 -63.5	   19308827710.7	71651363839.8	23.6	
2015-06-24-03-06	   19.5	 -46.0	    8627617490.9	19475607696.7	14.3	
2015-06-24-06-09	 -171.0	 -36.0	  583611342022.3	1215959472590.9	13.5	
2015-06-24-06-09	   69.0	 -52.5	  111740651676.5	317049574304.7	18.1	
2015-06-24-06-09	  -99.5	 -52.0	   57657829966.4	158817985499.6	17.6	
2015-06-24-06-09	 -168.5	 -64.0	    1379232010.9	5282459708.0	24.4	
2015-06-24-09-12	 -170.5	 -38.5	  617809342981.6	1296075922245.6	13.6	
2015-06-24-09-12	  -98.0	 -52.0	   55417614037.0	146287508233.4	16.9	
2015-06-24-09-12	   66.5	 -51.0	   55048796091.1	145993052692.8	17.0	
2015-06-24-09-12	   71.0	 -53.5	   22127999854.0	71970124417.2	20.8	
2015-06-24-09-12	 -169.0	 -63.5	    2758464021.8	10784944308.1	25.0	
2015-06-24-12-15	 -171.0	 -35.0	  430850382610.5	861223557661.2	12.9	
2015-06-24-12-15	 -166.5	 -44.0	  120952100440.6	287790770853.4	15.3	
2015-06-24-12-15	 -171.0	 -43.0	   77498127755.5	228944845868.4	19.0	
2015-06-24-12-15	  -96.5	 -52.0	   78016518083.1	207422259400.2	17.1	
2015-06-24-12-15	 -170.0	 -64.0	   37045093871.4	138090034155.5	23.9	
2015-06-24-12-15	   66.5	 -50.5	   25663122166.3	65378293880.6	16.3	
2015-06-24-12-15	   21.5	 -44.5	   24364099066.7	50851481958.0	13.4	
2015-06-24-15-18	 -171.5	 -35.5	  431241983259.5	835834335647.1	12.6	
2015-06-24-15-18	 -171.0	 -43.5	  252931413364.2	671803549966.7	17.2	
2015-06-24-15-18	  -95.0	 -52.5	  109456639254.0	320204125059.0	18.8	
2015-06-24-15-18	 -169.5	 -64.0	   54948714957.0	214488988929.7	25.1	
2015-06-24-15-18	   22.0	 -44.0	   73893668687.8	161835609345.2	14.1	
2015-06-24-15-18	   66.0	 -50.0	   17923033162.6	40383332009.7	14.5	
2015-06-24-18-21	 -171.0	 -43.5	  298579681721.1	760489236740.3	16.5	
2015-06-24-18-21	 -171.5	 -36.0	  389004157298.4	742788232708.1	12.4	
2015-06-24-18-21	  -94.0	 -53.0	  137391034940.9	424606336282.8	20.0	
2015-06-24-18-21	 -168.5	 -63.5	   51077026182.1	195697163082.8	24.7	
2015-06-24-18-21	   22.5	 -44.0	   60498197194.4	130275595662.7	13.9	
2015-06-24-18-21	   65.0	 -49.5	   44162583918.5	108735968738.3	15.9	
2015-06-24-18-21	   13.5	 -31.0	   21278711471.6	51403699803.4	15.5	
2015-06-24-18-21	  -65.5	 -62.5	    4329646884.4	14464693961.5	21.5	
2015-06-24-18-21	  -69.5	 -64.0	    2710078598.1	10087228656.8	23.9	
2015-06-24-21-24	 -171.5	 -43.5	  291797171715.7	729845630573.6	16.3	
2015-06-24-21-24	 -173.5	 -37.5	  228200468300.2	476995158919.4	13.6	
2015-06-24-21-24	  -93.0	 -53.0	  142412857973.7	445963021465.3	20.3	
2015-06-24-21-24	 -169.0	 -33.5	  118723738864.4	203529487446.3	11.1	
2015-06-24-21-24	   14.0	 -31.0	   47867117119.0	114391970051.6	15.4	
2015-06-24-21-24	 -168.0	 -63.5	   28987329167.4	109489211574.2	24.4	
2015-06-24-21-24	   65.5	 -50.0	   28021503009.6	72330987956.3	16.7	
2015-06-24-21-24	  -65.5	 -62.5	    5756947329.5	18723100545.1	21.0	
2015-06-24-21-24	  -66.5	 -63.0	    1403319612.3	4296287042.6	19.8	
2015-06-25-00-03	 -171.5	 -43.5	  280261276463.4	704814952420.8	16.4	
2015-06-25-00-03	 -174.0	 -37.5	  240878451567.4	546293325401.9	14.8	
2015-06-25-00-03	  -92.0	 -53.0	  130854742879.5	386878355500.6	19.3	
2015-06-25-00-03	 -169.0	 -33.0	  127807583413.3	219023572734.9	11.1	
2015-06-25-00-03	   14.0	 -31.0	   45176780115.7	108470134634.5	15.6	
2015-06-25-00-03	  -28.0	 -34.5	   27928792869.4	52737347125.5	12.2	
2015-06-25-00-03	   66.0	 -50.0	   17923033162.6	46522572934.9	16.8	
2015-06-25-00-03	 -171.5	 -29.0	   18963546204.5	30726951451.7	10.5	
2015-06-25-00-03	 -167.5	 -64.0	    1379232010.9	4513716972.9	21.2	
2015-06-25-03-06	 -171.0	 -43.5	  271175927757.9	699098043055.5	16.9	
2015-06-25-03-06	 -173.5	 -37.5	  281717314793.2	675488448114.3	15.8	
2015-06-25-03-06	 -170.0	 -31.0	  286735779820.4	494866001054.6	11.3	
2015-06-25-03-06	  -90.5	 -53.5	   94729862040.7	268020484810.6	18.5	
2015-06-25-03-06	  -27.0	 -34.5	   30519644395.0	51094477431.5	10.9	
2015-06-25-03-06	   14.0	 -31.0	   18615348690.6	47554370418.2	16.7	
2015-06-25-03-06	   66.0	 -50.0	    7988802329.6	22739019442.5	18.6	
2015-06-25-06-09	 -173.0	 -37.0	  361599412478.5	803042993954.6	14.7	
2015-06-25-06-09	 -170.5	 -43.5	  272827065553.3	712463910505.7	17.3	
2015-06-25-06-09	 -169.5	 -30.5	  358400649171.7	629676572688.4	11.6	
2015-06-25-06-09	  -89.0	 -54.0	   58722661005.1	165305685623.7	18.5	
2015-06-25-06-09	   31.5	 -43.5	   40561501096.6	83058673448.5	13.4	
2015-06-25-06-09	   65.5	 -50.0	    4014988985.9	11569315012.2	18.9	
2015-06-25-06-09	  -24.0	 -36.5	    2484784349.4	4630792002.5	12.2	
2015-06-25-09-12	 -171.0	 -34.5	  786868428748.2	1526361029823.9	13.0	
2015-06-25-09-12	 -169.0	 -44.5	  333793245957.7	854478566440.7	17.0	
2015-06-25-09-12	   31.5	 -43.0	   56624914720.9	115690142378.7	13.4	
2015-06-25-09-12	  -88.0	 -54.5	   19897808748.8	50413332871.8	16.7	
2015-06-25-12-15	 -170.0	 -33.5	  773226128178.0	1489862551072.5	12.9	
2015-06-25-12-15	 -168.0	 -45.0	  410802477494.0	1112445537499.1	18.0	
2015-06-25-12-15	   31.5	 -43.5	   15824526324.9	32822878694.7	13.6	
2015-06-25-15-18	 -167.5	 -42.0	 1379612039802.4	3151558023876.9	15.5	
2015-06-25-15-18	 -170.5	 -37.0	   19941695705.0	34628191059.3	11.4	
2015-06-25-15-18	  -24.0	 -31.0	   13275438359.6	20980659092.6	10.3	
2015-06-25-15-18	   45.5	 -45.5	    2166565317.8	6768357386.2	20.4	
2015-06-25-18-21	 -166.5	 -45.0	  793554721923.9	2188717846134.5	18.4	
2015-06-25-18-21	 -165.5	 -32.5	  588912320049.1	1150325632682.4	12.9	
2015-06-25-18-21	   45.5	 -45.5	   13056862333.1	37452623134.6	18.7	
2015-06-25-18-21	 -173.0	 -37.0	   12375314311.2	22434599069.9	11.8	
2015-06-25-21-24	 -166.0	 -45.5	  899035560040.7	2462545211596.2	18.4	
2015-06-25-21-24	 -162.5	 -32.5	  515723619750.0	977925459483.7	12.5	
2015-06-25-21-24	   45.5	 -45.5	   13056862333.1	36178635788.2	18.0	
2015-06-26-00-03	 -164.5	 -46.0	  903213568538.9	2342036163415.2	17.4	
2015-06-26-00-03	 -160.5	 -32.0	  440628593491.8	871191095715.7	13.0	
2015-06-26-00-03	 -172.0	 -43.0	   47434889502.3	127016322334.8	17.5	
2015-06-26-00-03	   57.0	 -47.5	   27147287892.9	80311881202.8	19.3	
2015-06-26-00-03	   45.5	 -45.5	    8704574888.7	22573300323.3	16.9	
2015-06-26-03-06	 -162.5	 -42.5	 1349777554215.9	3100033060631.9	15.6	
2015-06-26-03-06	   58.0	 -47.0	   69405637927.2	202414596088.4	19.1	
2015-06-26-03-06	 -172.0	 -43.0	   20345523614.4	56565905950.2	18.2	
2015-06-26-03-06	  -35.0	  55.0	   10615519072.8	30605647581.0	18.8	
2015-06-26-06-09	 -162.5	 -45.0	  929419784465.2	2194996469058.9	15.9	
2015-06-26-06-09	 -157.0	 -32.0	  309973168865.1	594209360434.0	12.7	
2015-06-26-06-09	   59.5	 -47.0	   74271321434.9	199872534815.0	17.7	
2015-06-26-06-09	  -35.0	  55.0	   12344028075.0	34135233423.3	18.1	
2015-06-26-09-12	 -161.0	 -45.0	  886658921209.5	1995656742659.5	15.2	
2015-06-26-09-12	 -156.0	 -32.5	  246078037758.3	461935192342.8	12.4	
2015-06-26-09-12	   61.0	 -46.0	   68649403297.5	170352041556.9	16.4	
2015-06-26-09-12	  -34.5	  55.5	    1750805857.6	4778810029.1	18.0	
2015-06-26-12-15	 -160.0	 -45.5	  727064576514.1	1638767541396.4	15.2	
2015-06-26-12-15	 -155.5	 -32.5	  206363325240.5	360199519833.2	11.6	
2015-06-26-12-15	   62.0	 -45.0	   69842667274.5	169948805891.1	16.2	
2015-06-26-15-18	 -158.0	 -45.5	  746149193506.8	1661486081517.2	15.1	
2015-06-26-15-18	 -154.5	 -32.5	  172463218774.5	282090091626.3	10.9	
2015-06-26-15-18	   63.5	 -44.5	   97112047580.9	229757458536.4	15.8	
2015-06-26-15-18	  -22.0	  56.0	    6846749689.2	23893753588.1	23.2	
2015-06-26-18-21	 -158.0	 -42.0	  389769943801.5	808234617018.8	13.9	
2015-06-26-18-21	 -154.5	 -50.0	  243897148683.7	609896285029.4	16.8	
2015-06-26-18-21	   64.5	 -44.0	   71578570485.0	144716110483.3	13.5	
2015-06-26-18-21	 -164.0	 -45.5	   32804156851.9	66744876655.1	13.5	
2015-06-26-18-21	  -22.0	  56.0	   15444437153.7	46849745007.8	20.2	
2015-06-26-18-21	 -155.0	 -32.5	   18292102046.9	29009542541.4	10.6	
2015-06-26-18-21	 -153.0	 -33.5	    2577606140.7	3889470601.8	10.0	
2015-06-26-18-21	   67.0	 -45.0	    2185722126.6	3801098727.6	11.6	
2015-06-26-21-24	 -157.0	 -41.5	  339743065996.7	674472102860.1	13.3	
2015-06-26-21-24	 -154.0	 -50.0	  213907877202.5	533082904716.3	16.7	
2015-06-26-21-24	  -22.0	  56.5	   18811481020.3	58767207549.2	20.8	
2015-06-27-00-03	 -155.5	 -41.0	  233231246076.2	440383009566.4	12.6	
2015-06-27-00-03	 -154.0	 -49.5	  180806862774.6	434694838963.4	16.1	
2015-06-27-00-03	  -22.0	  56.5	   13648382787.0	44879867152.7	21.9	
2015-06-27-03-06	 -154.0	 -49.5	  145760099629.8	345350522098.1	15.8	
2015-06-27-03-06	 -154.5	 -42.0	  139515088673.4	255342660842.5	12.2	
2015-06-27-03-06	  -22.0	  56.5	    8485284553.7	30267282299.6	23.7	
2015-06-27-06-09	 -154.0	 -49.5	  115640610820.6	269244473892.9	15.5	
2015-06-27-06-09	 -153.5	 -44.0	   42615966766.9	83788802613.7	13.0	
2015-06-27-06-09	  -21.5	  56.5	    8485284553.7	30506725367.0	23.8	
2015-06-27-09-12	 -154.5	 -49.0	   61219944556.8	134156136747.2	14.5	
2015-06-27-09-12	 -150.0	 -39.5	   21517018222.5	42154699186.0	12.9	
2015-06-27-09-12	 -173.0	 -49.5	   14052155607.8	31836617497.7	14.9	
2015-06-27-12-15	  137.5	 -48.5	   45179958853.3	103953466798.9	15.1	
2015-06-27-12-15	 -172.0	 -49.5	   20115508885.9	45474297389.1	14.8	
2015-06-27-12-15	 -149.5	 -39.5	    7172521377.8	13527347165.3	12.4	
2015-06-27-15-18	  -57.5	  39.5	   37937656511.3	88874345467.4	15.3	
2015-06-27-15-18	  137.5	 -48.5	   28774779808.6	63639185650.2	14.5	
2015-06-27-15-18	 -171.0	 -49.5	   24109910050.7	54953173792.8	14.9	
2015-06-27-18-21	  -56.5	  39.5	   66609954136.2	153161445891.6	15.0	
2015-06-27-18-21	 -169.5	 -50.0	   27959895599.9	61997838328.7	14.5	
2015-06-27-21-24	  -55.0	  39.5	   71345398575.4	158010105995.4	14.4	
2015-06-27-21-24	  144.5	 -44.0	   42299905768.9	117979247768.9	18.2	
2015-06-27-21-24	 -168.0	 -50.5	   23676215494.5	53802565595.3	14.8	
2015-06-28-00-03	  144.5	 -43.5	   73571147959.9	213261982934.2	18.9	
2015-06-28-00-03	 -167.0	 -51.0	   25392322021.6	59346372807.6	15.2	
2015-06-28-00-03	  -52.5	  39.5	   26046394497.0	54789213998.2	13.7	
2015-06-28-03-06	  144.5	 -43.5	   96263236755.3	282384562660.4	19.1	
2015-06-28-03-06	  -45.5	  42.0	   66738499646.8	191685313116.6	18.7	
2015-06-28-03-06	 -166.0	 -51.0	   13616653631.6	31786140827.2	15.1	
2015-06-28-03-06	  164.5	 -51.0	    9851427233.2	25292593252.5	16.7	
2015-06-28-03-06	  144.0	  38.5	    4821321758.4	7404139087.3	10.0	
2015-06-28-03-06	  145.5	  38.0	    2435802716.8	5318280443.0	14.2	
2015-06-28-06-09	  -43.5	  42.0	  130615575162.8	397559908232.0	19.8	
2015-06-28-06-09	  144.0	 -43.0	  100838291376.9	295026151627.7	19.0	
2015-06-28-06-09	  145.0	  38.5	   50832532933.0	106717462891.1	13.6	
2015-06-28-06-09	  164.5	 -51.0	   35243450781.8	95657728362.0	17.5	
2015-06-28-09-12	  -41.5	  42.5	  175440393319.8	532100138392.1	19.7	
2015-06-28-09-12	  144.0	 -43.0	   87650013770.4	253772648629.9	18.7	
2015-06-28-09-12	  145.5	  38.5	   72584997355.9	165492937396.0	14.7	
2015-06-28-09-12	  164.5	 -51.0	   52811983491.0	162901746274.0	19.9	
2015-06-28-09-12	  140.5	 -39.5	   11959891278.0	39355582319.4	21.2	
2015-06-28-12-15	  -41.5	  43.0	  149757599939.4	376266552719.2	16.2	
2015-06-28-12-15	  164.0	 -51.0	   68289175294.5	202022210209.5	19.1	
2015-06-28-12-15	  144.0	 -43.0	   69812274799.2	189949567451.1	17.5	
2015-06-28-12-15	  145.5	  38.5	   70064780759.0	174117740944.3	16.0	
2015-06-28-12-15	  -74.5	 -54.5	    1794998103.8	9934997880.6	35.6	
2015-06-28-12-15	  165.0	 -47.0	    4216219861.1	5643980569.7	8.6	
2015-06-28-15-18	  164.0	 -51.0	   79812852314.3	218476400447.3	17.6	
2015-06-28-15-18	  146.0	  38.5	   65193360673.5	153681019803.4	15.2	
2015-06-28-15-18	  -41.5	  43.0	   65390897300.3	149531462325.7	14.7	
2015-06-28-15-18	  144.0	 -43.0	   40503997322.3	114951447322.6	18.3	
2015-06-28-15-18	  165.0	 -47.5	   16864558862.1	43356434552.9	16.5	
2015-06-28-15-18	  -75.0	 -54.5	   12542821789.0	39527372876.3	20.3	
2015-06-28-15-18	  -37.0	  44.5	   13171304625.2	36345186433.3	17.7	
2015-06-28-15-18	 -173.5	 -52.5	    7548245289.1	15664729537.4	13.3	
2015-06-28-15-18	  165.0	 -48.5	    2048209897.0	3705682502.1	11.6	
2015-06-28-18-21	  163.5	 -51.0	   64398766549.9	171650787977.4	17.1	
2015-06-28-18-21	  146.5	  38.5	   38535521359.1	85445697460.1	14.2	
2015-06-28-18-21	  144.5	 -43.5	   22550405681.8	64338566535.1	18.3	
2015-06-28-18-21	  165.0	 -47.0	   27324920422.9	63967059928.6	15.0	
2015-06-28-18-21	  -75.0	 -54.5	   14359711783.1	48532180865.5	21.7	
2015-06-28-18-21	 -172.5	 -53.0	   13107687313.0	28009545264.6	13.7	
2015-06-28-18-21	  -36.0	  45.5	    8666096005.6	19008255915.7	14.1	
2015-06-28-18-21	  -41.0	  43.0	    2260671464.3	4295180861.5	12.2	
2015-06-28-21-24	  163.5	 -51.0	   52770501453.5	138258516127.9	16.9	
2015-06-28-21-24	  165.0	 -47.5	   37646311289.8	90452368521.2	15.4	
2015-06-28-21-24	  -74.5	 -55.0	    8930933691.2	26500295840.6	19.1	
2015-06-28-21-24	  -34.5	  46.0	    8550001978.5	23562541805.8	17.7	
2015-06-28-21-24	  144.0	 -43.0	    2260671280.0	3711763519.2	10.5	
2015-06-29-00-03	  165.0	 -47.5	   31481556963.5	77597614329.4	15.9	
2015-06-29-00-03	  164.0	 -51.0	   23572374337.4	57477986142.2	15.7	
2015-06-29-03-06	  165.0	 -47.0	   21120073985.3	49646976580.3	15.1	
2015-06-29-03-06	  164.5	 -50.5	    5939980931.4	11680380757.4	12.6	
2015-06-29-06-09	  165.0	 -47.0	    6324329791.6	9095439534.5	9.2	
2015-06-29-06-09	  133.5	 -50.0	    3973813343.7	9070820408.0	14.6	
2015-06-29-09-12	 -143.5	 -42.0	   18394558805.0	42304693604.3	14.8	
2015-06-29-09-12	  134.0	 -50.0	    3973813343.7	8964636303.3	14.5	
2015-06-29-12-15	 -143.0	 -42.0	   46029727187.7	104589884260.4	14.6	
2015-06-29-12-15	  144.5	 -55.0	   25085507054.3	59272634647.4	15.2	
2015-06-29-15-18	 -142.5	 -42.0	   66789745068.3	142593202219.7	13.9	
2015-06-29-15-18	  146.0	 -55.5	   26482513133.2	65908855551.7	16.1	
2015-06-29-18-21	 -142.0	 -42.5	   55125249032.7	113679703054.1	13.5	
2015-06-29-21-24	 -141.0	 -43.0	    6800324238.4	13227198131.5	12.8	
2015-06-30-00-03	  158.0	 -54.5	   16329565880.9	51656607952.6	20.8	
2015-06-30-00-03	  164.5	 -50.0	    1986906671.9	2840494635.9	9.4	
2015-06-30-03-06	  164.5	 -51.0	   54569572055.8	164467938853.3	19.9	
2015-06-30-03-06	  158.0	 -55.0	   35897228653.2	113151898743.1	20.8	
2015-06-30-06-09	  164.5	 -51.0	   93553493110.2	288780403461.2	20.5	
2015-06-30-06-09	  158.0	 -55.0	   26769685628.3	84164487459.4	20.8	
2015-06-30-06-09	 -137.0	 -45.0	    8780869381.7	18334000755.4	13.8	
2015-06-30-09-12	  164.5	 -51.0	  107437643416.6	371482774048.7	23.1	
2015-06-30-12-15	  164.5	 -51.0	  122680471260.8	425691150854.8	23.3	
2015-06-30-15-18	  164.0	 -51.0	  143669697440.0	453049505062.0	21.2	
2015-06-30-18-21	  164.0	 -50.5	  135026447148.5	379400291456.9	19.0	
2015-06-30-21-24	  164.5	 -49.0	   79158816134.7	188714808008.9	16.1	
2015-06-30-21-24	   83.0	 -55.5	    8798357505.2	27216904755.3	20.8	
