2013-04-01-00-03	   -3.0	 -53.0	  520276336061.5	1757464337260.2	22.7	
2013-04-01-00-03	 -100.0	 -54.0	   54981231012.6	176027417673.9	21.1	
2013-04-01-03-06	   -2.0	 -53.5	  352789826123.7	1100743037317.6	20.7	
2013-04-01-03-06	  -97.5	 -55.0	   75752892104.5	225997702183.1	19.6	
2013-04-01-03-06	    2.5	 -58.5	   26138285679.0	75095158529.0	18.8	
2013-04-01-03-06	  -10.0	 -48.0	   20682873845.0	61867530395.4	19.6	
2013-04-01-03-06	 -157.0	  38.5	    4804437582.1	9440119842.9	12.9	
2013-04-01-06-09	   -1.5	 -53.0	  231699885870.2	630779304199.6	17.9	
2013-04-01-06-09	  -95.0	 -55.5	   88212992281.7	302613549518.0	22.5	
2013-04-01-06-09	    3.5	 -58.5	   21224719729.8	63132554797.2	19.5	
2013-04-01-06-09	 -157.0	  39.0	   11942644512.2	22862732967.6	12.5	
2013-04-01-06-09	   22.0	 -40.5	    4718377125.8	9888789967.7	13.7	
2013-04-01-06-09	  -13.0	  50.0	    1986906671.9	3273777912.4	10.8	
2013-04-01-09-12	  -93.0	 -56.0	  140737041618.7	461830540396.0	21.4	
2013-04-01-09-12	  -20.0	  53.5	   14687116045.4	52436162387.8	23.2	
2013-04-01-09-12	   -5.5	 -52.0	   11502934066.5	27047264815.7	15.3	
2013-04-01-09-12	 -157.0	  39.5	   11856584424.4	22378095301.6	12.3	
2013-04-01-09-12	    5.5	 -58.0	    6597711727.9	17456877796.8	17.2	
2013-04-01-09-12	   22.0	 -40.5	    4718377125.8	10160660669.4	14.0	
2013-04-01-09-12	    3.5	 -54.0	    1816889994.0	6909455196.8	24.7	
2013-04-01-09-12	    4.5	 -54.0	    1816889994.0	5853653915.6	20.9	
2013-04-01-09-12	   -2.5	 -53.0	    1860256833.4	4810404940.9	16.8	
2013-04-01-09-12	  -13.0	  50.0	    1986906671.9	3728929955.6	12.2	
2013-04-01-12-15	  161.5	  40.5	  279197029105.3	693188151172.9	16.0	
2013-04-01-12-15	  -90.0	 -57.0	  166684457121.0	508740273349.9	19.7	
2013-04-01-12-15	  -20.0	  53.0	   24009732557.8	77051170025.8	20.6	
2013-04-01-12-15	  -24.0	 -50.5	    7947475424.3	18819355747.9	15.2	
2013-04-01-12-15	  -16.0	  48.5	    6104069972.0	15793820375.0	16.6	
2013-04-01-12-15	  168.5	  42.5	    6836945587.6	13422694569.8	12.6	
2013-04-01-12-15	 -156.5	  40.0	    2350474256.3	4479086483.1	12.2	
2013-04-01-12-15	  -13.0	  50.0	    1986906671.9	3904867759.4	12.6	
2013-04-01-15-18	  162.0	  41.5	  466661283471.4	1185713348802.0	16.4	
2013-04-01-15-18	  -87.5	 -57.5	  112758319925.5	316129927675.4	17.9	
2013-04-01-15-18	  -20.0	  53.0	   38934026131.2	116621552854.3	19.1	
2013-04-01-15-18	  -21.5	 -51.0	   11671374917.4	30249462934.6	16.5	
2013-04-01-15-18	  -16.0	  48.5	   10180210182.8	24662506862.1	15.4	
2013-04-01-15-18	  -13.0	  49.5	    7968214692.8	22572205956.7	18.0	
2013-04-01-18-21	  163.5	  42.5	  479604528182.2	1090360658621.6	14.6	
2013-04-01-18-21	  -20.5	  52.5	   95800845861.1	278508077291.1	18.5	
2013-04-01-18-21	  -19.5	 -52.0	   21145031488.2	52148661488.1	15.7	
2013-04-01-18-21	  -82.5	 -60.0	   14096025797.9	36790676851.0	16.6	
2013-04-01-18-21	  -16.0	  49.0	    2027929761.1	4813299481.0	15.1	
2013-04-01-18-21	  -13.0	  50.0	    1986906671.9	3949862648.0	12.6	
2013-04-01-21-24	  165.0	  45.0	  344715807721.6	877825164779.5	16.4	
2013-04-01-21-24	  -20.5	  52.5	  114869760409.5	331183327118.1	18.5	
2013-04-01-21-24	   18.0	 -38.0	   46408826791.9	110200921261.2	15.2	
2013-04-01-21-24	  175.0	  47.5	   35360256353.8	91774896259.8	16.6	
2013-04-02-00-03	  166.0	  45.5	  260620474721.2	769074561711.4	19.1	
2013-04-02-00-03	  -21.0	  52.5	   95993942978.1	262557219909.2	17.6	
2013-04-02-00-03	   18.5	 -38.5	   62991882488.1	146579646211.8	15.0	
2013-04-02-00-03	  176.5	  48.0	   30722375557.7	71093170812.4	14.9	
2013-04-02-00-03	  145.0	 -44.5	   22046622107.7	64024398846.3	18.7	
2013-04-02-03-06	  167.0	  45.5	  277362565130.7	815957310201.3	19.2	
2013-04-02-03-06	   21.0	 -40.0	  133372762936.1	301499208222.7	14.7	
2013-04-02-03-06	  145.0	 -44.5	   41867862210.5	127132549068.6	19.7	
2013-04-02-03-06	  -20.5	  53.0	   22192560856.8	63603527435.4	18.5	
2013-04-02-06-09	  167.5	  46.0	  340320091348.1	990254300517.2	19.2	
2013-04-02-06-09	   21.0	 -39.5	  133554687397.5	283707703571.8	13.9	
2013-04-02-06-09	  145.0	 -44.5	   68394830319.9	197480442397.7	18.8	
2013-04-02-06-09	  -28.0	  48.5	   44550066561.2	122608500233.2	17.9	
2013-04-02-06-09	   27.0	 -43.5	   24792936619.5	66271073492.4	17.4	
2013-04-02-09-12	  169.0	  46.5	  370150255708.7	1103763662089.9	19.7	
2013-04-02-09-12	  145.0	 -44.5	   77212002311.2	229242495865.3	19.4	
2013-04-02-09-12	   28.0	 -43.5	   78711046364.8	197119880899.9	16.4	
2013-04-02-09-12	   22.0	 -39.5	   83560548581.9	166918926497.7	13.1	
2013-04-02-09-12	  -28.0	  48.5	   60932646224.1	163251716805.0	17.5	
2013-04-02-12-15	  169.5	  47.0	  365213689650.2	1088688214992.8	19.8	
2013-04-02-12-15	   29.0	 -43.5	  128063667180.2	362275830571.3	18.6	
2013-04-02-12-15	  145.0	 -44.5	   77212002311.2	229566621816.4	19.5	
2013-04-02-12-15	  -28.0	  48.5	   28532049577.0	81999470840.8	18.9	
2013-04-02-12-15	   22.0	 -40.0	   18977178683.1	37543645745.6	13.0	
2013-04-02-15-18	  170.0	  47.5	  345876493184.9	967152146944.1	18.6	
2013-04-02-15-18	   30.0	 -43.5	  166919972780.7	536753601114.5	21.2	
2013-04-02-15-18	  145.0	 -44.5	   70655501600.0	205818252761.0	19.2	
2013-04-02-15-18	 -176.0	  40.5	    4683340631.4	8751483908.4	12.3	
2013-04-02-18-21	  171.0	  47.5	  303345960817.9	782486342524.4	17.1	
2013-04-02-18-21	   30.5	 -43.5	  190302269737.3	598822910778.6	20.8	
2013-04-02-18-21	  145.0	 -44.5	   55320312018.3	159585298113.7	19.0	
2013-04-02-18-21	   28.5	 -36.0	    5001469199.9	8358527888.3	11.0	
2013-04-02-21-24	   31.0	 -43.0	  188849974664.5	587214644354.4	20.7	
2013-04-02-21-24	  173.0	  48.5	  192197793552.6	479749540461.6	16.6	
2013-04-02-21-24	  145.0	 -44.0	   39776246046.2	116840521435.5	19.4	
2013-04-02-21-24	   29.5	 -36.5	   49883480682.3	100264850100.2	13.3	
2013-04-02-21-24	  166.5	  46.5	   27444245328.3	60415918844.6	14.5	
2013-04-02-21-24	 -173.0	  40.5	    9366681262.8	18841950007.9	13.3	
2013-04-03-00-03	   32.0	 -43.0	  193649251795.5	556828046875.3	19.2	
2013-04-03-00-03	  174.0	  48.5	  138487502092.5	322105569089.9	15.5	
2013-04-03-00-03	  145.0	 -44.5	   22046622107.7	61077619132.1	18.4	
2013-04-03-00-03	   30.5	 -36.0	   30039572290.9	54499049150.7	12.0	
2013-04-03-00-03	 -172.5	  40.5	   23416703157.0	44379060472.6	12.6	
2013-04-03-00-03	  -86.5	 -60.5	    1522119886.8	5169667517.3	22.5	
2013-04-03-03-06	   32.5	 -42.5	  166719026376.1	464618385280.7	18.6	
2013-04-03-03-06	  175.5	  48.5	   81290747896.7	188577604942.5	15.5	
2013-04-03-03-06	  145.0	 -44.5	    4409425128.5	6941576362.7	10.5	
2013-04-03-06-09	   33.0	 -42.5	  135059300183.8	354493155907.7	17.5	
2013-04-03-06-09	  141.5	  35.0	  144002158056.2	293619900001.0	13.6	
2013-04-03-06-09	  176.0	  48.5	   40576404480.6	94502383143.3	15.5	
2013-04-03-06-09	  -80.5	 -62.0	    7327150850.5	23418923679.0	21.3	
2013-04-03-06-09	  139.5	  31.0	   10570296910.4	19313557647.0	12.2	
2013-04-03-09-12	  143.0	  34.0	  330064505121.7	793548833712.4	16.2	
2013-04-03-09-12	   34.0	 -42.0	  110498946081.9	273577117991.0	16.5	
2013-04-03-09-12	  176.5	  48.5	   14195199537.2	31859101342.3	14.9	
2013-04-03-09-12	  139.5	  31.5	    5271154676.9	4455882333.0	5.6	
2013-04-03-12-15	  144.5	  34.0	  485842184173.9	1171781695268.0	16.3	
2013-04-03-12-15	   34.5	 -42.0	   78472192413.3	183591243216.1	15.6	
2013-04-03-15-18	  145.5	  34.5	  659331020344.4	1559520434527.7	16.1	
2013-04-03-15-18	   35.0	 -41.5	   44001843487.2	98033931481.1	14.9	
2013-04-03-18-21	  147.0	  34.5	  855015377413.4	2024488575017.0	16.1	
2013-04-03-18-21	   36.0	 -41.5	    6963026669.2	12464178023.5	11.9	
2013-04-03-21-24	  148.5	  34.5	 1017289889473.2	2398431808922.8	16.1	
2013-04-04-00-03	  150.0	  35.5	 1044183507361.6	2501882981144.7	16.4	
2013-04-04-03-06	  151.0	  36.0	 1022890654901.8	2523622830012.8	16.9	
2013-04-04-03-06	  -13.0	  43.0	    8968755196.7	19610462052.3	14.5	
2013-04-04-06-09	  152.0	  37.0	 1012045252649.8	2512605034881.3	17.1	
2013-04-04-06-09	  -13.5	  43.0	   42914931156.9	98057128073.7	15.3	
2013-04-04-09-12	  153.5	  38.0	  943880211729.5	2395665067426.9	17.6	
2013-04-04-09-12	  -14.0	  42.5	   54437317741.6	121695863201.9	15.1	
2013-04-04-09-12	  151.5	  32.0	   13034745298.4	20265545879.2	10.5	
2013-04-04-12-15	  155.0	  38.0	  658035467085.7	1930832436149.4	20.4	
2013-04-04-12-15	  -13.5	  42.0	   45723164817.0	102274823989.5	15.2	
2013-04-04-12-15	  151.5	  29.5	   16088482962.4	25016385166.5	10.5	
2013-04-04-12-15	  -59.0	  61.0	    1498584276.2	4342299681.3	19.6	
2013-04-04-15-18	  156.0	  38.5	  637165516250.6	1853743126327.3	20.3	
2013-04-04-15-18	  -13.5	  41.5	   20691680641.4	44731953596.4	14.7	
2013-04-04-18-21	  157.5	  38.5	  609085843061.3	1717054724078.6	19.6	
2013-04-04-21-24	  159.0	  39.0	  610792962418.6	1592876473441.3	18.1	
2013-04-05-00-03	  160.5	  39.0	  593929593763.6	1472620374975.6	17.1	
2013-04-05-00-03	  -12.5	  30.5	   13275439280.8	30588547861.9	15.6	
2013-04-05-00-03	  -29.0	  44.0	    4428248274.0	9916359725.1	15.2	
2013-04-05-03-06	  163.0	  39.0	  561277630881.5	1358483638424.5	16.6	
2013-04-05-03-06	  -28.5	  44.5	   33049854310.6	81956356020.8	16.8	
2013-04-05-03-06	  -12.0	  30.5	   26495105378.1	60027567561.4	15.3	
2013-04-05-06-09	  165.5	  39.0	  512894399015.2	1215865815448.0	16.3	
2013-04-05-06-09	  -28.5	  44.5	   39682143953.1	97783841530.9	16.7	
2013-04-05-06-09	  -12.0	  30.5	   31835420490.1	76720228065.8	16.3	
2013-04-05-09-12	  167.5	  39.0	  427872691817.4	1020966984524.2	16.3	
2013-04-05-09-12	  -28.5	  44.0	   48668871094.4	122303132642.2	17.0	
2013-04-05-09-12	  -12.0	  30.5	   37189324783.8	87740361399.7	16.0	
2013-04-05-09-12	  -35.5	  55.0	   21142116770.2	72153292832.8	23.1	
2013-04-05-12-15	  169.5	  39.0	  320773979801.4	790334851023.8	16.8	
2013-04-05-12-15	  -29.0	  44.0	   78052653953.1	198037624493.0	17.2	
2013-04-05-12-15	  -35.0	  55.5	   53869536210.0	195878128740.5	24.6	
2013-04-05-12-15	  -12.0	  30.5	   34553747445.3	82527793446.3	16.2	
2013-04-05-12-15	   22.5	 -49.0	   12228417869.0	30013910829.9	16.6	
2013-04-05-15-18	  170.5	  39.0	  299179465455.7	693236774011.8	15.8	
2013-04-05-15-18	  -34.5	  56.0	   86168746916.9	347975774896.7	27.4	
2013-04-05-15-18	  -29.0	  43.5	   87444890217.5	223195203992.4	17.3	
2013-04-05-15-18	  -12.0	  30.5	   15966183276.0	39433767914.9	16.7	
2013-04-05-18-21	  171.5	  39.0	  253344223468.8	562255513196.2	15.0	
2013-04-05-18-21	  -34.5	  56.5	  112784154607.4	461472303125.6	27.7	
2013-04-05-18-21	  -29.0	  43.5	   85608377833.7	214507279854.4	16.9	
2013-04-05-21-24	  -34.0	  56.5	  112086756747.2	435637222356.0	26.2	
2013-04-05-21-24	  173.5	  39.0	  193430409354.2	430366661673.6	15.0	
2013-04-05-21-24	  -29.0	  43.0	   67917078567.2	160933921232.4	15.9	
2013-04-05-21-24	 -167.0	 -45.5	   21856722152.5	43952002402.7	13.5	
2013-04-05-21-24	  -41.0	  60.0	    4589778553.3	21269871132.1	31.0	
2013-04-05-21-24	  -50.5	 -34.5	    5110057551.9	14610216114.8	19.1	
2013-04-06-00-03	  174.5	  39.5	  164435310952.6	369236264779.9	15.1	
2013-04-06-00-03	  -34.0	  56.5	   98239538423.0	352318936374.2	24.1	
2013-04-06-00-03	  -29.5	  42.5	   41126322770.8	91893013105.4	15.0	
2013-04-06-00-03	  -50.5	 -34.0	   40923471850.4	84258775901.6	13.8	
2013-04-06-00-03	  -41.0	  60.0	   21636252388.4	81111926985.7	25.1	
2013-04-06-00-03	 -167.0	 -45.0	   30656079910.8	62326153797.2	13.6	
2013-04-06-00-03	  -48.0	 -35.5	   15145671561.4	26925633628.6	11.9	
2013-04-06-03-06	  176.0	  39.5	  175879056346.3	394396199211.5	15.0	
2013-04-06-03-06	  -34.0	  56.5	   84344603291.7	289916891662.0	23.0	
2013-04-06-03-06	  -50.0	 -34.5	  106918681200.0	205282908928.3	12.8	
2013-04-06-03-06	  -41.5	  60.0	   30791339682.4	119642914153.2	26.0	
2013-04-06-03-06	 -166.5	 -45.0	   19728304081.1	38856282586.5	13.1	
2013-04-06-06-09	  177.5	  39.5	  166251889760.9	390138552506.7	15.7	
2013-04-06-06-09	  -34.5	  56.5	   67535669482.0	226889500287.2	22.4	
2013-04-06-06-09	  -47.5	 -35.5	   83472519309.1	162008562985.7	12.9	
2013-04-06-06-09	  -41.5	  60.0	   30416314234.8	127394971218.8	27.9	
2013-04-06-06-09	   66.5	 -50.5	   13846129450.4	43882155884.5	21.1	
2013-04-06-09-12	  178.0	  39.5	  123428980045.4	295829224691.1	15.9	
2013-04-06-09-12	  -46.5	 -35.5	   83319160741.9	171404895521.5	13.7	
2013-04-06-09-12	  -40.5	  61.0	   38652582659.9	164884431369.6	28.3	
2013-04-06-09-12	  -34.5	  56.5	   45744736309.3	150403515526.7	21.8	
2013-04-06-09-12	   77.5	 -54.0	   18277109857.9	61783593302.2	22.4	
2013-04-06-09-12	 -180.0	  40.5	   23415989769.6	55093567034.6	15.6	
2013-04-06-09-12	   66.5	 -50.5	   13846129450.4	42394635135.6	20.3	
2013-04-06-12-15	  -40.0	  61.0	   52996663392.7	240121410348.0	30.0	
2013-04-06-12-15	  178.5	  39.5	   99871564917.6	224442821517.8	14.9	
2013-04-06-12-15	  -46.0	 -35.5	   96026170509.8	196551124828.3	13.5	
2013-04-06-12-15	 -179.5	  40.0	   49425191396.9	118249311653.6	15.8	
2013-04-06-12-15	  -34.0	  56.5	   20359525499.4	62778037603.0	20.4	
2013-04-06-12-15	   77.5	 -54.0	   12826578426.2	37915116362.9	19.5	
2013-04-06-12-15	  -75.0	 -54.5	    3589996207.6	13664994791.5	25.1	
2013-04-06-15-18	  -39.5	  61.5	   56993567401.1	267810297387.9	30.9	
2013-04-06-15-18	  -45.0	 -35.5	  128751943926.2	260221969136.4	13.3	
2013-04-06-15-18	  -26.0	  60.0	   50929708469.1	190901999030.1	24.6	
2013-04-06-15-18	 -179.0	  40.0	   72821071086.5	173686724677.9	15.6	
2013-04-06-15-18	  178.5	  39.5	   71425115374.7	154126031407.2	14.2	
2013-04-06-15-18	  -74.5	 -54.5	   30535491653.9	104717665489.3	22.5	
2013-04-06-15-18	   77.5	 -54.0	    1816889994.0	6371077888.7	23.0	
2013-04-06-18-21	  -27.0	  60.0	  132971662554.3	516688095126.0	25.2	
2013-04-06-18-21	  -44.0	 -35.5	  156243317590.8	315680111149.8	13.1	
2013-04-06-18-21	  -39.5	  62.0	   47979549324.4	225898685141.5	30.5	
2013-04-06-18-21	 -179.0	  40.0	   91569003701.3	201623152496.9	14.2	
2013-04-06-18-21	  -74.5	 -55.0	   60364474282.4	200116402111.6	21.5	
2013-04-06-18-21	  179.0	  39.5	   47595559921.5	97852564237.5	13.3	
2013-04-06-21-24	  -28.0	  59.5	  157719126902.1	624118968544.3	25.3	
2013-04-06-21-24	 -169.0	  43.5	  122938295567.5	322213778640.1	16.7	
2013-04-06-21-24	  -43.0	 -36.0	  161056646168.1	316162253309.4	12.5	
2013-04-06-21-24	  -74.0	 -55.0	   75987014706.0	265892619961.8	22.3	
2013-04-06-21-24	 -178.5	  40.0	   84695079149.6	171818159474.9	12.9	
2013-04-06-21-24	  -39.5	  62.0	   31923934413.0	139129960640.0	27.7	
2013-04-06-21-24	  179.0	  39.5	   19097918387.4	36564524950.8	12.2	
2013-04-06-21-24	  146.5	  34.0	   10220116577.7	19800465868.0	12.3	
2013-04-07-00-03	  -29.5	  59.5	  155091551311.9	595831904319.3	24.3	
2013-04-07-00-03	 -169.0	  44.0	  226568341946.1	562738993877.3	15.7	
2013-04-07-00-03	  -74.0	 -55.0	   86313078702.1	295709195852.2	21.6	
2013-04-07-00-03	  -42.5	 -36.0	  150993356893.1	287244735000.1	12.0	
2013-04-07-00-03	 -178.5	  40.0	   58932736262.1	111071030766.3	11.8	
2013-04-07-00-03	  147.5	  34.5	   35631059262.1	66792528537.4	11.8	
2013-04-07-00-03	  -49.0	  50.0	   17881706257.3	52655578822.1	18.5	
2013-04-07-00-03	  -39.5	  61.5	    7303390371.8	29034558454.7	24.9	
2013-04-07-00-03	  139.5	  31.0	    7920725793.7	9174976556.5	7.3	
2013-04-07-03-06	 -169.5	  44.0	  322524232931.2	737872312615.0	14.3	
2013-04-07-03-06	  -30.0	  59.5	  143589528877.8	519139244954.3	22.5	
2013-04-07-03-06	  -74.0	 -55.5	   86313078702.1	278039703800.4	20.0	
2013-04-07-03-06	  149.0	  34.5	  121898655098.6	235039769042.7	12.0	
2013-04-07-03-06	  -42.0	 -35.5	  120754467270.7	225879422988.7	11.6	
2013-04-07-03-06	  -49.0	  50.5	   49440471188.6	153121918964.0	19.2	
2013-04-07-03-06	  -15.5	  47.5	   58208294904.3	150515553905.5	16.1	
2013-04-07-03-06	  139.0	  31.0	   63276024560.9	127031745538.0	12.5	
2013-04-07-03-06	  -64.0	  39.0	   11976960065.3	22886955113.9	11.8	
2013-04-07-06-09	 -169.5	  44.0	  340473663268.3	751882988233.3	13.7	
2013-04-07-06-09	  149.5	  34.5	  275294019456.5	543070185784.3	12.2	
2013-04-07-06-09	  -31.0	  59.0	  121731600673.3	419883528136.5	21.3	
2013-04-07-06-09	  140.0	  31.5	  200070987887.1	398107881716.4	12.3	
2013-04-07-06-09	  -74.0	 -55.0	   52808413422.1	163421823141.8	19.1	
2013-04-07-06-09	  -41.0	 -35.5	   80665824627.5	144659892906.9	11.0	
2013-04-07-06-09	  -15.5	  48.5	   51302914981.7	140400294071.2	16.9	
2013-04-07-06-09	  -49.0	  50.0	   43667747165.1	131254688508.3	18.5	
2013-04-07-06-09	  -64.5	  38.5	   12044862307.8	21930944580.7	11.2	
2013-04-07-09-12	  144.5	  33.0	  752390109855.6	1525536522937.6	12.6	
2013-04-07-09-12	 -169.5	  44.0	  269369090593.0	564208368842.6	12.9	
2013-04-07-09-12	  -32.5	  58.0	   95432415285.3	328833839690.1	21.2	
2013-04-07-09-12	  -46.5	 -36.0	   82520052490.3	158134162017.3	11.8	
2013-04-07-09-12	  -49.0	  50.0	   37728371470.7	112213378768.2	18.2	
2013-04-07-09-12	  -16.0	  48.5	   36684019365.7	98464976016.4	16.5	
2013-04-07-09-12	  -39.5	 -35.5	   15145671561.4	26980183292.5	10.9	
2013-04-07-09-12	  -74.5	 -55.0	    8908905277.2	26237734675.1	18.0	
2013-04-07-09-12	  -72.5	 -56.0	    1728508633.7	3058591291.3	10.8	
2013-04-07-09-12	  144.0	  41.5	    2315080699.8	2878986885.7	7.6	
2013-04-07-12-15	  147.5	  34.0	  864404110857.5	1800726644623.2	13.0	
2013-04-07-12-15	  -33.0	  58.0	   75132004116.8	261125018785.5	21.3	
2013-04-07-12-15	  -45.0	 -36.0	  112493728019.5	224847654475.8	12.2	
2013-04-07-12-15	  -49.0	  50.0	   29802089104.4	86921944549.1	17.8	
2013-04-07-12-15	 -166.0	  45.0	   34663063739.8	75101390214.1	13.3	
2013-04-07-12-15	  -16.0	  49.0	   22204437319.2	61393861207.4	16.9	
2013-04-07-12-15	 -173.5	  42.0	   20619134564.2	39479100189.7	11.7	
2013-04-07-12-15	  144.5	  40.5	   18732649138.2	27095108223.1	8.8	
2013-04-07-12-15	  -39.0	 -35.5	    5048557187.1	8811672458.8	10.7	
2013-04-07-12-15	  -64.5	  31.5	    2635577338.4	6084483674.2	14.1	
2013-04-07-15-18	  150.0	  35.0	  919350889793.3	1929901856056.4	13.1	
2013-04-07-15-18	  -63.0	  32.5	  129611844682.4	262395654597.9	12.4	
2013-04-07-15-18	  -44.0	 -36.0	  117590515498.0	228436123523.0	11.9	
2013-04-07-15-18	  -32.5	  58.0	   47223536707.1	152879966890.2	19.8	
2013-04-07-15-18	  -52.0	 -51.0	   48691962035.4	121953029508.2	15.3	
2013-04-07-15-18	  -49.0	  50.5	   25683411330.1	77611485642.9	18.4	
2013-04-07-15-18	  139.5	  30.5	   23746777094.6	36907938657.7	9.5	
2013-04-07-15-18	  -16.5	  49.5	    6001896026.2	18156178821.7	18.4	
2013-04-07-15-18	  -50.5	  52.5	    1881729203.2	9820578691.3	31.8	
2013-04-07-15-18	  -36.0	  55.5	    3501611715.2	9327979100.7	16.2	
2013-04-07-18-21	  150.0	  35.5	 1004042165807.0	2102944112276.5	13.0	
2013-04-07-18-21	  -62.0	  33.5	  195773078541.2	428618627228.1	13.3	
2013-04-07-18-21	  -36.0	  55.0	  106982987948.0	419472560816.2	23.9	
2013-04-07-18-21	  -52.0	 -51.0	  129620573728.4	360567018740.6	16.9	
2013-04-07-18-21	  -42.0	 -36.0	  127878647074.6	244197925103.6	11.6	
2013-04-07-18-21	  -51.0	  52.5	   29911572875.4	104663201300.9	21.3	
2013-04-07-21-24	  149.5	  36.5	  996405279007.0	2061226790930.9	12.8	
2013-04-07-21-24	  -36.5	  55.0	  198334749723.5	779677451695.2	23.9	
2013-04-07-21-24	  -52.0	 -51.5	  185590357684.4	530093924552.6	17.3	
2013-04-07-21-24	  -61.0	  34.0	  225389845566.3	497985748904.8	13.4	
2013-04-07-21-24	  -40.5	 -36.0	  100433976145.9	190640381925.1	11.5	
2013-04-07-21-24	  -51.5	  53.0	   23835989204.8	80771192642.2	20.5	
2013-04-07-21-24	  -56.5	  56.5	    6801762620.4	23412778412.3	20.8	
2013-04-08-00-03	  148.0	  38.0	  940839322960.4	2016632747989.8	13.1	
2013-04-08-00-03	  -37.0	  55.0	  295925328956.1	1057373269503.0	21.7	
2013-04-08-00-03	  -52.0	 -51.5	  219425687583.8	651424272814.8	17.9	
2013-04-08-00-03	  -60.0	  34.5	  201691479873.6	450305982380.0	13.4	
2013-04-08-00-03	  -39.5	 -35.5	   62845874279.5	119572006579.7	11.4	
2013-04-08-00-03	  -56.5	  56.5	   10168806487.0	35551980984.1	21.0	
2013-04-08-00-03	  -52.0	  54.0	    3633780356.5	10274957626.6	16.9	
2013-04-08-03-06	  147.0	  39.5	  768144442144.4	1834994532442.6	14.5	
2013-04-08-03-06	  -38.0	  55.5	  366794591954.9	1231045009184.1	20.2	
2013-04-08-03-06	  -52.5	 -51.5	  241801967425.0	710598161636.5	17.6	
2013-04-08-03-06	  -59.5	  35.0	  159880239467.9	369703346236.5	13.8	
2013-04-08-03-06	 -167.0	  49.5	   94097879700.5	243991535572.4	15.4	
2013-04-08-03-06	  158.5	  39.5	   31004976072.6	60086381908.3	11.5	
2013-04-08-03-06	  -39.5	 -35.5	   27696432548.4	49642851958.7	10.6	
2013-04-08-03-06	  -57.0	  56.5	   13490476559.6	46932431857.2	20.7	
2013-04-08-03-06	 -170.5	 -46.0	    4294486855.3	11050610421.4	15.3	
2013-04-08-06-09	  147.5	  40.0	  622843496266.3	1648072772917.9	15.9	
2013-04-08-06-09	  -37.5	  55.5	  384503741750.0	1218772304436.0	18.9	
2013-04-08-06-09	  -52.5	 -52.0	  231610277269.9	668964985695.9	17.2	
2013-04-08-06-09	 -166.5	  49.0	  151116487145.2	403374825224.1	15.8	
2013-04-08-06-09	  -58.5	  35.0	  138943016315.9	316719308923.7	13.5	
2013-04-08-06-09	  159.5	  39.0	   80950103961.0	153269484015.7	11.2	
2013-04-08-06-09	 -170.0	 -47.0	   29708561664.0	72333552712.1	14.4	
2013-04-08-06-09	  -57.0	  57.0	    6688713939.2	24006724661.5	21.2	
2013-04-08-09-12	  148.0	  40.0	  617186015990.4	1613991941344.0	15.6	
2013-04-08-09-12	  -35.0	  56.0	  336825848047.3	1110478161450.1	19.5	
2013-04-08-09-12	  -53.0	 -52.0	  211724526093.9	611087262328.2	17.0	
2013-04-08-09-12	 -165.5	  49.0	  212237953662.8	563599307601.3	15.6	
2013-04-08-09-12	  159.5	  41.0	  125693141801.5	256769306227.5	12.0	
2013-04-08-09-12	  -58.0	  35.0	  110835145533.3	246330547159.7	13.0	
2013-04-08-09-12	 -169.5	 -47.5	    8432279431.1	20186409004.9	14.0	
2013-04-08-12-15	  149.5	  40.0	  837207547833.4	2020777546893.0	14.3	
2013-04-08-12-15	  -34.5	  56.5	  266049046461.3	1000214171797.3	22.1	
2013-04-08-12-15	 -164.0	  49.0	  248600072645.5	652258332936.5	15.4	
2013-04-08-12-15	  -53.0	 -52.0	  202241207104.1	580244259146.5	16.8	
2013-04-08-12-15	   52.0	 -63.0	   51045579286.3	181856314742.6	20.8	
2013-04-08-12-15	  -57.0	  35.5	   77768817538.9	168216202629.6	12.6	
2013-04-08-12-15	  -47.5	 -48.0	   12410007193.1	23102865997.9	10.8	
2013-04-08-15-18	  150.0	  40.5	  876768237957.9	2070431437543.5	14.0	
2013-04-08-15-18	  -35.0	  56.0	  265035755816.6	1066707948557.4	23.6	
2013-04-08-15-18	 -162.0	  49.0	  258978544265.5	671817481497.2	15.1	
2013-04-08-15-18	  -52.5	 -52.0	  202546868344.3	565270286807.4	16.2	
2013-04-08-15-18	   52.0	 -63.0	   96690448735.7	368542133086.6	22.1	
2013-04-08-15-18	  -56.0	  35.5	   52544279911.7	109062482387.2	12.0	
2013-04-08-15-18	  -47.5	 -48.0	   14478341725.3	27327893775.7	10.9	
2013-04-08-15-18	   77.0	 -54.5	    5406886201.7	17620440454.1	18.8	
2013-04-08-18-21	  151.0	  40.5	  865247531850.0	1982911399771.1	13.5	
2013-04-08-18-21	  -35.5	  55.5	  266915289400.7	1075589101948.8	23.6	
2013-04-08-18-21	  -52.0	 -52.0	  195494711184.3	520253021662.6	15.5	
2013-04-08-18-21	   51.0	 -63.0	  134535467790.3	507682147854.2	21.9	
2013-04-08-18-21	 -159.5	  49.5	  155903099624.0	401058509879.6	14.9	
2013-04-08-18-21	 -166.5	  47.5	   60398323701.7	133542317590.6	12.8	
2013-04-08-18-21	   77.5	 -54.5	   21605104794.7	69836407888.1	18.7	
2013-04-08-18-21	  -54.5	  36.0	   14956556848.2	28337968501.2	10.9	
2013-04-08-18-21	  -48.0	 -48.5	   14478341725.3	27103881641.3	10.8	
2013-04-08-21-24	  152.5	  41.5	  798666808355.3	1745908114869.6	12.9	
2013-04-08-21-24	  -35.5	  55.5	  236381486698.7	927535227702.4	23.0	
2013-04-08-21-24	   50.5	 -63.0	  155844397351.7	563961194971.6	21.1	
2013-04-08-21-24	  -51.5	 -51.5	  147811433360.1	382111143305.9	15.1	
2013-04-08-21-24	 -159.0	  49.5	  122522694371.7	290101409293.9	13.8	
2013-04-08-21-24	   77.5	 -55.0	   26769957386.1	81836478278.0	17.8	
2013-04-08-21-24	  -52.0	  36.5	   14860287140.8	29670209236.6	11.6	
2013-04-08-21-24	  -48.0	 -48.5	   14478341725.3	26623156526.8	10.7	
2013-04-09-00-03	  154.0	  42.0	  639975212796.9	1350483152994.5	12.5	
2013-04-09-00-03	  -35.5	  55.0	  193123590149.3	715614684872.0	21.8	
2013-04-09-00-03	   50.0	 -63.0	  134845560986.3	467838653708.2	20.3	
2013-04-09-00-03	  -51.5	 -51.5	   88403037972.8	214461132947.8	14.2	
2013-04-09-00-03	 -158.0	  49.0	   80476493245.0	178048313097.2	12.9	
2013-04-09-00-03	 -176.5	 -53.5	   51780664339.2	134004070933.3	15.1	
2013-04-09-00-03	   77.0	 -55.0	   17684830140.2	51653815512.2	17.1	
2013-04-09-00-03	  -47.5	 -48.0	   10341672660.9	18375654348.0	10.4	
2013-04-09-00-03	   81.0	 -60.0	    4683220505.2	13664546188.2	17.0	
2013-04-09-03-06	  155.5	  42.5	  506371648232.3	1052446734444.3	12.3	
2013-04-09-03-06	  -35.5	  55.0	  148649776995.0	523107644257.9	20.8	
2013-04-09-03-06	   50.5	 -63.0	  117622694113.2	396679356518.4	19.9	
2013-04-09-03-06	 -175.5	 -53.5	   87012814416.7	232627085866.3	15.7	
2013-04-09-03-06	   81.0	 -60.0	   35963852620.5	109373900043.3	17.9	
2013-04-09-03-06	  -52.0	 -51.5	   34677391734.2	87758113402.5	14.9	
2013-04-09-03-06	 -156.5	  49.5	   32078127138.7	69378048867.6	12.7	
2013-04-09-03-06	   77.5	 -57.0	    3367043498.2	8917062766.8	15.5	
2013-04-09-06-09	  156.5	  43.0	  441689682747.5	918176944233.1	12.4	
2013-04-09-06-09	  -35.5	  55.0	  107159206968.8	374753599438.8	20.7	
2013-04-09-06-09	   50.5	 -63.0	   97639802775.8	318689390604.4	19.3	
2013-04-09-06-09	   80.0	 -59.0	   68926489247.0	195737829259.0	16.8	
2013-04-09-06-09	 -174.5	 -53.5	   51543914622.5	123824594064.3	14.2	
2013-04-09-06-09	  -52.0	 -51.5	    5835836142.5	13750003873.6	13.9	
2013-04-09-09-12	  156.5	  43.5	  356124927850.5	750456728179.0	12.6	
2013-04-09-09-12	  -35.5	  54.5	   88505245450.7	300010634027.4	20.2	
2013-04-09-09-12	 -157.5	  46.0	  119501280045.5	263763538956.9	13.1	
2013-04-09-09-12	   50.0	 -62.5	   79993433462.9	252407665019.9	18.8	
2013-04-09-09-12	   79.5	 -58.5	   56355835954.8	156990199842.6	16.5	
2013-04-09-09-12	   83.0	 -60.0	    3091078296.4	4908252199.5	9.4	
2013-04-09-12-15	  156.5	  43.5	  276588757625.9	592236964997.1	12.9	
2013-04-09-12-15	 -157.0	  46.0	  214992071770.1	489582438127.4	13.7	
2013-04-09-12-15	  -35.5	  54.5	   67564466969.1	228082333584.4	20.2	
2013-04-09-12-15	   49.0	 -62.0	   61537289633.7	189019473731.4	18.4	
2013-04-09-12-15	  122.5	 -57.5	    8394921479.9	24644743305.7	17.5	
2013-04-09-12-15	   81.0	 -58.5	    1615083544.9	3395828930.1	12.5	
2013-04-09-15-18	 -156.5	  46.0	  249324141649.0	556977094617.5	13.5	
2013-04-09-15-18	  156.5	  43.5	  229719348833.6	494173114416.2	13.0	
2013-04-09-15-18	  -35.5	  54.0	   51698552017.6	169312105053.0	19.7	
2013-04-09-15-18	   49.5	 -62.0	   23289275906.9	66284225343.6	17.1	
2013-04-09-15-18	  168.5	  41.5	    4630161399.5	9784141236.4	12.7	
2013-04-09-18-21	 -156.5	  45.5	  193583839223.4	420831952155.8	13.2	
2013-04-09-18-21	  156.0	  43.5	  180868044952.4	382273719875.3	12.9	
2013-04-09-18-21	  -35.0	  54.0	   39355879415.5	125956190573.7	19.4	
2013-04-09-18-21	  169.0	  41.0	   18538078633.1	41353105296.8	13.5	
2013-04-09-21-24	  155.5	  43.5	  140475958428.9	290986592306.8	12.7	
2013-04-09-21-24	 -156.0	  45.0	  112625098337.7	237990517980.2	13.0	
2013-04-09-21-24	  171.0	  40.5	   44376751388.0	100334269516.1	13.9	
2013-04-09-21-24	  -35.0	  54.0	   23224154161.7	72711764969.3	19.2	
2013-04-10-00-03	  172.0	  40.5	  114988052450.9	248969947390.8	13.4	
2013-04-10-00-03	  155.5	  43.5	   84916569157.0	173807518442.0	12.7	
2013-04-10-00-03	  -35.0	  54.0	   12564714600.4	38726720707.7	19.1	
2013-04-10-00-03	 -155.5	  45.0	   17332192011.1	32965845539.2	11.8	
2013-04-10-03-06	  174.0	  39.5	  198100378026.1	446320305770.4	14.1	
2013-04-10-03-06	  155.5	  43.0	   20197840640.5	40458349435.5	12.5	
2013-04-10-03-06	  166.0	  40.5	   18785828370.1	33525961107.1	11.1	
2013-04-10-06-09	  175.5	  39.5	  213096125302.3	513528418629.4	15.1	
2013-04-10-06-09	  168.5	  39.5	   99390990752.5	193592139180.5	12.2	
2013-04-10-09-12	  175.5	  39.5	  251631266569.0	590581886313.4	14.8	
2013-04-10-09-12	  168.5	  39.5	  108772227733.6	217652011123.2	12.6	
2013-04-10-12-15	  174.5	  39.5	  384218846677.8	825692345787.9	13.7	
2013-04-10-12-15	 -180.0	  39.5	   16661022006.5	34780784468.9	13.1	
2013-04-10-12-15	  151.0	  40.5	   16417925132.2	33012972085.0	12.7	
2013-04-10-15-18	  174.0	  39.5	  356207105393.9	748376969013.6	13.4	
2013-04-10-15-18	 -179.5	  39.5	   47526931210.5	116201156076.8	15.5	
2013-04-10-15-18	  151.5	  40.5	   28046507862.8	57635824983.5	13.0	
2013-04-10-18-21	  171.0	  39.5	  194602106997.8	408593070269.6	13.4	
2013-04-10-18-21	  178.5	  39.5	   92992771939.4	205238633673.8	14.0	
2013-04-10-18-21	 -179.5	  39.5	   66536618026.7	151242150992.0	14.5	
2013-04-10-18-21	  151.0	  40.5	   16365102594.0	33469682037.6	13.0	
2013-04-10-21-24	  171.0	  39.5	  175664143062.8	370671046829.0	13.5	
2013-04-10-21-24	  178.5	  39.0	   74236884834.5	158780372519.0	13.7	
2013-04-10-21-24	 -179.5	  39.5	   64134399235.7	130107765130.1	13.0	
2013-04-10-21-24	   39.0	 -31.0	   31904174486.1	56720104914.8	11.3	
2013-04-10-21-24	   58.0	 -12.5	    6041337392.7	12176980055.8	12.9	
2013-04-11-00-03	  170.5	  39.5	  156469271243.8	330288950478.4	13.6	
2013-04-11-00-03	   40.0	 -31.0	   61128561884.5	116197299338.6	12.2	
2013-04-11-00-03	  178.5	  38.5	   48141646518.2	96724660218.6	12.9	
2013-04-11-00-03	 -179.5	  39.5	   47579575954.6	85910114515.1	11.6	
2013-04-11-00-03	   57.5	 -12.5	   21135865971.5	47785725588.2	14.5	
2013-04-11-00-03	  -77.5	 -47.0	   12707280420.3	28167431319.1	14.2	
2013-04-11-00-03	   45.5	 -30.5	    2663362781.0	4085993361.9	9.8	
2013-04-11-03-06	  170.0	  39.5	  139811689415.1	285334804749.4	13.2	
2013-04-11-03-06	 -176.5	  40.5	   60792541516.9	119110405296.5	12.6	
2013-04-11-03-06	  -77.5	 -47.0	   33865038650.5	76715624670.2	14.6	
2013-04-11-03-06	   40.0	 -30.5	   42611371387.9	75216548818.8	11.3	
2013-04-11-03-06	   45.0	 -30.5	   45396213791.5	74030513268.6	10.5	
2013-04-11-03-06	   57.5	 -13.0	   33170915886.7	73113347409.0	14.2	
2013-04-11-03-06	  179.5	  38.5	    4821321758.4	8431739948.5	11.2	
2013-04-11-06-09	  169.0	  39.5	   96989503404.6	191425915230.5	12.7	
2013-04-11-06-09	   45.0	 -30.5	   90827291626.2	161376107397.8	11.5	
2013-04-11-06-09	 -177.0	  40.5	   79401050569.4	157409153271.4	12.8	
2013-04-11-06-09	  -77.0	 -47.0	   42452871530.9	100674836346.7	15.3	
2013-04-11-06-09	   58.0	 -13.0	   42188388696.5	83645959263.7	12.8	
2013-04-11-06-09	   60.0	 -14.0	    6004930870.3	7202410661.8	7.7	
2013-04-11-09-12	   45.0	 -30.5	  114585428014.2	219135718377.1	12.4	
2013-04-11-09-12	   58.5	 -13.5	   78261480598.1	138186643337.4	11.4	
2013-04-11-09-12	 -176.5	  41.0	   69947753727.4	131565334035.0	12.2	
2013-04-11-09-12	  -77.0	 -47.0	   44619436848.7	105624452180.2	15.3	
2013-04-11-09-12	  168.5	  40.0	   54232687958.9	103271812316.9	12.3	
2013-04-11-09-12	 -144.5	 -37.5	    2452316933.9	5536344080.8	14.6	
2013-04-11-12-15	   45.0	 -31.0	  125195687329.2	250713343435.3	13.0	
2013-04-11-12-15	   59.0	 -13.5	   96245364670.2	164479171432.2	11.1	
2013-04-11-12-15	  -77.0	 -46.5	   29923052847.7	70882918290.3	15.3	
2013-04-11-12-15	 -173.5	  41.0	   25501106407.7	49912135492.1	12.7	
2013-04-11-12-15	  168.5	  40.0	   18890579685.6	34581702419.1	11.9	
2013-04-11-12-15	 -177.5	  41.0	   11628760524.8	22587006561.7	12.6	
2013-04-11-12-15	 -179.0	  41.0	    2332866375.1	3432633449.2	9.5	
2013-04-11-15-18	   45.0	 -31.0	  140887367184.3	285316071228.7	13.2	
2013-04-11-15-18	   60.0	 -13.5	  114212763451.3	198583429151.8	11.3	
2013-04-11-15-18	  159.5	  39.5	   63963735497.8	122570027413.0	12.4	
2013-04-11-15-18	 -173.0	  41.0	   27798225112.0	55399653565.6	12.9	
2013-04-11-15-18	 -180.0	  41.5	   23114179199.9	46800329939.3	13.1	
2013-04-11-15-18	  -77.5	 -46.5	   17196450537.2	36657135593.2	13.8	
2013-04-11-18-21	   45.0	 -31.0	  159401989154.7	327938361245.9	13.4	
2013-04-11-18-21	   60.0	 -14.0	  132128192369.0	239850343275.7	11.8	
2013-04-11-18-21	  160.5	  39.5	  111313862348.7	219446026771.2	12.8	
2013-04-11-18-21	 -180.0	  41.5	   20673543799.7	44719811556.5	14.0	
2013-04-11-18-21	   47.0	 -27.5	   16487969931.8	23422926897.3	9.2	
2013-04-11-18-21	  -77.0	 -46.0	    4313808745.4	8832846074.9	13.3	
2013-04-11-21-24	   45.0	 -30.5	  237570071282.2	469495934192.9	12.9	
2013-04-11-21-24	   60.5	 -14.5	  135080972641.1	256113348627.4	12.3	
2013-04-11-21-24	  161.0	  40.0	  120538261156.8	237508275000.7	12.8	
2013-04-11-21-24	 -180.0	  42.0	   25194886728.2	55806066008.0	14.4	
2013-04-11-21-24	  177.5	  42.0	    4594237408.5	7117618835.6	10.1	
2013-04-11-21-24	  179.5	  42.0	    2297118704.3	3068403606.4	8.7	
2013-04-12-00-03	   45.5	 -30.0	  269824265257.2	552326081361.8	13.4	
2013-04-12-00-03	   60.5	 -14.5	  150044300957.6	277741777570.9	12.1	
2013-04-12-00-03	  161.5	  40.0	  113317061962.3	218738618657.2	12.6	
2013-04-12-00-03	 -180.0	  42.0	   34273847558.5	75522074727.6	14.3	
2013-04-12-00-03	  177.0	  42.0	   22916601671.2	46857562380.0	13.3	
2013-04-12-00-03	   45.5	 -45.5	   10890297015.3	18654746946.6	11.1	
2013-04-12-00-03	  179.5	  42.0	    4576100566.8	8046900459.9	11.4	
2013-04-12-03-06	   46.0	 -29.5	  281732664597.1	604880193827.8	14.0	
2013-04-12-03-06	   60.5	 -14.5	  152959077508.2	283301800215.5	12.1	
2013-04-12-03-06	  162.5	  40.0	  117653286031.2	224169270586.5	12.4	
2013-04-12-03-06	 -180.0	  42.0	   38758225156.9	87179606805.7	14.6	
2013-04-12-03-06	  177.5	  42.0	   43390818927.2	84845126793.3	12.7	
2013-04-12-03-06	   45.5	 -45.5	   19594871904.0	34430376598.5	11.4	
2013-04-12-06-09	   46.0	 -29.0	  269427188733.8	602215886616.1	14.6	
2013-04-12-06-09	   60.5	 -14.5	  134926194853.1	250759142498.8	12.1	
2013-04-12-06-09	  163.5	  40.0	  101028914668.5	196767800407.6	12.7	
2013-04-12-06-09	 -180.0	  42.5	   50042068238.9	113028954747.3	14.7	
2013-04-12-06-09	  177.5	  42.0	   50099420749.9	97514034032.3	12.6	
2013-04-12-06-09	   45.5	 -45.5	   15242584459.7	26895110887.9	11.4	
2013-04-12-06-09	 -176.0	  42.5	    6800324791.1	14483193261.7	13.8	
2013-04-12-06-09	   45.0	 -34.0	    5125238958.0	4754711696.8	6.0	
2013-04-12-09-12	   46.0	 -28.5	  283174837934.1	647844627304.0	14.9	
2013-04-12-09-12	   60.5	 -14.5	  113883285538.5	210848042589.9	12.0	
2013-04-12-09-12	 -180.0	  42.5	   54507792563.5	122843644167.9	14.6	
2013-04-12-09-12	  165.5	  40.5	   49304094446.2	96682763250.1	12.7	
2013-04-12-09-12	  178.5	  42.5	   43189408415.5	80352045090.5	12.1	
2013-04-12-09-12	  -37.5	  48.5	   14276631082.4	32780764676.9	14.9	
2013-04-12-09-12	  162.0	  40.0	    9436754988.5	18598282615.6	12.8	
2013-04-12-09-12	 -175.5	  43.5	    4465724324.6	9231727341.3	13.4	
2013-04-12-09-12	   46.0	 -45.0	    2185722126.6	3662426780.8	10.9	
2013-04-12-12-15	   46.0	 -28.5	  291668499630.4	691592242677.4	15.5	
2013-04-12-12-15	   60.5	 -14.5	  116789595036.1	208366138486.6	11.6	
2013-04-12-12-15	 -180.0	  42.5	   49931691996.7	111720253753.2	14.5	
2013-04-12-12-15	  166.0	  40.5	   56319944759.0	106244532478.6	12.2	
2013-04-12-12-15	  178.5	  42.5	   40910426552.9	76651961416.6	12.1	
2013-04-12-12-15	 -176.0	  43.5	   11136161397.8	22298179125.8	13.0	
2013-04-12-15-18	   46.0	 -29.0	  294494499251.8	715448792209.9	15.8	
2013-04-12-15-18	   60.0	 -14.5	   83787884791.3	153241596288.8	11.8	
2013-04-12-15-18	  -41.5	  49.5	   50184614897.5	139031163861.6	17.9	
2013-04-12-15-18	  166.5	  40.5	   60915071875.0	109867797465.1	11.7	
2013-04-12-15-18	 -180.0	  42.5	   36223606868.5	79546692037.0	14.2	
2013-04-12-15-18	  178.5	  42.5	   20400456283.1	40342588831.5	12.8	
2013-04-12-15-18	 -176.0	  44.0	    8893972598.6	17497849129.2	12.7	
2013-04-12-15-18	   40.0	 -44.0	    2223535157.0	4759988012.1	13.8	
2013-04-12-18-21	   46.0	 -29.0	  289121198634.0	712123061681.7	16.0	
2013-04-12-18-21	   60.0	 -15.0	   71735453060.5	119806493499.5	10.8	
2013-04-12-18-21	  167.0	  40.5	   49286669517.9	85114987426.5	11.2	
2013-04-12-18-21	  -41.5	  49.5	   26076384033.8	68263282742.9	16.9	
2013-04-12-18-21	 -179.5	  42.5	   34000071343.1	68006403108.4	12.9	
2013-04-12-18-21	   39.5	 -44.5	   28829822470.1	56005020434.6	12.5	
2013-04-12-18-21	 -175.5	  44.0	    4428248274.0	9359994613.4	13.6	
2013-04-12-18-21	  179.5	  42.5	    4539653326.8	9125335813.7	13.0	
2013-04-12-21-24	   46.0	 -29.0	  283745645650.5	690609921287.6	15.8	
2013-04-12-21-24	  -56.0	 -44.0	   89218435481.3	231599823083.3	16.8	
2013-04-12-21-24	   40.5	 -43.5	   58141364357.4	119228765251.2	13.2	
2013-04-12-21-24	   59.5	 -15.0	   59697666405.6	88436492163.0	9.5	
2013-04-12-21-24	  167.5	  40.0	   35271855647.9	60479402152.8	11.0	
2013-04-12-21-24	 -180.0	  42.5	   11321495452.8	20251049578.3	11.5	
2013-04-12-21-24	 -175.5	  44.0	    4428248274.0	9302180925.1	13.5	
2013-04-12-21-24	   42.0	 -41.0	    2332866375.1	5273045979.5	14.6	
2013-04-13-00-03	  -56.0	 -44.5	  212730756746.4	659894370381.4	20.0	
2013-04-13-00-03	   46.0	 -29.0	  272824337841.6	641827469047.9	15.2	
2013-04-13-00-03	   40.5	 -43.0	   76609302753.2	162133693470.3	13.6	
2013-04-13-00-03	   59.0	 -16.0	   35742293522.1	59048115457.1	10.6	
2013-04-13-00-03	  168.0	  40.0	   21187872130.7	35585219510.2	10.8	
2013-04-13-00-03	  -53.0	 -39.5	    4787369900.2	9664094237.2	12.9	
2013-04-13-00-03	 -175.5	  44.0	    2204712748.5	4449178628.0	12.9	
2013-04-13-03-06	  -55.5	 -44.0	  401830560141.4	1272976449221.2	20.4	
2013-04-13-03-06	   46.0	 -29.0	  300302627702.1	659907193914.7	14.0	
2013-04-13-03-06	   41.0	 -42.5	   86252502682.5	175130958110.6	12.9	
2013-04-13-03-06	   59.0	 -16.0	   17835104302.0	35496523500.6	12.6	
2013-04-13-03-06	  168.5	  40.5	    9366324569.1	15318563838.8	10.4	
2013-04-13-06-09	  -54.0	 -44.0	  571846524416.0	1894867287006.1	21.3	
2013-04-13-06-09	   46.0	 -30.5	  306313734200.2	660807501941.7	13.6	
2013-04-13-06-09	   41.5	 -42.0	   84883121755.1	176548691026.2	13.1	
2013-04-13-06-09	 -163.0	  29.0	   26876192775.8	43434066930.1	10.1	
2013-04-13-06-09	  -53.0	 -50.0	    7926736340.1	19191191092.6	15.2	
2013-04-13-06-09	   59.5	 -16.0	    2971334791.8	3547086051.3	7.5	
2013-04-13-09-12	  -53.5	 -43.5	  708700411105.7	2375273701563.5	21.3	
2013-04-13-09-12	   45.5	 -31.0	  323127935505.9	668668538176.6	12.9	
2013-04-13-09-12	   42.0	 -41.0	  127795251503.3	264768842690.6	12.8	
2013-04-13-09-12	  -30.0	  51.0	   73095007777.3	241438456894.1	20.5	
2013-04-13-09-12	  -52.5	 -50.0	   57616359720.3	148130093868.9	15.9	
2013-04-13-09-12	  -35.0	  53.5	   49226174196.5	146308905957.6	18.4	
2013-04-13-09-12	 -163.5	  29.5	   32243482110.2	51394724735.8	9.9	
2013-04-13-09-12	  175.0	  43.5	   17918515902.5	38324779332.9	13.2	
2013-04-13-09-12	   48.0	 -39.0	    9642641674.3	22874593461.4	14.7	
2013-04-13-09-12	   49.0	 -56.5	    6869177725.3	20231244166.4	18.2	
2013-04-13-09-12	   46.5	 -39.5	    2385151477.6	4091586812.9	10.6	
2013-04-13-12-15	  -53.0	 -43.5	  799157514758.1	2668285284069.6	21.0	
2013-04-13-12-15	   45.0	 -34.5	  579199348736.1	1245794413655.3	13.3	
2013-04-13-12-15	  -31.0	  52.0	  268515345013.5	856331410641.6	19.6	
2013-04-13-12-15	  -52.5	 -50.5	   83028067380.0	223903316323.9	16.5	
2013-04-13-12-15	   50.5	 -56.0	   22581438768.7	59449195283.9	16.0	
2013-04-13-12-15	  175.0	  43.5	   24626088914.4	49724151684.3	12.3	
2013-04-13-15-18	  -52.0	 -43.5	  862615433196.1	2810657651285.7	20.2	
2013-04-13-15-18	   44.5	 -35.5	  668825933352.7	1458166143163.8	13.3	
2013-04-13-15-18	  -32.0	  52.5	  416523401525.6	1427159234332.2	20.9	
2013-04-13-15-18	  -52.0	 -50.5	  115947578525.0	338029206031.4	17.5	
2013-04-13-15-18	  175.0	  43.0	   22402553389.0	43475325416.4	11.6	
2013-04-13-18-21	  -51.5	 -43.0	  965101574743.4	2988958950538.0	18.8	
2013-04-13-18-21	  -30.5	  51.5	  583518836759.7	2228863108178.8	23.0	
2013-04-13-18-21	   44.5	 -36.0	  722109950811.5	1619230672031.2	13.4	
2013-04-13-18-21	  -52.0	 -51.0	  149819617288.9	450202850430.1	17.7	
2013-04-13-18-21	  164.0	 -31.5	   39797519065.5	80205545836.2	11.8	
2013-04-13-18-21	  -19.5	  54.0	   17949572756.6	59266506969.9	19.4	
2013-04-13-18-21	  175.0	  43.0	   15732116315.8	31052661993.6	11.6	
2013-04-13-21-24	  -29.5	  51.5	  594926181711.1	2842519141328.2	28.3	
2013-04-13-21-24	  -51.5	 -43.0	  772986648170.1	2576652561556.4	19.7	
2013-04-13-21-24	   44.0	 -38.0	  309439881970.4	824531287967.7	15.4	
2013-04-13-21-24	  -52.0	 -51.0	   99218384544.9	370478703153.0	21.5	
2013-04-13-21-24	   45.0	 -31.0	   95730581997.0	239273096749.4	14.4	
2013-04-13-21-24	  164.0	 -31.5	   47606702914.0	120808534196.7	14.6	
2013-04-14-00-03	  -28.0	  52.5	  619813932152.9	3394815713035.1	32.1	
2013-04-14-00-03	  -51.5	 -43.5	  705527921162.4	2388433991734.8	19.6	
2013-04-14-00-03	   44.0	 -37.5	  338741183653.9	914001630006.3	15.4	
2013-04-14-00-03	  -52.0	 -51.0	  110614677335.3	405784771454.9	20.8	
2013-04-14-00-03	   45.0	 -31.0	   87699936698.6	210956920209.6	13.6	
2013-04-14-00-03	  164.5	 -31.5	   73903289836.5	194141618142.4	14.9	
2013-04-14-03-06	  -25.0	  54.5	  588112189251.1	3335424328861.6	32.9	
2013-04-14-03-06	  -51.5	 -43.5	  701585019858.1	2357460155047.5	19.3	
2013-04-14-03-06	   44.5	 -37.0	  408465220249.2	1071650408926.3	14.8	
2013-04-14-03-06	  -51.5	 -51.0	  120169994464.8	424079912362.4	19.8	
2013-04-14-03-06	  164.5	 -31.5	   89658977413.9	229327522719.8	14.3	
2013-04-14-03-06	  161.0	 -33.5	    2577606140.7	4732797586.5	10.3	
2013-04-14-06-09	  -23.5	  55.0	  538788501709.6	2873841758436.4	30.7	
2013-04-14-06-09	  -52.0	 -43.5	  680970654597.9	2305367509747.8	19.3	
2013-04-14-06-09	   44.0	 -37.0	  309556936269.9	820698319592.1	14.9	
2013-04-14-06-09	  -51.5	 -51.5	  112159419265.7	387230379210.4	19.3	
2013-04-14-06-09	  164.0	 -32.5	   60330791602.7	154320451808.8	14.3	
2013-04-14-06-09	   47.5	 -39.0	   38586167071.0	95868754884.9	13.9	
2013-04-14-06-09	  160.5	 -34.5	   25595053737.1	77169106785.8	16.8	
2013-04-14-06-09	  161.0	 -30.0	   24172264379.9	57741755187.4	13.3	
2013-04-14-06-09	  167.0	 -31.5	    2635577338.4	2285275695.7	4.8	
2013-04-14-09-12	  -52.0	 -44.0	  678599624763.0	2272931756286.9	19.1	
2013-04-14-09-12	  -23.0	  55.0	  440027109935.0	2206077448158.5	28.6	
2013-04-14-09-12	   43.5	 -38.0	  217436432187.2	594515544095.8	15.3	
2013-04-14-09-12	  -52.0	 -51.5	  100320951600.6	338899299935.0	18.9	
2013-04-14-09-12	  160.5	 -34.5	   48444345874.3	155776604350.8	17.9	
2013-04-14-09-12	  161.0	 -30.0	   45666143574.1	100004121153.2	12.2	
2013-04-14-09-12	  164.0	 -33.0	   39147017211.7	89743529304.4	12.8	
2013-04-14-09-12	   45.5	 -31.5	   29129672882.8	59239968958.3	11.3	
2013-04-14-09-12	   48.0	 -39.0	   19335567944.9	47195155172.6	13.6	
2013-04-14-09-12	  -40.0	 -36.0	   10034458255.7	22664891064.6	12.6	
2013-04-14-12-15	  -51.5	 -44.0	  950523588170.5	2701109940856.1	16.2	
2013-04-14-12-15	  -22.5	  55.0	  480544267522.2	1996329453441.6	23.5	
2013-04-14-12-15	   44.0	 -37.5	  531895325279.9	1148026915212.2	12.1	
2013-04-14-12-15	  165.0	 -32.5	  296284057224.3	574818219164.6	10.8	
2013-04-14-12-15	  -52.5	 -52.0	  170561515646.6	500175819551.4	16.3	
2013-04-14-12-15	  -39.5	 -36.0	  175279710372.2	356280195689.2	11.3	
2013-04-14-12-15	  161.0	 -35.0	   89058777659.5	226351237518.7	14.1	
2013-04-14-12-15	  173.0	  43.5	   98735562251.5	226337798556.1	12.7	
2013-04-14-12-15	  -30.0	  51.5	   80763136226.8	208695708358.6	14.4	
2013-04-14-12-15	  -34.5	  53.5	   36532471719.0	100338873187.7	15.2	
2013-04-14-12-15	  -54.5	  42.0	   20546936889.8	41595602502.2	11.2	
2013-04-14-12-15	  177.0	  41.5	    9260146478.9	19589195907.2	11.7	
2013-04-14-15-18	  -51.5	 -44.0	  926982837601.8	2528456157550.9	15.5	
2013-04-14-15-18	  -20.0	  56.5	  525678535868.4	2216530772381.5	23.8	
2013-04-14-15-18	   43.5	 -38.0	  369270179650.6	790249255091.4	11.9	
2013-04-14-15-18	  166.5	 -33.5	  278720067753.4	571243038502.0	11.4	
2013-04-14-15-18	  173.5	  43.5	  245421264470.6	559661651159.5	12.7	
2013-04-14-15-18	  -53.0	 -52.0	  168384004475.8	493019946816.8	16.2	
2013-04-14-15-18	  -38.5	 -36.5	  191815230555.9	381847195971.9	11.0	
2013-04-14-15-18	  161.0	 -35.0	   81157623036.2	206914915287.7	14.1	
2013-04-14-15-18	   48.0	 -38.5	   55652928135.3	122198575067.6	12.1	
2013-04-14-15-18	  -31.0	  62.0	   27332694355.3	112882735185.6	22.8	
2013-04-14-15-18	  -30.5	  51.0	   28924971798.2	80562094236.5	15.4	
2013-04-14-15-18	  -34.5	  53.5	   29069551021.2	79307428215.4	15.1	
2013-04-14-15-18	  158.0	 -60.0	   11004828112.4	36776702508.7	18.4	
2013-04-14-15-18	  -54.5	  42.0	   13728301700.4	28900809218.6	11.6	
2013-04-14-18-21	  -50.5	 -43.5	 1063881285391.5	2667420005049.6	14.2	
2013-04-14-18-21	  -19.0	  58.5	  497681050079.5	2294660961327.7	26.0	
2013-04-14-18-21	  173.5	  43.5	  372427564832.7	941815869140.5	14.1	
2013-04-14-18-21	   43.0	 -39.0	  252338436656.8	558352066259.4	12.2	
2013-04-14-18-21	  -52.5	 -52.0	  162593452401.2	476145684431.7	16.2	
2013-04-14-18-21	  168.0	 -34.5	  171008674836.4	385144612613.6	12.4	
2013-04-14-18-21	  161.5	 -35.0	   70845074893.0	170227471917.9	13.2	
2013-04-14-18-21	  -31.0	  61.5	   33446280365.5	132890663823.5	21.9	
2013-04-14-18-21	  158.0	 -59.5	   28585533361.9	100284914598.5	19.3	
2013-04-14-18-21	  163.0	 -32.0	   45283040378.1	81482959725.2	9.9	
2013-04-14-18-21	  -35.0	  53.5	   19985376862.3	56832105588.4	15.7	
2013-04-14-18-21	   48.5	 -38.5	   19369152239.1	40568335713.9	11.5	
2013-04-14-18-21	   45.5	 -31.5	   15897022103.9	24007989202.0	8.3	
2013-04-14-18-21	  -30.0	  51.0	    9663134610.4	23814897398.9	13.6	
2013-04-14-21-24	  -18.5	  59.0	  546142525080.6	2555449995176.6	26.4	
2013-04-14-21-24	  -51.0	 -44.0	  735761809519.4	1907477010599.8	14.5	
2013-04-14-21-24	  174.0	  44.0	  449199798109.0	1262354354045.6	15.7	
2013-04-14-21-24	  -52.5	 -52.0	  160607430278.1	463677892432.7	15.9	
2013-04-14-21-24	  168.0	 -35.0	  177512962115.5	402457091608.4	12.5	
2013-04-14-21-24	  -37.5	 -37.5	  150493217269.2	290844145894.4	10.7	
2013-04-14-21-24	   41.0	 -41.5	  125895128439.9	276781483048.0	12.1	
2013-04-14-21-24	  162.0	 -35.5	   55405745681.3	130301756691.3	12.9	
2013-04-14-21-24	   44.5	 -35.5	   25148609961.2	49059135642.2	10.7	
2013-04-14-21-24	  157.5	 -58.5	   14535383234.8	47338148265.9	17.9	
2013-04-14-21-24	  -31.0	  61.5	   10181754043.7	35021572695.9	18.9	
2013-04-14-21-24	   44.0	 -37.5	    7373278196.8	18281843229.7	13.6	
2013-04-14-21-24	  -35.0	  54.0	    3611888466.3	9392070716.6	14.3	
2013-04-14-21-24	   45.5	 -34.0	    2562619479.0	3862689210.1	8.3	
2013-04-15-00-03	  -18.5	  59.0	  572841330829.6	2614023926276.9	25.8	
2013-04-15-00-03	  -50.5	 -44.0	  653036020869.6	1635748226984.6	14.0	
2013-04-15-00-03	  174.5	  44.0	  511163779145.5	1528310557045.8	16.7	
2013-04-15-00-03	  -52.5	 -52.0	  143276554496.1	413240034024.5	15.9	
2013-04-15-00-03	  168.0	 -35.5	  169221501515.9	392189987860.0	12.8	
2013-04-15-00-03	   41.0	 -42.0	   80123241219.6	168787443560.6	11.6	
2013-04-15-00-03	  162.5	 -36.0	   55106904733.8	127683307279.0	12.7	
2013-04-15-00-03	  -36.5	 -38.5	   53699164865.1	106177701684.8	10.9	
2013-04-15-00-03	 -179.5	  41.5	   23042332691.8	42176226554.3	10.1	
2013-04-15-03-06	  -18.0	  59.0	  553518110363.2	2358878949853.0	23.9	
2013-04-15-03-06	  175.0	  44.0	  518629640907.9	1633781184688.7	17.6	
2013-04-15-03-06	  -50.0	 -43.5	  573000982295.0	1370260607359.7	13.3	
2013-04-15-03-06	  -52.0	 -52.0	  130216432174.4	363629345441.2	15.4	
2013-04-15-03-06	  168.5	 -36.0	  148235114146.8	345850837643.2	12.8	
2013-04-15-03-06	 -179.5	  41.5	  111616862941.4	231941001632.2	11.4	
2013-04-15-03-06	  -28.5	  44.5	   72975331705.5	190282331293.5	14.3	
2013-04-15-03-06	  163.0	 -37.0	   74278691323.3	164358804014.5	12.1	
2013-04-15-03-06	 -149.5	 -38.5	   26643159785.1	52185994510.2	10.7	
2013-04-15-03-06	   41.5	 -42.0	   18519585466.2	42915431734.8	12.7	
2013-04-15-03-06	 -153.0	 -34.0	   18042849442.9	32362531580.3	9.8	
2013-04-15-03-06	  -36.0	 -39.0	   14514247107.8	26644268683.5	10.1	
2013-04-15-06-09	  -18.0	  58.0	  475908307086.7	1845528142050.1	21.7	
2013-04-15-06-09	  175.5	  44.5	  505592223907.5	1587721026188.7	17.5	
2013-04-15-06-09	  -49.5	 -43.5	  464601155657.4	1077730664052.3	12.9	
2013-04-15-06-09	  166.5	 -37.0	  257849192573.1	615160829268.5	13.2	
2013-04-15-06-09	 -179.0	  41.5	  212709243106.3	493337231507.9	12.8	
2013-04-15-06-09	 -154.0	 -33.5	  155024581889.8	322785480714.3	11.5	
2013-04-15-06-09	  -52.0	 -51.5	  113007238313.4	308731433320.0	15.0	
2013-04-15-06-09	  -28.0	  45.0	  102697804422.9	277956431077.2	14.9	
2013-04-15-06-09	 -149.5	 -39.5	   55163863886.9	113087496178.9	11.3	
2013-04-15-06-09	  -32.0	  57.5	   19678702103.6	63543729344.4	17.7	
2013-04-15-09-12	  176.0	  44.5	  452876245735.7	1382527037900.6	17.0	
2013-04-15-09-12	  -17.5	  57.5	  314166727623.1	1107271898281.9	19.6	
2013-04-15-09-12	  -49.0	 -43.0	  366183115447.8	827211818762.3	12.5	
2013-04-15-09-12	 -179.0	  41.5	  310601265344.6	763196299810.0	13.6	
2013-04-15-09-12	  165.5	 -38.0	  278494126076.1	692806083832.6	13.8	
2013-04-15-09-12	 -154.0	 -34.0	  246032305428.2	563766062845.3	12.7	
2013-04-15-09-12	  -28.0	  45.5	  101755257778.5	272064711287.5	14.8	
2013-04-15-09-12	  -52.0	 -51.5	   88273308150.7	231677616053.0	14.5	
2013-04-15-09-12	 -149.0	 -40.0	   83560367839.9	174910125143.6	11.5	
2013-04-15-09-12	  -31.0	  58.0	   43904222544.6	141006144368.5	17.7	
2013-04-15-09-12	  -24.5	  59.5	   24798177308.2	76206965733.3	16.9	
2013-04-15-09-12	  -91.0	 -29.5	   18858515024.4	29385077225.7	8.6	
2013-04-15-12-15	  176.5	  44.5	  399694544642.2	1129147855469.1	15.8	
2013-04-15-12-15	 -178.5	  41.5	  393436578667.3	993090260889.8	14.1	
2013-04-15-12-15	 -154.0	 -35.0	  307392123467.8	774776185582.6	14.0	
2013-04-15-12-15	  165.0	 -38.5	  267504880466.1	704340354177.9	14.6	
2013-04-15-12-15	  -48.5	 -42.5	  272600817480.7	598150444480.7	12.2	
2013-04-15-12-15	  -15.5	  61.0	   74709561440.5	289325069433.9	21.5	
2013-04-15-12-15	  -18.0	  54.5	   95414526710.4	281580582651.8	16.3	
2013-04-15-12-15	  -30.5	  58.5	   62800472664.8	205028613298.9	18.1	
2013-04-15-12-15	 -148.5	 -40.5	   94847973340.0	197731901868.1	11.5	
2013-04-15-12-15	  -28.0	  46.0	   66730902955.8	170695742318.1	14.2	
2013-04-15-12-15	  -52.0	 -51.5	   57660030744.3	149076261100.8	14.3	
2013-04-15-12-15	  -17.5	  50.0	   23821687004.4	64911311223.9	15.1	
2013-04-15-12-15	  -91.0	 -29.5	   13491226058.5	21548554702.1	8.8	
2013-04-15-15-18	 -178.0	  42.0	  465744481967.0	1197594023936.6	14.4	
2013-04-15-15-18	 -154.0	 -35.5	  355896368822.8	892939519289.0	14.0	
2013-04-15-15-18	  177.0	  44.0	  345201580844.5	878192847581.2	14.2	
2013-04-15-15-18	  165.0	 -38.5	  258715880274.1	684390371198.4	14.8	
2013-04-15-15-18	  -48.5	 -42.0	  182196787857.6	377613306752.8	11.5	
2013-04-15-15-18	  -29.5	  58.5	   68661135866.4	235192741973.4	19.0	
2013-04-15-15-18	 -148.5	 -40.5	   87171668572.3	184165808682.2	11.7	
2013-04-15-15-18	  -15.0	  60.5	   32872551574.8	120821854551.6	20.4	
2013-04-15-15-18	  -52.0	 -51.5	   30955275156.8	86047972843.3	15.4	
2013-04-15-15-18	  -18.5	  50.5	   17674318547.0	42526716174.9	13.3	
2013-04-15-15-18	  -28.0	  45.5	   10813339249.0	27375541360.9	14.0	
2013-04-15-15-18	  -22.0	  56.0	    6824320916.0	16985581776.4	13.8	
2013-04-15-15-18	  -19.5	  54.5	    7135935955.9	14117841380.8	11.0	
2013-04-15-18-21	 -177.5	  42.0	  523197535493.5	1322512336288.2	14.2	
2013-04-15-18-21	 -153.5	 -35.5	  410282258190.0	1002847084063.9	13.7	
2013-04-15-18-21	  165.0	 -39.0	  231297389666.4	620769969786.0	15.0	
2013-04-15-18-21	  178.0	  44.0	  249267577327.8	604528251663.1	13.5	
2013-04-15-18-21	  -29.0	  59.0	   63215110087.6	214228216753.2	18.9	
2013-04-15-18-21	  -48.0	 -41.5	   93009887340.1	183818988252.5	11.0	
2013-04-15-18-21	 -148.0	 -41.0	   79611258665.4	167779452701.0	11.7	
2013-04-15-18-21	  -17.5	  51.5	   27127975583.4	73346978918.5	15.0	
2013-04-15-18-21	  -52.0	 -51.0	    5835836142.5	15177015583.8	14.4	
2013-04-15-18-21	  -15.0	  61.0	    2997168552.5	8822293344.5	16.3	
2013-04-15-21-24	 -177.0	  42.0	  556350891217.8	1345711015839.9	13.6	
2013-04-15-21-24	 -153.0	 -35.5	  466643627871.4	1118367991019.4	13.5	
2013-04-15-21-24	  165.0	 -39.0	  176207951684.0	462667178357.5	14.7	
2013-04-15-21-24	  178.5	  43.5	  174112580839.7	430275022647.4	13.8	
2013-04-15-21-24	 -147.5	 -41.5	   72099048097.1	148299874908.8	11.5	
2013-04-15-21-24	  -28.5	  59.5	   37534955153.3	114678997058.4	17.0	
2013-04-15-21-24	  169.0	 -36.5	   35025283036.9	71810119587.4	11.4	
2013-04-15-21-24	 -155.5	 -43.0	   22770985162.4	42577663302.9	10.4	
2013-04-15-21-24	  -41.5	 -45.0	   10985581945.9	18464664110.3	9.4	
2013-04-15-21-24	 -173.0	  35.5	    7533723655.7	14247459351.2	10.5	
2013-04-15-21-24	   -8.5	  67.5	    2340842790.1	7168997846.4	17.0	
2013-04-16-00-03	 -176.5	  41.5	  652703833853.6	1427671963788.7	12.4	
2013-04-16-00-03	 -153.0	 -35.5	  496268199044.6	1174140226996.5	13.4	
2013-04-16-00-03	  178.0	  43.0	  141590911561.9	348299911236.9	13.8	
2013-04-16-00-03	  165.0	 -39.0	  132372190189.7	335507585049.8	14.2	
2013-04-16-00-03	 -147.5	 -41.5	   81176754235.3	159108339646.3	11.0	
2013-04-16-00-03	 -156.5	 -43.0	   65722010918.9	126723737734.5	10.8	
2013-04-16-00-03	  169.0	 -36.5	   35072561346.7	65593363691.6	10.4	
2013-04-16-00-03	   -8.0	  68.0	   13944927242.6	62374177326.6	25.0	
2013-04-16-00-03	  -17.0	  54.0	   21627410309.6	61788823772.4	16.0	
2013-04-16-00-03	  -42.0	 -45.0	   13171304072.5	22220554237.7	9.4	
2013-04-16-03-06	 -152.5	 -35.5	  501464217009.1	1184247645342.5	13.4	
2013-04-16-03-06	 -176.5	  41.0	  558159745470.8	1159832904938.8	11.8	
2013-04-16-03-06	  166.0	 -38.0	  187509765973.6	411850061781.6	12.4	
2013-04-16-03-06	  178.0	  42.5	  124656850494.6	279187794226.2	12.6	
2013-04-16-03-06	 -172.5	  35.0	  103663294245.8	190179242979.0	10.3	
2013-04-16-03-06	 -157.5	 -43.5	   85290794254.8	168248515053.7	11.1	
2013-04-16-03-06	  -16.5	  54.5	   41217784114.7	120977905801.6	16.5	
2013-04-16-03-06	   -8.0	  67.5	   21041995839.7	100492893661.2	26.8	
2013-04-16-03-06	 -148.0	 -42.5	   43534333965.0	86209808317.8	11.1	
2013-04-16-03-06	 -144.5	 -40.5	   30694695686.2	58958446001.8	10.8	
2013-04-16-03-06	  -94.0	 -55.5	    1750806041.8	4760907075.2	15.2	
2013-04-16-03-06	 -118.0	 -50.5	    1966167587.6	4398683802.9	12.5	
2013-04-16-06-09	 -152.5	 -36.0	  488859869061.3	1169202046408.7	13.6	
2013-04-16-06-09	 -176.5	  40.5	  414731804356.0	820326065697.6	11.2	
2013-04-16-06-09	  169.0	 -35.0	  136641553723.8	337113018597.4	13.9	
2013-04-16-06-09	 -172.0	  34.5	  134352247458.6	245584759160.2	10.3	
2013-04-16-06-09	 -158.0	 -45.5	  117781768899.3	243399006417.8	11.7	
2013-04-16-06-09	  178.0	  42.0	   75252649857.4	150778152987.3	11.3	
2013-04-16-06-09	  165.0	 -39.0	   45758324016.9	106099515615.2	13.1	
2013-04-16-06-09	   -8.0	  67.5	   21141676522.5	95761166154.5	25.5	
2013-04-16-06-09	 -144.5	 -41.0	   42288777699.9	81608367653.4	10.9	
2013-04-16-06-09	  -19.0	  54.0	   23356459511.0	70261505643.7	16.9	
2013-04-16-06-09	 -148.0	 -43.0	   34037202860.1	67793202875.0	11.2	
2013-04-16-06-09	  -12.5	  57.0	   10100874397.3	36807340075.6	20.5	
2013-04-16-06-09	  128.5	 -61.0	   10560696396.9	32433833952.8	17.3	
2013-04-16-06-09	 -118.0	 -50.5	   11858921726.1	28476966518.5	13.5	
2013-04-16-06-09	  -93.5	 -56.0	    5252418125.5	14710577525.4	15.8	
2013-04-16-09-12	 -152.0	 -36.0	  508844448705.9	1211504971624.7	13.6	
2013-04-16-09-12	 -176.5	  40.0	  281801762942.5	540073289867.1	10.9	
2013-04-16-09-12	  169.5	 -35.0	  152030504007.0	407098643711.0	15.2	
2013-04-16-09-12	 -158.5	 -45.5	  141202628200.9	297133134088.1	11.9	
2013-04-16-09-12	 -171.5	  34.5	  162340411953.6	289020294973.6	10.1	
2013-04-16-09-12	 -145.5	 -42.0	   94724954002.0	179342339567.4	10.7	
2013-04-16-09-12	   -8.0	  67.0	   16535065933.6	71108544178.3	24.3	
2013-04-16-09-12	 -117.5	 -50.5	   27670616659.2	70073927394.0	14.3	
2013-04-16-09-12	  -12.0	  57.5	   11625592841.7	41915090151.7	20.4	
2013-04-16-09-12	  165.0	 -39.0	   16849113989.1	33523302723.7	11.2	
2013-04-16-09-12	  128.5	 -60.5	    9202977105.0	25435593486.3	15.6	
2013-04-16-09-12	  -19.5	  54.5	    7135935955.9	16732215770.0	13.2	
2013-04-16-09-12	  -94.0	 -55.5	    3501612083.7	9662216635.1	15.6	
2013-04-16-12-15	 -152.0	 -36.0	  540915797006.5	1281755583322.6	13.6	
2013-04-16-12-15	  170.0	 -35.0	  146877040003.5	384152971054.2	14.9	
2013-04-16-12-15	 -171.5	  34.5	  179987983817.9	315821930524.6	10.0	
2013-04-16-12-15	 -176.5	  40.0	  165757398646.6	313149066957.3	10.8	
2013-04-16-12-15	 -158.5	 -45.5	  149109172104.6	310189977806.3	11.9	
2013-04-16-12-15	 -145.5	 -42.0	  115252708473.3	219561216814.5	10.8	
2013-04-16-12-15	 -113.5	 -48.5	   47306785989.7	117564128116.5	14.1	
2013-04-16-12-15	   -8.0	  67.0	   13061339244.1	56488252136.9	24.6	
2013-04-16-12-15	  160.5	  44.5	   28622446919.9	56186160550.1	11.2	
2013-04-16-12-15	 -117.5	 -50.5	    7885409434.8	20341586256.2	14.7	
2013-04-16-12-15	  -19.5	  54.5	    1772969689.9	4263897444.1	13.7	
2013-04-16-15-18	 -152.0	 -36.0	  562682088283.9	1303746281213.9	13.4	
2013-04-16-15-18	  170.0	 -35.5	  116267670014.2	278708051031.6	13.7	
2013-04-16-15-18	 -144.5	 -42.0	  138376917471.9	267801613456.8	11.1	
2013-04-16-15-18	 -171.5	  35.0	  136720597300.6	244156790349.0	10.2	
2013-04-16-15-18	 -158.0	 -45.5	  117791974465.5	236814052384.8	11.5	
2013-04-16-15-18	  162.0	  44.5	  105413865746.8	220665230643.7	12.0	
2013-04-16-15-18	 -176.5	  39.5	   85235316043.7	156568088147.3	10.5	
2013-04-16-15-18	 -113.5	 -49.0	   61581853220.9	154141269335.5	14.3	
2013-04-16-15-18	   -8.0	  67.0	    5914432194.0	25477616839.9	24.6	
2013-04-16-18-21	 -152.5	 -36.5	  548899874987.3	1257760451456.0	13.4	
2013-04-16-18-21	  162.5	  44.5	  133935857888.6	291131134080.3	12.5	
2013-04-16-18-21	 -144.0	 -42.0	  140583179885.0	278723265577.0	11.4	
2013-04-16-18-21	 -171.5	  35.0	  106089084114.1	190225234507.5	10.3	
2013-04-16-18-21	  170.5	 -35.5	   65687745664.1	142735152280.4	12.5	
2013-04-16-18-21	 -158.0	 -45.5	   58666368810.2	118366958535.4	11.6	
2013-04-16-18-21	 -113.5	 -49.0	   36906000195.5	91989162441.9	14.3	
2013-04-16-18-21	  -29.0	  43.5	   26812148389.2	60297916327.7	12.9	
2013-04-16-18-21	 -170.5	 -43.5	    9005719053.0	19328282968.4	12.3	
2013-04-16-18-21	 -176.0	  39.5	    9523177113.1	16851492507.0	10.2	
2013-04-16-18-21	  147.0	 -47.0	    2108109930.5	2798097910.6	7.6	
2013-04-16-21-24	 -152.5	 -36.5	  508396060986.4	1162678766794.2	13.4	
2013-04-16-21-24	  163.0	  44.5	  129775613509.4	287101182528.1	12.8	
2013-04-16-21-24	  -28.5	  44.5	   94789891044.0	274243027100.8	16.7	
2013-04-16-21-24	 -143.0	 -42.0	  115361343254.4	231673219761.3	11.6	
2013-04-16-21-24	 -166.0	 -46.5	   70544979069.2	143321150928.4	11.7	
2013-04-16-21-24	 -170.5	  35.0	   78239473924.7	137614115194.1	10.2	
2013-04-16-21-24	 -171.5	 -44.0	   46991158883.0	107414822468.2	13.2	
2013-04-16-21-24	   77.5	 -58.0	   32917612525.0	102088210802.8	17.9	
2013-04-16-21-24	 -158.0	 -45.5	   23908349197.0	53287266180.9	12.9	
2013-04-16-21-24	  170.5	 -35.0	   15191990520.0	35737901469.3	13.6	
2013-04-16-21-24	  138.5	 -51.0	    1945278714.2	4906025912.0	14.6	
2013-04-16-21-24	  147.0	 -47.0	    2108109930.5	2908960951.0	8.0	
2013-04-17-00-03	 -153.0	 -36.5	  464989813952.1	1041832672631.7	13.1	
2013-04-17-00-03	   79.0	 -59.0	  157954915148.8	574116260116.7	21.1	
2013-04-17-00-03	  -28.0	  45.0	  111550286324.5	326081179906.9	16.9	
2013-04-17-00-03	 -166.5	 -47.0	  127359599553.6	268453676157.6	12.2	
2013-04-17-00-03	  163.0	  44.5	  118964429346.2	258845474815.7	12.6	
2013-04-17-00-03	 -142.5	 -42.0	   98800817849.0	197786726812.4	11.6	
2013-04-17-00-03	 -172.0	 -44.0	   35687292867.8	83732322406.9	13.6	
2013-04-17-00-03	  138.5	 -51.0	   29177992900.3	80284306386.9	15.9	
2013-04-17-00-03	 -169.5	  35.0	   15145672114.1	25956432886.4	9.9	
2013-04-17-00-03	  146.5	 -47.0	    6324329791.6	11982507304.2	10.9	
2013-04-17-03-06	   80.0	 -59.5	  213350846963.6	893687131932.3	24.5	
2013-04-17-03-06	 -153.0	 -37.0	  384525944826.0	833968688720.2	12.7	
2013-04-17-03-06	 -167.0	 -47.0	  133369910676.4	278111499947.6	12.1	
2013-04-17-03-06	  -28.0	  45.0	   75936464247.5	206327514352.6	15.8	
2013-04-17-03-06	  164.0	  44.5	   85654101872.9	186770003741.8	12.6	
2013-04-17-03-06	 -142.0	 -42.5	   84785493627.0	165730898772.0	11.3	
2013-04-17-03-06	  138.5	 -51.5	   38861423675.8	107516763007.4	16.0	
2013-04-17-03-06	  146.0	 -47.5	   21080618432.1	51172408582.1	14.1	
2013-04-17-03-06	   25.0	 -62.0	    2902346439.3	8527271149.8	17.0	
2013-04-17-03-06	 -172.0	 -44.5	    2204712564.3	2570189743.9	6.7	
2013-04-17-06-09	   81.0	 -60.0	  248286411683.7	1107403099495.2	26.3	
2013-04-17-06-09	 -153.0	 -37.0	  285244299846.8	589873397297.8	12.1	
2013-04-17-06-09	   43.0	 -59.0	   95584716207.9	263778280239.8	16.1	
2013-04-17-06-09	 -167.0	 -47.0	   88554970686.5	178790390484.0	11.8	
2013-04-17-06-09	  164.5	  44.5	   61195895001.5	129272038538.5	12.3	
2013-04-17-06-09	 -141.5	 -42.5	   66158667727.8	127404349999.0	11.2	
2013-04-17-06-09	  146.5	 -47.5	   48285728839.0	119474159529.9	14.4	
2013-04-17-06-09	  138.5	 -51.5	   31017940671.7	88088397176.1	16.6	
2013-04-17-06-09	  -15.0	  60.5	    9062112212.8	33788626736.0	21.7	
2013-04-17-06-09	  -27.5	  45.5	    4313808561.2	11329752947.3	15.3	
2013-04-17-09-12	   82.0	 -60.0	  289390015222.9	1248384359462.9	25.7	
2013-04-17-09-12	   45.5	 -59.0	  175213280412.4	521853767060.1	17.6	
2013-04-17-09-12	 -153.0	 -37.0	  178497564897.4	361392830808.2	11.9	
2013-04-17-09-12	   25.0	 -59.0	  103445412813.9	356989628316.1	20.3	
2013-04-17-09-12	  147.5	 -48.0	   90042662079.5	246585510602.5	16.1	
2013-04-17-09-12	  165.5	  45.5	   64718570620.6	134849036994.8	12.2	
2013-04-17-09-12	  -15.0	  60.5	   16507621524.1	63321742958.7	22.5	
2013-04-17-09-12	 -141.5	 -43.0	   31740430900.4	59117529942.1	10.9	
2013-04-17-09-12	  138.5	 -51.5	   21313472339.0	57025669826.1	15.7	
2013-04-17-09-12	  175.5	 -46.5	   14972246395.4	41544138834.1	16.3	
2013-04-17-12-15	   82.5	 -60.0	  304985394417.8	1260693892978.5	24.8	
2013-04-17-12-15	   47.5	 -58.5	  226169939428.7	705655823130.9	18.6	
2013-04-17-12-15	   25.5	 -59.0	  143533866055.7	498865576624.0	20.7	
2013-04-17-12-15	  147.5	 -48.0	   98315213308.1	263144791186.1	15.9	
2013-04-17-12-15	 -153.0	 -37.0	  106523785924.7	205669685411.7	11.4	
2013-04-17-12-15	  166.0	  46.5	   93092800011.6	203741450398.5	13.0	
2013-04-17-12-15	   35.0	 -59.0	   67044329284.6	192733596999.8	17.0	
2013-04-17-12-15	  175.0	 -46.5	   25610710673.4	66841879890.0	15.4	
2013-04-17-12-15	  -15.0	  60.5	   16507621524.1	63714989050.9	22.8	
2013-04-17-12-15	  138.5	 -51.5	    9684318456.3	21572164589.6	13.2	
2013-04-17-12-15	   76.5	 -58.5	    8075294834.8	15690969807.1	11.5	
2013-04-17-15-18	   38.0	 -59.0	  540697196475.8	1653068142206.0	18.6	
2013-04-17-15-18	   82.5	 -60.0	  297321696634.4	1093343751018.5	22.3	
2013-04-17-15-18	  166.0	  47.0	   98469862679.0	225500800424.1	13.7	
2013-04-17-15-18	  147.5	 -48.0	   83857783118.1	222954940784.3	15.9	
2013-04-17-15-18	  174.5	 -46.5	   53231778417.0	131770119464.6	14.8	
2013-04-17-15-18	  -15.0	  60.5	   16507621524.1	63403482505.7	23.0	
2013-04-17-15-18	 -152.5	 -37.5	   22217236837.0	40964683514.1	11.0	
2013-04-17-15-18	  138.5	 -51.0	    1945278714.2	4981736923.9	15.3	
2013-04-17-18-21	   40.5	 -59.5	  356639605321.2	1036683632326.5	17.8	
2013-04-17-18-21	   82.5	 -60.0	  249577601801.2	815574793740.5	20.0	
2013-04-17-18-21	   25.5	 -60.0	  108579743591.6	318350382637.3	17.8	
2013-04-17-18-21	  174.0	 -46.5	   83114732704.8	222474426030.9	16.3	
2013-04-17-18-21	  166.0	  47.5	   83321466538.0	188320372786.0	13.7	
2013-04-17-18-21	  146.5	 -47.0	   50490624908.9	114318062082.1	13.8	
2013-04-17-18-21	  -15.0	  60.5	   11964797658.5	46585293837.0	23.6	
2013-04-17-21-24	   39.0	 -60.0	  182075465762.5	541359755790.0	18.4	
2013-04-17-21-24	   26.0	 -60.5	   98522063398.4	288130952146.9	18.1	
2013-04-17-21-24	  174.0	 -46.5	   93791032675.0	262425101409.2	17.3	
2013-04-17-21-24	   81.5	 -60.0	   68861942430.9	199920361725.2	17.9	
2013-04-17-21-24	   88.5	 -59.5	   50499703647.3	154806456113.2	18.9	
2013-04-17-21-24	  165.5	  47.5	   37227509063.0	79460094669.6	13.1	
2013-04-17-21-24	  146.0	 -47.0	   25394427177.6	60005581422.8	14.5	
2013-04-17-21-24	   74.5	 -59.5	    7913749816.0	15051297957.7	11.7	
2013-04-17-21-24	   77.0	 -57.0	    3367043498.2	9281443107.5	17.0	
2013-04-17-21-24	  -14.5	  61.0	    1498584276.2	5810786869.8	23.9	
2013-04-18-00-03	   27.0	 -61.0	  103530885167.9	315213900205.4	19.1	
2013-04-18-00-03	  174.5	 -46.5	   93673635868.5	261225321458.6	17.4	
2013-04-18-00-03	   40.5	 -60.0	   63459016155.4	181779020531.3	17.9	
2013-04-18-00-03	   90.5	 -60.0	   15734532289.1	42889054618.6	17.0	
2013-04-18-00-03	  146.5	 -47.0	    4216219861.1	9557715514.9	14.1	
2013-04-18-03-06	   28.0	 -61.0	  107719063397.0	324550048783.4	19.1	
2013-04-18-03-06	  175.0	 -46.5	   87407101875.6	238670638532.2	17.3	
2013-04-18-03-06	  -12.0	  58.0	   11420153128.5	38156240334.0	21.1	
2013-04-18-03-06	   39.0	 -60.0	    3091078296.4	8475289159.2	17.3	
2013-04-18-03-06	  -33.5	 -39.5	    4787369900.2	8183176091.1	10.8	
2013-04-18-06-09	   29.0	 -61.0	   77642370367.3	236563336673.8	19.6	
2013-04-18-06-09	  175.5	 -46.5	   74641366068.1	196654852972.5	16.9	
2013-04-18-06-09	  -11.5	  58.0	   34304841217.5	122355395668.7	22.9	
2013-04-18-06-09	 -149.5	 -43.0	   24958243319.5	50932787548.3	13.1	
2013-04-18-09-12	 -149.5	 -43.0	   93371685458.6	207341540409.4	14.4	
2013-04-18-09-12	  -11.5	  58.0	   47132037777.6	187721157834.4	25.8	
2013-04-18-09-12	   30.0	 -61.0	   54557497901.1	164401637055.8	19.5	
2013-04-18-09-12	  -32.0	 -43.0	   68612903364.1	157896175728.2	14.9	
2013-04-18-09-12	  176.0	 -46.0	   51394826430.3	136213267020.7	17.2	
2013-04-18-09-12	    3.0	 -62.5	   17270841988.4	57264746436.1	21.5	
2013-04-18-12-15	 -149.0	 -43.0	  111709923142.7	270119617348.8	15.8	
2013-04-18-12-15	  -11.5	  58.0	   47430211951.2	197569059393.7	27.2	
2013-04-18-12-15	  -31.5	 -43.0	   75251251087.5	167872079474.6	14.6	
2013-04-18-12-15	  176.0	 -46.0	   23619185776.4	56117056710.5	15.5	
2013-04-18-12-15	    4.5	 -62.5	   10086594213.8	33973564706.9	22.0	
2013-04-18-12-15	   30.5	 -61.0	    9062112212.8	26007456216.1	18.7	
2013-04-18-12-15	   35.5	 -60.5	    9202977105.0	25725270092.4	18.2	
2013-04-18-12-15	    2.5	 -64.0	    8202813929.8	15995952214.1	12.7	
2013-04-18-15-18	 -148.5	 -43.0	  111709923142.7	279102962230.5	16.4	
2013-04-18-15-18	  -11.5	  58.0	   40993428950.5	158068338279.6	25.3	
2013-04-18-15-18	  -31.0	 -43.5	   47617990168.6	89630801670.5	12.3	
2013-04-18-15-18	    3.0	 -64.5	    9485068741.8	31056831861.7	21.4	
2013-04-18-15-18	  164.5	 -50.0	    5981307836.7	11025817355.1	12.1	
2013-04-18-18-21	 -148.5	 -43.0	  106988393441.7	268047335957.2	16.5	
2013-04-18-18-21	  -11.5	  58.0	   26206854142.6	88230591777.9	22.1	
2013-04-18-18-21	  164.5	 -49.5	   10016731722.2	24484910833.1	16.0	
2013-04-18-18-21	    2.5	 -64.5	    5395861308.6	18030731845.0	21.9	
2013-04-18-21-24	 -148.0	 -43.0	   99861972326.6	244250310013.6	16.1	
2013-04-18-21-24	   50.5	 -61.5	   48670153791.4	141876031305.0	19.1	
2013-04-18-21-24	  164.5	 -49.5	   11982899309.8	28616923567.1	15.7	
2013-04-18-21-24	  165.5	 -55.0	   12542821789.0	27801692183.6	14.5	
2013-04-18-21-24	  -11.5	  57.5	    6597713938.8	16777725902.8	16.7	
2013-04-18-21-24	    2.5	 -64.0	    2710078598.1	8151935152.5	19.7	
2013-04-18-21-24	  -30.0	 -45.5	    2166565317.8	4323420041.5	13.1	
2013-04-19-00-03	   49.0	 -62.0	  239620077820.9	760367821590.4	21.0	
2013-04-19-00-03	  167.5	 -55.5	  111489784923.2	311471593278.8	18.4	
2013-04-19-00-03	 -147.0	 -43.5	   79026602169.6	188217684848.8	15.6	
2013-04-19-00-03	  -29.5	 -46.0	   19382663486.1	45671641985.7	15.4	
2013-04-19-00-03	    2.5	 -64.5	    5371565421.0	25681377421.1	31.3	
2013-04-19-00-03	  164.5	 -49.5	   10016731722.2	24401301154.0	15.9	
2013-04-19-00-03	   67.0	 -62.0	    5852216046.8	23787300599.7	26.6	
2013-04-19-03-06	   49.5	 -62.5	  294801150611.7	1021057683456.7	23.0	
2013-04-19-03-06	  167.5	 -55.5	  141670691740.7	396942314534.6	18.4	
2013-04-19-03-06	 -146.5	 -43.5	   47454578035.3	106731157914.1	14.7	
2013-04-19-03-06	    2.5	 -64.5	    5371565421.0	25593361422.3	31.2	
2013-04-19-03-06	  -29.0	 -46.5	    6422244416.9	14415817597.1	14.7	
2013-04-19-03-06	  164.5	 -50.0	    5981307836.7	10000082358.7	10.9	
2013-04-19-06-09	   50.0	 -62.5	  314902527537.3	1133078127395.9	23.9	
2013-04-19-06-09	  168.0	 -55.5	  164627536049.5	469574335517.8	18.8	
2013-04-19-06-09	 -179.0	 -54.5	   25370368594.4	61802394018.1	16.0	
2013-04-19-06-09	  164.5	 -50.5	    3973813343.7	6432051227.1	10.6	
2013-04-19-06-09	   35.0	 -33.0	    2592396031.4	3607448211.5	9.1	
2013-04-19-09-12	   50.5	 -62.5	  327012678053.5	1192105952394.6	24.3	
2013-04-19-09-12	  168.0	 -55.5	  174998336176.1	469470125585.1	17.7	
2013-04-19-09-12	 -178.5	 -54.0	   34716133163.1	81936071415.5	15.5	
2013-04-19-09-12	   34.5	 -33.0	   10384176692.2	17858409735.5	11.3	
2013-04-19-12-15	   51.5	 -62.5	  302825872786.8	1091788773578.9	24.0	
2013-04-19-12-15	  166.0	 -55.5	   33551559259.8	95847846901.5	18.8	
2013-04-19-12-15	  172.0	 -55.5	   28388596997.5	56104952481.0	13.0	
2013-04-19-12-15	  114.5	 -42.5	   20582684560.6	48956336721.3	15.7	
2013-04-19-12-15	 -179.0	 -54.0	   14622133311.2	33559966761.8	15.1	
2013-04-19-12-15	   35.0	 -33.0	    7791780660.9	12561680962.0	10.6	
2013-04-19-12-15	  168.5	 -55.5	    5252284365.4	10868543994.3	13.6	
2013-04-19-15-18	   52.0	 -63.0	  231560161992.5	803045176864.8	23.0	
2013-04-19-15-18	  116.0	 -42.5	   59806824988.4	136238369656.5	15.0	
2013-04-19-15-18	  -21.0	  56.0	   25747420526.4	79620441718.8	20.3	
2013-04-19-15-18	 -177.0	 -53.0	   24161301945.1	55250723021.6	15.0	
2013-04-19-15-18	   45.0	 -30.5	   26673785880.1	42667849647.8	10.5	
2013-04-19-15-18	  166.0	 -55.5	    8908770043.2	17436167872.4	12.9	
2013-04-19-18-21	   53.0	 -63.0	  107630787699.8	379477740152.4	23.3	
2013-04-19-18-21	  117.5	 -41.0	  105134415596.2	238289334742.9	14.9	
2013-04-19-18-21	   45.0	 -30.5	   72027000580.4	144514075883.4	13.2	
2013-04-19-18-21	 -173.5	 -52.5	   45585750973.0	106724431479.9	15.4	
2013-04-19-21-24	  119.0	 -41.0	  128886328269.1	295786300471.5	15.1	
2013-04-19-21-24	   45.0	 -31.0	   90406691007.4	201971778960.2	14.7	
2013-04-19-21-24	   54.0	 -63.0	   29637257381.9	98073635639.5	21.8	
2013-04-19-21-24	  167.0	 -42.0	   22970658819.1	71421387966.9	20.5	
2013-04-19-21-24	 -174.0	 -51.0	   25392322021.6	57877689193.8	15.0	
2013-04-19-21-24	  -41.0	  60.5	    7516343222.0	35360701994.0	30.9	
2013-04-20-00-03	  120.0	 -41.0	  147220164213.1	335135441366.8	15.1	
2013-04-20-00-03	   45.0	 -31.0	  103487044456.5	232794259608.9	14.9	
2013-04-20-00-03	  167.0	 -42.5	   45903647395.8	119691626522.3	17.2	
2013-04-20-00-03	  -41.0	  60.5	   12011982373.0	59046216126.8	32.4	
2013-04-20-00-03	 -174.0	 -50.5	    9851427233.2	21154945468.7	14.2	
2013-04-20-00-03	 -171.0	 -49.5	    2027929392.6	4501701058.1	14.6	
2013-04-20-03-06	  121.0	 -41.0	  121928811006.4	269689832306.1	14.6	
2013-04-20-03-06	   45.0	 -31.5	   92725901136.6	209821651629.6	14.9	
2013-04-20-03-06	 -168.5	 -48.5	   84082826612.6	184490276058.2	14.5	
2013-04-20-03-06	  167.0	 -42.5	   48164318675.9	123732000214.5	17.0	
2013-04-20-03-06	   94.5	 -60.0	   14026359985.3	42334033962.6	19.9	
2013-04-20-03-06	  -14.5	  61.5	   10276909728.2	36421134898.9	23.4	
2013-04-20-06-09	  122.0	 -41.0	  135644680937.3	289053037213.2	14.0	
2013-04-20-06-09	 -167.0	 -48.0	  130239953137.7	279155179517.6	14.1	
2013-04-20-06-09	   44.5	 -31.5	   84668275167.4	192530322549.7	15.0	
2013-04-20-06-09	  155.5	  35.5	   65560135000.5	144339946467.6	14.5	
2013-04-20-06-09	  167.5	 -42.5	   45849238528.8	121316334070.8	17.4	
2013-04-20-06-09	   97.0	 -60.0	    7750997271.2	22207927927.1	18.8	
2013-04-20-06-09	  -15.0	  61.5	    4401043564.1	14280650996.2	21.3	
2013-04-20-09-12	  156.0	  35.0	  134322606140.3	290409563006.2	14.2	
2013-04-20-09-12	  123.5	 -41.0	  128613532961.2	273276944055.4	13.9	
2013-04-20-09-12	 -164.5	 -47.5	  100781141901.2	214279403932.4	13.9	
2013-04-20-09-12	   44.5	 -31.5	   73986437970.0	159633877213.3	14.1	
2013-04-20-09-12	  167.5	 -43.0	   38868425631.6	102450058170.4	17.2	
2013-04-20-12-15	  157.0	  35.0	  148746230945.0	308271995615.8	13.5	
2013-04-20-12-15	 -161.0	 -47.5	  111181257420.9	239522474340.3	14.0	
2013-04-20-12-15	  124.5	 -41.5	   90957951873.4	187990206016.9	13.5	
2013-04-20-12-15	   44.5	 -31.5	   71309486007.4	153013480827.3	14.0	
2013-04-20-12-15	  157.5	 -62.0	   18983725191.2	65922569904.1	22.6	
2013-04-20-12-15	  167.5	 -43.0	   22789295560.6	61494637848.0	17.6	
2013-04-20-15-18	  160.0	  37.0	   76239736966.6	165637692607.6	14.1	
2013-04-20-15-18	 -158.5	 -48.5	   70095889753.8	151523461400.0	14.1	
2013-04-20-15-18	   45.0	 -31.5	   60726003222.5	125440837895.0	13.4	
2013-04-20-15-18	  157.0	  34.0	   43365235920.8	90667725653.3	13.6	
2013-04-20-15-18	  125.0	 -41.5	   41759138808.7	85771243154.0	13.3	
2013-04-20-15-18	  157.5	 -62.0	   20482309375.3	68605277184.9	21.8	
2013-04-20-15-18	  -93.5	 -53.0	    1860256833.4	4803436230.3	16.8	
2013-04-20-18-21	  160.5	  37.0	   88546188025.9	200315876302.6	14.8	
2013-04-20-18-21	   45.0	 -31.5	   44886965950.2	94499649369.1	13.7	
2013-04-20-18-21	  -93.0	 -53.5	   14860158907.9	38410988200.5	16.8	
2013-04-20-18-21	 -157.0	 -48.5	   16506269828.2	35362477577.9	14.0	
2013-04-20-18-21	  158.0	 -62.0	    7303389266.4	22141786907.5	19.8	
2013-04-20-21-24	  161.0	  37.0	   93724589449.7	195720607722.9	13.8	
2013-04-20-21-24	   45.0	 -31.5	   18476827364.3	36232623160.4	12.9	
2013-04-21-00-03	  161.5	  35.0	  117858421559.9	241598766977.5	13.7	
2013-04-21-03-06	  161.5	  34.0	  114281055551.1	246425724922.4	14.5	
2013-04-21-06-09	  162.0	  34.0	  101994110993.0	206996206753.8	13.8	
2013-04-21-06-09	  -78.0	 -45.0	    6595147255.1	15218646795.4	15.7	
2013-04-21-09-12	  -78.0	 -45.5	   73906627207.0	192894490533.1	18.0	
2013-04-21-09-12	  162.5	  35.0	   35369305613.4	73796649138.9	14.4	
2013-04-21-12-15	  -78.5	 -46.0	   64934868303.1	168922612361.8	18.1	
2013-04-21-15-18	  -78.5	 -46.0	    2147243427.7	3595919543.5	11.7	
2013-04-21-21-24	  145.5	  38.0	   19435767362.8	38990443844.2	14.1	
2013-04-22-00-03	  146.0	  38.0	    7290708400.8	13704165694.1	13.2	
2013-04-22-03-06	   58.5	 -55.0	   23268345302.5	66336377312.4	20.0	
2013-04-22-03-06	   35.0	 -30.0	    2676951962.6	3735195832.9	9.8	
2013-04-22-06-09	   61.5	 -55.0	   23158069288.3	65240156560.1	19.7	
2013-04-22-06-09	  -29.5	  63.5	   13743727228.0	64040639676.9	32.7	
2013-04-22-06-09	   35.5	 -30.0	   24185853561.5	49240058191.8	14.3	
2013-04-22-09-12	  -29.5	  63.0	   37285030985.1	162026523583.1	30.4	
2013-04-22-09-12	   35.0	 -29.5	    8084191357.3	14433637196.9	12.5	
2013-04-22-12-15	  -29.5	  63.0	   43354992584.8	188734459824.5	30.3	
2013-04-22-12-15	  146.0	 -47.0	    2127757561.6	7375447437.9	24.1	
2013-04-22-15-18	  -30.0	  62.5	   46641745552.2	186597929964.0	27.7	
2013-04-22-15-18	  146.0	 -46.5	   19187976539.6	49818937512.1	18.0	
2013-04-22-15-18	   66.5	 -50.5	    3932335175.3	13751514005.0	24.2	
2013-04-22-18-21	  -29.5	  62.5	   35488087279.4	131572693625.0	25.5	
2013-04-22-18-21	  146.0	 -47.0	   19051257843.0	48636842416.6	17.6	
2013-04-22-18-21	   74.0	 -54.5	    7223776195.7	24039546883.8	22.9	
2013-04-22-18-21	   66.5	 -50.5	    3932335175.3	14105614974.5	24.7	
2013-04-22-21-24	  -29.5	  62.5	   24143130557.9	84185135777.5	24.0	
2013-04-22-21-24	   77.0	 -54.5	   10835664293.5	35151322824.2	22.3	
2013-04-22-21-24	 -139.5	 -42.0	   13890129715.8	27480410188.1	13.6	
2013-04-22-21-24	  146.5	 -47.0	    4216219861.1	11316638535.3	18.4	
2013-04-23-00-03	  -29.5	  62.5	   15651917169.4	51035887422.2	22.4	
2013-04-23-00-03	 -164.5	  40.0	    4735806475.9	7851837045.5	11.4	
2013-04-23-03-06	 -164.5	  40.0	   40128219243.7	77673900416.6	13.2	
2013-04-23-03-06	  155.5	  35.5	   32697327832.6	65248217321.9	13.6	
2013-04-23-03-06	  -29.0	  62.5	    8467775702.9	25986436327.2	21.0	
2013-04-23-06-09	  156.5	  36.0	  117068647775.5	223321744893.6	13.0	
2013-04-23-06-09	 -164.0	  40.5	   58522604860.7	114616773932.2	13.3	
2013-04-23-06-09	   55.5	 -42.5	   34256227148.8	89937305301.8	17.9	
2013-04-23-06-09	  122.0	 -57.0	   10123560188.8	31265800914.7	21.0	
2013-04-23-06-09	  -29.0	  62.5	    4233941512.1	12829439622.5	20.6	
2013-04-23-09-12	  158.5	  38.5	  179933806543.9	409285863207.1	15.5	
2013-04-23-09-12	   56.5	 -42.5	  146162660871.2	389227221043.5	18.2	
2013-04-23-09-12	  123.0	 -57.5	   16834831134.1	50802627228.6	20.5	
2013-04-23-09-12	 -161.5	  38.0	   21822025954.2	41359072986.7	12.9	
2013-04-23-09-12	 -163.5	  41.5	    4612199404.0	9400419591.1	13.8	
2013-04-23-12-15	   58.0	 -42.5	  246833163247.5	683495056686.2	18.9	
2013-04-23-12-15	  159.5	  39.5	  204692721293.0	528346503136.8	17.6	
2013-04-23-12-15	 -161.0	  38.5	   72380577425.5	143649610899.2	13.5	
2013-04-23-12-15	 -161.0	  41.5	   16115580074.6	33749520860.2	14.2	
2013-04-23-15-18	   58.5	 -42.5	  315126461154.4	894511835999.4	19.4	
2013-04-23-15-18	  160.5	  40.5	  223270476201.9	563519920051.6	17.2	
2013-04-23-15-18	 -160.5	  40.5	  195020940914.3	404568623433.1	14.1	
2013-04-23-15-18	  -26.5	 -51.0	   11671374917.4	50184151621.9	29.1	
2013-04-23-15-18	  -39.5	 -55.0	    3545939379.7	7522824870.2	14.4	
2013-04-23-18-21	   59.0	 -42.5	  363701472803.2	1039868100023.1	19.6	
2013-04-23-18-21	  161.0	  41.5	  202205101265.7	470081243405.6	15.8	
2013-04-23-18-21	 -160.5	  41.0	  219458223353.3	459544587088.0	14.3	
2013-04-23-18-21	  -26.5	 -51.0	   37126063981.0	115015004583.8	21.0	
2013-04-23-18-21	  -40.0	 -55.0	   28322377811.2	94783282600.8	22.7	
2013-04-23-21-24	   60.0	 -42.0	  413252683560.3	1184209497846.7	19.7	
2013-04-23-21-24	  161.5	  42.5	  155144490659.9	319191185770.6	14.0	
2013-04-23-21-24	 -161.0	  43.5	   89899414009.3	200380328387.5	15.1	
2013-04-23-21-24	  -26.5	 -51.0	   44822143691.4	152450719841.6	23.1	
2013-04-23-21-24	 -160.0	  38.5	   69676112330.9	132387343489.2	12.9	
2013-04-23-21-24	  -39.5	 -55.0	   24732381603.6	79833924324.6	21.9	
2013-04-23-21-24	 -173.5	 -48.5	    2048209897.0	4747414735.1	15.7	
2013-04-24-00-03	   61.0	 -42.0	  459232682195.8	1308783073981.7	19.6	
2013-04-24-00-03	  159.5	  44.5	  189248724294.9	409587599234.1	14.7	
2013-04-24-00-03	  -26.5	 -51.0	   48628259050.4	204314931822.8	28.4	
2013-04-24-00-03	 -161.5	  44.0	   42132887270.9	91437449625.4	14.7	
2013-04-24-00-03	 -173.5	 -49.0	   30600689030.7	78112965235.2	17.3	
2013-04-24-00-03	 -159.5	  38.5	    7206656373.1	12052657075.5	11.3	
2013-04-24-03-06	   61.5	 -41.5	  483746898265.4	1295088829866.9	18.4	
2013-04-24-03-06	  159.0	  45.0	  169530588378.7	374247547266.0	15.0	
2013-04-24-03-06	  -26.5	 -51.0	   56367298792.5	268523306678.2	32.2	
2013-04-24-03-06	 -173.5	 -49.5	   40393724993.0	104331923139.3	17.4	
2013-04-24-03-06	  -30.0	 -52.5	   13321113758.8	48736195850.3	24.7	
2013-04-24-03-06	  106.0	 -58.0	    1638021380.4	4471625424.5	18.4	
2013-04-24-03-06	  159.5	  28.5	    2716492267.4	4278938793.4	10.6	
2013-04-24-06-09	   61.5	 -41.0	  490292306098.1	1193565484995.5	16.7	
2013-04-24-06-09	  -26.5	 -51.0	   98272986930.4	429614265163.9	29.7	
2013-04-24-06-09	  159.0	  45.5	  169853797989.7	379273700884.8	15.1	
2013-04-24-06-09	 -173.5	 -50.0	   44141999229.6	110105074545.8	16.8	
2013-04-24-06-09	  161.0	  29.0	   53945984729.7	86172774479.6	10.8	
2013-04-24-06-09	  -71.5	  35.5	    7533723655.7	16284806578.3	14.6	
2013-04-24-09-12	   61.5	 -41.0	  433545558008.8	969436130605.7	15.3	
2013-04-24-09-12	  -26.5	 -51.0	  108101890505.5	480531137351.1	30.2	
2013-04-24-09-12	  160.0	  46.5	  102110806940.6	223089779004.0	14.8	
2013-04-24-09-12	  162.0	  29.0	   78074406187.4	124776254120.5	10.8	
2013-04-24-09-12	 -173.5	 -50.5	   27774460395.7	66225925014.0	16.1	
2013-04-24-09-12	  -71.0	  36.0	   10002748077.2	21606315583.7	14.6	
2013-04-24-09-12	  -10.0	  68.0	    4556590104.4	19706594131.5	29.2	
2013-04-24-09-12	  -20.5	 -56.0	    1728508633.7	4732839191.2	18.5	
2013-04-24-12-15	   61.0	 -40.5	  291072370900.5	620905259251.6	14.5	
2013-04-24-12-15	  -26.5	 -51.0	   88949805714.4	423053801255.0	32.3	
2013-04-24-12-15	  162.5	  29.5	   77930260487.2	123140254470.1	10.7	
2013-04-24-12-15	  160.0	  47.0	   35756714927.5	79124038742.9	15.0	
2013-04-24-12-15	 -138.5	 -55.0	    8908905277.2	24820038099.4	18.8	
2013-04-24-12-15	  -10.5	  68.0	    3448760711.5	15632470194.0	30.6	
2013-04-24-12-15	  -70.5	  36.0	    7486253549.3	15109271373.8	13.6	
2013-04-24-15-18	   60.5	 -40.5	  179055287519.9	365800830245.5	13.9	
2013-04-24-15-18	  -26.5	 -51.0	   58353910860.5	281902139779.1	32.8	
2013-04-24-15-18	  163.5	  30.0	   24091956898.9	36876433491.2	10.4	
2013-04-24-15-18	 -138.0	 -55.0	   10703903381.1	32152537700.5	20.3	
2013-04-24-15-18	  -37.5	  34.5	   10159002569.7	28836918383.9	19.2	
2013-04-24-18-21	  -26.5	 -51.0	   54380097516.7	214729847204.8	26.8	
2013-04-24-18-21	   60.0	 -40.0	   90301158871.8	178593874561.1	13.4	
2013-04-24-18-21	  -37.0	  34.5	   73498403821.9	156360413371.7	14.4	
2013-04-24-18-21	 -126.5	 -62.0	   13250427242.1	42421233314.1	21.7	
2013-04-24-18-21	 -138.0	 -55.0	    5340937483.5	15732289021.5	19.9	
2013-04-24-21-24	 -123.0	 -61.5	   99327355476.6	331143409300.7	22.7	
2013-04-24-21-24	  -37.0	  34.5	   81031745542.7	172473407707.8	14.4	
2013-04-24-21-24	  -26.5	 -51.0	   38839941725.4	139287406914.0	24.3	
2013-04-24-21-24	   60.5	 -40.0	   28604024870.6	56520360044.4	13.4	
2013-04-24-21-24	  172.5	  45.0	   28202835499.6	54979495390.0	13.2	
2013-04-25-00-03	 -121.0	 -62.0	  145372023726.0	499069491786.0	23.5	
2013-04-25-00-03	  173.5	  44.5	  135596368658.0	310178334594.5	15.6	
2013-04-25-00-03	  -37.0	  34.5	   91359670204.9	174733355146.7	13.0	
2013-04-25-00-03	  -26.5	 -51.0	   19410120055.6	83801518717.5	29.3	
2013-04-25-03-06	 -120.0	 -62.0	  156859108046.3	528905945599.3	23.2	
2013-04-25-03-06	  173.5	  44.5	  188469324474.5	433762576590.5	15.8	
2013-04-25-03-06	  -37.0	  34.0	   86680661669.8	152835770148.5	12.1	
2013-04-25-03-06	    6.0	 -62.0	   16081713336.5	53700842408.6	22.8	
2013-04-25-06-09	  173.5	  45.0	  189937967761.8	422046146498.3	15.4	
2013-04-25-06-09	 -119.0	 -62.0	  125318348776.0	406827322354.0	22.5	
2013-04-25-06-09	    8.0	 -62.0	   71747485760.6	241662609531.4	23.3	
2013-04-25-06-09	  -37.0	  34.0	   28112132682.5	46973337550.6	11.5	
2013-04-25-09-12	  173.0	  45.0	  138981634670.7	289450778557.6	14.6	
2013-04-25-09-12	 -118.0	 -63.0	   79378769006.1	247013272404.3	21.8	
2013-04-25-09-12	    6.0	 -61.5	   39845991451.6	128492991737.4	22.5	
2013-04-25-12-15	 -117.0	 -65.0	   21047220407.2	72659578980.5	24.4	
2013-04-25-12-15	  172.0	  46.0	   29924030254.7	60654663621.6	14.3	
2013-04-25-12-15	    5.5	 -61.5	   11894075951.5	35002118763.8	20.7	
2013-04-25-12-15	   -2.0	 -62.0	   10229497289.8	30128009490.2	20.8	
2013-04-25-15-18	   -1.0	 -62.0	   14630540116.9	41984364646.1	20.5	
2013-04-25-15-18	  176.0	  47.0	   18952861976.0	38141180019.6	14.3	
2013-04-25-18-21	  175.5	  47.0	   35797294360.5	77034246215.3	15.5	
2013-04-25-21-24	  175.0	  47.0	   39953931269.6	87701100571.0	16.1	
2013-04-26-00-03	  175.0	  47.0	   20982060615.9	45380332720.7	16.0	
2013-04-26-12-15	  144.0	 -43.0	    4539652958.3	11705193286.6	19.8	
2013-04-26-18-21	  121.5	 -54.5	    5406886201.7	14228970112.5	20.4	
2013-04-26-21-24	  122.5	 -54.5	    7223776195.7	19045109126.6	20.4	
2013-04-27-03-06	  146.0	  38.0	   29161908705.4	70656536333.8	18.7	
2013-04-27-03-06	 -108.0	 -59.0	    9621319093.7	33873357671.8	27.2	
2013-04-27-06-09	  147.5	  38.0	   84828400412.6	178356853207.7	16.3	
2013-04-27-06-09	 -106.5	 -59.0	    9575076227.3	30978197963.2	25.0	
2013-04-27-06-09	 -143.0	 -47.5	   12589235816.8	30134199187.5	18.5	
2013-04-27-09-12	  149.0	  38.5	  176270126192.5	384451349471.8	16.9	
2013-04-27-09-12	 -104.5	 -59.0	    3207106364.6	7879487851.3	18.9	
2013-04-27-12-15	  150.0	  39.0	  225932353987.5	493290143023.9	16.9	
2013-04-27-12-15	 -102.5	 -59.0	    8029296274.1	21605502357.5	20.7	
2013-04-27-15-18	  150.5	  39.5	  264877862670.4	552065355429.7	16.1	
2013-04-27-15-18	 -100.5	 -59.0	   36775756336.6	122461016298.6	25.5	
2013-04-27-18-21	  151.5	  40.0	  313072230024.9	659598222632.2	16.3	
2013-04-27-18-21	  -99.0	 -59.0	   49810249591.1	161567733931.1	24.9	
2013-04-27-21-24	  152.5	  40.0	  357310642671.1	757020863275.2	16.4	
2013-04-27-21-24	  -97.5	 -58.5	   32322885697.1	92849495004.9	22.0	
2013-04-27-21-24	  144.0	 -43.0	   15842664087.9	44625952382.5	21.5	
2013-04-28-00-03	  153.5	  40.5	  421358730327.8	881994993792.3	16.2	
2013-04-28-00-03	  144.5	 -43.0	   58660017967.7	170805577452.9	22.3	
2013-04-28-03-06	  154.0	  40.5	  454520948305.6	962871131843.4	16.3	
2013-04-28-03-06	  144.0	 -43.0	   87708371693.4	248854911049.8	21.7	
2013-04-28-03-06	 -143.5	 -43.0	   33982272770.7	66249870356.5	14.9	
2013-04-28-06-09	  154.0	  41.0	  462437984272.6	970606569904.7	16.2	
2013-04-28-06-09	  144.0	 -43.0	   92374104443.5	260071572908.7	21.5	
2013-04-28-06-09	 -143.0	 -43.0	   47673430794.1	92908619657.6	14.8	
2013-04-28-06-09	  -32.5	   2.0	   52497841748.2	81994831433.2	11.9	
2013-04-28-09-12	  154.0	  41.5	  429414389507.3	872929172747.4	15.6	
2013-04-28-09-12	  144.0	 -43.0	   72274499194.7	205425901495.5	21.6	
2013-04-28-09-12	  -32.5	   2.5	  123477330278.7	198325936239.0	12.2	
2013-04-28-09-12	 -143.0	 -43.0	   40909551400.6	76959559301.3	14.3	
2013-04-28-12-15	  154.0	  42.0	  310858417718.6	629260303330.0	15.5	
2013-04-28-12-15	  -32.0	   2.5	  188293029545.7	325849905642.6	13.2	
2013-04-28-12-15	  144.0	 -43.0	   54213465744.0	144138487356.6	20.2	
2013-04-28-12-15	  -29.5	  63.5	    6823582840.2	28347550576.6	31.5	
2013-04-28-15-18	  154.0	  42.0	  212767271235.0	435630034044.7	15.6	
2013-04-28-15-18	  -32.0	   2.5	  216058976827.8	400741623091.8	14.1	
2013-04-28-15-18	  144.0	 -43.0	   27200431566.0	76117219253.9	21.2	
2013-04-28-15-18	  -30.0	  63.5	   17760046077.0	75997545867.4	32.4	
2013-04-28-15-18	  -34.0	  -4.0	    9255702363.1	18444514763.3	15.1	
2013-04-28-18-21	  -32.0	   2.5	  253009243703.5	477284051765.7	14.4	
2013-04-28-18-21	  154.0	  42.0	  148400361889.1	304623889420.8	15.6	
2013-04-28-18-21	  -30.0	  63.5	   17760046077.0	78395735131.3	33.4	
2013-04-28-18-21	  -34.0	  -4.0	   37011754343.5	64033925157.3	13.1	
2013-04-28-18-21	  164.0	 -51.0	   13804501492.6	40139976188.3	22.0	
2013-04-28-18-21	  144.0	 -43.0	   13655405930.7	37452146130.7	20.8	
2013-04-28-21-24	  -32.0	   3.0	  259168700870.7	501532643495.3	14.7	
2013-04-28-21-24	  154.0	  42.5	   97857642568.8	200461686819.9	15.5	
2013-04-28-21-24	  164.0	 -51.0	   29366135365.3	81989715568.7	21.1	
2013-04-28-21-24	  -34.0	  -4.0	   46263223917.0	75094982566.9	12.3	
2013-04-28-21-24	   50.0	 -62.5	    5709201780.4	18415564100.7	24.4	
2013-04-28-21-24	  -30.0	  63.5	    4089311161.7	18015397373.7	33.3	
2013-04-28-21-24	  144.0	 -42.5	    2278981678.3	5727300677.4	19.0	
2013-04-29-00-03	  -32.0	   3.0	  268385261814.2	522015983132.3	14.8	
2013-04-29-00-03	  154.0	  42.5	   52157993003.6	106860917946.1	15.5	
2013-04-29-00-03	  164.0	 -51.0	   29366135365.3	83056380835.4	21.4	
2013-04-29-00-03	  -34.0	  -4.0	   49342539428.7	77975718252.9	11.9	
2013-04-29-00-03	  -11.5	  55.5	   19102389586.8	61779713719.3	24.4	
2013-04-29-00-03	   49.5	 -62.5	   15819668768.7	47599927697.5	22.7	
2013-04-29-03-06	  -32.0	   3.0	  256011317899.5	504168137508.1	15.0	
2013-04-29-03-06	  -11.5	  55.5	   29606693745.1	101273204710.8	25.8	
2013-04-29-03-06	  -34.0	  -4.0	   46257227004.6	73343739012.1	12.0	
2013-04-29-03-06	   49.5	 -62.5	   23099185260.6	70424838149.3	23.0	
2013-04-29-03-06	  164.0	 -51.0	   23572374337.4	63580491285.8	20.4	
2013-04-29-03-06	  154.0	  42.5	   13582166917.1	27348413196.3	15.2	
2013-04-29-06-09	  -32.0	   3.5	  259082525999.7	500482890566.6	14.7	
2013-04-29-06-09	  -12.0	  55.5	   24399134824.1	76554523790.5	23.7	
2013-04-29-06-09	  -34.0	  -4.0	   43170385366.8	68012447614.8	11.9	
2013-04-29-06-09	   49.5	 -62.5	   21743280758.3	62970740064.8	21.9	
2013-04-29-09-12	  -32.0	   3.5	  249818470445.6	481144169740.6	14.7	
2013-04-29-09-12	  -34.0	  -4.0	   27750525070.8	46874587637.3	12.8	
2013-04-29-09-12	  -12.0	  55.5	   10437944579.2	27102780943.4	19.6	
2013-04-29-12-15	  -32.0	   3.5	  243644314956.3	471771318144.7	14.8	
2013-04-29-15-18	  -32.0	   3.5	  237465101270.7	456913201604.9	14.7	
2013-04-29-15-18	   56.0	 -62.5	    4281901335.3	14747003185.9	26.2	
2013-04-29-18-21	  -32.0	   3.5	  222034524135.2	423342171096.5	14.6	
2013-04-29-21-24	  -32.0	   3.5	  209703731127.6	396179694876.7	14.5	
2013-04-29-21-24	   -6.0	 -51.5	    9663280899.0	31382192928.4	24.7	
2013-04-30-00-03	  -32.0	   3.5	  175786195127.1	332463076445.3	14.4	
2013-04-30-00-03	   -5.5	 -52.5	   72544123134.7	201988211421.0	21.2	
2013-04-30-03-06	   -5.0	 -52.5	  147479729428.2	433563385184.9	22.3	
2013-04-30-03-06	  -32.0	   3.5	  151123086346.7	279537240790.9	14.0	
2013-04-30-06-09	   -4.5	 -53.0	  190153199048.1	586309258267.2	23.2	
2013-04-30-06-09	  -32.0	   3.0	  126458215285.8	224006026106.8	13.3	
2013-04-30-06-09	  -13.5	 -47.0	   60992050645.0	169163581229.7	20.7	
2013-04-30-06-09	  174.5	  43.5	   20011311219.4	42690647492.9	15.9	
2013-04-30-09-12	   -4.0	 -53.0	  232432991789.1	747172855423.7	24.1	
2013-04-30-09-12	  -12.5	 -47.5	   79923337628.1	214987444097.6	20.0	
2013-04-30-09-12	  174.5	  44.0	   61708262254.3	130539435433.1	15.7	
2013-04-30-09-12	  -32.0	   3.0	   70969138518.1	129343808628.3	13.5	
2013-04-30-09-12	   36.0	 -60.0	   26553070864.3	74788297005.2	20.9	
2013-04-30-12-15	   -4.0	 -53.5	  252631257845.7	882321816470.1	26.2	
2013-04-30-12-15	  174.0	  44.5	  107281621254.1	223704092560.9	15.5	
2013-04-30-12-15	   38.0	 -60.0	   32502218786.3	93811780905.5	21.4	
2013-04-30-12-15	  -10.5	 -48.0	   27047295748.0	76053985970.7	20.8	
2013-04-30-12-15	  -31.5	   2.5	   33960319343.5	58533753897.9	12.8	
2013-04-30-12-15	    3.5	 -54.0	   14622133311.2	45800480613.9	23.2	
2013-04-30-15-18	   -3.5	 -53.0	  268151382965.7	976168293825.9	27.3	
2013-04-30-15-18	  173.5	  45.0	  146156737287.3	313250515738.8	15.9	
2013-04-30-15-18	    3.5	 -54.5	   23619015720.5	74868347888.4	23.5	
2013-04-30-15-18	   39.5	 -60.5	   10748516253.2	30045329132.1	20.7	
2013-04-30-15-18	  -10.5	 -48.0	    6205003596.6	16899170256.7	20.2	
2013-04-30-15-18	  -31.5	   2.5	    6176271884.0	9763396344.9	11.7	
2013-04-30-18-21	   -4.0	 -53.0	  283112576094.7	1057991984391.7	28.1	
2013-04-30-18-21	  173.0	  45.0	  156201254083.6	344991300807.6	16.4	
2013-04-30-18-21	    3.5	 -54.5	   16329840955.1	54509691228.2	24.8	
2013-04-30-21-24	   -4.5	 -52.5	  306462660443.2	1173460477057.9	28.8	
2013-04-30-21-24	  172.5	  45.5	  136264748492.6	310344882328.1	16.9	
