2017-10-01-00-03	  -35.0	  55.5	   88964589340.8	338731845601.0	27.2	
2017-10-01-00-03	  -45.0	  42.0	  110392262982.7	313702325528.7	20.3	
2017-10-01-00-03	 -166.5	 -30.0	  153010088204.7	264251989697.6	12.3	
2017-10-01-00-03	 -162.0	  44.5	   52833957737.7	145493974673.8	19.7	
2017-10-01-00-03	 -172.5	 -44.0	   33742866459.9	82740957435.3	17.5	
2017-10-01-00-03	  169.5	 -34.0	   17937946864.2	38215486415.5	15.2	
2017-10-01-00-03	  -49.5	  39.5	    7155455538.3	15934983555.7	15.9	
2017-10-01-03-06	  -43.5	  42.0	  146341070536.5	419443173477.6	20.5	
2017-10-01-03-06	  -35.0	  55.5	   90225329407.1	344931789187.4	27.3	
2017-10-01-03-06	 -165.5	 -30.0	  107437113350.7	181563253909.3	12.0	
2017-10-01-03-06	  169.5	 -34.5	   28157673216.1	60161403312.5	15.2	
2017-10-01-03-06	 -161.5	  44.5	   21856722705.2	54436569075.0	17.7	
2017-10-01-03-06	 -173.0	 -43.5	   18011438106.0	32165661202.7	12.7	
2017-10-01-03-06	  173.0	 -33.0	    2592396031.4	6460591256.1	17.7	
2017-10-01-06-09	  -42.0	  42.5	  177274951810.9	524470494004.6	21.0	
2017-10-01-06-09	  -34.5	  55.5	   81406938466.9	295132427883.0	25.7	
2017-10-01-06-09	 -164.5	 -29.0	   62172665446.2	103521101425.1	11.8	
2017-10-01-06-09	  173.0	 -33.5	   33700359112.3	79592669415.0	16.7	
2017-10-01-06-09	  169.5	 -34.5	   35784418013.6	70601031059.7	13.9	
2017-10-01-06-09	 -173.0	 -43.5	   13508578579.5	25199271512.0	13.2	
2017-10-01-09-12	  -41.5	  43.0	  192657512192.1	526603472278.0	19.4	
2017-10-01-09-12	  -34.5	  55.5	   62309575571.0	217345585637.9	24.6	
2017-10-01-09-12	  173.0	 -33.5	   41520730355.9	100216185668.2	17.0	
2017-10-01-09-12	  169.5	 -34.5	   35784418013.6	68298518730.3	13.4	
2017-10-01-09-12	 -164.0	 -28.5	   35312121131.6	59161994588.8	11.8	
2017-10-01-09-12	 -173.0	 -43.5	    9024202086.6	17729695923.9	13.8	
2017-10-01-12-15	  -40.5	  43.5	  186621234469.8	459510549632.8	17.4	
2017-10-01-12-15	  -34.5	  56.0	   44982529455.7	145422470137.1	22.7	
2017-10-01-12-15	 -177.0	 -35.0	   76379374250.3	139927950636.5	12.9	
2017-10-01-12-15	  173.0	 -33.5	   49238365345.2	116408123334.6	16.6	
2017-10-01-12-15	  170.0	 -35.0	   35428492996.5	70987741315.3	14.1	
2017-10-01-12-15	 -173.0	 -43.0	    4521342560.1	8791309303.4	13.6	
2017-10-01-15-18	 -177.0	 -34.5	  194327135047.8	377072097996.7	13.7	
2017-10-01-15-18	  -41.5	  43.0	   83731227427.6	185677471332.4	15.6	
2017-10-01-15-18	  -36.5	  45.0	   48026089189.9	117901735153.4	17.2	
2017-10-01-15-18	  173.5	 -33.5	   46557823784.1	114406943450.5	17.2	
2017-10-01-15-18	  171.5	 -36.5	   32396757768.3	65859273254.7	14.3	
2017-10-01-15-18	  -34.5	  56.0	   19057663958.2	58114157109.2	21.4	
2017-10-01-15-18	 -180.0	 -33.5	   12946598847.4	27751392188.2	15.0	
2017-10-01-15-18	  178.0	 -46.0	   10736217138.3	18153663561.6	11.8	
2017-10-01-15-18	  179.0	 -34.0	    5140225619.7	5027621134.2	6.9	
2017-10-01-15-18	 -172.5	 -43.0	    2260671280.0	4288843367.1	13.3	
2017-10-01-18-21	 -176.5	 -34.5	  291568925347.7	564974955157.0	13.7	
2017-10-01-18-21	  171.5	 -37.0	   49660756249.4	109764414589.7	15.5	
2017-10-01-18-21	  173.0	 -33.5	   31093370514.1	71220042212.4	16.1	
2017-10-01-18-21	  178.0	 -46.0	   23716287154.9	52449826596.6	15.5	
2017-10-01-18-21	  -41.0	  43.0	   24866869306.6	50679411787.8	14.3	
2017-10-01-18-21	 -179.5	 -33.5	   28730469647.1	45117698866.5	11.0	
2017-10-01-18-21	  179.0	 -34.0	   20663837899.4	19004152504.4	6.5	
2017-10-01-18-21	 -173.0	 -43.5	    6745047773.0	16643061436.3	17.3	
2017-10-01-18-21	  -36.0	  45.0	    6518852762.2	12033369570.7	13.0	
2017-10-01-18-21	  176.5	 -34.5	    5094876145.7	10043407337.0	13.8	
2017-10-01-18-21	  175.5	 -34.0	    2562619479.0	9076746678.6	24.8	
2017-10-01-21-24	 -176.5	 -33.5	  378454658061.4	716320687626.7	13.4	
2017-10-01-21-24	  171.5	 -37.0	   57082261789.7	127739131796.2	15.8	
2017-10-01-21-24	  178.5	 -34.0	   53929614037.6	100216267943.9	13.1	
2017-10-01-21-24	  177.5	 -46.0	   23638671642.5	52982774886.6	15.8	
2017-10-01-21-24	 -173.0	 -43.5	   15750766825.9	40853170223.3	18.3	
2017-10-02-00-03	 -176.5	 -33.0	  423967101114.0	796822356639.8	13.4	
2017-10-02-00-03	  174.5	 -46.5	   80694863656.7	202018931977.3	17.7	
2017-10-02-00-03	  171.0	 -37.0	   49564868477.0	110027839374.5	15.7	
2017-10-02-00-03	  179.0	 -33.5	   41236588098.9	75875947996.5	13.0	
2017-10-02-00-03	 -172.5	 -43.5	   20308730182.5	53709957987.2	18.6	
2017-10-02-00-03	 -178.5	 -33.0	   12961782832.9	20854901477.3	11.3	
2017-10-02-00-03	 -180.0	  44.0	   11098685347.1	20299176928.3	12.9	
2017-10-02-03-06	 -176.0	 -33.0	  451850573066.9	847922248361.6	13.3	
2017-10-02-03-06	  175.5	 -46.5	  121155727575.1	327115656061.2	19.0	
2017-10-02-03-06	  176.0	 -51.0	   45219005940.6	113751301357.0	17.7	
2017-10-02-03-06	 -172.5	 -43.5	   27090571387.3	73159175841.2	19.0	
2017-10-02-03-06	  171.0	 -37.0	   17345070384.8	36480245833.0	14.8	
2017-10-02-03-06	 -178.0	  44.0	   17656189075.0	34259126263.2	13.6	
2017-10-02-03-06	  179.0	 -34.0	   18101218420.4	17281101053.1	6.7	
2017-10-02-03-06	 -180.0	  43.5	    6689259850.1	11336583298.1	11.9	
2017-10-02-06-09	 -174.0	 -33.0	  418003923117.8	786922398897.3	13.3	
2017-10-02-06-09	  176.0	 -46.5	  140613560937.3	393464289942.6	19.6	
2017-10-02-06-09	  176.5	 -51.0	   62913161151.6	155647419340.4	17.3	
2017-10-02-06-09	 -179.5	 -30.5	   64005897206.3	100822968209.9	11.0	
2017-10-02-06-09	 -172.5	 -43.5	   22569401462.6	59773101120.4	18.5	
2017-10-02-06-09	 -177.0	  44.5	   13209118024.1	26909719126.1	14.2	
2017-10-02-06-09	  -60.5	  38.5	    7240424725.7	24890883120.4	24.0	
2017-10-02-06-09	 -178.5	 -32.5	    2606988598.1	1619011083.8	4.3	
2017-10-02-09-12	 -172.5	 -33.0	  456154606084.1	837249554573.0	12.9	
2017-10-02-09-12	  176.5	 -46.5	  130367366109.0	366009767562.4	19.6	
2017-10-02-09-12	 -174.0	  47.5	  137128323046.4	334077680305.9	17.0	
2017-10-02-09-12	  -59.5	  39.0	   43135528877.5	113902733929.0	18.4	
2017-10-02-09-12	  175.5	 -51.0	   29324057671.4	80243014141.2	19.0	
2017-10-02-09-12	 -179.5	 -30.0	   29511763481.5	46161591869.8	10.9	
2017-10-02-12-15	 -171.0	 -32.5	  475916939773.8	842572345692.2	12.4	
2017-10-02-12-15	 -172.5	  47.0	  204482182665.8	527794725260.5	18.0	
2017-10-02-12-15	  176.5	 -46.0	  111413518987.8	300560207518.0	18.8	
2017-10-02-12-15	  -59.5	  39.5	   54854678270.0	144685803401.8	18.3	
2017-10-02-12-15	  175.5	 -51.5	    3869519871.1	17163643103.6	30.7	
2017-10-02-12-15	 -180.0	 -30.0	   10720988750.3	14202350143.9	9.2	
2017-10-02-12-15	 -180.0	 -46.0	    2147243427.7	2624613339.1	8.5	
2017-10-02-15-18	 -169.5	 -32.5	  449877643960.0	806064635283.0	12.5	
2017-10-02-15-18	 -170.5	  47.5	  181013787851.7	440535584315.8	16.9	
2017-10-02-15-18	  176.5	 -46.0	   79385130718.9	212828511817.8	18.6	
2017-10-02-15-18	  -58.5	  40.0	   45056628513.8	112596624193.4	17.3	
2017-10-02-15-18	 -174.0	 -49.0	   34594159586.1	76178665029.8	15.2	
2017-10-02-15-18	 -173.0	 -43.5	   13471442456.4	35194404971.1	18.1	
2017-10-02-15-18	 -180.0	 -46.0	    2147243427.7	2652033992.4	8.5	
2017-10-02-18-21	 -168.5	 -32.5	  423426115826.4	783613776368.6	12.9	
2017-10-02-18-21	 -168.5	  48.0	  138489722584.3	358828619374.2	18.0	
2017-10-02-18-21	 -173.0	 -48.5	  115223408188.1	262152576581.4	15.8	
2017-10-02-18-21	  -58.0	  40.0	   56860206157.4	139184341090.2	16.9	
2017-10-02-18-21	  176.5	 -46.5	   53523567847.4	131513974256.8	17.0	
2017-10-02-18-21	 -173.0	 -43.5	   42766553219.9	121507457551.3	19.6	
2017-10-02-18-21	  -38.0	 -44.0	    8950099896.3	19084766709.8	14.7	
2017-10-02-18-21	  -53.5	 -39.5	    7189588322.7	18239433250.4	17.5	
2017-10-02-18-21	  -55.5	  39.0	    4804437582.1	10565559617.2	15.2	
2017-10-02-18-21	  165.0	 -50.0	    1986906671.9	1966138245.5	6.8	
2017-10-02-21-24	 -167.5	 -32.5	  397849198378.3	750779838867.0	13.1	
2017-10-02-21-24	 -171.0	 -48.0	  145971021850.1	326042068730.1	15.5	
2017-10-02-21-24	 -168.0	  48.0	  132162218108.4	315268765727.1	16.5	
2017-10-02-21-24	  -57.0	  40.0	   75487572256.0	181960651533.4	16.7	
2017-10-02-21-24	  -53.0	 -40.0	   54903869570.8	135267913168.7	17.0	
2017-10-02-21-24	 -172.5	 -43.0	   47397926014.6	126889076733.3	18.5	
2017-10-02-21-24	  176.5	 -46.5	   38513003412.6	91144123271.2	16.3	
2017-10-02-21-24	  -53.5	  39.0	   14362111911.4	32131957086.2	15.4	
2017-10-02-21-24	  -37.5	 -44.5	    8856495442.5	17965340000.9	14.0	
2017-10-02-21-24	  164.5	 -50.0	    3973813343.7	5692803685.8	9.9	
2017-10-03-00-03	 -167.0	 -32.5	  427442863039.4	789206971531.8	12.9	
2017-10-03-00-03	 -170.5	 -47.5	  142488484403.0	309414089902.4	15.0	
2017-10-03-00-03	  -52.0	 -40.0	  114639934161.3	304582999892.4	18.4	
2017-10-03-00-03	  -56.0	  40.5	   98305480324.2	233668649497.3	16.4	
2017-10-03-00-03	 -172.5	 -43.0	   38393066084.8	102795798395.7	18.5	
2017-10-03-00-03	 -168.5	  49.0	   38426330718.1	88574416540.1	15.9	
2017-10-03-00-03	  176.0	 -46.5	   21394490812.3	48822441628.6	15.7	
2017-10-03-00-03	   23.0	 -38.5	   12095328383.1	24539399203.2	14.0	
2017-10-03-00-03	  -15.5	  62.0	    2902346807.7	9635368227.6	22.9	
2017-10-03-00-03	 -166.0	  46.5	    4235867860.6	8691661509.1	14.1	
2017-10-03-00-03	  164.5	 -50.0	    3973813343.7	5367615340.5	9.3	
2017-10-03-03-06	 -166.5	 -32.0	  420194858388.8	749990071049.4	12.4	
2017-10-03-03-06	  -50.5	 -39.5	  160151825407.3	420026102124.8	18.1	
2017-10-03-03-06	  -54.5	  41.0	  121116455896.0	298082603295.7	17.0	
2017-10-03-03-06	 -168.0	 -45.5	   86359285641.2	181852102228.2	14.5	
2017-10-03-03-06	 -173.0	 -49.0	   48849587845.6	107077494576.0	15.1	
2017-10-03-03-06	 -172.5	 -43.0	   27090571387.3	76426212511.4	19.4	
2017-10-03-03-06	  176.5	 -46.0	    8588973710.6	17232593448.9	13.8	
2017-10-03-03-06	 -101.0	 -42.5	    6855081692.4	15592957355.4	15.6	
2017-10-03-03-06	 -176.0	 -50.5	    1966167587.6	2073415795.9	7.2	
2017-10-03-06-09	 -166.5	 -31.5	  387404373443.4	664364729675.9	11.9	
2017-10-03-06-09	  -50.0	 -39.5	  191405113341.1	470254486887.6	16.9	
2017-10-03-06-09	 -176.0	 -50.0	  122666473613.3	290136841959.2	16.3	
2017-10-03-06-09	  -53.5	  41.0	  111770051637.0	267224106224.3	16.4	
2017-10-03-06-09	 -166.5	 -45.0	   67864988577.6	143574029589.7	14.5	
2017-10-03-06-09	 -172.5	 -43.5	   27090571387.3	75739271215.5	19.2	
2017-10-03-09-12	 -166.5	 -31.5	  320171331647.1	527698193999.5	11.4	
2017-10-03-09-12	  -49.5	 -39.5	  189696463112.0	427859380234.8	15.5	
2017-10-03-09-12	 -171.5	 -48.5	  148196497818.6	324080289088.4	15.1	
2017-10-03-09-12	  -53.0	  41.0	   90421600287.3	186932286774.2	14.2	
2017-10-03-09-12	 -172.5	 -43.5	   24811589709.0	67856152467.2	18.8	
2017-10-03-09-12	 -176.5	 -50.0	   13887305092.5	37468583961.7	18.5	
2017-10-03-12-15	  -49.0	 -39.0	  173694292465.5	359096031786.9	14.2	
2017-10-03-12-15	 -169.5	 -47.5	  130260825429.3	266264155014.5	14.0	
2017-10-03-12-15	 -168.0	 -31.0	  162325804647.4	261022628730.0	11.0	
2017-10-03-12-15	  -51.5	  42.0	   59627935923.9	108286288234.9	12.4	
2017-10-03-12-15	 -172.5	 -43.5	   22569401462.6	60426820787.1	18.3	
2017-10-03-12-15	   23.0	 -37.0	   27219083181.5	56303760715.9	14.1	
2017-10-03-12-15	 -163.0	 -32.0	   18448638983.2	27934125588.1	10.3	
2017-10-03-12-15	 -164.0	 -37.5	    4920961262.9	7578758977.2	10.5	
2017-10-03-15-18	  -48.5	 -39.0	  132970861835.9	269903751932.0	13.8	
2017-10-03-15-18	   30.0	 -44.0	  111343789795.7	257369855419.9	15.7	
2017-10-03-15-18	 -167.5	 -46.0	  111658809454.6	233689846482.0	14.3	
2017-10-03-15-18	  -48.5	  45.0	   72479453981.4	183134455832.4	17.2	
2017-10-03-15-18	   14.5	 -43.5	   83232728484.0	164999880581.4	13.5	
2017-10-03-15-18	 -168.5	 -30.5	   90630797812.6	144862141507.1	10.9	
2017-10-03-15-18	   23.0	 -36.5	   42045209348.8	89537720123.2	14.5	
2017-10-03-15-18	   11.5	 -40.0	   28517603114.6	57019032597.2	13.6	
2017-10-03-15-18	 -172.5	 -43.5	    9005719053.0	23387868777.1	17.6	
2017-10-03-18-21	   14.5	 -42.5	  227607938933.8	466283189914.1	14.0	
2017-10-03-18-21	  -47.0	  45.5	   99783375353.8	278601370802.3	19.0	
2017-10-03-18-21	 -166.5	 -46.0	  112398835157.1	241245442002.6	14.6	
2017-10-03-18-21	  -48.5	 -39.0	  103669228884.3	209971961830.8	13.8	
2017-10-03-18-21	   31.0	 -43.5	   87490379715.9	191041083436.5	14.8	
2017-10-03-18-21	   23.5	 -37.0	   27299591118.5	48656256861.3	12.1	
2017-10-03-18-21	 -169.5	 -30.5	   13370966490.5	21033375069.4	10.7	
2017-10-03-18-21	  -41.5	  49.0	    4055859522.2	12713014839.9	21.3	
2017-10-03-18-21	 -168.0	 -31.0	    7989885676.1	11978519924.0	10.2	
2017-10-03-21-24	   15.5	 -41.5	  306858688626.2	613000103701.5	13.7	
2017-10-03-21-24	  -46.5	  45.5	  160590568947.9	455471838892.6	19.4	
2017-10-03-21-24	  -48.5	 -38.5	  166051715332.8	324536315319.3	13.4	
2017-10-03-21-24	 -165.5	 -45.5	   84624189229.1	179050190916.2	14.4	
2017-10-03-21-24	   32.0	 -42.5	   13691852986.5	30156911327.8	15.0	
2017-10-03-21-24	   23.5	 -37.0	   12423731977.3	14685562217.6	8.0	
2017-10-04-00-03	  -48.5	 -38.5	  241733792135.1	510669921975.3	14.5	
2017-10-04-00-03	   17.5	 -41.5	  240751774829.5	455536018460.9	13.0	
2017-10-04-00-03	  -46.0	  46.0	  165839633489.5	450396007971.8	18.7	
2017-10-04-00-03	 -165.0	 -45.5	   30542140232.4	60361742030.4	13.5	
2017-10-04-00-03	   23.0	 -36.5	    2484784349.4	2011992625.0	5.5	
2017-10-04-03-06	  -48.5	 -39.0	  295132386198.9	610218045625.4	14.3	
2017-10-04-03-06	   21.5	 -38.5	  257368140666.9	511344008892.7	13.7	
2017-10-04-03-06	  -45.5	  46.5	  178064125517.1	446699263750.2	17.3	
2017-10-04-06-09	  -48.5	 -41.0	  337012250341.0	664944723591.8	13.7	
2017-10-04-06-09	   23.0	 -37.5	  229434253305.4	487430941033.5	14.8	
2017-10-04-06-09	  -44.5	  48.0	  151903240087.9	365271345455.7	16.7	
2017-10-04-09-12	  -49.0	 -43.5	  192433039849.7	390698647787.0	14.1	
2017-10-04-09-12	   23.0	 -37.0	  155087840297.5	333622373044.0	15.0	
2017-10-04-09-12	  -44.0	  48.0	  105896157789.9	248814605581.4	16.3	
2017-10-04-09-12	  158.5	 -61.5	    4472103172.0	13740298070.6	21.3	
2017-10-04-12-15	   23.0	 -38.5	   94670738589.8	185626415790.2	13.7	
2017-10-04-12-15	  -49.0	 -44.5	   75365028816.6	150238918981.2	13.9	
2017-10-04-12-15	  -44.5	  48.0	   45360611303.8	115467645432.4	17.7	
2017-10-04-12-15	  -41.0	  48.0	   26827352088.7	60763847265.0	15.8	
2017-10-04-12-15	  158.5	 -61.5	    2973518987.9	8529999709.4	19.9	
2017-10-04-15-18	   23.0	 -38.0	   56064451673.9	103423095700.7	12.9	
2017-10-04-15-18	  -44.0	  48.0	   16466181401.7	40896574310.8	17.3	
2017-10-04-15-18	  -40.5	  48.0	   12309230911.7	27008990456.2	15.3	
2017-10-04-18-21	   23.0	 -38.5	   16933349522.4	34565820174.4	14.3	
2017-10-04-18-21	   26.5	 -44.5	    6651782878.2	13871157279.5	14.6	
2017-10-04-18-21	   23.5	 -37.0	    2468644329.0	4743020480.0	13.5	
2017-10-04-21-24	   26.5	 -44.5	   13284743163.7	26734893025.3	14.2	
2017-10-04-21-24	 -163.5	 -59.0	    3184045639.3	11850372703.3	26.2	
2017-10-05-00-03	   26.5	 -44.5	    6614137692.8	12920616708.8	13.8	
2017-10-05-06-09	  -48.5	 -39.5	   26270072753.9	49097810795.2	13.3	
2017-10-05-09-12	  -48.5	 -39.5	   21483067285.6	41695039599.4	13.9	
2017-10-05-12-15	   34.5	 -33.0	    5199384629.5	8638086656.6	12.0	
2017-10-05-15-18	   34.5	 -33.0	   25952354862.1	61252560674.8	17.0	
2017-10-05-18-21	   35.0	 -33.0	   36437288121.8	83415918987.0	16.5	
2017-10-05-21-24	   35.0	 -33.0	   36379316924.1	82387493953.2	16.3	
2017-10-06-00-03	   35.0	 -33.0	   38971712955.4	86172914030.1	16.0	
2017-10-06-03-06	   35.0	 -33.0	   44141321032.6	98367246843.0	16.1	
2017-10-06-06-09	   35.0	 -33.0	   41534332434.4	89683455572.3	15.6	
2017-10-06-09-12	   34.5	 -33.0	   25922972404.7	49750634811.4	14.0	
2017-10-06-12-15	   34.5	 -33.5	   18116995114.4	28850767005.4	11.7	
2017-10-06-15-18	   34.5	 -33.0	    2592396031.4	2715159688.5	7.7	
2017-10-07-00-03	  -51.0	 -39.5	   33459296644.7	64321289570.4	14.3	
2017-10-07-00-03	   50.5	 -57.0	    1683521749.1	4106168549.2	18.2	
2017-10-07-03-06	  -50.5	 -39.0	   77031758510.7	152461522308.2	14.8	
2017-10-07-03-06	  161.5	 -39.5	    9540424431.5	17200962115.7	13.5	
2017-10-07-06-09	  -50.0	 -38.0	   60870946693.1	113521972076.0	14.0	
2017-10-07-09-12	  -49.0	 -36.5	    4969568698.9	9384498559.3	14.3	
2017-10-07-18-21	   75.0	 -57.5	   16698968060.1	56258273061.5	25.8	
2017-10-07-18-21	  179.0	  37.0	   14713529064.8	31563283836.7	16.4	
2017-10-07-21-24	   75.0	 -58.0	   23387425902.1	77494796994.2	25.5	
2017-10-07-21-24	 -179.5	  37.0	   34378802830.6	66084461910.0	14.8	
2017-10-07-21-24	  179.0	  37.0	   14713529064.8	33644431195.1	17.6	
2017-10-07-21-24	  148.5	  36.0	    2500734600.0	6555730513.9	20.1	
2017-10-08-00-03	 -179.0	  36.5	   81227306536.1	175299126664.2	16.7	
2017-10-08-00-03	   75.0	 -58.0	   33442543833.4	109582285685.5	25.3	
2017-10-08-00-03	  149.0	  36.0	    7486253549.3	17454975814.6	18.0	
2017-10-08-03-06	 -178.5	  37.0	   98554729243.3	213582481093.5	16.8	
2017-10-08-03-06	   75.0	 -58.0	   35126065582.5	115929536436.6	25.5	
2017-10-08-03-06	  150.5	  36.0	    2484784349.4	5314022947.4	16.5	
2017-10-08-06-09	 -178.0	  37.0	   86102299822.6	176913981911.7	15.9	
2017-10-08-06-09	   75.0	 -58.0	   25093506131.1	82770812815.5	25.6	
2017-10-08-09-12	 -177.5	  37.0	   44271017691.0	86051662923.7	15.1	
2017-10-08-09-12	   75.0	 -57.5	   10033068698.0	33770378997.9	26.1	
2017-10-09-03-06	  -44.5	 -35.5	    5032989055.8	9054767050.3	14.2	
2017-10-09-06-09	  -43.5	 -36.0	   15035927455.6	26438162072.0	13.9	
2017-10-09-12-15	  160.5	  37.0	    2468644697.5	5994718552.6	19.4	
2017-10-10-00-03	  164.0	  35.5	    2516494527.9	4378498735.1	14.0	
2017-10-10-03-06	  164.5	  35.5	    2516494527.9	5028489542.8	16.2	
2017-10-10-12-15	  -49.0	 -39.5	   43187086406.0	96110775466.8	18.1	
2017-10-10-15-18	  -48.5	 -39.0	  101171400527.1	233126069837.6	18.7	
2017-10-10-18-21	  -48.0	 -39.0	  161502314098.4	363503871447.7	18.1	
2017-10-10-18-21	  -45.5	 -46.5	   47275049833.1	116828142555.4	19.8	
2017-10-10-21-24	  -47.5	 -39.0	  214705437447.7	467378779863.1	17.4	
2017-10-10-21-24	  -44.5	 -46.5	  180728375426.2	455662515322.8	20.1	
2017-10-10-21-24	 -173.0	 -48.0	   10461158410.1	23566937634.7	17.9	
2017-10-11-00-03	  -45.0	 -44.5	  689857479320.5	1573043828818.0	18.2	
2017-10-11-00-03	 -171.5	 -47.5	  108869957195.1	261330685199.7	18.8	
2017-10-11-03-06	  -45.0	 -44.5	  859159430737.0	1958416605063.6	18.0	
2017-10-11-03-06	 -170.0	 -47.5	  171804580030.4	428894270538.0	19.3	
2017-10-11-06-09	  -45.0	 -44.0	  971614379926.4	2132193149383.9	17.1	
2017-10-11-06-09	 -169.0	 -47.0	  176923238395.4	442488099423.5	19.1	
2017-10-11-06-09	  173.0	 -47.0	   10599492545.8	23533194718.4	16.8	
2017-10-11-09-12	  -45.5	 -43.5	  917814922601.0	1953575203246.0	16.4	
2017-10-11-09-12	 -168.0	 -46.5	  170187551252.1	417668589732.0	18.5	
2017-10-11-09-12	  173.5	 -46.5	   34043312160.5	86719460381.2	19.1	
2017-10-11-09-12	  -37.5	 -51.0	   17674319836.7	46132313406.8	19.5	
2017-10-11-12-15	  -45.5	 -43.0	  705892710091.0	1476520451996.6	15.8	
2017-10-11-12-15	 -167.0	 -46.0	  158307153839.9	379616934108.0	17.8	
2017-10-11-12-15	  174.0	 -46.5	   57524641726.5	156670796344.1	20.1	
2017-10-11-12-15	  -45.0	 -36.5	   69747134537.6	123211905047.8	13.1	
2017-10-11-12-15	  167.0	  44.5	   41717290496.9	86715565845.9	15.4	
2017-10-11-12-15	  172.0	  46.5	   35994085173.3	81404097081.2	16.7	
2017-10-11-12-15	  -40.0	 -44.0	   17787942249.3	32393669111.1	13.4	
2017-10-11-12-15	  -40.0	 -45.5	   10928444261.8	17475300621.9	11.8	
2017-10-11-15-18	  -47.5	 -42.5	  437415133889.6	900986145976.3	15.2	
2017-10-11-15-18	  173.0	  46.5	  143704834346.6	355916353438.1	18.1	
2017-10-11-15-18	 -166.0	 -46.0	  140123173274.2	323779728789.1	16.9	
2017-10-11-15-18	  174.5	 -46.5	   61916713781.3	167905381979.8	19.8	
2017-10-11-15-18	  167.5	  44.5	   74726322911.2	161694416982.4	15.8	
2017-10-11-15-18	  -32.0	 -54.5	   19941453978.8	59812749616.2	21.8	
2017-10-11-15-18	  -41.5	 -47.0	   25571738941.2	52276891553.5	14.9	
2017-10-11-15-18	  -45.0	 -36.0	   27507509631.7	48035870270.5	12.7	
2017-10-11-15-18	  -33.5	 -52.5	   11333032171.8	31491855345.7	20.2	
2017-10-11-15-18	  160.0	  45.5	    8608295048.0	18627446641.2	15.7	
2017-10-11-18-21	  171.5	  46.0	  433687419469.2	1056123435044.9	17.8	
2017-10-11-18-21	  -49.0	 -42.5	  280016373090.4	581360811114.8	15.1	
2017-10-11-18-21	  -32.5	 -53.5	   83028317213.0	258341062102.9	22.5	
2017-10-11-18-21	 -165.5	 -45.5	  108273759558.5	245656562658.4	16.4	
2017-10-11-18-21	  174.5	 -46.5	   51201120022.9	133708901901.6	18.8	
2017-10-11-18-21	  167.0	  53.5	   18124841269.8	44206320257.4	17.6	
2017-10-11-18-21	  -43.5	 -42.5	   20655578672.1	37998208150.1	13.2	
2017-10-11-21-24	  172.5	  46.0	  513393631981.3	1294766287750.9	18.3	
2017-10-11-21-24	  -49.0	 -43.0	  232719458450.7	471133544293.5	14.5	
2017-10-11-21-24	  -32.0	 -53.0	   97754263860.6	286523060396.4	21.0	
2017-10-11-21-24	 -164.5	 -45.5	   91023816024.2	204220586593.0	16.1	
2017-10-11-21-24	  168.0	  54.0	   34300894188.2	98450805894.7	20.5	
2017-10-11-21-24	  -30.0	  64.0	   18800071981.4	84061913852.0	31.9	
2017-10-11-21-24	  174.5	 -46.5	   29807444668.4	73566063533.8	17.6	
2017-10-11-21-24	 -180.0	  49.5	    2007494677.2	4314925990.6	15.3	
2017-10-12-00-03	  173.0	  46.0	  516204982289.2	1282219694142.2	17.9	
2017-10-12-00-03	  -48.5	 -42.5	  141834072000.0	275687504789.8	13.8	
2017-10-12-00-03	  -30.5	  64.0	   44616748288.5	211134095687.0	33.7	
2017-10-12-00-03	 -164.0	 -45.5	   62921878774.6	140919509390.2	15.9	
2017-10-12-00-03	  -27.5	 -54.5	   38088321451.7	107706419553.3	20.1	
2017-10-12-00-03	  -33.5	 -52.5	   32264928133.3	97919417705.0	21.6	
2017-10-12-00-03	 -179.5	  48.5	   34716148271.0	83531771614.6	17.1	
2017-10-12-00-03	  177.0	 -53.5	   18515411265.8	45114899730.8	17.3	
2017-10-12-00-03	   33.0	 -58.0	   14833444836.1	44440832133.1	21.3	
2017-10-12-00-03	  -47.5	 -48.0	    6205003596.6	10837138821.2	12.4	
2017-10-12-00-03	  170.5	  57.0	    1683521933.3	4800172434.6	20.2	
2017-10-12-03-06	  175.0	  46.0	  364271921799.2	894914821188.7	17.6	
2017-10-12-03-06	  166.5	  45.0	  123442552829.4	272382286352.3	15.7	
2017-10-12-03-06	  -30.0	  64.0	   46261148976.8	209423579311.8	32.1	
2017-10-12-03-06	 -179.0	  48.0	   80351710152.6	198442161893.1	17.5	
2017-10-12-03-06	  170.0	  56.5	   38921580727.7	143328972833.2	26.1	
2017-10-12-03-06	  -48.5	 -42.5	   59492790474.8	116130631680.2	13.8	
2017-10-12-03-06	  178.5	 -54.0	   45960767945.4	104272491940.9	16.1	
2017-10-12-03-06	  -33.5	 -52.0	   17127084118.9	64340700117.9	26.6	
2017-10-12-03-06	 -163.0	 -45.5	   21703636632.8	48654097457.2	15.9	
2017-10-12-03-06	   33.5	 -58.0	    4982503450.7	13451659639.4	19.1	
2017-10-12-06-09	  175.0	  46.0	  339125133076.1	794041573666.1	16.7	
2017-10-12-06-09	 -178.5	  47.5	  122127060283.6	296626431693.0	17.2	
2017-10-12-06-09	  166.0	  45.5	   90525283732.7	192009238515.5	15.0	
2017-10-12-06-09	  170.0	  56.5	   42130724999.7	169714381106.1	28.5	
2017-10-12-06-09	  -30.0	  64.0	   32736710333.6	142136777377.0	30.7	
2017-10-12-06-09	  179.0	 -55.0	   23333472114.3	64321211986.8	19.5	
2017-10-12-09-12	  175.5	  46.0	  294735955445.8	654234141665.4	15.7	
2017-10-12-09-12	 -178.0	  47.5	  149847710785.0	345376047701.7	16.3	
2017-10-12-09-12	  -36.0	  56.0	   75959944493.2	260323774334.4	24.2	
2017-10-12-09-12	  170.5	  57.0	   26776649630.1	108342754514.7	28.5	
2017-10-12-09-12	 -179.5	 -54.5	   41477999153.5	107823603857.7	18.3	
2017-10-12-09-12	  166.0	  46.0	   42846295997.4	87716661066.7	14.4	
2017-10-12-09-12	  -29.5	  63.5	   16356725819.8	66021981375.7	28.4	
2017-10-12-09-12	  179.5	 -55.0	    1794998103.8	5738555060.5	22.5	
2017-10-12-12-15	  -35.5	  56.0	  138143320698.8	600947828357.7	30.8	
2017-10-12-12-15	  176.0	  46.5	  225760991049.0	474100880121.6	14.8	
2017-10-12-12-15	 -177.5	  47.0	  186535678101.2	414197017235.0	15.7	
2017-10-12-12-15	 -178.5	 -54.5	   77831477895.0	207432192220.4	18.8	
2017-10-12-12-15	  170.5	  57.0	    9964757805.4	25837180568.5	18.2	
2017-10-12-15-18	  -34.5	  56.5	  178375978414.1	823495502288.3	32.8	
2017-10-12-15-18	 -177.0	  46.5	  205510666692.5	447338287397.2	15.4	
2017-10-12-15-18	 -177.5	 -54.5	   88819815926.1	244670147651.9	19.4	
2017-10-12-15-18	  178.0	  46.5	   95127777236.4	192938844840.2	14.3	
2017-10-12-15-18	  170.5	  57.0	    9964757805.4	23976018396.9	16.9	
2017-10-12-18-21	  -33.0	  57.5	  295464797438.2	1434002738772.5	34.5	
2017-10-12-18-21	 -176.5	  46.0	  236369028582.5	501195264514.7	14.9	
2017-10-12-18-21	 -176.5	 -54.5	   83610898400.1	228551787483.9	19.1	
2017-10-12-18-21	   36.5	 -37.0	   54482812583.0	118505371208.7	15.2	
2017-10-12-18-21	  179.0	  46.0	   31872372923.3	63393359021.9	13.9	
2017-10-12-18-21	  170.5	  57.0	    8281235872.1	18383445016.3	15.5	
2017-10-12-21-24	  -32.0	  58.0	  394142560206.1	2017623442074.8	36.4	
2017-10-12-21-24	 -176.0	  45.5	  229264236074.8	478107263917.9	14.5	
2017-10-12-21-24	   37.5	 -36.5	  117022229694.4	256528367735.2	15.2	
2017-10-12-21-24	 -176.0	 -54.0	   60366088800.3	159281749338.6	18.3	
2017-10-12-21-24	   -1.5	 -55.0	   10725931795.0	32039833309.0	20.7	
2017-10-12-21-24	   -5.0	 -55.5	    3501612083.7	7087868020.7	14.0	
2017-10-12-21-24	  170.5	  58.0	    3276043866.2	4232436735.4	8.9	
2017-10-13-00-03	  -31.0	  58.5	  432264537898.7	2153729594605.7	35.5	
2017-10-13-00-03	   38.5	 -36.0	  174907389790.2	364780301191.3	14.5	
2017-10-13-00-03	 -174.5	  45.0	  153436466118.8	328991774603.6	14.9	
2017-10-13-00-03	 -175.0	 -54.0	   34889319550.6	87872205111.4	17.4	
2017-10-13-00-03	   -3.0	 -55.0	   23048200266.0	57177119241.8	17.2	
2017-10-13-03-06	  -31.0	  59.5	  421802874387.5	2069776591609.7	34.9	
2017-10-13-03-06	   39.5	 -36.0	  205133377640.3	425330503196.7	14.4	
2017-10-13-03-06	 -174.0	  45.0	  162987116383.2	341846198229.0	14.6	
2017-10-13-03-06	   49.0	 -38.5	   21905151978.5	62112873174.4	19.6	
2017-10-13-03-06	   -3.5	 -55.0	   23070228679.9	55762970022.4	16.7	
2017-10-13-06-09	  -31.0	  60.5	  391709608090.9	1931755801857.8	35.0	
2017-10-13-06-09	 -173.5	  44.5	  166134565361.7	346124022070.6	14.5	
2017-10-13-06-09	   40.0	 -36.0	  145215514978.7	292554621343.0	14.0	
2017-10-13-06-09	   49.0	 -38.5	   21871937459.3	56386874080.1	17.9	
2017-10-13-09-12	  -30.5	  61.0	  371788531712.4	1772304340759.1	33.8	
2017-10-13-09-12	 -173.0	  44.5	  156026979743.5	318453350749.7	14.2	
2017-10-13-09-12	   40.0	 -36.0	   82646507031.6	158147347217.1	13.3	
2017-10-13-09-12	   49.5	 -38.5	    4854905131.3	12164323933.0	17.3	
2017-10-13-12-15	  -30.5	  61.5	  329165553132.6	1494429759051.5	32.0	
2017-10-13-12-15	 -172.0	  44.0	  147909696940.9	293420826359.1	13.8	
2017-10-13-12-15	   43.0	 -39.5	   98318178508.5	215895013127.5	15.2	
2017-10-13-12-15	   44.5	 -35.0	   20286285933.0	28921703768.3	9.9	
2017-10-13-15-18	  -29.5	  62.0	  267401799862.4	1119147891675.2	29.3	
2017-10-13-15-18	   43.0	 -40.0	  218893928428.7	533042330145.7	16.9	
2017-10-13-15-18	 -171.0	  44.0	  111148963193.4	221390603231.7	13.8	
2017-10-13-15-18	 -113.0	 -27.5	   32938469340.2	54218003295.6	11.3	
2017-10-13-15-18	 -110.0	 -28.0	    2729259726.9	4526278725.8	11.4	
2017-10-13-18-21	   43.5	 -40.0	  320815532403.9	853836269425.3	18.4	
2017-10-13-18-21	  -28.5	  61.5	  204145107693.6	772415827508.1	26.2	
2017-10-13-18-21	 -111.5	 -27.5	  109628840312.1	183191221658.5	11.5	
2017-10-13-18-21	 -169.5	  43.5	   65001066301.5	125315947633.4	13.2	
2017-10-13-18-21	   -2.0	 -54.5	    7201884305.5	17944092995.6	17.1	
2017-10-13-18-21	 -112.0	 -31.5	   10570296541.9	17912259561.7	11.6	
2017-10-13-21-24	   44.5	 -40.0	  371650336864.0	1067453587650.9	19.8	
2017-10-13-21-24	 -111.5	 -28.5	  219935862349.6	378356214211.9	11.8	
2017-10-13-21-24	  -25.5	  60.5	   75910179829.5	265658474720.8	23.9	
2017-10-13-21-24	  -30.0	  62.5	   42886288157.2	164033893208.5	26.1	
2017-10-13-21-24	 -169.5	  43.0	   45008065480.3	84558138702.5	12.8	
2017-10-13-21-24	   -1.5	 -54.5	    9040666189.7	20524110522.4	15.4	
2017-10-13-21-24	   45.0	 -44.5	    6651782878.2	17192140395.8	17.6	
2017-10-14-00-03	   44.5	 -40.5	  532845353095.2	1440203746770.6	18.6	
2017-10-14-00-03	 -112.0	 -29.0	  275651350797.3	492410322579.3	12.1	
2017-10-14-00-03	  -25.5	  60.5	   60504077573.4	211886859865.2	23.7	
2017-10-14-00-03	 -176.0	  45.0	   24042444831.8	51842621015.6	14.6	
2017-10-14-00-03	 -168.5	  42.5	   13637270378.7	24189917722.9	12.0	
2017-10-14-00-03	  -13.0	  68.5	    5588998130.0	22409262936.6	27.1	
2017-10-14-00-03	  -34.0	  36.0	    7470303298.8	16918648179.0	15.3	
2017-10-14-00-03	   44.5	 -36.0	    5032989055.8	4982811551.9	6.7	
2017-10-14-00-03	   -1.0	 -54.5	    1794998103.8	4603732509.8	17.3	
2017-10-14-03-06	   44.5	 -41.0	  619312973386.3	1703652172862.5	18.8	
2017-10-14-03-06	 -112.0	 -29.5	  307367314832.9	564151084556.3	12.4	
2017-10-14-03-06	  -24.5	  60.5	   45190823639.5	161876420081.0	24.1	
2017-10-14-03-06	 -175.5	  45.0	   61234373884.7	131913434128.8	14.5	
2017-10-14-03-06	  -34.0	  36.0	   37398228073.6	91428806024.5	16.4	
2017-10-14-03-06	  -13.0	  68.5	   10070252816.2	41927872292.0	27.9	
2017-10-14-06-09	   44.0	 -41.5	  658950944254.4	1845088166616.2	19.1	
2017-10-14-06-09	 -112.0	 -30.0	  325560760678.0	609025371765.8	12.6	
2017-10-14-06-09	 -175.0	  44.5	   79267999406.0	173064781029.2	14.6	
2017-10-14-06-09	  -34.0	  36.0	   59679266649.7	142232357057.7	15.9	
2017-10-14-06-09	  -24.0	  60.5	   31681055681.9	111256970772.1	23.5	
2017-10-14-06-09	  -13.0	  68.5	   10120447778.6	41668981016.4	27.5	
2017-10-14-09-12	   43.5	 -42.5	  697065392965.2	1989441223164.1	19.6	
2017-10-14-09-12	 -112.5	 -30.5	  330034397669.7	627417995943.0	12.8	
2017-10-14-09-12	 -174.5	  44.0	   81831150793.4	172183932684.5	14.1	
2017-10-14-09-12	  -34.0	  36.5	   69342724605.9	161955420569.9	15.7	
2017-10-14-09-12	  -24.0	  60.5	   10560696489.1	37278350036.6	23.6	
2017-10-14-09-12	  -13.0	  68.5	    6721882029.4	27565620254.2	27.4	
2017-10-14-12-15	   43.0	 -43.5	  707234701144.8	2041555539110.5	20.0	
2017-10-14-12-15	 -112.5	 -30.5	  319118816305.1	606151766965.5	12.9	
2017-10-14-12-15	  -33.5	  36.5	   73923279606.1	172115735146.4	15.7	
2017-10-14-12-15	 -174.5	  44.0	   77872071699.0	152259431723.7	13.2	
2017-10-14-12-15	  -13.0	  68.5	    4506395142.0	17775375891.2	26.6	
2017-10-14-15-18	   42.0	 -44.5	  597836713127.9	1780194348632.8	20.7	
2017-10-14-15-18	 -112.5	 -30.0	  268273577081.1	503240544569.9	12.8	
2017-10-14-15-18	  -33.0	  37.0	   71061308643.3	157726173148.9	15.1	
2017-10-14-15-18	   47.5	 -39.0	   57734186733.3	136838384294.2	16.1	
2017-10-14-15-18	 -174.5	  43.0	   56085367999.5	102259466225.6	12.4	
2017-10-14-18-21	   41.5	 -44.5	  552676652844.1	1662109338787.3	21.0	
2017-10-14-18-21	 -112.5	 -30.0	  206779688648.0	376542802061.5	12.5	
2017-10-14-18-21	  -32.5	  37.5	   63393216673.8	137677892164.5	14.9	
2017-10-14-18-21	   47.5	 -39.0	   31244807983.8	73704390759.9	16.2	
2017-10-14-18-21	 -174.5	  42.0	   29752676896.8	58816936202.7	13.5	
2017-10-14-21-24	   41.0	 -45.0	  514033650246.8	1524282423307.6	20.8	
2017-10-14-21-24	  -32.0	  37.5	   51033478784.9	107883219340.3	14.6	
2017-10-14-21-24	 -112.0	 -31.5	   52791081352.1	95919441831.9	12.5	
2017-10-14-21-24	    9.0	 -39.5	   45504338220.6	91870700541.2	13.9	
2017-10-14-21-24	 -113.0	 -27.5	   52154236665.4	90174225444.6	11.9	
2017-10-14-21-24	 -174.0	  41.5	   18484545286.9	36343467009.1	13.5	
2017-10-14-21-24	 -115.5	 -62.0	    7303389266.4	22351882173.6	21.1	
2017-10-15-00-03	   40.5	 -45.0	  481445031629.3	1394513699243.7	20.4	
2017-10-15-00-03	   11.0	 -39.0	   98697616382.2	204443336763.2	14.3	
2017-10-15-00-03	 -114.5	 -61.5	   23740063294.2	70984926139.0	20.7	
2017-10-15-00-03	  -31.5	  38.0	   26643163285.7	46420666805.7	12.0	
2017-10-15-00-03	 -174.0	  41.0	   13908093553.7	26666171077.8	13.2	
2017-10-15-00-03	  116.0	  19.0	    5836449854.6	12246626707.0	14.5	
2017-10-15-03-06	   40.0	 -45.5	  431901523686.9	1255155938771.8	20.4	
2017-10-15-03-06	   12.5	 -39.0	  110926344700.0	211206895827.5	13.2	
2017-10-15-03-06	 -113.0	 -60.5	   45657561738.0	138353046543.0	21.0	
2017-10-15-03-06	  -25.0	  37.0	   46820733923.6	107868480763.6	15.9	
2017-10-15-03-06	  115.0	  19.5	   32005099267.0	76563156054.0	16.6	
2017-10-15-06-09	   39.5	 -45.5	  400093462486.2	1125701409699.2	19.8	
2017-10-15-06-09	   14.5	 -40.5	  134622862807.9	283303165062.3	14.7	
2017-10-15-06-09	  -24.5	  37.5	   73697890472.4	172261057729.5	16.3	
2017-10-15-06-09	 -111.5	 -61.0	   48302660734.1	148565710057.4	21.4	
2017-10-15-06-09	  115.5	  19.5	    5818441429.9	17409215225.4	20.8	
2017-10-15-06-09	 -117.5	 -50.5	    1966167587.6	4258762789.7	15.0	
2017-10-15-09-12	   39.0	 -45.5	  329464442075.3	892917257461.5	19.1	
2017-10-15-09-12	   15.0	 -40.5	  173755938566.2	386136411904.9	15.6	
2017-10-15-09-12	 -110.5	 -61.0	   67994108188.2	211170969268.8	21.7	
2017-10-15-09-12	  -21.0	  38.0	   48547207966.2	120983340821.8	17.4	
2017-10-15-12-15	   38.5	 -45.5	  259526877148.1	668260141923.2	18.2	
2017-10-15-12-15	   17.0	 -41.0	  179579731506.8	397214510926.4	15.6	
2017-10-15-12-15	  -19.5	  39.0	   88909827280.7	255240453366.1	20.2	
2017-10-15-12-15	 -109.0	 -61.0	   62332013003.5	182629923985.2	20.6	
2017-10-15-15-18	   38.5	 -45.5	  200796244149.9	495059910338.8	17.5	
2017-10-15-15-18	   17.5	 -41.5	  176063290657.3	384431320969.4	15.4	
2017-10-15-15-18	  -19.0	  40.0	  121011489569.3	333285552480.0	19.5	
2017-10-15-15-18	 -103.0	 -61.5	   76041792795.1	233330209136.5	21.7	
2017-10-15-15-18	  -36.0	 -39.0	   48211741800.4	97487077925.9	14.2	
2017-10-15-18-21	  -17.5	  41.0	  153895216931.9	481945478411.0	22.3	
2017-10-15-18-21	   38.5	 -45.0	  124689426981.8	300736761664.0	17.1	
2017-10-15-18-21	   19.0	 -42.0	  145992536043.0	296271035652.6	14.4	
2017-10-15-18-21	 -101.0	 -61.0	   81152262497.7	263439880717.3	23.0	
2017-10-15-18-21	  -33.5	 -39.5	   74107091633.0	151252476283.2	14.5	
2017-10-15-18-21	  173.5	 -58.0	   11557402075.4	33607754404.9	20.6	
2017-10-15-18-21	   45.5	 -45.5	    4333130635.6	6348233470.0	10.4	
2017-10-15-18-21	   44.0	 -45.0	    2185722126.6	2266259795.1	7.3	
2017-10-15-21-24	  -16.0	  42.5	  189776310170.8	587414822327.0	22.2	
2017-10-15-21-24	  -99.0	 -61.0	  101523984673.1	331786175716.2	23.4	
2017-10-15-21-24	   38.5	 -45.0	   87537660420.9	200508863260.8	16.3	
2017-10-15-21-24	   19.5	 -42.5	   82334024577.6	165311102544.9	14.3	
2017-10-15-21-24	  -32.0	 -40.5	   33184597926.6	63831137000.2	13.7	
2017-10-15-21-24	  177.5	 -59.0	   17581311776.2	51587954351.9	20.9	
2017-10-16-00-03	  -15.0	  44.0	  211879561084.6	588725677838.4	20.0	
2017-10-16-00-03	  -97.0	 -60.5	  120202340095.9	381601599051.7	22.8	
2017-10-16-00-03	   20.0	 -43.5	   65406621485.2	134261886407.9	14.7	
2017-10-16-00-03	   38.5	 -45.0	   32918096530.3	65974963647.6	14.3	
2017-10-16-03-06	  -13.5	  48.0	  220642586754.5	623613222101.9	20.4	
2017-10-16-03-06	  -95.5	 -60.5	   98333654334.4	290822232024.2	21.3	
2017-10-16-03-06	   21.0	 -44.5	   75223269242.4	159304993500.5	15.2	
2017-10-16-03-06	   25.5	 -40.0	   35620769681.3	93816020430.9	18.9	
2017-10-16-03-06	  -28.5	 -42.0	    9224396965.6	19904526274.1	15.5	
2017-10-16-06-09	  -13.5	  49.0	  188176910461.6	607946976914.6	23.4	
2017-10-16-06-09	   21.5	 -45.5	   88993659507.0	193529755546.1	15.7	
2017-10-16-06-09	   26.0	 -40.0	   66399174888.1	179777644202.5	19.5	
2017-10-16-06-09	  -91.5	 -61.5	   38913727755.3	120849340001.3	22.3	
2017-10-16-06-09	  -27.0	 -42.5	   11412871308.2	20910503154.0	13.2	
2017-10-16-09-12	  -14.0	  50.0	  155388400228.4	557481155257.1	26.0	
2017-10-16-09-12	   22.0	 -46.5	   77225128306.8	174666568314.2	16.3	
2017-10-16-09-12	   26.0	 -40.5	   61561510811.0	163232506750.9	19.1	
2017-10-16-09-12	  -90.0	 -61.0	   42403376045.6	130270507499.7	22.1	
2017-10-16-12-15	  -13.5	  50.5	  102516036199.2	397195356287.9	28.0	
2017-10-16-12-15	   22.5	 -46.5	   68096690231.3	151052479439.3	16.0	
2017-10-16-12-15	  -94.5	 -56.5	   42829084974.8	118525927963.3	19.9	
2017-10-16-12-15	   26.0	 -40.5	   37745939187.0	98920068817.7	18.8	
2017-10-16-12-15	  -89.0	 -61.0	   31750161304.9	94950823791.8	21.5	
2017-10-16-15-18	  -93.0	 -56.0	  100911139243.5	287296017424.3	20.5	
2017-10-16-15-18	  -13.0	  50.5	   68516255222.5	241409637620.0	25.4	
2017-10-16-15-18	   23.0	 -47.5	   48442264485.6	103160440621.7	15.3	
2017-10-16-15-18	   26.0	 -40.5	   14155131377.3	36133657836.0	18.3	
2017-10-16-15-18	  -87.0	 -61.5	    2973518987.9	8417589925.5	20.3	
2017-10-16-15-18	  -14.5	 -46.0	    2147243427.7	6557329953.6	21.9	
2017-10-16-15-18	  -88.5	 -60.5	    1522119886.8	3211800694.1	15.1	
2017-10-16-18-21	  -92.0	 -56.0	  129363241717.9	356006610881.7	19.8	
2017-10-16-18-21	  -13.0	  50.5	   35305365139.6	123288691350.3	25.0	
2017-10-16-18-21	   24.5	 -48.0	   41679990950.6	94192181935.2	16.2	
2017-10-16-18-21	  -13.5	 -47.0	   29650106276.7	83628346147.4	20.2	
2017-10-16-21-24	  -91.5	 -55.5	  138377913487.4	345819454524.2	17.9	
2017-10-16-21-24	  -11.5	 -48.0	   70438768183.8	193278554258.1	19.6	
2017-10-16-21-24	  -91.0	 -54.0	   36248713055.1	77364241551.0	15.2	
2017-10-16-21-24	  -13.0	  50.5	   13762872613.7	45911668047.3	23.8	
2017-10-16-21-24	   25.5	 -49.0	   10220613111.5	21588644514.7	15.1	
2017-10-16-21-24	   25.0	 -47.0	    2108109930.5	3852325341.2	13.0	
2017-10-17-00-03	  -10.5	 -48.5	   76179523536.4	233475096008.4	21.9	
2017-10-17-00-03	  -90.0	 -53.0	   22387216850.6	54159886607.7	17.2	
2017-10-17-00-03	  -89.5	 -56.5	    8575257954.4	25349014314.1	21.0	
2017-10-17-00-03	  -93.0	 -55.5	    1750806041.8	4565615170.4	18.6	
2017-10-17-03-06	  -10.5	 -48.5	   61218243444.9	163988243621.5	19.1	
2017-10-17-03-06	  -88.0	 -57.0	   21952682885.0	56931550780.8	18.4	
2017-10-17-06-09	   -6.5	 -51.5	   67278608492.3	171141787795.5	18.1	
2017-10-17-06-09	  -87.0	 -57.0	   33939971222.1	93814806540.7	19.7	
2017-10-17-06-09	  -10.0	 -48.5	    2068334532.2	5269414653.1	18.1	
2017-10-17-09-12	   -6.5	 -52.0	  118161353245.9	332267048996.6	20.2	
2017-10-17-09-12	  -86.0	 -57.0	   22178522676.0	61193154376.5	19.7	
2017-10-17-09-12	 -175.5	  45.0	   28413722898.1	58694743449.4	14.8	
2017-10-17-12-15	   -6.0	 -52.0	  133858182497.4	391128887903.2	21.1	
2017-10-17-12-15	  133.0	   9.5	   24370749303.4	49097641917.9	14.5	
2017-10-17-12-15	 -175.0	  44.5	   13190295247.2	24274009875.2	13.2	
2017-10-17-15-18	   -5.0	 -52.5	  149997535763.4	444595008641.6	21.4	
2017-10-17-15-18	  132.5	  10.0	   54767798671.1	112972815784.3	14.8	
2017-10-17-18-21	   -4.5	 -53.5	  164062555742.4	534197523679.6	23.6	
2017-10-17-18-21	  132.5	  10.0	   82093490702.1	162090137440.8	14.2	
2017-10-17-21-24	   -4.0	 -53.5	  179916202531.7	607799692075.9	24.4	
2017-10-17-21-24	  132.5	  10.0	  106377553124.3	219766100451.5	14.9	
2017-10-17-21-24	  -70.5	  33.0	   72374520818.4	154396180335.0	15.3	
2017-10-18-00-03	   -3.0	 -54.0	  182883745426.6	610038367267.6	24.1	
2017-10-18-00-03	  132.0	  10.5	  136793215785.1	283642037481.0	14.9	
2017-10-18-00-03	  -70.0	  32.5	  124235854859.7	269310584034.7	15.6	
2017-10-18-00-03	  -66.0	  35.5	   32603345497.1	67429202721.0	14.8	
2017-10-18-00-03	 -174.0	  41.5	    2315080699.8	4106832486.1	12.7	
2017-10-18-03-06	   -3.0	 -54.0	  182499258384.4	571952362923.2	22.6	
2017-10-18-03-06	  -68.5	  33.5	  220610363276.2	443124983441.1	14.5	
2017-10-18-03-06	  132.0	  10.5	  191431576843.0	399844914372.0	15.0	
2017-10-18-06-09	  131.5	  11.0	  242819559766.0	526602921593.2	15.7	
2017-10-18-06-09	   -2.5	 -54.0	  165825298125.4	487570849526.5	21.2	
2017-10-18-06-09	  -67.0	  33.5	  238563476622.9	464504216384.3	14.1	
2017-10-18-06-09	  136.5	  12.0	    3023530536.7	4407095436.3	10.5	
2017-10-18-06-09	 -177.5	  41.0	    2315080699.8	4382167187.6	13.6	
2017-10-18-09-12	  131.5	  11.5	  266609622080.6	611365710173.9	16.6	
2017-10-18-09-12	  -66.0	  33.5	  192600568515.4	364845740397.3	13.7	
2017-10-18-09-12	   -2.5	 -54.0	  113833135623.5	332412672092.2	21.1	
2017-10-18-09-12	  155.5	  46.0	   38355987629.7	103536270629.2	19.4	
2017-10-18-09-12	 -177.5	  41.5	   13836598212.1	26580375722.8	13.8	
2017-10-18-09-12	  136.5	  12.0	   15094528947.2	21563890279.3	10.3	
2017-10-18-09-12	 -154.0	  54.5	    3589996576.1	8218576879.6	16.5	
2017-10-18-09-12	 -155.5	  54.0	    3633780356.5	8132570487.4	16.1	
2017-10-18-12-15	  131.0	  11.5	  293362858160.8	708756370134.9	17.6	
2017-10-18-12-15	   -2.0	 -54.0	   86214736265.5	245188967266.9	20.6	
2017-10-18-12-15	  -65.0	  33.5	  118153602343.9	227824914449.4	14.0	
2017-10-18-12-15	  156.5	  46.0	   81212646720.8	209143201260.0	18.6	
2017-10-18-12-15	 -177.5	  41.5	    9224398808.1	17763426868.8	13.9	
2017-10-18-12-15	   44.0	 -32.0	    5256959889.9	10770395272.7	14.8	
2017-10-18-12-15	  136.0	  12.5	    6029660833.6	8336808658.0	10.0	
2017-10-18-12-15	 -155.0	  53.5	    1838643702.3	4134791385.8	16.2	
2017-10-18-15-18	  131.0	  12.0	  305186274126.6	762712924662.0	18.3	
2017-10-18-15-18	  157.0	  45.5	   98966250570.9	214779623679.7	15.8	
2017-10-18-15-18	   -2.0	 -54.0	   53036331469.8	144778912489.5	19.8	
2017-10-18-15-18	  -20.5	  56.0	   32794971621.3	115510647919.3	25.6	
2017-10-18-15-18	   44.5	 -32.0	   31611729336.3	63536279676.6	14.6	
2017-10-18-15-18	  -64.0	  34.0	   33207009565.2	61777423481.9	13.5	
2017-10-18-15-18	  -66.5	  31.5	    7878342809.8	15964222911.9	14.7	
2017-10-18-18-21	  130.5	  12.5	  310790488392.5	790132241235.2	18.7	
2017-10-18-18-21	  -20.5	  56.0	   43030409445.2	147051668693.3	24.9	
2017-10-18-18-21	   45.0	 -31.5	   52778699880.8	109906597569.4	15.1	
2017-10-18-18-21	  157.5	  44.0	   41810396574.5	79501473060.1	13.8	
2017-10-18-18-21	   -2.0	 -54.0	   20094556633.0	45999449227.2	16.6	
2017-10-18-18-21	  157.5	  47.5	    4176604016.8	8647535551.0	15.0	
2017-10-18-18-21	  157.5	  48.5	    2048210449.8	5577209298.3	19.8	
2017-10-18-21-24	  130.5	  13.0	  334580629747.1	838074140110.4	18.4	
2017-10-18-21-24	   45.0	 -31.5	   58258941353.2	121688404611.7	15.2	
2017-10-18-21-24	  -20.5	  56.0	   29114464393.0	90106531902.0	22.5	
2017-10-18-21-24	  160.0	  43.0	   20197840640.5	44195863523.5	15.9	
2017-10-18-21-24	  158.5	  48.5	   16202694214.4	37004883482.9	16.6	
2017-10-19-00-03	  130.5	  13.0	  343149908844.7	861319414656.3	18.4	
2017-10-19-00-03	  162.0	  43.0	  123664705557.5	255588791528.5	15.1	
2017-10-19-00-03	   45.0	 -31.5	   55693128212.9	113571628205.1	14.8	
2017-10-19-00-03	  159.5	  49.0	   36398096772.5	94161807023.6	18.8	
2017-10-19-00-03	  -20.5	  56.0	   13670550119.9	35343526401.2	18.8	
2017-10-19-03-06	  130.0	  13.5	  375822029341.5	930580620968.4	18.1	
2017-10-19-03-06	  165.5	  44.0	  235566089374.5	600712361601.3	18.6	
2017-10-19-03-06	  161.0	  50.0	   65745634136.9	183035616084.8	20.1	
2017-10-19-03-06	   45.0	 -31.0	   53084525096.8	100268164064.4	13.7	
2017-10-19-03-06	  -31.5	  59.0	    1592023003.9	4042907097.0	18.3	
2017-10-19-06-09	  130.0	  14.0	  414145728455.2	972950038484.8	17.1	
2017-10-19-06-09	  167.0	  44.5	  282802432600.5	736830204043.9	18.9	
2017-10-19-06-09	  162.0	  50.5	   82169473456.5	250947524930.6	22.0	
2017-10-19-06-09	   45.0	 -31.0	   37189322757.1	67242071988.1	13.0	
2017-10-19-06-09	  -24.5	  60.5	    4495752828.7	14775553945.4	23.6	
2017-10-19-09-12	  168.5	  45.5	  425268285563.5	1103400349053.5	18.7	
2017-10-19-09-12	  130.0	  14.5	  443085521281.1	1014356723102.8	16.5	
2017-10-19-09-12	  162.5	  51.5	   98793717323.4	325464179531.8	23.5	
2017-10-19-09-12	  -24.5	  61.0	   31303819599.5	117806044846.1	26.7	
2017-10-19-09-12	   45.0	 -31.0	   13302819389.6	23317603281.8	12.4	
2017-10-19-09-12	  -42.0	  42.0	    6855082429.3	13738789605.6	14.2	
2017-10-19-12-15	  168.5	  47.0	  698006443191.2	1866399793022.9	19.2	
2017-10-19-12-15	  129.5	  15.5	  474836144482.2	1084791908070.6	16.2	
2017-10-19-12-15	  -24.0	  61.0	   61178976464.0	248515998315.9	28.6	
2017-10-19-15-18	  169.5	  47.0	  727813428358.5	1894008535936.2	18.5	
2017-10-19-15-18	  129.5	  15.5	  497980787643.6	1114867588088.9	15.7	
2017-10-19-15-18	  -23.0	  61.0	   87299896356.5	386267128384.6	30.8	
2017-10-19-15-18	 -130.5	  50.0	   17881706257.3	51863412441.2	20.1	
2017-10-19-18-21	  169.5	  47.0	  674901796703.5	1639926069293.6	16.9	
2017-10-19-18-21	  129.5	  16.0	  517962258010.0	1124766787455.3	15.0	
2017-10-19-18-21	  -22.5	  61.5	  112630420277.3	545421700050.6	33.2	
2017-10-19-18-21	  -47.5	 -39.0	  133115709500.4	301164958791.3	15.5	
2017-10-19-18-21	  169.5	  53.0	   63244498625.0	192692002643.8	20.8	
2017-10-19-18-21	 -131.0	  50.0	   39445983075.7	110464709042.4	19.1	
2017-10-19-18-21	 -136.0	  54.0	    5428778644.6	15175191008.6	19.1	
2017-10-19-18-21	 -157.0	 -33.0	    7806373227.7	14322007164.9	12.5	
2017-10-19-21-24	  129.5	  16.5	  543239948338.1	1149234210989.7	14.4	
2017-10-19-21-24	  169.5	  46.5	  489646651482.9	1089463534612.4	15.2	
2017-10-19-21-24	  -47.0	 -38.5	  247799397594.8	620214692017.2	17.0	
2017-10-19-21-24	  -22.5	  61.5	  112488190608.1	551537849910.1	33.2	
2017-10-19-21-24	 -130.0	  49.0	  103349137947.8	267035996221.8	17.4	
2017-10-19-21-24	  170.0	  53.0	   70899378189.0	238721594505.2	22.7	
2017-10-19-21-24	 -157.0	 -34.5	   48549833976.0	87420049965.8	12.1	
2017-10-19-21-24	 -136.0	  54.0	    5428778644.6	15304017965.4	19.0	
2017-10-20-00-03	  129.5	  17.5	  571153788630.6	1205482614005.3	14.2	
2017-10-20-00-03	  -46.5	 -38.0	  362177852444.6	865538606411.7	16.0	
2017-10-20-00-03	 -128.5	  47.0	  203725690833.5	539441946162.9	17.7	
2017-10-20-00-03	  -22.0	  61.5	   89894137577.5	419412790544.3	31.1	
2017-10-20-00-03	  170.5	  53.0	   67435938224.6	224735047750.3	22.2	
2017-10-20-00-03	  171.5	  46.0	   76821895501.1	161591812885.4	14.0	
2017-10-20-00-03	  166.5	  47.0	   60750088705.1	130506208011.7	14.3	
2017-10-20-00-03	 -157.5	 -36.0	   50311063543.0	91891725693.1	12.1	
2017-10-20-00-03	  -28.5	  48.0	   12349636051.3	48131000532.4	25.9	
2017-10-20-03-06	  129.5	  18.0	  599593991059.6	1267574509853.2	14.0	
2017-10-20-03-06	  -45.5	 -38.0	  527527184865.1	1164936969083.1	14.6	
2017-10-20-03-06	 -127.5	  45.5	  284314676531.2	783824175625.5	18.2	
2017-10-20-03-06	  -22.0	  61.5	   60208268982.7	246494956017.1	26.8	
2017-10-20-03-06	  -28.0	  48.0	   57345834097.1	206825271132.9	23.6	
2017-10-20-03-06	  170.5	  52.5	   54587747404.2	167354532685.0	20.1	
2017-10-20-03-06	 -157.5	 -36.5	    2484784349.4	4211844546.4	11.1	
2017-10-20-06-09	  -44.0	 -38.5	  688037371897.9	1437844730684.5	13.7	
2017-10-20-06-09	  129.5	  18.5	  616340348527.8	1312511515294.5	14.0	
2017-10-20-06-09	 -127.5	  45.0	  334334788210.7	960601406041.0	18.8	
2017-10-20-06-09	  -28.0	  48.0	   63670164441.4	186254989254.3	18.9	
2017-10-20-06-09	  171.0	  52.5	   24547218157.2	69020505286.1	18.2	
2017-10-20-06-09	 -163.5	 -37.0	    2468644329.0	4578128361.5	12.0	
2017-10-20-09-12	  130.0	  19.0	  603054396548.4	1320583560403.3	14.2	
2017-10-20-09-12	 -127.5	  45.0	  373311055643.2	1109218540658.0	19.3	
2017-10-20-09-12	  -45.5	 -37.5	  462613355409.0	959782187428.7	13.4	
2017-10-20-09-12	  -31.5	 -45.0	  167629638987.3	353256693694.1	13.5	
2017-10-20-09-12	  -28.0	  48.0	   39335619177.8	114311955566.6	18.6	
2017-10-20-09-12	  175.0	  52.0	   32584125308.9	88854663939.4	17.5	
2017-10-20-09-12	  -23.5	  50.0	    9893054822.4	28269936188.7	18.3	
2017-10-20-09-12	  -15.0	  62.0	    4329647805.6	15217582456.2	22.5	
2017-10-20-09-12	 -163.5	 -37.0	    4953428678.4	8801373257.9	11.4	
2017-10-20-12-15	  130.0	  19.5	  589980739212.5	1299683961811.8	14.3	
2017-10-20-12-15	 -128.0	  45.0	  382781610674.0	1147699290074.7	19.4	
2017-10-20-12-15	  -45.5	 -37.5	  405016826088.3	808516856761.8	12.9	
2017-10-20-12-15	  -26.0	 -47.5	   44189154096.9	100750955639.4	14.6	
2017-10-20-12-15	  -28.0	  48.0	   16566331626.7	47067857884.3	18.1	
2017-10-20-12-15	  -29.5	 -46.5	   21471942348.8	44704591724.9	13.3	
2017-10-20-12-15	  174.5	  51.0	   19178715953.7	38087951519.7	12.7	
2017-10-20-12-15	 -163.0	 -35.5	   17646406161.3	30509826310.7	11.0	
2017-10-20-15-18	  130.0	  19.5	  589549878860.1	1305109092535.0	14.3	
2017-10-20-15-18	 -128.0	  44.5	  367579993293.9	1098211670646.9	19.3	
2017-10-20-15-18	  -45.5	 -37.0	  349312297127.5	666574644875.7	12.3	
2017-10-20-15-18	 -163.5	 -35.5	   27774079566.3	46320054829.5	10.6	
2017-10-20-15-18	 -167.5	 -46.5	   19247247384.6	40691131724.1	13.5	
2017-10-20-15-18	  -24.0	 -48.5	   10281298755.5	22480840189.1	14.0	
2017-10-20-18-21	  130.0	  20.0	  585721520997.2	1313851623498.6	14.5	
2017-10-20-18-21	 -128.0	  44.5	  340424002517.4	997444880801.6	18.9	
2017-10-20-18-21	  -45.5	 -37.0	  253781419371.5	471486874770.9	11.9	
2017-10-20-18-21	  -19.0	  52.0	   43250026626.7	123961705217.5	18.3	
2017-10-20-18-21	  -18.5	 -50.5	   37625586576.5	103304570634.0	17.5	
2017-10-20-18-21	 -168.0	 -46.5	   34082445657.6	73421826301.7	13.7	
2017-10-20-18-21	  126.5	  23.5	   11338600904.5	20859153191.4	11.7	
2017-10-20-18-21	 -164.0	 -35.5	    7580619846.4	11579077062.9	9.7	
2017-10-20-18-21	 -162.5	 -35.5	    5048557187.1	8260930773.2	10.4	
2017-10-20-21-24	  130.5	  20.5	  638783295633.3	1424659347762.5	14.5	
2017-10-20-21-24	 -127.5	  44.5	  313381035549.3	879401355555.8	18.1	
2017-10-20-21-24	  -44.0	 -36.0	  112734119291.3	208536232505.6	11.8	
2017-10-20-21-24	  -18.5	  53.5	   66417262537.1	180047294500.0	17.3	
2017-10-20-21-24	  -48.5	 -40.0	   40408139581.4	78815237066.3	12.4	
2017-10-20-21-24	 -168.0	 -47.0	   31896068732.8	67234823427.6	13.5	
2017-10-20-21-24	  -16.0	 -50.5	   11859222778.5	29556403292.6	15.9	
2017-10-20-21-24	 -164.5	 -45.5	    4333130635.6	8571927167.2	12.6	
2017-10-20-21-24	 -167.5	 -39.5	    4770302955.2	5232429256.6	7.0	
2017-10-20-21-24	 -165.5	 -38.0	    2435802716.8	4385025144.5	11.5	
2017-10-21-00-03	  130.5	  20.5	  643069854345.2	1431483983119.6	14.5	
2017-10-21-00-03	 -127.5	  44.5	  269512300340.7	727677770537.3	17.4	
2017-10-21-00-03	  -18.5	  54.0	   83306656380.7	237714610126.2	18.3	
2017-10-21-00-03	  -43.5	 -36.0	   70223919385.1	126328677400.1	11.5	
2017-10-21-00-03	 -167.5	 -46.5	   34157943485.6	68963514798.8	12.9	
2017-10-21-00-03	  -48.5	 -40.0	   33304973014.8	65940134293.9	12.7	
2017-10-21-00-03	 -166.0	 -38.5	   31596965792.4	63193049397.5	12.8	
2017-10-21-00-03	  -47.5	 -48.0	    8333240557.4	17873353865.4	13.7	
2017-10-21-00-03	 -168.0	 -39.5	    7155454432.9	8365435570.7	7.5	
2017-10-21-03-06	  131.0	  21.0	  645323913158.3	1419855343538.8	14.3	
2017-10-21-03-06	 -127.5	  44.5	  216871746299.8	553621943795.7	16.4	
2017-10-21-03-06	  -18.0	  54.5	   82453366986.0	258439928758.2	20.1	
2017-10-21-03-06	  -48.0	 -47.5	   63140409845.9	136795562718.3	13.9	
2017-10-21-03-06	 -165.5	 -38.0	   51198240495.3	102148627800.8	12.8	
2017-10-21-03-06	 -166.0	 -45.5	   26093739871.2	49319217789.0	12.1	
2017-10-21-03-06	  -48.0	 -40.0	   23816292933.7	47099309014.2	12.7	
2017-10-21-03-06	  -43.5	 -36.0	   22569651111.3	38369015540.8	10.9	
2017-10-21-03-06	   -6.5	 -51.0	    3890557428.3	8521753503.6	14.0	
2017-10-21-03-06	 -169.0	 -48.0	    4156636540.6	7777410066.2	12.0	
2017-10-21-06-09	  131.0	  21.5	  675386152816.5	1524164812998.2	14.6	
2017-10-21-06-09	 -127.5	  44.5	  155712418664.4	362113675843.1	14.9	
2017-10-21-06-09	  -43.0	  41.5	   99391383373.5	213746624985.4	13.7	
2017-10-21-06-09	  -18.0	  54.5	   55092070440.7	160873613219.8	18.6	
2017-10-21-06-09	  -48.5	 -47.0	   69837379143.4	149528354727.9	13.6	
2017-10-21-06-09	 -165.5	 -38.0	   63541457165.8	124187763836.4	12.5	
2017-10-21-06-09	   -6.5	 -51.5	   40492041635.7	92807992373.0	14.6	
2017-10-21-06-09	 -166.0	 -45.5	   43596845637.4	87401981163.8	12.8	
2017-10-21-06-09	  -48.0	 -40.0	   16609637666.1	31100938008.7	11.9	
2017-10-21-06-09	 -169.5	 -48.5	    8233088858.4	16297261707.6	12.6	
2017-10-21-06-09	 -171.0	 -48.5	    2048209897.0	4373292942.3	13.6	
2017-10-21-09-12	  131.0	  22.0	  715975473993.2	1641046330372.8	14.8	
2017-10-21-09-12	  -41.0	  41.0	  125238640175.5	270557888413.1	13.7	
2017-10-21-09-12	 -165.0	 -38.0	   78302842509.5	149133075588.7	12.1	
2017-10-21-09-12	 -127.5	  44.5	   69975589836.6	145037507851.1	13.1	
2017-10-21-09-12	 -166.5	 -45.5	   54141343609.0	111868820270.7	13.1	
2017-10-21-09-12	  -49.0	 -47.0	   53032885211.9	111321045814.8	13.3	
2017-10-21-09-12	   -5.5	 -52.0	   44001890284.8	104763081142.3	15.1	
2017-10-21-09-12	 -170.5	 -48.5	   32871355471.9	70088823285.4	13.5	
2017-10-21-09-12	  -48.5	 -41.0	   16417567148.8	32355405503.3	12.5	
2017-10-21-12-15	  131.0	  22.0	  787311953200.0	1700906724004.2	13.9	
2017-10-21-12-15	 -168.5	 -47.0	  107308563602.5	225450776866.1	13.3	
2017-10-21-12-15	 -164.5	 -37.5	   98312461092.1	188763066301.7	12.1	
2017-10-21-12-15	  -49.0	 -47.0	   23325936776.2	48944913540.7	13.2	
2017-10-21-12-15	  -45.0	  42.0	   13728301700.4	31219408742.4	14.4	
2017-10-21-12-15	  -11.0	  42.0	    9152201133.6	20453846171.0	14.1	
2017-10-21-12-15	  -48.0	 -41.0	    7051243500.9	14266529208.5	12.8	
2017-10-21-15-18	  130.5	  22.5	  763841505186.4	1546398229551.4	13.0	
2017-10-21-15-18	 -164.0	 -37.5	  123300262083.7	238807484437.3	12.3	
2017-10-21-15-18	 -168.0	 -47.0	   78207029539.5	166267279066.6	13.4	
2017-10-21-15-18	  -41.0	  46.5	   25473017149.1	61665159918.1	15.3	
2017-10-21-15-18	  -44.5	  41.5	   16079481237.4	33587368667.4	13.2	
2017-10-21-15-18	  -11.0	  42.0	   11431182996.1	29336187804.1	16.2	
2017-10-21-18-21	  131.0	  23.0	  719892900257.2	1419554568691.9	12.7	
2017-10-21-18-21	 -163.5	 -37.0	  150787084403.4	296328157483.3	12.5	
2017-10-21-18-21	  -40.0	  49.0	   85629102731.2	237712046951.0	17.6	
2017-10-21-18-21	 -168.5	 -47.0	   63258135525.4	132429503161.4	13.2	
2017-10-21-18-21	  140.0	  29.5	   42922888226.4	83625751611.7	12.3	
2017-10-21-18-21	  -11.0	  42.0	    9152201133.6	22632384736.7	15.6	
2017-10-21-18-21	  -44.0	  58.0	    4868190128.4	15152706230.9	19.7	
2017-10-21-21-24	  131.0	  24.5	  685341353405.5	1350906272406.9	12.6	
2017-10-21-21-24	 -163.5	 -37.0	  163481558857.4	322328243457.0	12.5	
2017-10-21-21-24	  139.5	  29.0	   75294481218.9	158289955061.3	13.3	
2017-10-21-21-24	  -40.5	  49.5	   60221016544.1	149359711370.8	15.7	
2017-10-21-21-24	  -44.0	  58.5	   19311335068.2	85974660637.3	28.1	
2017-10-21-21-24	 -169.0	 -47.0	   21119751929.3	44483734000.5	13.3	
2017-10-22-00-03	  131.0	  26.5	  615666480658.8	1330702417127.6	13.8	
2017-10-22-00-03	 -163.5	 -37.0	  156335886969.7	307440943374.6	12.4	
2017-10-22-00-03	  -35.5	  53.5	   78202916323.4	265332580881.3	21.4	
2017-10-22-00-03	  140.0	  28.5	  125126663049.4	233777085512.8	11.8	
2017-10-22-00-03	  -44.0	  58.5	   44526653932.6	188527652769.1	26.6	
2017-10-22-00-03	  -41.0	  50.0	   19827285655.4	47610618873.9	15.1	
2017-10-22-03-06	  132.0	  27.5	  584618390159.2	1524537446764.5	16.5	
2017-10-22-03-06	  -35.0	  54.0	  134773196295.9	484907482825.2	22.5	
2017-10-22-03-06	  140.0	  28.0	  178006634824.1	339649080353.6	11.9	
2017-10-22-03-06	 -163.0	 -37.0	  131753996381.6	253548344350.0	12.0	
2017-10-22-03-06	  -43.0	  59.0	   52300715521.8	215516766390.1	25.7	
2017-10-22-03-06	  -47.5	  48.5	   65132777652.7	205382252378.5	19.7	
2017-10-22-06-09	  133.0	  29.0	  373370143535.3	1336181339863.9	22.4	
2017-10-22-06-09	  -35.0	  54.0	  124992417809.6	536452589671.9	26.7	
2017-10-22-06-09	  -48.0	  49.0	   90511829600.9	397832713184.1	27.3	
2017-10-22-06-09	  140.0	  28.5	   89791827384.4	195736721951.1	13.5	
2017-10-22-06-09	  -42.5	  59.0	   17441859656.3	96901522710.6	34.3	
2017-10-22-06-09	  130.5	  22.0	   14299345800.0	29636826370.1	12.8	
2017-10-22-09-12	  133.5	  29.0	  445387150428.5	1454982986145.9	20.4	
2017-10-22-09-12	  -35.0	  54.5	  147482415316.9	598432902983.7	25.1	
2017-10-22-09-12	  140.5	  28.5	  252419803348.6	539506153553.3	13.2	
2017-10-22-09-12	  -48.5	  49.5	  109778906832.6	463378530354.0	26.1	
2017-10-22-09-12	 -174.0	 -50.0	   30029151897.9	81751858158.5	16.7	
2017-10-22-09-12	  -42.0	  59.5	   10958344625.1	64340406764.7	36.1	
2017-10-22-09-12	  142.5	  29.5	   13384556593.3	31800299037.6	14.6	
2017-10-22-09-12	  142.0	  28.5	   13517382612.2	24917799048.1	11.3	
2017-10-22-12-15	  135.5	  30.0	 1155959860464.0	2674596569766.4	14.6	
2017-10-22-12-15	  -35.5	  54.5	  206387206213.9	720588587945.5	21.6	
2017-10-22-12-15	  -48.5	  49.5	  125172554012.4	412376111345.6	20.3	
2017-10-22-12-15	 -174.0	 -49.5	  108720327145.4	261805457286.0	14.8	
2017-10-22-12-15	  -42.0	  59.5	   12457282278.7	57329671132.5	28.2	
2017-10-22-12-15	  130.5	  22.0	   14299345800.0	23828891341.3	10.2	
2017-10-22-12-15	 -162.5	 -37.0	    4953428678.4	8611005223.8	10.6	
2017-10-22-12-15	 -163.5	 -37.0	    2468644329.0	4692765461.3	11.6	
2017-10-22-12-15	  -53.0	  62.0	    1451173403.9	3550747866.2	15.0	
2017-10-22-15-18	  137.0	  31.5	 1187035183494.1	2879500282264.5	15.3	
2017-10-22-15-18	  -36.5	  55.0	  268661225173.6	892847198866.9	20.4	
2017-10-22-15-18	  -49.0	  50.5	  104391936519.2	327431669291.6	19.2	
2017-10-22-15-18	 -173.5	 -49.5	  103211889922.1	239079033109.4	14.1	
2017-10-22-15-18	  146.0	  23.0	   14194817049.5	21504003036.3	9.2	
2017-10-22-15-18	  -41.5	  59.0	    4729704729.4	13749568691.3	17.7	
2017-10-22-18-21	  138.0	  32.0	 1248582898219.1	3093972383713.9	15.5	
2017-10-22-18-21	  -36.5	  55.5	  347581528942.6	1224070840634.1	21.6	
2017-10-22-18-21	  -49.5	  51.0	   89853420791.6	278784752686.6	18.8	
2017-10-22-18-21	 -173.0	 -49.0	   69251020430.2	151889189317.6	13.3	
2017-10-22-18-21	  146.0	  23.0	   25576009316.3	42059539529.1	10.0	
2017-10-22-18-21	  137.0	  28.5	   21679627058.1	29166639184.7	8.1	
2017-10-22-21-24	  139.0	  32.5	 1275578897141.9	3128621430061.3	15.3	
2017-10-22-21-24	  -36.5	  55.5	  348855280037.2	1380932251428.4	24.3	
2017-10-22-21-24	  -46.0	  58.0	   47430955185.8	185573672276.6	23.6	
2017-10-22-21-24	  -49.5	  50.5	   53162148347.4	162943347614.1	18.5	
2017-10-22-21-24	  146.0	  23.0	   34079473456.0	57192859413.7	10.1	
2017-10-22-21-24	  140.5	  27.0	   13770643782.4	27945713216.3	12.2	
2017-10-22-21-24	 -129.5	  45.5	    2166565317.8	4190705180.7	11.7	
2017-10-22-21-24	 -126.5	  47.0	    2108110114.8	4054101670.4	11.6	
2017-10-23-00-03	  141.0	  32.5	 1130768661904.2	2910518519039.0	16.0	
2017-10-23-00-03	  -36.5	  55.5	  320670772991.6	1522687847976.4	29.1	
2017-10-23-00-03	  -46.0	  58.5	   58185330906.4	248228550485.4	25.8	
2017-10-23-00-03	  -49.0	  49.5	   23904037367.4	68317874540.0	17.2	
2017-10-23-00-03	  135.0	  28.5	   35091157873.7	63313189904.5	10.9	
2017-10-23-00-03	  146.0	  23.0	   17040169329.6	27278540006.3	9.6	
2017-10-23-00-03	 -129.5	  45.5	    2166565317.8	4300686749.6	12.0	
2017-10-23-03-06	  143.5	  35.5	 1192355590640.3	3173463695100.0	16.5	
2017-10-23-03-06	  -36.5	  55.5	  285213374726.0	1499302283166.8	32.1	
2017-10-23-03-06	  -46.0	  58.5	   41782920659.5	187547117866.0	27.0	
2017-10-23-03-06	  146.0	  23.0	   11349464769.5	18350448804.2	9.7	
2017-10-23-06-09	  143.5	  39.0	 1296475743159.3	3698503564657.4	17.7	
2017-10-23-06-09	  -36.0	  55.5	  253735967090.1	1307477110198.4	31.2	
2017-10-23-06-09	  -46.0	  58.5	   17696495276.3	75301651168.5	25.4	
2017-10-23-06-09	  -40.5	 -38.5	   24357468912.4	55871852154.6	13.7	
2017-10-23-06-09	  145.5	  53.0	   11182873714.3	40202473419.1	21.4	
2017-10-23-06-09	  146.5	  23.0	    5680056443.2	8902099636.5	9.3	
2017-10-23-09-12	  144.5	  39.5	 1215911995197.4	4027712495476.4	20.6	
2017-10-23-09-12	  -36.0	  55.5	  203191596771.9	1019727727774.8	30.1	
2017-10-23-09-12	  139.5	  30.5	   23746777094.6	47078903083.5	11.8	
2017-10-23-09-12	  -39.5	 -38.5	   12145612979.4	29102281554.0	14.2	
2017-10-23-09-12	  146.0	  53.0	    3720514403.8	14544665709.4	23.2	
2017-10-23-12-15	  146.0	  40.5	 1425117000026.0	4746479496072.1	20.9	
2017-10-23-12-15	  -35.5	  55.0	  189902444682.7	844525664394.4	26.6	
2017-10-23-12-15	  164.5	  47.0	   69342216280.6	187613082466.3	16.1	
2017-10-23-12-15	  -39.0	 -38.0	   60924008378.2	127298479059.2	12.4	
2017-10-23-12-15	  139.5	  31.0	   13191679646.1	22727791878.5	10.2	
2017-10-23-15-18	  147.5	  40.5	 1846504331991.1	5703570578432.2	19.6	
2017-10-23-15-18	  -35.0	  55.0	  219736776150.4	825317770106.0	22.5	
2017-10-23-15-18	  166.0	  47.0	  236717835202.4	597339748577.4	15.1	
2017-10-23-15-18	  -38.5	 -38.0	  239140785339.5	482907972865.6	12.0	
2017-10-23-15-18	  146.5	  23.0	   17018657347.7	27188349134.1	9.5	
2017-10-23-15-18	  139.5	  30.5	   15855042611.3	26662490671.2	10.0	
2017-10-23-18-21	  149.0	  40.0	 2081712281383.9	6191705181078.2	19.0	
2017-10-23-18-21	  -34.5	  55.5	  227262847842.3	798172009685.0	21.0	
2017-10-23-18-21	  -38.0	 -38.5	  287290492840.0	593252760861.8	12.3	
2017-10-23-18-21	  166.5	  46.5	  165725118421.6	389992982542.8	14.0	
2017-10-23-18-21	  -30.5	  64.0	   12219341709.9	45658044247.1	22.2	
2017-10-23-21-24	  151.0	  40.0	 2277502725895.8	6452591035268.2	18.1	
2017-10-23-21-24	  -33.0	  59.0	  274411066358.0	993459481885.7	21.7	
2017-10-23-21-24	  -37.5	 -38.5	  281610401022.2	586387143027.1	12.4	
2017-10-23-21-24	  167.0	  46.0	   72647063161.2	149343938881.7	12.2	
2017-10-23-21-24	  171.5	  45.5	   51502415450.4	112781453682.5	13.0	
2017-10-24-00-03	  152.5	  40.0	 2547853459413.3	6626081602851.6	16.7	
2017-10-24-00-03	  -31.5	  62.0	  281557702755.7	1090861946414.4	23.3	
2017-10-24-00-03	  -36.5	 -39.0	  273132759588.7	569887141030.4	12.5	
2017-10-24-00-03	  171.5	  45.5	   84014725940.9	181442143835.9	12.9	
2017-10-24-03-06	  153.5	  40.5	 2758777911271.7	6726394820972.5	15.7	
2017-10-24-03-06	  -31.0	  62.5	  270152717491.5	1100873799759.0	24.5	
2017-10-24-03-06	  -35.5	 -39.0	  252640853016.2	551941440810.4	13.1	
2017-10-24-03-06	 -153.5	  31.0	   34359253585.1	62351612474.3	10.8	
2017-10-24-03-06	  172.5	  46.0	   29981994635.4	57750035837.9	11.4	
2017-10-24-06-09	  155.5	  41.5	 2904462947333.3	6585449987635.4	14.6	
2017-10-24-06-09	  -31.0	  62.5	  243815263072.6	975650885354.7	24.1	
2017-10-24-06-09	  -35.0	 -39.5	  239500698103.4	525487287442.2	13.2	
2017-10-24-06-09	 -153.0	  31.0	   94966280305.0	168197497841.6	10.6	
2017-10-24-06-09	  147.0	  36.0	   79794697785.3	121224709121.9	9.1	
2017-10-24-09-12	  159.0	  45.5	 2703888228381.2	5919740726025.8	14.1	
2017-10-24-09-12	  -31.0	  62.0	  190276298808.0	717466969189.7	22.9	
2017-10-24-09-12	  -34.5	 -39.5	  219929152049.8	466212998453.2	12.8	
2017-10-24-09-12	 -153.5	  30.5	  209208835232.3	370594956501.3	10.7	
2017-10-24-09-12	  157.5	  46.5	   50906096950.6	91250525953.7	10.8	
2017-10-24-09-12	 -150.5	  36.5	   19861756340.7	36219299648.6	11.0	
2017-10-24-09-12	  -26.0	  60.5	    4566359384.1	16479695560.0	21.7	
2017-10-24-12-15	  165.0	  52.0	 2028128079664.8	4569675591305.5	14.4	
2017-10-24-12-15	 -154.0	  31.5	  602803031787.3	1114230389577.8	11.4	
2017-10-24-12-15	  -31.0	  61.5	  139800357942.4	491492652605.5	21.5	
2017-10-24-12-15	  -34.0	 -40.0	  188366696370.7	379049149497.2	12.3	
2017-10-24-12-15	  153.5	  47.5	   72959818662.7	170432043498.2	14.2	
2017-10-24-12-15	  -26.0	  60.0	   47698707773.6	169564090046.8	21.6	
2017-10-24-12-15	  152.5	  39.0	   26236125317.5	42129303460.9	9.8	
2017-10-24-15-18	  168.0	  54.0	  466436223579.3	2041625187516.0	27.4	
2017-10-24-15-18	 -155.0	  31.5	  791926189406.0	1632193881704.7	12.8	
2017-10-24-15-18	  160.5	  43.5	  411457108961.4	826503707416.7	12.4	
2017-10-24-15-18	  152.0	  31.0	  303711545490.4	522706777046.7	10.6	
2017-10-24-15-18	  -30.5	  61.5	   72269227276.9	254997848599.0	21.6	
2017-10-24-15-18	  -33.5	 -40.0	  116723557881.6	227190489808.1	11.9	
2017-10-24-15-18	  -26.5	  60.0	   52568452541.1	192982986229.7	22.5	
2017-10-24-15-18	  155.0	  38.0	   12112030159.2	22906073047.5	11.5	
2017-10-24-15-18	  153.0	  48.5	    6124350660.6	13835502423.3	13.8	
2017-10-24-18-21	  168.5	  54.0	  497949262076.2	2864794765884.0	36.4	
2017-10-24-18-21	 -155.5	  31.5	  581694189783.7	1510944420337.0	16.1	
2017-10-24-18-21	  179.0	  53.5	    7311067761.1	24219213828.2	20.2	
2017-10-24-21-24	  169.5	  54.0	  706074489553.5	4411840159417.8	40.2	
2017-10-24-21-24	 -155.5	  31.5	  733223084095.0	2041400938495.7	17.4	
2017-10-24-21-24	  177.0	  51.5	   20996895830.2	74810375210.0	21.7	
2017-10-25-00-03	  170.0	  53.5	  863903888508.6	5695601459979.1	43.0	
2017-10-25-00-03	 -155.5	  31.0	  787458576963.2	2317981786004.6	18.4	
2017-10-25-03-06	  170.0	  53.5	  954821337778.1	6297669050397.4	43.6	
2017-10-25-03-06	 -156.0	  31.0	  838109709789.2	2531448041136.0	19.0	
2017-10-25-03-06	 -180.0	  55.5	   25925660135.8	113248678934.6	26.7	
2017-10-25-06-09	  169.5	  53.5	 1005973851470.5	6293267187647.4	41.9	
2017-10-25-06-09	 -156.0	  31.0	  863069475505.3	2545440914650.1	18.8	
2017-10-25-06-09	 -180.0	  56.0	   37551124376.2	183287821979.9	30.3	
2017-10-25-09-12	  170.0	  53.0	  995284701315.8	5788295706441.8	39.5	
2017-10-25-09-12	 -156.5	  31.0	  899966370615.7	2508814708625.8	18.1	
2017-10-25-09-12	 -179.5	  57.0	   65510811413.5	297041141030.5	28.7	
2017-10-25-12-15	  170.0	  53.0	  890376905962.3	4823545477619.1	37.1	
2017-10-25-12-15	 -157.0	  31.0	  981244805395.0	2593360102910.4	17.6	
2017-10-25-12-15	 -178.0	  57.5	   94834699766.0	426081966685.7	29.1	
2017-10-25-15-18	  170.0	  53.0	  729579553988.4	3688975962206.1	34.9	
2017-10-25-15-18	 -157.0	  31.0	  998428055686.8	2584183089297.3	17.6	
2017-10-25-15-18	 -179.0	  57.5	   76658019997.7	334757974445.3	28.8	
2017-10-25-15-18	  160.5	  51.0	    9726244334.3	27279475339.5	18.4	
2017-10-25-15-18	  165.0	  56.5	    1706080229.0	4120042945.0	15.9	
2017-10-25-15-18	  166.0	  56.5	    1706080229.0	3496526467.5	13.5	
2017-10-25-18-21	  170.0	  53.0	  725821897565.8	3095568100415.2	29.8	
2017-10-25-18-21	 -157.0	  31.0	 1194270175642.4	2873018554668.6	16.7	
2017-10-25-18-21	 -179.5	  56.5	   69410711599.9	251193654563.7	24.3	
2017-10-25-18-21	  165.0	  56.5	    1706080229.0	3375130384.4	13.3	
2017-10-25-21-24	 -157.0	  31.0	 1302334017287.0	2924246267570.0	15.9	
2017-10-25-21-24	  170.0	  53.0	  696759920573.7	2552357806891.5	25.9	
2017-10-25-21-24	 -180.0	  54.0	   19830486133.6	62561765855.5	21.6	
2017-10-25-21-24	 -177.5	  58.0	   14764761036.6	41143536762.1	19.0	
2017-10-25-21-24	 -180.0	  52.0	    1903057679.5	3901332756.0	14.0	
2017-10-26-00-03	 -157.0	  30.5	 1155522074432.3	2540374037257.8	15.8	
2017-10-26-00-03	  170.0	  53.0	  543507419955.9	1844091895889.1	24.2	
2017-10-26-00-03	 -166.0	  38.0	   53350723414.1	101334005292.4	13.2	
2017-10-26-00-03	 -180.0	  51.5	   15202120178.2	33337397355.6	15.3	
2017-10-26-00-03	 -177.0	  58.0	    9850819969.5	23314626215.4	16.5	
2017-10-26-03-06	 -157.0	  30.0	  950741075876.0	2083171363526.3	15.9	
2017-10-26-03-06	  169.5	  53.0	  381351568422.6	1168711657134.1	22.0	
2017-10-26-03-06	 -166.5	  38.0	  184935665785.4	356753667333.3	13.7	
2017-10-26-03-06	  134.0	  18.5	   35174545338.4	54310082342.5	10.9	
2017-10-26-03-06	  176.5	  51.5	    3827299020.7	4121714016.4	7.6	
2017-10-26-06-09	 -157.0	  30.0	  790921553373.2	1737627267291.9	16.1	
2017-10-26-06-09	 -166.5	  37.5	  345778175805.2	711776558052.2	14.9	
2017-10-26-06-09	  169.0	  53.0	  181865538636.5	574478263991.8	22.8	
2017-10-26-06-09	  134.0	  18.5	   73103684498.4	123948552105.4	12.2	
2017-10-26-06-09	  179.5	  54.0	    1816890178.3	2323877712.8	9.2	
2017-10-26-09-12	 -157.0	  29.5	  675887864214.1	1474820291909.2	16.1	
2017-10-26-09-12	 -166.0	  37.5	  509378179993.8	1107596980587.9	16.0	
2017-10-26-09-12	  169.0	  53.0	  137011788126.8	402323758849.3	21.4	
2017-10-26-09-12	  134.0	  19.0	   90435408717.5	156147687663.1	12.5	
2017-10-26-09-12	  163.0	  51.0	   25309064816.5	55639948164.8	16.0	
2017-10-26-12-15	 -166.0	  38.0	  640290085430.2	1451345655575.1	16.9	
2017-10-26-12-15	 -157.5	  29.5	  559487450905.9	1206346593579.5	16.1	
2017-10-26-12-15	  169.5	  53.0	   76042656524.4	220736205026.3	21.3	
2017-10-26-12-15	  133.5	  19.5	   96092676377.6	166843554618.3	12.7	
2017-10-26-12-15	  163.0	  51.0	   29199473561.0	66395165323.7	16.7	
2017-10-26-15-18	 -166.0	  38.0	  773652203013.0	1770031459189.7	17.3	
2017-10-26-15-18	 -157.5	  30.0	  439577893860.7	941937130119.1	16.0	
2017-10-26-15-18	  169.5	  53.5	   38609137885.9	117581620393.7	22.5	
2017-10-26-15-18	  133.0	  19.5	   69819081642.1	116502304093.0	12.3	
2017-10-26-15-18	  162.5	  51.0	   36895997664.6	88233142080.5	17.7	
2017-10-26-18-21	 -165.5	  38.5	  892565744921.0	2003551144390.7	17.1	
2017-10-26-18-21	 -157.0	  30.0	  345734928907.8	720273383326.9	15.6	
2017-10-26-18-21	  162.5	  51.0	   40702407811.8	98813718724.7	18.0	
2017-10-26-18-21	  169.5	  53.5	   27643794437.0	90560903069.3	24.3	
2017-10-26-18-21	  132.5	  20.0	   11609316113.3	18286292816.6	11.7	
2017-10-26-18-21	  -52.5	 -47.5	    4176604016.8	8682321101.4	15.4	
2017-10-26-21-24	 -165.0	  38.0	 1014462646951.2	2196195445347.8	16.6	
2017-10-26-21-24	 -156.5	  30.0	  265052815576.1	514896494744.3	14.6	
2017-10-26-21-24	  -50.0	 -47.0	   67415410835.1	167869551573.1	18.6	
2017-10-26-21-24	  162.5	  51.5	   42436589090.9	104393020014.8	18.3	
2017-10-26-21-24	  169.5	  53.0	   23945175055.6	72923470091.3	22.7	
2017-10-27-00-03	 -164.0	  38.0	 1107085076705.7	2300093627958.1	16.0	
2017-10-27-00-03	 -155.5	  30.5	  183781933453.7	330213051341.6	13.5	
2017-10-27-00-03	  -49.0	 -47.5	  107224438062.0	275574440273.5	19.3	
2017-10-27-00-03	  169.5	  53.5	   29417599114.4	89846726274.8	22.8	
2017-10-27-00-03	  162.5	  51.5	   32647529820.9	79763003305.8	18.3	
2017-10-27-03-06	 -162.0	  36.5	 1340579260189.3	2650724035134.1	15.3	
2017-10-27-03-06	  -48.0	 -48.0	  123552174598.1	330303852321.8	20.1	
2017-10-27-03-06	  169.5	  53.5	   31277856316.2	97913301443.6	23.4	
2017-10-27-03-06	  162.5	  52.0	   13342297788.9	31367670113.0	17.6	
2017-10-27-03-06	 -165.0	 -54.0	    1816889994.0	5279268262.0	21.7	
2017-10-27-06-09	 -160.5	  35.5	 1302160107010.3	2530017058282.7	15.0	
2017-10-27-06-09	  -47.0	 -48.0	  121266442086.7	321442915507.6	19.9	
2017-10-27-06-09	  169.5	  53.5	   36815119400.0	114923814340.1	23.3	
2017-10-27-06-09	 -164.0	 -54.5	   37956424015.4	91649473000.4	18.1	
2017-10-27-06-09	  -39.0	 -46.5	   38474031680.5	86793711117.5	16.9	
2017-10-27-09-12	 -158.5	  34.5	 1064716670827.1	2040300349181.7	14.8	
2017-10-27-09-12	  -46.5	 -48.0	  102218540222.7	258432707908.4	19.0	
2017-10-27-09-12	  169.5	  53.5	   40491846891.2	125834785343.7	23.3	
2017-10-27-09-12	  -38.0	 -46.0	   40873762643.7	91418965724.4	16.8	
2017-10-27-09-12	 -166.5	  41.0	   27886974220.6	47282739405.3	12.7	
2017-10-27-09-12	 -161.0	 -55.0	    5318773835.5	14877214851.4	21.0	
2017-10-27-09-12	 -168.0	  37.5	    4904634236.3	8983938884.4	13.7	
2017-10-27-12-15	 -157.0	  34.0	  758308591149.3	1418876609676.4	14.4	
2017-10-27-12-15	  -45.5	 -48.0	   66702838385.7	150216652822.5	17.0	
2017-10-27-12-15	  169.5	  53.5	   38696848603.2	122138936281.8	23.9	
2017-10-27-12-15	  -38.0	 -45.5	    4333130635.6	9905003923.4	17.3	
2017-10-27-15-18	 -156.5	  35.0	  649934078524.0	1163387137935.2	13.8	
2017-10-27-15-18	  169.5	  53.5	   31299328317.6	97392641483.9	23.7	
2017-10-27-15-18	  -45.5	 -48.0	    6205003596.6	12891100219.6	15.8	
2017-10-27-18-21	 -154.0	  36.5	  263947875475.7	489765016504.9	14.3	
2017-10-27-18-21	  128.0	  23.0	   53942617880.4	103745541659.0	14.8	
2017-10-27-18-21	 -161.5	  35.5	   42605331915.4	72284156890.1	13.0	
2017-10-27-18-21	  169.5	  53.0	    9236445510.6	22155401590.2	18.4	
2017-10-27-18-21	 -159.0	  34.5	    7611564128.3	12723115920.7	12.8	
2017-10-27-21-24	 -153.5	  38.0	  153403036588.4	305677078983.4	15.5	
2017-10-27-21-24	  128.0	  23.5	   87749428683.2	168277428807.8	14.9	
2017-10-28-00-03	  128.0	  24.0	  115571073056.6	221748777772.3	15.1	
2017-10-28-00-03	 -153.5	  38.5	  108997387485.2	219762316159.5	15.9	
2017-10-28-03-06	  128.0	  25.0	  126392611654.1	254400864307.5	15.9	
2017-10-28-03-06	 -153.5	  38.5	   79655123144.1	158836226679.8	15.7	
2017-10-28-03-06	   57.5	 -47.0	   25355619421.4	69619463509.5	21.7	
2017-10-28-06-09	  128.5	  25.5	  117571930394.0	241969435390.8	16.4	
2017-10-28-06-09	   59.5	 -47.5	   35797291965.4	91348232109.2	20.2	
2017-10-28-06-09	 -153.5	  38.5	   38569472480.4	74379293057.6	15.3	
2017-10-28-09-12	  129.0	  26.0	   97524919222.6	195099341234.0	15.9	
2017-10-28-09-12	   61.0	 -46.5	    4255515123.2	9944132275.3	18.6	
2017-10-28-12-15	  129.0	  26.5	   77409349352.3	147667010126.6	15.2	
2017-10-28-15-18	  129.0	  27.0	   76775990535.7	138842086461.7	14.3	
2017-10-28-15-18	  -43.0	 -36.5	   29864503312.5	64709501514.5	17.2	
2017-10-28-15-18	 -170.0	  44.0	   11080032073.4	21866066062.0	15.6	
2017-10-28-18-21	  -42.5	 -36.5	   89490993668.9	190791333636.1	16.8	
2017-10-28-18-21	  130.0	  28.5	   97831331804.0	184908501779.4	14.9	
2017-10-28-18-21	 -170.5	  44.5	   30827159668.4	66532986185.2	17.0	
2017-10-28-18-21	 -174.0	  44.0	   17637366298.1	35540690088.2	15.9	
2017-10-28-21-24	  -40.0	 -37.5	  194353519141.1	438334287378.2	17.8	
2017-10-28-21-24	 -173.0	  44.5	   98639185867.7	211255884283.7	16.9	
2017-10-28-21-24	  130.5	  29.0	   94440876598.5	184878920009.8	15.4	
2017-10-29-00-03	  -38.0	 -38.0	  295965828059.4	703646922190.8	18.8	
2017-10-29-00-03	 -175.0	  43.5	  183526961959.4	411680254325.5	17.6	
2017-10-29-00-03	  132.0	  30.5	   77537434440.7	147831105310.8	14.9	
2017-10-29-03-06	  -35.5	 -39.0	  425081910537.8	1054706878197.8	19.5	
2017-10-29-03-06	 -175.0	  43.5	  237616465780.2	632603230036.2	20.8	
2017-10-29-03-06	  132.5	  31.5	   92585985093.9	243325083963.9	20.4	
2017-10-29-06-09	  -35.0	 -38.5	  518079073346.9	1324597517811.8	20.1	
2017-10-29-06-09	 -174.5	  44.0	  268752272524.4	743275791625.4	21.6	
2017-10-29-06-09	  133.5	  32.0	  129238369083.6	312306361986.0	18.7	
2017-10-29-06-09	   84.5	 -53.5	    7397800334.4	24185053654.1	25.2	
2017-10-29-09-12	  -34.5	 -38.5	  582568375237.4	1445528600822.4	19.5	
2017-10-29-09-12	 -174.5	  44.5	  277323946407.4	787315507933.7	22.1	
2017-10-29-09-12	  134.5	  32.5	   81469382153.7	184042752785.8	17.4	
2017-10-29-09-12	   87.5	 -54.5	   16373486185.1	46313126856.4	21.8	
2017-10-29-12-15	  -34.5	 -38.0	  574641847460.0	1289094627592.1	17.5	
2017-10-29-12-15	 -174.0	  45.5	  274993202322.9	804954454430.1	22.7	
2017-10-29-12-15	  139.5	  31.5	  128870954697.9	291813041667.8	17.4	
2017-10-29-12-15	   89.5	 -54.5	   32681435250.0	89366148162.6	21.0	
2017-10-29-12-15	  179.0	  44.5	   19878883717.2	38452855834.8	14.8	
2017-10-29-12-15	  134.5	  31.5	   18392262958.0	31513535798.7	13.1	
2017-10-29-15-18	  -35.0	 -37.5	  518857135381.8	1050382188238.0	15.6	
2017-10-29-15-18	 -173.5	  46.5	  275515653541.7	850913732815.2	23.8	
2017-10-29-15-18	  140.0	  31.5	  230491050077.0	521274266705.0	17.3	
2017-10-29-15-18	 -180.0	  45.5	    6461051804.6	12814026103.9	15.1	
2017-10-29-18-21	 -173.0	  47.5	  274046680828.5	855199656108.3	23.8	
2017-10-29-18-21	  140.5	  31.0	  314037949782.6	708581231631.3	17.2	
2017-10-29-18-21	  -35.5	 -36.5	  353970806646.5	674800454900.4	14.5	
2017-10-29-18-21	  152.5	  37.5	   14614445604.4	27123750375.3	14.0	
2017-10-29-18-21	  -23.5	 -40.5	    2350474072.1	4314245736.3	13.8	
2017-10-29-21-24	  141.0	  31.5	  361100449612.0	822599856277.7	17.3	
2017-10-29-21-24	 -172.5	  48.0	  248955161753.9	795704406618.9	24.2	
2017-10-29-21-24	  -36.0	 -36.0	  208154951704.8	359413429539.3	13.0	
2017-10-29-21-24	  154.0	  38.0	  106892029770.6	209671288953.0	14.7	
2017-10-29-21-24	  -29.5	 -36.5	   19926125547.0	35720327937.4	13.4	
2017-10-30-00-03	  142.5	  31.5	  402457590777.4	910392784396.9	17.0	
2017-10-30-00-03	 -172.5	  49.0	  236102328204.2	732762548752.4	23.2	
2017-10-30-00-03	  155.0	  38.5	  173658587907.5	370402342663.0	15.9	
2017-10-30-00-03	  149.5	  40.5	   48987172482.5	97433986681.2	14.7	
2017-10-30-00-03	  144.5	  39.0	   38175319150.1	68883139926.6	13.4	
2017-10-30-00-03	  143.5	 -42.0	   18394558805.0	60063000961.2	24.2	
2017-10-30-03-06	  145.0	  35.0	  963405021699.4	2127615072564.5	16.5	
2017-10-30-03-06	 -172.0	  50.0	  229666316811.6	667947326628.2	21.3	
2017-10-30-03-06	  156.5	  38.5	  257047098670.2	563703446522.5	16.1	
2017-10-30-03-06	  143.5	 -42.0	   34436715807.6	109311733003.1	23.1	
2017-10-30-06-09	  146.5	  38.0	 1229284654693.1	2968289368549.0	18.0	
2017-10-30-06-09	 -172.0	  51.0	  207829508336.5	575196377421.5	20.0	
2017-10-30-06-09	  158.5	  38.5	  268000240652.7	571843531384.6	15.4	
2017-10-30-06-09	  143.5	 -42.0	   48253597297.7	146161920686.3	21.7	
2017-10-30-06-09	  147.5	  49.0	   37885803641.9	99073607032.5	18.7	
2017-10-30-09-12	  148.0	  43.0	 1558817781489.2	4111995466461.7	19.8	
2017-10-30-09-12	 -171.5	  51.0	  177149500102.0	453485367797.9	18.3	
2017-10-30-09-12	  160.5	  39.5	  193407340890.8	404238025420.4	14.9	
2017-10-30-09-12	  143.5	 -42.5	   48182104903.9	144265644507.6	21.3	
2017-10-30-09-12	  110.5	 -57.0	    6756645476.3	18817670945.9	19.7	
2017-10-30-09-12	  156.0	  38.0	    4871605433.5	9676478718.8	14.1	
2017-10-30-09-12	  140.0	  31.0	    5285148455.2	9263257768.9	12.4	
2017-10-30-12-15	  149.5	  47.0	 1782746291014.0	5134438495047.6	21.8	
2017-10-30-12-15	  162.0	  41.0	  162537453704.8	342232155287.3	14.9	
2017-10-30-12-15	 -170.0	  49.5	  106459526711.3	258905426995.7	17.2	
2017-10-30-12-15	  143.5	 -42.5	   43570256850.5	137313691513.6	22.2	
2017-10-30-12-15	  111.5	 -57.0	   16834831134.1	47344756508.1	19.8	
2017-10-30-12-15	 -172.0	  52.5	    5645044084.6	10489612467.4	13.1	
2017-10-30-15-18	  150.5	  46.5	 1686370961428.2	5429698246906.0	24.4	
2017-10-30-15-18	  144.0	 -42.5	   32031654337.5	111365094384.2	24.5	
2017-10-30-15-18	 -169.5	  49.0	   18107709103.0	46735095076.7	18.2	
2017-10-30-15-18	  164.5	  43.0	   18047891241.7	41028939932.2	16.0	
2017-10-30-18-21	  151.0	  46.5	 1889836033363.1	5725760449629.5	23.2	
2017-10-30-18-21	  165.5	  41.0	   81489422958.5	184672579103.5	16.1	
2017-10-30-18-21	  144.0	 -42.5	   32031654337.5	100617659482.9	22.2	
2017-10-30-18-21	  158.5	  51.0	    7759928615.6	24685192291.6	22.5	
2017-10-30-18-21	 -169.5	  49.0	    6063354199.4	14572307294.0	17.0	
2017-10-30-21-24	  151.5	  46.5	 2128773736742.0	5802373159520.3	21.1	
2017-10-30-21-24	  166.0	  40.0	  117623896204.1	255552512376.9	15.6	
2017-10-30-21-24	  155.0	 -37.5	   47013266521.3	90935869677.8	13.8	
2017-10-30-21-24	  144.0	 -42.5	   16006933133.5	50928014112.5	22.7	
2017-10-31-00-03	  152.0	  46.5	 2059198759965.5	5173502751456.3	19.5	
2017-10-31-00-03	  166.5	  39.5	  123140027214.1	256002576131.9	15.0	
2017-10-31-00-03	  156.0	 -37.5	   63884686762.2	125564238254.8	14.2	
2017-10-31-03-06	  152.5	  46.0	 1794519626708.5	4279105893145.1	18.4	
2017-10-31-03-06	  155.5	 -39.0	  116162895852.6	231551444654.0	14.5	
2017-10-31-03-06	  167.5	  39.0	   92876985228.9	197612639909.7	15.5	
2017-10-31-03-06	  147.0	  53.0	    3698900904.2	10442736458.8	20.5	
2017-10-31-03-06	  147.0	  28.5	    5432984534.7	9579260882.4	12.8	
2017-10-31-03-06	  146.0	  29.5	    2690337187.6	4900063537.2	13.2	
2017-10-31-06-09	  154.0	  46.5	 1641578098123.9	3703243916762.4	17.4	
2017-10-31-06-09	  155.5	 -39.0	  137795173114.7	285847106935.8	15.2	
2017-10-31-06-09	  168.5	  39.5	   78659542819.4	167556176606.1	15.6	
2017-10-31-06-09	  171.0	  46.0	   19224825428.5	41334141835.0	15.7	
2017-10-31-06-09	  157.5	  46.5	   21218149822.9	39616939932.0	13.7	
2017-10-31-06-09	  157.0	  45.5	   10736052793.9	20044133891.7	13.7	
2017-10-31-09-12	  154.5	  46.5	 1436991731794.0	3116028420010.8	16.7	
2017-10-31-09-12	  156.0	 -39.0	  164982219271.4	335488744079.5	15.1	
2017-10-31-09-12	  171.5	  44.0	   74553553464.6	164882659538.5	16.3	
2017-10-31-09-12	  157.5	  46.0	   80964249923.7	134996127669.2	12.3	
2017-10-31-09-12	  169.0	  39.5	   45210949011.7	89949228311.6	14.7	
2017-10-31-09-12	  -53.0	 -40.5	    9436754251.6	17307631134.2	13.5	
2017-10-31-12-15	  155.5	  46.5	 1192306347935.8	2489670670912.4	16.1	
2017-10-31-12-15	  157.0	 -38.5	  162965812595.3	325957317603.0	14.9	
2017-10-31-12-15	  157.5	  46.0	  130282778303.8	213132916428.7	12.2	
2017-10-31-12-15	  -52.0	 -40.5	   68612754311.9	149586467459.8	16.2	
2017-10-31-12-15	  171.5	  42.5	   40741326113.6	87610685785.6	16.0	
2017-10-31-12-15	  169.5	  40.0	    4735806475.9	5718435892.2	9.0	
2017-10-31-15-18	  157.0	  47.0	  724807459273.9	1564343228739.6	16.6	
2017-10-31-15-18	  157.5	 -38.5	  160572994230.3	317504418956.4	14.9	
2017-10-31-15-18	  -51.0	 -40.0	  111727216706.0	249697817147.5	16.9	
2017-10-31-18-21	  161.0	  47.0	  492031781956.8	1052385305807.2	16.5	
2017-10-31-18-21	  158.0	 -38.0	  134579765699.7	262651440182.1	14.9	
2017-10-31-18-21	  -50.0	 -39.5	  117200083684.0	253259388741.0	16.5	
2017-10-31-18-21	  153.0	  48.5	   41121599527.4	103077762620.8	19.1	
2017-10-31-18-21	  160.5	 -32.0	   21027038841.1	36216147247.0	13.1	
2017-10-31-21-24	  162.0	  48.0	  322620630502.9	711386947210.1	17.2	
2017-10-31-21-24	  -49.5	 -39.5	  124743646263.1	242695929013.7	15.0	
2017-10-31-21-24	  158.0	 -37.5	  108240138047.3	204209645226.1	14.6	
2017-10-31-21-24	  160.5	 -32.5	   23562259971.3	40919235378.8	13.4	
2017-10-31-21-24	  153.0	  48.5	   10240896011.0	21996715262.5	16.6	
2017-10-31-21-24	  156.5	  43.5	    6726566397.6	12391856093.0	14.2	
