2018-05-01-00-03	 -166.5	  41.0	  529434299751.0	1049957871622.9	13.1	
2018-05-01-00-03	 -144.0	 -38.5	  437995200349.4	965613239644.5	14.6	
2018-05-01-00-03	 -150.5	  26.0	  111011011176.7	186641938011.2	11.0	
2018-05-01-00-03	   83.5	 -17.5	   26531446494.3	47089407466.4	11.6	
2018-05-01-00-03	   57.0	 -47.5	    6284713947.3	15184828467.9	15.8	
2018-05-01-03-06	 -165.5	  41.0	  485009235530.9	959112923363.1	13.1	
2018-05-01-03-06	 -143.5	 -39.0	  420118200201.0	930481668172.9	14.7	
2018-05-01-03-06	 -150.5	  26.5	  132875090320.5	227348606464.2	11.2	
2018-05-01-03-06	   58.0	 -48.5	   37168706009.9	84710284607.4	14.9	
2018-05-01-03-06	   83.5	 -18.5	    8819369084.2	15720598317.6	11.7	
2018-05-01-03-06	  177.0	 -46.0	    4294486855.3	9023150225.7	13.7	
2018-05-01-06-09	 -143.0	 -39.0	  407612407305.8	896720409817.9	14.6	
2018-05-01-06-09	 -164.5	  41.5	  374808794522.3	746268083710.2	13.2	
2018-05-01-06-09	 -151.0	  26.5	  127064125086.9	217984872078.1	11.3	
2018-05-01-06-09	  175.0	 -47.0	   55143738514.8	134520686221.0	16.0	
2018-05-01-06-09	 -174.0	  40.0	   21258661823.2	39688779406.2	12.2	
2018-05-01-06-09	  176.5	 -51.0	   13762572482.5	32902467130.4	15.7	
2018-05-01-09-12	 -142.5	 -39.5	  390030867437.3	853565768543.7	14.5	
2018-05-01-09-12	 -164.5	  41.0	  326677685391.2	648668932255.5	13.1	
2018-05-01-09-12	  175.5	 -47.0	   93400198475.2	236553002238.5	16.7	
2018-05-01-09-12	  177.0	 -50.5	   70901659296.7	173345731948.6	16.1	
2018-05-01-09-12	 -151.0	  26.5	   85488735294.1	138991336296.5	10.7	
2018-05-01-09-12	  -41.0	 -43.5	    9005719053.0	20959964926.2	15.3	
2018-05-01-09-12	 -180.0	 -50.0	    3994401164.8	14261097258.0	23.5	
2018-05-01-12-15	 -142.0	 -39.5	  367933869164.7	805458000372.6	14.5	
2018-05-01-12-15	 -165.0	  41.0	  285193071191.3	557226082691.4	12.9	
2018-05-01-12-15	  175.5	 -47.0	  116644645485.5	299890222351.5	17.0	
2018-05-01-12-15	  -38.0	 -43.5	  103614359595.0	256478202503.9	16.3	
2018-05-01-12-15	  177.0	 -50.5	   94761816340.6	232296553694.1	16.2	
2018-05-01-12-15	 -177.5	 -50.5	   17778163573.2	50601739379.7	18.7	
2018-05-01-12-15	 -180.0	 -50.0	   15935973569.3	43260428148.7	17.9	
2018-05-01-12-15	 -179.0	 -52.5	    1881729203.2	3407703959.6	11.9	
2018-05-01-15-18	 -141.5	 -39.5	  348091644566.5	762381710935.0	14.5	
2018-05-01-15-18	 -165.0	  41.0	  227577551064.5	438217855759.5	12.7	
2018-05-01-15-18	  -36.5	 -43.5	  148231048833.7	392112092133.9	17.5	
2018-05-01-15-18	  176.0	 -46.5	  121018203001.3	307191517791.3	16.7	
2018-05-01-15-18	  176.5	 -51.0	  102394500014.1	262476396337.0	16.9	
2018-05-01-15-18	 -177.0	 -50.0	   43356682089.5	114508446929.8	17.4	
2018-05-01-15-18	 -179.5	 -53.5	   39062981950.1	88339525636.1	14.9	
2018-05-01-15-18	 -180.0	 -50.0	   26054109471.7	61109292171.8	15.4	
2018-05-01-15-18	   84.5	 -19.0	    5845343060.7	9989692078.7	11.2	
2018-05-01-18-21	 -141.0	 -39.5	  312190996923.3	674690780281.6	14.3	
2018-05-01-18-21	  -35.0	 -44.0	  206380978261.2	547164798786.2	17.5	
2018-05-01-18-21	 -177.0	 -50.5	  163210362775.4	391973226936.1	15.9	
2018-05-01-18-21	  176.5	 -46.5	  114811908232.6	281664661928.9	16.2	
2018-05-01-18-21	 -165.5	  41.0	  144372549986.6	276669146478.2	12.6	
2018-05-01-18-21	  176.0	 -51.0	  101915303062.5	257646770763.1	16.7	
2018-05-01-18-21	   84.5	 -19.0	   43855411336.3	89171269561.5	13.4	
2018-05-01-18-21	 -180.0	 -50.0	   26054109471.7	60308512054.3	15.2	
2018-05-01-18-21	 -174.0	  45.0	    2185722126.6	3282266831.5	9.9	
2018-05-01-21-24	  -33.5	 -43.5	  245896146092.1	603048371683.4	16.3	
2018-05-01-21-24	 -140.5	 -39.5	  271007361437.8	571273580596.7	14.0	
2018-05-01-21-24	 -177.0	 -51.0	  189955105271.7	453772158555.7	15.8	
2018-05-01-21-24	  176.0	 -51.0	  101495062453.7	255892138953.3	16.6	
2018-05-01-21-24	  177.0	 -46.5	   95821201352.2	233646296867.7	16.1	
2018-05-01-21-24	   84.5	 -19.5	   61372319452.8	138361018245.6	14.9	
2018-05-01-21-24	 -165.0	  41.0	   62931016286.4	117321919159.5	12.3	
2018-05-01-21-24	 -180.0	 -50.0	   26054109471.7	58669505659.5	14.8	
2018-05-01-21-24	 -174.0	  45.0	    2185722126.6	3238284837.6	9.7	
2018-05-02-00-03	  -32.0	 -43.5	  243916148886.3	583578302613.0	15.9	
2018-05-02-00-03	 -139.5	 -40.0	  230012722750.4	468439572108.1	13.5	
2018-05-02-00-03	 -176.5	 -51.0	  196238174669.6	464317590344.9	15.7	
2018-05-02-00-03	  175.5	 -51.5	   85391265061.9	203682239305.4	15.8	
2018-05-02-00-03	  177.0	 -46.5	   80967163536.2	193239152197.9	15.8	
2018-05-02-00-03	   84.5	 -19.5	   72927836357.9	165179460798.5	15.0	
2018-05-02-00-03	 -180.0	 -50.0	   20196011848.4	40561795452.7	13.3	
2018-05-02-00-03	 -170.5	  44.5	   15470466948.4	31915381177.4	13.6	
2018-05-02-00-03	  165.0	 -49.0	    2027929392.6	7202293150.6	23.4	
2018-05-02-00-03	 -180.0	 -46.0	    2147243427.7	3626194667.7	11.1	
2018-05-02-03-06	  -31.0	 -43.0	  269887380876.9	648028380055.1	16.0	
2018-05-02-03-06	 -176.5	 -51.0	  185356152910.7	438823652027.4	15.8	
2018-05-02-03-06	 -139.0	 -40.0	  181787913911.9	361832128366.8	13.2	
2018-05-02-03-06	   84.5	 -20.0	   69852438949.4	153694485517.9	14.6	
2018-05-02-03-06	  177.5	 -46.5	   59769796094.6	142553353575.8	15.8	
2018-05-02-03-06	  175.5	 -51.5	   54566166699.8	139101616487.2	16.9	
2018-05-02-03-06	 -170.0	  44.0	   24364439547.0	50601501350.8	13.8	
2018-05-02-03-06	 -180.0	 -50.0	   12125781658.5	26333354706.2	14.4	
2018-05-02-03-06	  165.0	 -49.5	    4035423885.6	9635960789.3	15.8	
2018-05-02-03-06	 -180.0	 -46.0	    2147243427.7	3614478044.7	11.2	
2018-05-02-06-09	  -29.0	 -43.0	  291250311668.5	669650009985.6	15.4	
2018-05-02-06-09	 -176.0	 -50.5	  170668306343.5	400811226791.4	15.7	
2018-05-02-06-09	 -138.0	 -40.0	  131427130476.1	256203663306.9	13.0	
2018-05-02-06-09	   85.0	 -20.0	   63907721877.7	135113665739.5	14.1	
2018-05-02-06-09	  177.5	 -47.0	   38357446646.9	94568056896.6	16.4	
2018-05-02-06-09	 -169.0	  43.5	   42320599345.2	81401498688.9	12.8	
2018-05-02-06-09	  175.5	 -51.5	   25370983411.9	66568603759.1	17.5	
2018-05-02-06-09	 -180.0	 -50.0	    3994401164.8	13841335185.6	23.1	
2018-05-02-06-09	  174.5	 -52.5	    3763458406.4	11808570955.9	20.9	
2018-05-02-06-09	  165.0	 -49.5	    4035423885.6	9478004999.9	15.6	
2018-05-02-06-09	 -180.0	 -48.5	    2068334532.2	2251688781.0	7.2	
2018-05-02-09-12	  -27.0	 -43.0	  257677444936.0	591889320295.6	15.5	
2018-05-02-09-12	 -176.0	 -50.5	  136997157974.5	320034721204.4	15.7	
2018-05-02-09-12	 -137.0	 -40.0	   92998393549.6	181593915776.1	13.1	
2018-05-02-09-12	   85.0	 -20.5	   46370585950.2	90119002845.8	13.0	
2018-05-02-09-12	 -169.0	  43.5	   44599924083.2	85870905148.4	12.9	
2018-05-02-09-12	  177.5	 -46.5	   19266733250.7	43138298533.3	15.0	
2018-05-02-09-12	  176.0	 -51.0	    3890557428.3	7493566649.5	12.9	
2018-05-02-09-12	  165.0	 -49.0	    2027929392.6	6955145009.4	23.0	
2018-05-02-09-12	 -180.0	 -48.0	    2068334532.2	2153772947.0	7.0	
2018-05-02-12-15	  -26.0	 -43.0	  184650178373.2	408581847319.0	15.0	
2018-05-02-12-15	 -176.5	 -50.5	   81544092528.8	192988740778.2	16.1	
2018-05-02-12-15	 -136.5	 -39.5	   66986676642.4	131864162199.1	13.3	
2018-05-02-12-15	   85.0	 -21.0	   28904602673.1	56273839152.1	13.2	
2018-05-02-12-15	 -168.5	  43.5	   20104915489.1	36687190617.5	12.4	
2018-05-02-12-15	  177.5	 -46.0	    4294486855.3	8720561380.5	13.7	
2018-05-02-15-18	  -25.0	 -43.0	  116123149933.0	244090391443.4	14.4	
2018-05-02-15-18	 -136.5	 -39.5	   59933618720.4	114976803007.2	13.2	
2018-05-02-15-18	 -176.5	 -50.0	   15853472680.1	45942012107.8	19.9	
2018-05-02-15-18	 -174.0	 -51.0	    5877613889.4	12401217107.4	14.4	
2018-05-02-15-18	   85.5	 -21.5	    2885769948.1	5430339484.6	12.9	
2018-05-02-18-21	  -24.0	 -43.0	   75001163127.7	149494076748.1	13.8	
2018-05-02-18-21	 -135.5	 -39.0	   36083012813.0	64751854908.1	12.4	
2018-05-02-21-24	   29.5	 -42.0	   43930351093.4	109015276536.7	17.4	
2018-05-02-21-24	  -22.0	 -43.0	   25013519784.9	46856333068.1	13.1	
2018-05-02-21-24	 -135.5	 -39.0	   19285283348.6	33921332667.5	12.3	
2018-05-03-00-03	   31.0	 -41.5	  104022238814.9	272299358089.6	18.5	
2018-05-03-00-03	  -18.0	 -43.5	   56348718663.1	123166097899.8	15.4	
2018-05-03-00-03	   81.5	 -60.0	    1545539148.2	4230396686.3	19.3	
2018-05-03-00-03	   82.0	 -61.5	    1474934803.7	3095329023.2	14.8	
2018-05-03-03-06	   32.0	 -41.5	  161970687534.2	431228610071.4	18.9	
2018-05-03-03-06	  -17.0	 -43.0	   92585472899.4	224609751052.1	17.2	
2018-05-03-03-06	   81.5	 -61.0	   39265931808.8	130252766420.8	23.5	
2018-05-03-06-09	   33.0	 -42.0	  178517833426.0	474867708264.8	18.9	
2018-05-03-06-09	  -16.5	 -43.0	   99437094331.5	246083051852.2	17.5	
2018-05-03-06-09	   81.5	 -61.5	   60196195749.3	236834638300.8	27.9	
2018-05-03-09-12	   34.0	 -41.5	  146311523182.0	385314384292.8	18.7	
2018-05-03-09-12	   82.0	 -61.5	   81219901273.2	342202176415.7	29.9	
2018-05-03-09-12	  -16.5	 -43.0	   97377811454.1	228721064190.9	16.7	
2018-05-03-12-15	   82.0	 -61.5	   97678175719.4	428457729967.8	31.3	
2018-05-03-12-15	   34.5	 -41.0	  102616768446.6	246038152064.2	17.0	
2018-05-03-12-15	  -16.5	 -43.0	   61141773000.3	140013569090.0	16.3	
2018-05-03-15-18	   82.0	 -61.5	  114226239507.9	512293383529.3	32.1	
2018-05-03-15-18	   35.0	 -41.0	   51373389250.8	110988790932.9	15.4	
2018-05-03-15-18	  -16.5	 -42.5	    4557963356.6	11242487965.3	17.5	
2018-05-03-18-21	   81.5	 -61.5	  134102965652.2	604517910323.9	32.3	
2018-05-03-18-21	 -158.0	 -36.5	   19861755235.3	45464957749.6	16.3	
2018-05-03-21-24	   81.5	 -61.5	  154423182347.6	705391049630.0	32.8	
2018-05-03-21-24	 -157.5	 -37.0	   42222352898.9	94775310596.3	16.0	
2018-05-04-00-03	   81.5	 -61.0	  163858099147.7	767093716069.6	33.7	
2018-05-04-00-03	 -156.5	 -37.0	   49563356950.7	112653173883.3	16.2	
2018-05-04-03-06	   81.5	 -61.5	  171489941293.1	809437402835.5	33.8	
2018-05-04-03-06	 -155.5	 -37.5	   66663902949.4	154330805104.7	16.4	
2018-05-04-03-06	 -166.0	  45.5	   28009951735.5	60824807316.4	15.4	
2018-05-04-03-06	   88.5	 -30.5	    2663362781.0	5623934798.9	15.0	
2018-05-04-06-09	   81.5	 -61.5	  178840763172.5	817547833308.0	32.6	
2018-05-04-06-09	 -155.0	 -37.5	   88537718946.2	210626755426.2	16.8	
2018-05-04-06-09	 -166.0	  45.5	   34605925687.1	74273820462.5	15.1	
2018-05-04-06-09	   88.0	 -30.5	   21333471136.5	41431705707.2	13.7	
2018-05-04-06-09	   78.5	 -37.0	    4937288658.0	11001071332.1	15.7	
2018-05-04-06-09	   74.5	 -59.5	    1568840678.5	3289836257.9	14.8	
2018-05-04-09-12	   81.5	 -61.5	  169685212324.2	774677457195.1	32.2	
2018-05-04-09-12	 -154.0	 -38.0	   98081280476.5	229732938348.6	16.4	
2018-05-04-09-12	    2.5	 -47.0	   21080618432.1	50152593477.3	16.6	
2018-05-04-09-12	   78.5	 -37.0	   19764919903.1	40498000409.5	14.3	
2018-05-04-09-12	 -165.5	  45.0	   17447297208.2	35681445284.3	14.3	
2018-05-04-09-12	   88.0	 -30.5	   13302819389.6	23909975868.7	12.6	
2018-05-04-12-15	   81.5	 -61.5	  160696102833.9	719304992310.1	31.3	
2018-05-04-12-15	 -153.5	 -38.0	  107839702597.0	238584074383.0	15.4	
2018-05-04-12-15	    3.0	 -46.5	   36091346842.8	87707622925.8	16.8	
2018-05-04-12-15	   78.5	 -37.0	   19764919903.1	41099090524.0	14.4	
2018-05-04-15-18	   81.5	 -61.5	  146884336194.8	655608076675.7	30.9	
2018-05-04-15-18	 -152.0	 -38.0	  110358445437.3	235274728373.0	14.7	
2018-05-04-15-18	    3.0	 -46.5	   25610220956.5	59468288055.0	16.0	
2018-05-04-15-18	   78.5	 -37.0	    9874389941.4	21489614992.2	14.9	
2018-05-04-18-21	   82.0	 -61.5	  136492364658.7	595272761586.6	30.0	
2018-05-04-18-21	 -151.0	 -37.5	  105633392465.1	227722683527.1	14.8	
2018-05-04-18-21	    7.0	 -49.5	   16202691450.7	51987795627.3	21.9	
2018-05-04-18-21	   78.5	 -37.5	    7389605591.9	15877745929.4	14.7	
2018-05-04-18-21	   93.5	 -31.5	    5271154676.9	7408028932.9	9.6	
2018-05-04-18-21	    4.0	 -46.5	    2127757561.6	4511469883.4	14.5	
2018-05-04-21-24	   81.5	 -61.0	  121581915350.8	516816270500.2	29.1	
2018-05-04-21-24	 -150.0	 -38.0	  100532480531.8	214748455079.8	14.6	
2018-05-04-21-24	   95.0	 -33.0	   91181577436.9	187175686301.5	14.0	
2018-05-04-21-24	    7.5	 -49.5	   26321441802.2	77287190645.5	20.0	
2018-05-05-00-03	   81.5	 -61.0	  107957713115.6	421308965548.7	26.6	
2018-05-05-00-03	   95.0	 -32.5	  148193121757.2	316801636687.7	14.5	
2018-05-05-00-03	 -148.5	 -37.5	  100710557086.5	212280227443.3	14.3	
2018-05-05-00-03	    7.5	 -49.5	   18291616751.8	50382996173.9	18.7	
2018-05-05-03-06	   97.0	 -33.5	  244325102240.5	552229286533.7	15.3	
2018-05-05-03-06	   81.5	 -61.0	   85062624255.4	313148837631.0	24.9	
2018-05-05-03-06	 -148.0	 -37.5	   85920087021.5	180212017250.0	14.2	
2018-05-05-06-09	   98.5	 -34.5	  283665930509.4	605131441996.7	14.4	
2018-05-05-06-09	   82.0	 -61.0	   77407614892.5	263144047818.1	22.9	
2018-05-05-06-09	 -147.5	 -37.5	   58901225802.7	120131952020.5	13.7	
2018-05-05-06-09	  -49.5	 -40.5	   18873508503.1	36525967733.4	13.0	
2018-05-05-06-09	   55.0	 -55.0	    7113907173.4	21009428888.1	19.8	
2018-05-05-09-12	  100.5	 -35.5	  232100656457.8	489415621429.2	14.2	
2018-05-05-09-12	   82.5	 -61.5	   60079789707.4	205531040450.5	23.0	
2018-05-05-09-12	  -49.5	 -40.5	   44657935077.3	88355445099.0	13.3	
2018-05-05-09-12	 -146.5	 -37.5	   24555450485.1	44411970760.6	12.1	
2018-05-05-09-12	   14.0	 -50.5	    1986906671.9	6373535680.7	21.5	
2018-05-05-12-15	  103.0	 -37.0	  178673904597.1	413074528933.0	15.6	
2018-05-05-12-15	   82.5	 -61.5	   59772825687.8	199167800960.9	22.4	
2018-05-05-12-15	  -49.5	 -41.0	   35238788522.7	68900562365.1	13.1	
2018-05-05-12-15	  129.0	 -58.5	   16265524626.4	52427922229.7	21.6	
2018-05-05-12-15	 -145.0	 -38.0	    9792753518.4	18562056635.1	12.7	
2018-05-05-12-15	  138.0	 -51.5	    7739039742.1	17560649801.6	15.2	
2018-05-05-15-18	  104.5	 -37.5	  185091969654.8	443186456156.3	16.1	
2018-05-05-15-18	   81.5	 -61.5	   47928198884.6	156167153488.7	21.9	
2018-05-05-15-18	  129.0	 -58.5	   17765550324.7	57296688042.9	21.6	
2018-05-05-15-18	  138.0	 -51.5	    7739039742.1	17599358013.5	15.2	
2018-05-05-15-18	  -48.5	 -40.5	    2350474072.1	4420807271.3	12.6	
2018-05-05-18-21	  106.0	 -38.0	  171368496768.8	386361793562.8	15.2	
2018-05-05-18-21	   81.0	 -61.5	   34512454809.1	111314503202.1	21.7	
2018-05-05-18-21	  129.5	 -59.0	    4822189909.5	16122987161.1	22.5	
2018-05-05-18-21	  138.5	 -51.0	    1945278714.2	4700139164.6	16.3	
2018-05-05-21-24	  108.0	 -38.5	  118940046311.7	244389479611.8	13.9	
2018-05-05-21-24	  -21.0	 -63.5	   22307845782.5	83231871234.4	25.2	
2018-05-05-21-24	   66.5	 -50.5	    3953074259.5	14485013119.0	24.7	
2018-05-05-21-24	   80.5	 -61.0	    3020704070.9	8774667397.2	19.6	
2018-05-05-21-24	  145.0	 -54.5	    1794998103.8	4971550734.3	18.7	
2018-05-06-00-03	 -117.0	 -65.0	   26370092719.4	112915971844.4	29.0	
2018-05-06-00-03	  -20.0	 -63.5	   26276303470.2	93815295742.2	24.1	
2018-05-06-00-03	  145.0	 -55.0	   21341179294.2	62451989014.4	19.8	
2018-05-06-00-03	   66.5	 -50.5	   13866717271.4	46709314269.6	22.8	
2018-05-06-00-03	  110.0	 -39.0	   24105870900.2	43746512527.2	12.3	
2018-05-06-00-03	   68.0	 -57.5	   10033068698.0	33189375472.5	22.4	
2018-05-06-03-06	 -115.0	 -65.5	   35147772769.5	151577305582.9	29.1	
2018-05-06-03-06	  139.5	 -60.0	   17094136751.3	47301324739.7	18.7	
2018-05-06-03-06	  113.0	 -39.5	   23936120637.1	45892877216.6	12.9	
2018-05-06-03-06	  145.0	 -55.0	   12410517360.9	33427889928.5	18.2	
2018-05-06-03-06	   68.0	 -57.5	    8349546948.9	21681664489.6	17.5	
2018-05-06-03-06	   66.0	 -50.5	    5939980931.4	17292466145.8	19.6	
2018-05-06-03-06	  -18.5	 -64.0	    4137696032.6	13411515034.3	21.9	
2018-05-06-06-09	  139.0	 -60.0	   38800524863.1	106951997325.0	18.5	
2018-05-06-06-09	   30.0	 -51.5	   27254196136.6	73101064852.8	18.0	
2018-05-06-06-09	  115.0	 -40.0	   26201444411.4	52227341866.2	13.4	
2018-05-06-09-12	  119.0	 -40.5	   96830481588.2	223519245407.9	15.5	
2018-05-06-09-12	   32.5	 -51.0	   19557231508.9	53071129520.9	18.2	
2018-05-06-09-12	  138.5	 -60.0	   17117438281.7	47424877118.5	18.6	
2018-05-06-09-12	   77.0	 -55.0	    5362965897.5	14270052149.8	17.8	
2018-05-06-12-15	  120.5	 -41.0	  180558411257.5	443468150275.4	16.5	
2018-05-06-12-15	   34.5	 -50.5	   45324348674.9	111344087300.0	16.4	
2018-05-06-12-15	   77.0	 -55.0	   21385099598.4	65919384902.4	20.6	
2018-05-06-15-18	  123.0	 -41.5	  289732210849.8	677988040274.1	15.6	
2018-05-06-15-18	  169.0	  49.0	   60814526449.6	168788182737.5	18.4	
2018-05-06-15-18	   39.0	 -45.0	   50516642543.6	104691290444.4	13.8	
2018-05-06-15-18	   77.0	 -55.0	    8930933691.2	26197824072.8	19.5	
2018-05-06-18-21	  126.5	 -43.0	  322253909053.6	732345746908.3	15.1	
2018-05-06-18-21	  170.0	  49.0	  131760062385.0	369719488424.3	18.6	
2018-05-06-18-21	   39.0	 -45.0	   72618555487.6	153406253459.7	13.9	
2018-05-06-18-21	   78.0	 -55.0	   42592353682.3	127856612784.7	19.8	
2018-05-06-21-24	  129.5	 -44.0	  342028127128.1	823661950031.0	15.9	
2018-05-06-21-24	  171.5	  49.0	   92437591864.7	276565036259.8	19.6	
2018-05-06-21-24	   77.5	 -55.5	   82650735952.0	275157298334.2	21.8	
2018-05-06-21-24	   39.0	 -45.0	   66099702725.5	136686669532.8	13.5	
2018-05-06-21-24	  166.5	  48.0	   53612255971.6	136025376516.4	16.6	
2018-05-06-21-24	  -28.5	 -35.5	   15114343502.1	28883160175.1	12.5	
2018-05-06-21-24	   51.0	 -52.5	    7612230718.1	24818673802.2	21.3	
2018-05-06-21-24	  164.5	 -50.0	    3973813343.7	5603877449.2	9.2	
2018-05-07-00-03	  131.5	 -44.0	  338305975544.6	771264198054.1	15.0	
2018-05-07-00-03	   77.5	 -55.5	   90689500637.7	293198299450.7	21.1	
2018-05-07-00-03	  172.5	  49.5	   78018100358.6	216301369955.0	18.1	
2018-05-07-00-03	   55.0	 -53.0	   58221666311.2	166306479741.7	18.6	
2018-05-07-00-03	   39.0	 -44.5	   39758600948.0	78843246623.0	12.9	
2018-05-07-00-03	  166.5	  48.0	   24738736499.4	56078574893.5	14.8	
2018-05-07-00-03	  164.5	 -50.5	    5939980931.4	10053250832.2	11.0	
2018-05-07-00-03	  -40.5	 -55.0	    3545939379.7	8794693166.8	16.2	
2018-05-07-00-03	  -26.5	 -36.0	    2500734600.0	4255105969.1	11.1	
2018-05-07-03-06	  133.0	 -44.0	  261605615123.0	528326916242.6	13.2	
2018-05-07-03-06	   57.5	 -53.5	   84528634198.8	252344615272.4	19.4	
2018-05-07-03-06	   77.0	 -56.0	   59273239436.5	171383151819.1	18.8	
2018-05-07-03-06	  174.0	  50.5	   57013320971.7	148689247533.8	17.0	
2018-05-07-03-06	 -114.5	 -59.0	   47642714973.0	142880403185.9	19.5	
2018-05-07-03-06	 -121.0	 -55.0	   32219941985.7	91432319899.2	18.4	
2018-05-07-03-06	  164.5	 -51.0	    9851427233.2	26727546966.5	17.6	
2018-05-07-03-06	   40.0	 -44.0	    2223535157.0	4451092628.9	13.0	
2018-05-07-06-09	   59.0	 -53.5	  130420918247.9	395458391461.0	19.8	
2018-05-07-06-09	 -113.0	 -59.5	   96618603333.1	315572364060.3	21.3	
2018-05-07-06-09	 -120.0	 -55.0	   84305535384.9	225783387679.4	17.4	
2018-05-07-06-09	  174.5	  51.0	   62223429626.1	159821378011.7	16.7	
2018-05-07-06-09	  140.5	 -48.5	   45393783263.1	105702211711.1	15.1	
2018-05-07-06-09	 -130.5	 -48.0	   20682873845.0	49875846372.7	15.6	
2018-05-07-06-09	  164.0	 -51.0	   15728742649.6	38862122766.8	16.0	
2018-05-07-09-12	 -114.5	 -57.5	  254783729525.7	791628195492.9	20.4	
2018-05-07-09-12	   60.0	 -53.5	  147436271204.5	449238732506.0	19.9	
2018-05-07-09-12	  175.0	  51.5	   83345223147.6	234115327768.9	18.3	
2018-05-07-09-12	  143.0	 -49.5	   48598509029.0	107839167098.4	14.4	
2018-05-07-09-12	 -129.5	 -47.5	   14617794950.7	35108718336.1	15.6	
2018-05-07-12-15	 -113.5	 -58.0	  253953413893.7	797347583915.6	20.5	
2018-05-07-12-15	   61.0	 -53.5	  155263316452.1	452760597333.6	19.0	
2018-05-07-12-15	  175.5	  51.5	   77405242400.5	227304918086.4	19.1	
2018-05-07-12-15	  145.5	 -51.0	   58392872459.2	152021315184.2	16.9	
2018-05-07-12-15	   77.5	 -54.0	   23749254789.1	75703045053.7	20.7	
2018-05-07-15-18	 -112.0	 -59.0	  179793530122.6	609833741821.2	22.0	
2018-05-07-15-18	   63.5	 -53.5	  183914287811.6	493880813362.1	17.4	
2018-05-07-15-18	  147.5	 -52.5	   76218071510.5	203054810920.8	17.2	
2018-05-07-15-18	   14.5	 -36.5	   67116720045.3	153455808665.6	14.8	
2018-05-07-15-18	 -118.5	 -53.0	   31880172833.9	82873818458.0	16.8	
2018-05-07-15-18	   77.0	 -54.5	   25435212409.6	75058475405.7	19.0	
2018-05-07-15-18	  175.5	  51.5	   22963794124.0	39026869066.8	11.0	
2018-05-07-15-18	   74.5	 -54.5	    3611888097.8	9311764104.5	16.6	
2018-05-07-18-21	 -111.5	 -59.5	  160091989490.3	548786290602.5	22.1	
2018-05-07-18-21	   13.5	 -37.5	  176815389961.8	426821044367.8	15.5	
2018-05-07-18-21	   65.0	 -53.5	  114719744371.6	309919532591.8	17.3	
2018-05-07-18-21	   75.0	 -54.5	   46822372761.5	145683861104.2	19.9	
2018-05-07-18-21	  149.5	 -53.0	   48620075362.5	135490954168.9	17.9	
2018-05-07-18-21	 -118.5	 -52.5	   22622541819.2	57922368563.4	16.4	
2018-05-07-18-21	   68.5	 -56.5	   18968476168.0	42636763097.7	14.4	
2018-05-07-18-21	   65.5	 -49.5	    2007494492.9	4662558407.9	14.9	
2018-05-07-18-21	  147.0	 -47.0	    2108109930.5	4317600953.7	13.1	
2018-05-07-21-24	   13.5	 -38.0	  217028694649.9	483509101410.6	14.3	
2018-05-07-21-24	 -110.5	 -59.5	  139400583738.8	481044845022.5	22.1	
2018-05-07-21-24	   65.0	 -49.5	   61875967240.2	149390974585.4	15.4	
2018-05-07-21-24	   69.0	 -57.0	   37352001604.8	103906900896.4	17.8	
2018-05-07-21-24	  151.5	 -54.0	   36727403523.9	101720486876.1	17.7	
2018-05-07-21-24	   66.0	 -53.5	   36987877792.0	90660357432.8	15.6	
2018-05-07-21-24	  145.0	 -44.0	   33048508786.9	89719517573.9	17.3	
2018-05-07-21-24	   73.5	 -55.0	   21539431150.8	71225269429.0	21.1	
2018-05-07-21-24	   76.5	 -55.0	   17949571466.9	57162701939.1	20.3	
2018-05-07-21-24	 -118.5	 -52.5	    9493814922.3	26611066538.8	17.9	
2018-05-07-21-24	  -31.5	  58.5	    3207107101.5	11234265593.1	22.3	
2018-05-07-21-24	  147.0	 -47.0	    2108109930.5	4282263981.4	12.9	
2018-05-08-00-03	   14.0	 -38.5	  240149993905.1	496398371414.0	13.2	
2018-05-08-00-03	   69.5	 -57.0	  141089987064.5	443652325324.1	20.1	
2018-05-08-00-03	 -109.5	 -59.5	  116912040642.7	397666412844.3	21.7	
2018-05-08-00-03	   65.5	 -50.5	  109280634691.6	299807656416.0	17.5	
2018-05-08-00-03	  153.5	 -54.0	   32745725600.5	93976718265.7	18.2	
2018-05-08-00-03	  145.5	 -45.5	   26093244442.8	62401836806.6	15.2	
2018-05-08-00-03	   77.0	 -55.0	   14315791478.9	40093574282.4	17.8	
2018-05-08-00-03	  -31.0	  59.0	    6321727733.3	17784018563.8	17.9	
2018-05-08-03-06	   69.5	 -57.0	  174760261570.8	571616154560.7	20.8	
2018-05-08-03-06	   15.0	 -39.0	  260767656555.2	505944935466.2	12.3	
2018-05-08-03-06	   65.5	 -50.0	  103920653155.7	292939634214.2	17.8	
2018-05-08-03-06	 -108.5	 -60.0	   89689992260.7	291971637114.9	20.6	
2018-05-08-03-06	   77.0	 -56.5	   65157389147.9	181993504468.1	17.7	
2018-05-08-03-06	  155.5	 -54.5	   25194554170.3	69505280716.4	17.4	
2018-05-08-03-06	  145.5	 -45.5	    8685252998.6	20099035695.8	14.6	
2018-05-08-03-06	  123.0	 -55.5	    3501612083.7	9507190134.2	17.1	
2018-05-08-03-06	   74.5	 -59.0	    3184045639.3	6651684634.8	13.2	
2018-05-08-06-09	   71.5	 -57.0	  346541940430.0	1134750573007.4	20.8	
2018-05-08-06-09	   17.0	 -39.0	  230945833225.7	425203890507.1	11.6	
2018-05-08-06-09	   65.5	 -50.0	   90244206167.1	246309071717.7	17.2	
2018-05-08-06-09	 -107.0	 -60.0	   59539236560.8	183165851882.6	19.3	
2018-05-08-06-09	  125.5	 -56.5	   44782389849.4	134958357024.2	18.9	
2018-05-08-06-09	  158.5	 -55.0	   40687082327.9	112428897922.9	17.3	
2018-05-08-06-09	 -114.0	 -48.5	   30842801312.6	75871907180.1	15.4	
2018-05-08-06-09	  164.5	 -51.0	   17694760448.0	41936484303.5	14.9	
2018-05-08-06-09	   11.5	 -39.5	   14396060637.5	30440098885.9	13.3	
2018-05-08-06-09	 -156.5	 -33.5	    7762398203.4	16676917771.1	13.5	
2018-05-08-06-09	   74.0	 -57.0	    8530271069.8	16274024374.8	12.0	
2018-05-08-09-12	   73.0	 -57.5	  358311819917.5	1278826410474.4	22.6	
2018-05-08-09-12	   20.0	 -38.0	  288885084185.8	570397424896.8	12.4	
2018-05-08-09-12	  160.5	 -55.5	  126766098491.7	398407912987.7	19.7	
2018-05-08-09-12	  165.0	 -51.0	   66551435553.7	247882962574.5	23.3	
2018-05-08-09-12	   65.5	 -50.0	   66138275019.6	177351008191.0	16.7	
2018-05-08-09-12	  125.5	 -56.5	   58206627693.0	175319456442.3	18.8	
2018-05-08-09-12	 -113.5	 -48.5	   51503197928.7	133075335994.0	16.1	
2018-05-08-09-12	 -106.0	 -60.0	   17140265571.6	50663607767.0	18.4	
2018-05-08-09-12	 -156.0	 -34.0	   20605468921.9	40631350367.6	12.3	
2018-05-08-12-15	   73.5	 -57.5	  434486835037.5	1553016089557.2	22.5	
2018-05-08-12-15	   20.0	 -38.0	  305978726061.5	602343975366.3	12.3	
2018-05-08-12-15	  165.5	 -56.5	  187036761784.3	602153647724.3	20.1	
2018-05-08-12-15	  165.0	 -51.0	  109592251205.3	453413400261.7	25.7	
2018-05-08-12-15	  127.5	 -56.5	   61417326419.9	177228474808.8	17.9	
2018-05-08-12-15	 -113.5	 -49.0	   45117868543.7	116286173298.2	16.0	
2018-05-08-12-15	   66.0	 -50.0	   23965340039.9	66152212906.1	17.1	
2018-05-08-12-15	    7.5	 -47.0	   19168980390.4	61106811920.7	19.7	
2018-05-08-12-15	 -156.0	 -34.5	   17892792134.6	34006491318.2	11.8	
2018-05-08-12-15	  -10.5	 -48.0	    6224971072.8	19921142283.8	19.8	
2018-05-08-12-15	 -117.0	 -49.5	    2007494492.9	5787100516.6	17.8	
2018-05-08-12-15	  165.5	 -47.0	    2108109930.5	2878484972.2	8.4	
2018-05-08-15-18	   76.5	 -58.5	  470780313701.8	1779261229578.0	23.7	
2018-05-08-15-18	  167.5	 -56.0	  249554843786.6	851544671909.2	21.2	
2018-05-08-15-18	  164.5	 -51.0	  150983365232.6	556487887115.4	22.8	
2018-05-08-15-18	   20.5	 -38.5	  272117519104.5	519988335555.1	11.8	
2018-05-08-15-18	  129.5	 -56.5	   72079290657.5	199596627537.5	17.0	
2018-05-08-15-18	    7.5	 -47.0	   38218782348.3	112482798399.7	18.1	
2018-05-08-15-18	   -2.5	 -52.5	   30383924661.7	75082873626.5	15.2	
2018-05-08-15-18	 -114.0	 -49.0	   24557770652.2	60122748836.1	15.0	
2018-05-08-15-18	   20.0	 -39.0	   26609575490.9	45245479210.7	10.4	
2018-05-08-15-18	  -11.0	 -48.0	   10341515502.0	33107710682.8	19.7	
2018-05-08-15-18	  -35.5	  55.0	    5296745237.3	20418323477.1	23.7	
2018-05-08-15-18	 -117.5	 -50.5	    5919241847.1	16734554991.7	17.4	
2018-05-08-18-21	   79.5	 -59.0	  455841785913.5	1850676990603.7	25.3	
2018-05-08-18-21	  170.0	 -56.0	  271298938805.0	976128938798.4	22.2	
2018-05-08-18-21	  164.5	 -50.0	  145758950508.7	456329645339.7	19.2	
2018-05-08-18-21	   21.5	 -38.0	  209620323027.8	402253010270.5	11.8	
2018-05-08-18-21	   -2.0	 -53.0	   89432999809.3	282477123582.5	19.4	
2018-05-08-18-21	  -34.5	  55.5	   36764658299.2	138465476509.8	23.0	
2018-05-08-18-21	  130.5	 -56.0	   45162877537.4	114041502082.0	15.4	
2018-05-08-18-21	    7.5	 -47.0	   33885651712.7	109497006069.2	19.8	
2018-05-08-18-21	   -0.5	 -42.5	   41055683788.7	100670262732.3	15.0	
2018-05-08-18-21	  135.0	  32.0	   39362326616.8	100229866487.4	15.6	
2018-05-08-18-21	   30.0	 -43.0	   22789295560.6	49552684330.5	13.3	
2018-05-08-18-21	   73.5	 -57.0	   16992737914.2	36364805375.3	13.1	
2018-05-08-21-24	   80.0	 -59.0	  418651372992.9	1812113949749.0	27.0	
2018-05-08-21-24	  171.5	 -56.0	  281733310920.1	931821310114.9	20.4	
2018-05-08-21-24	   22.0	 -37.5	  161920341400.8	322384311511.7	12.2	
2018-05-08-21-24	   -2.0	 -54.0	   99619774924.6	305333561052.5	18.8	
2018-05-08-21-24	    0.0	 -42.5	   75345221815.7	177408535158.2	14.4	
2018-05-08-21-24	  -34.5	  55.5	   47023177483.6	157501633945.2	20.5	
2018-05-08-21-24	  165.0	 -51.0	   49004679398.7	138501429522.7	17.3	
2018-05-08-21-24	   30.0	 -43.5	   54270801673.2	124925142247.7	14.1	
2018-05-08-21-24	    7.5	 -47.0	   35875077349.5	103463605579.8	17.6	
2018-05-08-21-24	  136.0	  32.0	   41897547931.3	99641495523.5	14.5	
2018-05-08-21-24	  165.0	 -47.5	   25236618414.5	60657947526.3	14.7	
2018-05-08-21-24	  132.0	 -55.5	   14072939278.7	35688143203.2	15.5	
2018-05-09-00-03	   79.5	 -58.5	  409465477756.5	1772698626603.9	27.0	
2018-05-09-00-03	  174.5	 -56.0	  243972279684.6	722667493445.0	18.2	
2018-05-09-00-03	   22.5	 -38.5	  123307621286.0	238743682342.6	11.8	
2018-05-09-00-03	    0.0	 -42.5	   75291687548.3	180265991283.2	14.6	
2018-05-09-00-03	   30.5	 -43.5	   76504965615.0	168954704785.5	13.5	
2018-05-09-00-03	   -4.5	 -54.0	   57057452602.1	154873430580.7	16.6	
2018-05-09-00-03	    7.5	 -47.0	   27305589504.9	86643013457.8	19.4	
2018-05-09-00-03	  -34.5	  55.0	   15823342934.7	46696167344.3	18.0	
2018-05-09-00-03	 -180.0	 -56.5	   11987027265.3	31688177587.1	16.1	
2018-05-09-00-03	  136.5	  32.0	    5242765471.3	10245690291.5	11.9	
2018-05-09-00-03	  165.5	 -54.5	    3611888097.8	9172625018.0	15.5	
2018-05-09-03-06	   79.5	 -58.0	  398663911241.3	1650492460071.6	25.8	
2018-05-09-03-06	 -178.5	 -55.0	   98672435208.9	271997542042.8	16.9	
2018-05-09-03-06	  173.0	 -56.5	   72367967677.6	200998719273.4	17.0	
2018-05-09-03-06	  -26.0	 -64.0	   50763582534.4	193185424103.1	23.3	
2018-05-09-03-06	   22.5	 -39.0	   77358882171.6	149855011847.0	11.8	
2018-05-09-03-06	    0.0	 -42.5	   52486516908.2	125042296065.0	14.6	
2018-05-09-03-06	   31.0	 -43.5	   51566750387.5	110107788732.2	13.0	
2018-05-09-03-06	  178.5	 -55.5	   36786685239.2	97876567434.6	16.3	
2018-05-09-03-06	    7.5	 -47.0	   31442258569.3	96793579186.1	18.8	
2018-05-09-03-06	   -5.5	 -54.5	   10922954753.4	30213872959.6	16.9	
2018-05-09-06-09	   79.0	 -57.5	  363258423881.5	1431498630873.2	24.5	
2018-05-09-06-09	 -177.0	 -55.0	  105104124822.7	267230511393.5	15.6	
2018-05-09-06-09	  -24.0	 -63.5	   53956134838.9	207618095242.3	23.6	
2018-05-09-06-09	    7.5	 -47.0	   46157334719.2	123913194110.9	16.5	
2018-05-09-06-09	    0.0	 -42.5	   22898113294.6	64856734244.6	17.4	
2018-05-09-06-09	   16.5	 -41.5	   27851222864.9	54931604199.4	12.1	
2018-05-09-06-09	  164.0	  41.0	    6998599125.3	14495994647.0	12.7	
2018-05-09-06-09	   22.5	 -39.0	    7223539259.7	12309045632.6	10.4	
2018-05-09-06-09	  165.5	 -54.5	    3611888097.8	11241748816.0	19.1	
2018-05-09-06-09	   30.5	 -44.0	    4465723403.4	9033364730.7	12.4	
2018-05-09-06-09	    4.5	 -49.5	    2007494492.9	3258671133.6	9.9	
2018-05-09-09-12	   79.0	 -57.0	  310353421091.1	1167605630434.1	23.5	
2018-05-09-09-12	    7.5	 -47.5	   60632824184.8	159999513147.0	16.3	
2018-05-09-09-12	   -1.5	 -51.0	   48818476455.6	131791203550.0	16.6	
2018-05-09-09-12	  -23.5	 -63.5	   17953788411.6	63256163222.7	21.7	
2018-05-09-09-12	    3.5	 -50.5	   21585166613.1	54466687642.5	15.5	
2018-05-09-09-12	   17.0	 -42.0	   22988445047.2	44540776882.3	11.9	
2018-05-09-09-12	    0.0	 -42.5	    6855081692.4	19705259799.3	17.7	
2018-05-09-12-15	   78.5	 -57.0	  254971153076.1	909306589443.6	22.3	
2018-05-09-12-15	   -1.5	 -51.0	  137701018696.7	384639477125.2	17.4	
2018-05-09-12-15	    7.5	 -48.0	   72779500981.0	208265449835.5	17.7	
2018-05-09-12-15	 -138.0	 -55.0	    1772969689.9	5565564340.3	19.4	
2018-05-09-12-15	    4.5	 -50.5	    1966167587.6	3250238192.6	10.2	
2018-05-09-15-18	   78.5	 -57.0	  198661736860.6	663080624938.0	21.0	
2018-05-09-15-18	   -1.5	 -51.5	  191253113194.6	557813583801.8	18.3	
2018-05-09-15-18	    7.5	 -48.0	   66337448642.0	199036955095.7	18.7	
2018-05-09-15-18	  -22.0	 -63.5	    6944335257.2	26530943469.1	23.8	
2018-05-09-18-21	   -2.5	 -51.5	  222966954202.6	675210210546.3	19.2	
2018-05-09-18-21	   78.5	 -56.5	  140322116409.0	444139003398.9	20.0	
2018-05-09-18-21	    7.5	 -48.5	   49733875321.1	162669202392.0	20.6	
2018-05-09-18-21	  -30.5	  62.0	   14391933879.6	44377464257.3	19.4	
2018-05-09-18-21	  -20.5	 -63.5	   11057733467.6	40555829607.3	23.0	
2018-05-09-21-24	   -3.5	 -51.5	  239814033232.2	739138483386.5	19.6	
2018-05-09-21-24	   78.5	 -57.0	   71000290257.2	214411520054.2	19.1	
2018-05-09-21-24	  -30.5	  63.0	   30894886604.0	108328022887.7	22.2	
2018-05-09-21-24	    8.0	 -48.0	   28995200472.0	78895679682.6	17.2	
2018-05-09-21-24	 -150.0	 -39.5	    9574739800.3	18634285357.7	12.3	
2018-05-10-00-03	   -4.0	 -52.0	  235051768965.9	733616623673.0	19.9	
2018-05-10-00-03	  -30.5	  63.0	   40428237409.3	150028805039.5	23.6	
2018-05-10-00-03	 -150.0	 -39.5	   33476545068.6	62420959886.3	11.8	
2018-05-10-00-03	  -10.0	 -48.0	   20682873845.0	57185434434.8	17.5	
2018-05-10-00-03	   79.0	 -58.0	    6597711727.9	18004609619.1	17.3	
2018-05-10-00-03	   77.5	 -54.5	    1794998103.8	5411357354.8	19.1	
2018-05-10-03-06	   -4.0	 -52.0	  236444187219.8	724159830141.2	19.6	
2018-05-10-03-06	 -150.0	 -40.0	   92613172484.9	177451162969.7	12.2	
2018-05-10-03-06	  -30.0	  63.0	   37501594713.9	148675271290.5	25.2	
2018-05-10-03-06	  -10.5	 -48.0	   43432350157.6	131003886002.4	19.2	
2018-05-10-03-06	 -154.5	 -37.5	   22201096816.6	39679141480.6	11.3	
2018-05-10-06-09	   -4.0	 -52.0	  231745136221.7	684124518156.7	18.9	
2018-05-10-06-09	 -150.0	 -40.0	  237272568488.7	490230281050.3	13.2	
2018-05-10-06-09	  -10.5	 -48.0	   47608794620.3	146949388961.1	19.6	
2018-05-10-06-09	  -30.0	  63.0	   36170851118.2	142938565054.0	25.2	
2018-05-10-06-09	   -9.0	  67.5	    1182904384.0	4893416002.9	26.3	
2018-05-10-09-12	   -4.5	 -52.5	  239676676503.4	724102337307.1	19.4	
2018-05-10-09-12	 -149.0	 -40.0	  290219305729.0	634865897934.4	14.1	
2018-05-10-09-12	  -10.5	 -48.0	   45500684689.8	140436217538.9	19.7	
2018-05-10-09-12	  -12.0	 -64.0	   42050897931.2	134249787308.7	20.4	
2018-05-10-09-12	  -30.0	  63.0	   30509824264.3	121180388965.2	25.4	
2018-05-10-09-12	  -10.0	  67.0	   21316706533.7	91934306145.3	27.5	
2018-05-10-09-12	  -41.0	  60.5	   16601644577.2	72117711547.4	27.7	
2018-05-10-12-15	   -4.5	 -53.0	  229332183456.7	741874336193.5	20.9	
2018-05-10-12-15	 -148.0	 -40.0	  306645670830.5	704543170272.5	14.8	
2018-05-10-12-15	  -41.0	  60.5	   42145087171.1	181011056046.0	27.6	
2018-05-10-12-15	  -10.0	 -63.5	   55667282108.0	179155047950.8	20.7	
2018-05-10-12-15	  -11.0	  67.5	   33978688423.0	144097109840.4	27.2	
2018-05-10-12-15	  -10.5	 -48.5	   37187728321.6	112812384919.3	19.5	
2018-05-10-12-15	  -30.0	  63.0	   22259571733.6	88232252214.6	25.4	
2018-05-10-15-18	   -4.0	 -53.0	  235865473837.6	792133694414.7	21.8	
2018-05-10-15-18	 -147.0	 -40.0	  329696464495.4	779184418117.0	15.3	
2018-05-10-15-18	   -8.0	 -63.0	   68025094938.0	223791994001.5	21.2	
2018-05-10-15-18	  -41.0	  60.5	   50946501721.7	212961422128.4	26.9	
2018-05-10-15-18	  -11.5	  67.5	   37152125281.2	163193176991.1	28.3	
2018-05-10-15-18	  -30.0	  63.0	   20928404656.3	76474466796.5	23.5	
2018-05-10-15-18	  -10.5	 -48.0	   20682873845.0	62641018741.1	19.5	
2018-05-10-18-21	 -146.0	 -40.0	  350554314276.4	826291822100.5	15.3	
2018-05-10-18-21	   -4.0	 -53.0	  235368418619.0	776488469524.4	21.5	
2018-05-10-18-21	   -7.5	 -63.5	   97418246164.6	327059004573.5	21.7	
2018-05-10-18-21	  -31.5	  61.0	   66661626724.2	233349823705.0	22.6	
2018-05-10-18-21	  -40.0	  61.0	   40056571349.2	155323582010.3	25.0	
2018-05-10-18-21	  -12.5	  68.0	   30937581510.6	143382602241.4	29.9	
2018-05-10-18-21	  -10.5	 -48.0	   18634663948.0	56509148496.5	19.6	
2018-05-10-18-21	   38.0	 -45.5	    4352287444.4	8887438913.7	13.2	
2018-05-10-21-24	 -145.5	 -40.0	  359682419241.3	831085226924.8	15.1	
2018-05-10-21-24	   -4.0	 -53.0	  218288869275.7	701459018508.9	20.9	
2018-05-10-21-24	   -7.5	 -64.0	  118431889831.5	410968529708.6	22.5	
2018-05-10-21-24	  -31.5	  61.0	   94723115997.8	353483428181.2	24.2	
2018-05-10-21-24	  -12.5	  68.0	   28470953072.0	127943824248.5	29.1	
2018-05-10-21-24	  -38.5	  62.0	   17389876251.0	61679704275.1	22.9	
2018-05-10-21-24	  -10.5	 -48.0	   12429817510.4	34346067296.7	17.9	
2018-05-10-21-24	   38.5	 -45.5	   15223427650.9	31524428132.9	13.4	
2018-05-11-00-03	 -145.0	 -40.0	  328601160835.8	734825378878.9	14.6	
2018-05-11-00-03	   -3.5	 -53.5	  175091910229.9	553479020652.6	20.7	
2018-05-11-00-03	   -7.0	 -65.0	  135707628251.3	475921599666.6	22.9	
2018-05-11-00-03	  -31.5	  61.5	  113155297418.5	444017705840.4	25.6	
2018-05-11-00-03	  -12.5	  68.0	   22907525143.7	102145618258.2	29.0	
2018-05-11-00-03	  -37.0	  62.0	    8635423205.1	27505674366.9	20.7	
2018-05-11-00-03	   39.0	 -45.5	    2166565317.8	4622857877.7	13.9	
2018-05-11-03-06	 -144.5	 -40.0	  228506921599.3	494509230116.3	14.2	
2018-05-11-03-06	  -31.0	  62.0	  117436808988.6	478691946861.2	26.8	
2018-05-11-03-06	   -3.5	 -53.5	  141358403662.6	417522598371.9	19.4	
2018-05-11-03-06	   -7.0	 -65.5	  115646945173.3	388112203149.8	22.1	
2018-05-11-03-06	  -12.5	  68.0	   13594262996.6	58042748276.9	27.9	
2018-05-11-03-06	  -35.0	  63.0	    4209960771.4	11017536019.4	17.1	
2018-05-11-06-09	  -31.0	  62.0	  104834221110.4	433882587580.6	27.4	
2018-05-11-06-09	 -144.0	 -40.0	  149676547197.0	308093117522.2	13.6	
2018-05-11-06-09	   -3.5	 -53.5	   90712277997.8	257694812988.9	18.8	
2018-05-11-06-09	   -7.5	 -66.5	   13755538837.0	47721292409.8	22.8	
2018-05-11-06-09	   -4.5	 -63.0	   11346461062.3	33097593100.4	19.2	
2018-05-11-06-09	   -2.5	 -62.0	    7327150850.5	21198405565.1	19.0	
2018-05-11-06-09	  -13.0	  68.0	    3398651698.3	13298907183.9	25.8	
2018-05-11-09-12	  -30.5	  62.5	   80932561117.4	335880984577.2	27.6	
2018-05-11-09-12	 -143.0	 -40.0	   80549427889.9	155790297701.2	12.8	
2018-05-11-09-12	   -3.5	 -53.5	   42352376035.2	116900029932.8	18.3	
2018-05-11-09-12	   -2.0	 -62.0	   17603835710.6	51408432643.1	19.4	
2018-05-11-09-12	  -21.0	  56.0	   10258780624.7	35680196895.5	23.1	
2018-05-11-12-15	  -30.5	  63.0	   47802924048.7	199316350348.0	28.0	
2018-05-11-12-15	  -20.0	  55.5	   45183453567.0	136279116070.3	20.2	
2018-05-11-12-15	   -1.5	 -62.0	   27832886212.0	81577549324.9	19.6	
2018-05-11-12-15	 -142.0	 -40.0	   37884284008.9	74016705318.7	13.1	
2018-05-11-12-15	   -2.5	 -53.5	    1838643333.8	4640685792.1	16.9	
2018-05-11-15-18	  -20.0	  55.5	   57169425674.9	171035452775.2	20.2	
2018-05-11-15-18	   -1.0	 -62.0	   35325916849.1	102213309597.0	19.6	
2018-05-11-15-18	  -30.0	  63.0	   19477231252.4	73186609122.1	25.4	
2018-05-11-15-18	 -141.5	 -40.0	   16609275629.4	33233965862.0	13.5	
2018-05-11-18-21	  -20.5	  56.5	   56384382687.8	173323451295.3	20.9	
2018-05-11-18-21	   -0.5	 -61.5	   42771313127.6	123778033082.4	19.7	
2018-05-11-21-24	  -21.0	  57.0	   77338222680.1	248453943168.7	21.9	
2018-05-11-21-24	    0.0	 -62.0	   44174964192.3	128406667583.5	19.8	
2018-05-11-21-24	   12.5	 -54.5	    3589996207.6	11755162114.8	22.2	
2018-05-12-00-03	  -22.5	  58.0	   91357222910.5	279385248351.1	20.9	
2018-05-12-00-03	   14.0	 -55.0	   39046955054.6	126948708371.1	22.1	
2018-05-12-00-03	    0.0	 -62.0	   39727073353.9	114395383957.8	19.6	
2018-05-12-03-06	  -18.0	 -56.5	   99485200996.0	287679692255.1	19.7	
2018-05-12-03-06	   15.0	 -55.5	   59988269313.7	198098330521.7	22.4	
2018-05-12-03-06	  -24.0	  59.5	   26389726255.9	92439989661.3	23.8	
2018-05-12-03-06	    0.5	 -62.0	   22099811657.1	61703197071.7	18.9	
2018-05-12-03-06	  159.0	 -40.0	    7138206009.0	14226600325.5	13.5	
2018-05-12-03-06	  -21.5	  56.5	    3412160458.0	9763213115.0	19.4	
2018-05-12-06-09	  -18.0	 -56.5	  119477563785.1	334384087369.9	19.0	
2018-05-12-06-09	   15.5	 -56.0	   68030323282.5	222991641256.1	22.2	
2018-05-12-06-09	  158.5	 -40.0	    7138206009.0	13789432069.0	13.1	
2018-05-12-09-12	   16.5	 -56.0	   51874141297.2	162120574966.8	21.1	
2018-05-12-09-12	  -18.0	 -56.0	   22625899824.9	56719567910.0	16.9	
2018-05-12-09-12	  -13.0	 -56.0	   13894830297.3	39635498219.2	19.3	
2018-05-12-12-15	  -42.0	 -41.0	   65686262695.4	168819092906.3	17.3	
2018-05-12-12-15	   -1.0	 -60.5	   47676231097.4	147054543616.8	20.8	
2018-05-12-12-15	   17.5	 -56.5	   18788920697.9	55134487843.0	19.7	
2018-05-12-12-15	  -12.0	 -56.0	   10437944026.5	29381897376.4	18.9	
2018-05-12-12-15	 -165.0	 -49.5	   10098777163.7	22197799540.9	14.8	
2018-05-12-12-15	   -5.5	 -53.5	    3698900167.2	8879772151.0	16.1	
2018-05-12-15-18	  -40.5	 -41.5	  191548429765.3	527615533307.9	18.5	
2018-05-12-15-18	    0.5	 -60.5	   88230075992.7	305773289478.6	23.3	
2018-05-12-15-18	   -4.0	 -53.5	   81544338492.7	207591874913.1	17.1	
2018-05-12-15-18	 -162.5	 -49.5	   70603558083.2	167037002652.0	15.9	
2018-05-12-15-18	   63.5	 -38.0	    4871605433.5	12047010255.0	16.5	
2018-05-12-18-21	  -39.0	 -41.5	  286623687174.2	802101539885.3	18.9	
2018-05-12-18-21	   -2.5	 -53.5	  127548040491.6	333771961692.2	17.6	
2018-05-12-18-21	    1.5	 -61.0	   69473892441.4	232156829025.1	22.4	
2018-05-12-18-21	 -161.0	 -49.5	   89056932101.3	205380444518.1	15.5	
2018-05-12-21-24	  -37.5	 -42.0	  358807519663.3	990897841987.3	18.8	
2018-05-12-21-24	   -2.5	 -53.5	  103324578961.7	259587052984.4	16.9	
2018-05-12-21-24	 -158.0	 -49.0	   49012584880.3	118007394860.5	16.2	
2018-05-12-21-24	    2.5	 -61.0	    2997168368.2	9006608422.2	20.2	
2018-05-13-00-03	  -36.0	 -42.5	  438109785061.1	1218162641297.8	19.1	
2018-05-13-00-03	   -2.5	 -54.0	   53167127319.5	129246911359.8	16.4	
2018-05-13-00-03	 -156.5	 -48.5	   40981829220.6	98769432519.9	16.3	
2018-05-13-03-06	  -34.5	 -43.0	  524269348958.3	1480223912901.7	19.5	
2018-05-13-03-06	 -155.0	 -49.0	    6124349186.7	14335845889.3	15.9	
2018-05-13-06-09	  -34.0	 -43.0	  590699537772.1	1593376523412.2	18.8	
2018-05-13-09-12	  -33.5	 -43.0	  672902106358.7	1676695108559.6	17.5	
2018-05-13-09-12	  115.5	 -58.0	   31303784040.6	97849502630.4	21.5	
2018-05-13-12-15	  -32.0	 -43.0	  680911888577.6	1629084167491.7	16.9	
2018-05-13-12-15	  117.5	 -58.5	   66717487146.5	216333670148.8	22.5	
2018-05-13-12-15	  165.5	 -37.5	   12310566854.8	23641722805.3	13.3	
2018-05-13-15-18	  -30.5	 -43.0	  640795592593.9	1499380281867.9	16.7	
2018-05-13-15-18	  120.0	 -59.0	  106280536129.0	360807537539.1	23.8	
2018-05-13-18-21	  -28.0	 -43.0	  550293914760.3	1273026482834.7	16.7	
2018-05-13-18-21	  122.0	 -59.0	  115460843103.0	386123510146.2	23.8	
2018-05-13-18-21	  -14.0	 -46.5	   27796597881.3	77429126083.7	19.7	
2018-05-13-21-24	  -24.5	 -43.5	  219388771446.4	569169681331.9	18.7	
2018-05-13-21-24	  -36.0	 -41.5	  197476623592.0	387916394663.7	14.1	
2018-05-13-21-24	  124.0	 -59.5	  109479148909.6	349937151047.6	23.0	
2018-05-13-21-24	  -14.0	 -47.0	   31915554598.9	86124817509.1	19.3	
2018-05-13-21-24	  -10.5	 -48.0	   18794239413.4	58585477328.2	22.3	
2018-05-14-00-03	  -23.5	 -44.0	  167936600427.5	412702130546.3	17.9	
2018-05-14-00-03	  127.0	 -60.5	   72467349058.2	239042667742.9	23.9	
2018-05-14-00-03	  -10.5	 -48.0	   33252142185.6	99356584438.7	21.6	
2018-05-14-00-03	  -37.0	 -41.5	   39426272433.6	78204970600.4	14.3	
2018-05-14-00-03	  -14.0	 -47.0	   14874331770.1	41852987603.2	20.3	
2018-05-14-00-03	  -33.5	 -41.5	   23310520460.7	41738198437.6	12.9	
2018-05-14-03-06	  -22.0	 -44.0	  114323904300.3	244370598382.8	15.6	
2018-05-14-03-06	  128.5	 -60.5	   55049608969.5	178035860820.9	23.6	
2018-05-14-03-06	  -10.5	 -48.0	   26927495681.0	80067889763.2	21.7	
2018-05-14-06-09	  131.0	 -61.0	   33437477346.1	100294394886.5	22.1	
2018-05-14-06-09	  -10.5	 -48.0	    4136669064.4	13122515866.4	23.3	
2018-05-14-09-12	  133.5	 -61.5	   14938315725.1	45887236117.5	22.8	
2018-05-14-21-24	  122.5	 -57.5	   35148624062.5	103973281017.6	22.5	
2018-05-15-00-03	  125.0	 -57.5	   58830459140.5	163037216568.1	21.2	
2018-05-15-00-03	  104.0	 -60.5	   10748516253.2	34483668622.0	24.5	
2018-05-15-03-06	  106.0	 -60.5	   46013480490.8	150449064858.8	25.2	
2018-05-15-03-06	  129.0	 -58.0	   29620512861.5	81623633184.8	21.2	
2018-05-15-06-09	  107.0	 -60.5	   61373914441.0	193796429565.1	24.3	
2018-05-15-09-12	   43.0	 -61.0	   74110970124.0	248115574599.8	25.8	
2018-05-15-09-12	  109.5	 -61.0	   12082816283.7	36431445955.1	23.1	
2018-05-15-12-15	   43.5	 -60.5	  126914664724.6	440652862488.9	26.7	
2018-05-15-12-15	  113.0	 -61.5	   17935370415.7	62444763227.1	26.6	
2018-05-15-15-18	   44.0	 -60.5	  146559306451.2	527526048111.7	27.5	
2018-05-15-15-18	  115.5	 -61.5	   17911834713.0	59524338044.0	25.2	
2018-05-15-18-21	   44.0	 -60.0	  155147329654.2	544033655753.7	26.7	
2018-05-15-18-21	  119.0	 -61.5	    4424804411.2	11784236277.5	20.1	
2018-05-15-21-24	   43.5	 -60.0	  136929070936.7	460812508750.2	25.5	
2018-05-15-21-24	  123.0	 -62.0	    1451173219.6	3774147664.4	19.6	
2018-05-16-00-03	   43.0	 -60.0	   91950889606.4	291875095291.2	23.9	
2018-05-16-03-06	   41.5	 -60.0	   24774876238.5	72337946755.7	21.9	
2018-05-16-06-09	  131.5	 -62.5	   17294714762.9	60379378451.2	26.1	
2018-05-16-09-12	  134.0	 -62.0	   11680670509.4	37264240618.1	23.8	
2018-05-16-09-12	  137.5	 -50.5	   15812297038.0	35125633262.9	16.6	
2018-05-16-09-12	  -38.0	 -45.0	   13171304072.5	30197921983.0	17.1	
2018-05-16-12-15	  136.5	 -50.5	   85059310560.1	204504691702.2	18.0	
2018-05-16-12-15	  -37.5	 -45.0	    4390434690.8	9196523023.2	15.6	
2018-05-16-15-18	  136.0	 -50.5	   91040916869.8	218551897841.6	17.9	
2018-05-16-18-21	  136.5	 -50.5	   41579262940.8	96174352612.9	17.2	
2018-05-17-00-03	   77.5	 -57.0	    6779203956.2	18834420461.3	20.6	
2018-05-17-00-03	 -161.5	  45.0	    4352287444.4	8489182193.3	14.5	
2018-05-17-03-06	 -161.5	  44.5	   10909287637.2	21759314190.3	14.8	
2018-05-17-06-09	  145.0	 -44.5	   33106821201.9	98589870446.2	22.0	
2018-05-17-06-09	 -160.0	  43.5	   13340874146.3	28469762349.3	15.8	
2018-05-17-09-12	  145.0	 -44.5	   53134589891.8	148150923506.8	20.6	
2018-05-17-09-12	 -159.5	  44.0	   22234846744.9	47124824117.2	15.7	
2018-05-17-12-15	  145.0	 -44.5	   50929877327.5	143501266876.5	20.9	
2018-05-17-12-15	 -159.0	  44.0	   19992657945.7	40961667729.0	15.1	
2018-05-17-15-18	  145.0	 -44.5	   35273386519.7	102507716472.8	21.5	
2018-05-17-18-21	  145.0	 -44.5	   19841909543.4	58782730769.0	21.9	
2018-05-17-18-21	  -12.5	 -56.0	    1750806041.8	5650080480.4	23.9	
2018-05-18-03-06	  -32.0	 -48.5	   16506269828.2	43350261489.8	19.6	
2018-05-18-06-09	  -30.0	 -49.5	   60975360660.4	185771545671.5	22.7	
2018-05-18-09-12	  -29.5	 -50.0	   56349060433.1	155412901503.6	20.5	
2018-05-18-09-12	  160.5	  47.5	    2088302008.4	4080778004.6	14.5	
2018-05-18-12-15	  160.5	  48.0	   32991794308.0	76130782928.7	17.1	
2018-05-18-12-15	  -28.5	 -50.5	    9954969917.2	22528058397.0	16.8	
2018-05-18-15-18	  162.5	  48.0	  111497955898.3	260788260737.8	17.4	
2018-05-18-18-21	  163.0	  48.0	  139784946601.5	339320856693.9	18.1	
2018-05-18-21-24	  164.0	  48.5	  153026327716.1	369416465424.5	18.0	
2018-05-18-21-24	  172.0	 -64.0	   19284634998.9	88936836254.4	34.2	
2018-05-19-00-03	  164.5	  48.5	  147806318601.2	356336632667.0	17.9	
2018-05-19-00-03	  171.5	 -63.5	   52576587773.2	232479312592.4	32.7	
2018-05-19-00-03	  178.0	 -64.5	   13453209440.0	57193932058.1	31.4	
2018-05-19-03-06	  171.0	 -63.5	   79140969475.1	336970106260.9	31.4	
2018-05-19-03-06	  164.5	  49.0	  126937624300.7	309597731700.1	18.0	
2018-05-19-03-06	  177.5	 -64.5	   26857213576.9	112163663721.5	30.7	
2018-05-19-03-06	  -21.0	 -51.5	   28841850195.7	73443341249.4	18.7	
2018-05-19-06-09	  171.0	 -63.5	   77881958986.1	342465475076.4	32.4	
2018-05-19-06-09	  165.0	  49.0	   76376874999.4	184743150198.3	17.8	
2018-05-19-06-09	  -20.0	 -51.5	   50070004023.4	134471719933.5	19.8	
2018-05-19-06-09	  177.5	 -64.5	   20228199583.7	84324338685.4	30.6	
2018-05-19-09-12	  171.0	 -63.5	   66705277573.5	296851052588.9	32.8	
2018-05-19-09-12	  -19.0	 -51.5	   52140909476.8	139462649386.5	19.7	
2018-05-19-09-12	  165.5	  49.5	   36132458000.0	87137563196.1	17.7	
2018-05-19-12-15	  171.5	 -63.5	   51270143842.2	227135416897.7	32.6	
2018-05-19-12-15	  -18.0	 -51.5	   46516614425.5	111630368500.4	17.6	
2018-05-19-12-15	  166.0	  49.5	   14052156897.5	32097324402.5	16.7	
2018-05-19-12-15	  146.0	  39.0	    2402218791.0	4981771773.2	15.2	
2018-05-19-15-18	  146.5	  39.0	   54993206966.0	139319637942.8	18.5	
2018-05-19-15-18	  171.0	 -63.5	   29059697082.0	136712900374.4	34.4	
2018-05-19-18-21	  147.0	  39.0	   64567583808.4	160679864183.9	18.2	
2018-05-19-18-21	   81.0	 -59.5	   14304539599.0	41832067171.1	21.3	
2018-05-19-18-21	  159.5	 -62.5	    8635420994.2	28465424912.0	24.0	
2018-05-19-18-21	  171.5	 -64.0	    6847774630.8	28417880994.7	30.2	
2018-05-19-21-24	  158.5	 -62.5	   31662333317.2	112111797230.7	25.8	
2018-05-19-21-24	  148.0	  39.0	   38195836774.7	86671311982.1	16.5	
2018-05-19-21-24	   80.5	 -59.5	   20626025790.2	57976788194.0	20.5	
2018-05-19-21-24	  145.5	 -45.0	    8780869381.7	19208760259.6	15.9	
2018-05-20-00-03	  159.0	 -62.5	   37347446206.5	130462641970.9	25.4	
2018-05-20-00-03	  -29.0	  63.5	   30292837053.9	124281784166.6	29.9	
2018-05-20-00-03	  -40.5	 -34.0	   51475816161.7	109683042442.5	15.5	
2018-05-20-00-03	   80.5	 -59.0	   25633180164.1	67431867255.2	19.1	
2018-05-20-00-03	  145.5	 -44.5	   13209117102.9	36539766213.8	20.1	
2018-05-20-00-03	  149.0	  39.5	    4770303692.2	9016869872.5	13.7	
2018-05-20-03-06	  -29.5	  63.5	   48291653344.1	220077494944.3	33.3	
2018-05-20-03-06	  -39.5	 -34.0	   66865933437.5	138714308341.7	15.1	
2018-05-20-03-06	   80.0	 -59.0	   33822914711.7	94305651899.3	20.3	
2018-05-20-03-06	  159.0	 -62.5	   21409074443.3	71236828730.8	24.2	
2018-05-20-03-06	  145.5	 -45.0	   10985581945.9	23233306819.9	15.4	
2018-05-20-06-09	  -29.5	  63.5	   59852319277.2	268020101798.8	32.9	
2018-05-20-06-09	  -39.0	 -34.0	   87499804462.0	177726715557.7	14.9	
2018-05-20-06-09	   80.0	 -59.0	   25656117999.6	73740579348.8	21.0	
2018-05-20-09-12	  -38.5	 -34.0	  126233910972.6	256558537103.8	15.0	
2018-05-20-09-12	  -29.5	  63.5	   58617588001.9	256009958595.1	32.3	
2018-05-20-09-12	   80.5	 -59.0	    8029296274.1	22339044870.2	20.5	
2018-05-20-09-12	 -180.0	 -54.0	    1816889994.0	2828173792.6	11.5	
2018-05-20-12-15	  -38.0	 -34.0	  180372130932.5	369212501546.7	15.3	
2018-05-20-12-15	  -29.5	  63.0	   49037964759.3	203027687600.6	30.8	
2018-05-20-15-18	  -38.5	 -33.5	  185226458831.8	375952948665.8	15.3	
2018-05-20-15-18	  -29.5	  63.0	   33604862394.8	137588603412.6	30.7	
2018-05-20-18-21	  -39.5	 -34.0	  200434210200.9	413465162689.5	15.6	
2018-05-20-18-21	  -29.0	  63.0	   25258052461.9	102171486208.1	30.4	
2018-05-20-21-24	  -39.5	 -34.0	  235793375654.2	504502524986.7	16.1	
2018-05-20-21-24	  -29.0	  63.0	   14080949410.1	53488148898.7	28.5	
2018-05-21-00-03	  -38.5	 -34.0	  310181768707.4	662035527246.4	16.0	
2018-05-21-00-03	  -29.5	 -35.5	   10065978111.5	21127565060.4	15.6	
2018-05-21-00-03	  -29.0	  63.0	    2806640514.3	10211090492.8	27.0	
2018-05-21-03-06	  -38.0	 -34.5	  373604522971.0	819105849786.4	16.2	
2018-05-21-03-06	  158.0	  44.5	  121454490956.4	302708304803.5	18.2	
2018-05-21-03-06	  -13.0	  69.0	    1107743443.7	4581914457.5	30.2	
2018-05-21-06-09	  -37.5	 -35.0	  400327749800.5	875628695811.8	15.9	
2018-05-21-06-09	  158.5	  44.5	  149407644566.8	386765138736.6	18.7	
2018-05-21-06-09	    9.0	 -59.0	   35089559200.7	99666477899.2	20.4	
2018-05-21-06-09	  -29.0	 -36.0	    5001469199.9	9749296583.1	14.0	
2018-05-21-06-09	  -13.0	  69.0	    1107743443.7	4410053949.8	28.6	
2018-05-21-09-12	  -36.5	 -35.5	  367156127711.9	807670023906.8	15.9	
2018-05-21-09-12	  159.0	  45.0	  113511486363.1	270215970478.2	17.1	
2018-05-21-09-12	  -28.5	 -36.5	    7454353048.3	13991751332.9	13.4	
2018-05-21-09-12	   10.0	 -58.5	    3230167089.8	8826700598.4	19.5	
2018-05-21-09-12	    6.0	 -61.0	    2997168368.2	8560646799.1	20.4	
2018-05-21-12-15	  -35.5	 -36.0	  331342624608.4	759032933982.5	16.5	
2018-05-21-12-15	  159.5	  45.5	   56230463470.3	121642900868.1	15.4	
2018-05-21-12-15	  -27.5	 -37.5	    4904633867.8	8580501432.1	12.4	
2018-05-21-15-18	  -34.0	 -36.0	  394328500235.0	898231437866.2	16.3	
2018-05-21-18-21	  -32.5	 -36.0	  390635367414.0	925007960577.4	16.8	
2018-05-21-18-21	  145.0	 -44.5	   19841909543.4	57109162256.6	20.2	
2018-05-21-18-21	   21.5	 -61.0	   13722265360.0	40079644177.5	20.5	
2018-05-21-18-21	  -33.5	  57.0	    3344356969.6	10107420147.4	21.2	
2018-05-21-21-24	  -31.5	 -36.5	  384514529707.1	905006464728.1	16.6	
2018-05-21-21-24	  145.0	 -44.5	   50533626947.9	149423141452.2	20.7	
2018-05-21-21-24	  -33.0	  57.0	   36557133696.7	111514980822.3	21.3	
2018-05-21-21-24	   22.0	 -61.0	   24235546554.9	72148152572.6	20.8	
2018-05-22-00-03	  -30.5	 -37.0	  349065941001.5	835171714220.3	16.8	
2018-05-22-00-03	  145.0	 -44.5	   70334032528.9	209442004516.1	20.7	
2018-05-22-00-03	   22.0	 -61.0	   19669303335.8	58291872915.9	20.6	
2018-05-22-00-03	  -33.0	  57.5	   13263614774.8	35585836021.0	18.6	
2018-05-22-00-03	  -25.5	 -39.5	   16781395068.0	32528430869.2	13.5	
2018-05-22-00-03	   12.5	 -63.0	    7064559727.0	25472129076.4	25.0	
2018-05-22-00-03	  -35.0	  56.0	    6913904090.9	16922793805.3	17.0	
2018-05-22-03-06	  -29.5	 -37.5	  371313109338.9	873927648267.8	16.4	
2018-05-22-03-06	  145.0	 -44.5	   79094750375.9	244127225546.1	21.3	
2018-05-22-03-06	   22.0	 -61.0	   15220849544.2	43608517069.9	19.8	
2018-05-22-03-06	   13.0	 -63.0	   11322480229.5	39714066350.8	24.2	
2018-05-22-03-06	  112.0	 -56.5	   12099298442.7	38162262030.2	21.8	
2018-05-22-06-09	  -28.5	 -38.0	  316125849773.7	733294920170.5	16.1	
2018-05-22-06-09	  145.0	 -44.5	   83369751365.2	258827169540.3	21.4	
2018-05-22-06-09	  114.0	 -56.5	   49900108392.9	158946430978.3	21.9	
2018-05-22-06-09	  -42.0	  59.5	   14188753625.5	61157170852.3	29.6	
2018-05-22-06-09	   17.5	 -35.5	   10128057919.2	31291899962.0	21.2	
2018-05-22-06-09	   12.5	 -59.0	    9644379819.0	27062589634.6	19.3	
2018-05-22-06-09	   13.0	 -63.0	    7064559727.0	24277228736.4	23.6	
2018-05-22-06-09	   22.0	 -61.0	    6088363105.9	17154325972.6	19.3	
2018-05-22-09-12	  -27.5	 -38.5	  263126142785.3	588227587501.1	15.4	
2018-05-22-09-12	  145.0	 -44.5	   81241993803.6	247218464122.7	20.9	
2018-05-22-09-12	  117.0	 -57.0	   59686480484.5	183715808786.5	21.1	
2018-05-22-09-12	   12.5	 -59.0	   33846100169.2	94624207669.3	19.2	
2018-05-22-09-12	  -41.5	  59.5	   21799947702.6	92785381346.8	29.2	
2018-05-22-09-12	   17.5	 -35.5	   17724053179.2	54268442219.8	21.0	
2018-05-22-12-15	  -26.0	 -38.5	  204014257123.8	447254962703.3	15.0	
2018-05-22-12-15	  121.5	 -57.5	   73503328626.7	228450101844.3	21.3	
2018-05-22-12-15	  145.0	 -44.5	   72501608970.0	208499945670.5	19.7	
2018-05-22-12-15	   13.5	 -59.0	   43488522594.8	120734980137.2	19.0	
2018-05-22-12-15	   17.0	 -35.0	   22849292137.2	70596652131.7	21.1	
2018-05-22-12-15	  -41.5	  60.0	    4613197722.6	24703908916.4	36.6	
2018-05-22-15-18	  -24.5	 -38.5	  155244381655.6	334684235350.1	14.7	
2018-05-22-15-18	  123.0	 -57.5	   90154754725.8	273494335854.4	20.6	
2018-05-22-15-18	  145.0	 -44.5	   48291438701.4	142545858989.7	20.1	
2018-05-22-15-18	   14.5	 -59.5	   45699625245.2	128957100934.8	19.2	
2018-05-22-15-18	   17.0	 -34.5	   17816303081.5	52726805770.8	20.1	
2018-05-22-18-21	  -20.0	 -38.5	  176937256493.8	385943855122.0	14.8	
2018-05-22-18-21	   15.0	 -60.0	   55956856205.3	157002760902.6	19.0	
2018-05-22-18-21	  -51.0	 -40.0	   28482925709.0	63495547013.1	15.1	
2018-05-22-18-21	  145.0	 -44.5	   19784939704.2	59047580887.1	20.2	
2018-05-22-18-21	 -146.5	 -39.0	   19267849760.9	41105766553.6	14.4	
2018-05-22-18-21	   14.5	 -32.0	   13163490712.3	33125255311.4	17.0	
2018-05-22-18-21	  123.0	 -57.5	    8372234214.4	24174506173.9	19.5	
2018-05-22-21-24	  -18.5	 -38.5	  174800741697.1	385045748701.5	14.9	
2018-05-22-21-24	  -50.5	 -40.0	   59539096904.9	139276131576.8	15.7	
2018-05-22-21-24	   16.0	 -60.5	   38448890487.8	104638656469.8	18.3	
2018-05-22-21-24	   14.5	 -32.0	   15813061644.8	39774472318.1	16.9	
2018-05-22-21-24	   54.0	   9.0	   12203414858.2	24686555478.3	13.6	
2018-05-22-21-24	 -145.0	 -41.0	    7033814519.2	13621375367.9	13.0	
2018-05-22-21-24	  -38.0	  62.5	    1427300997.8	5201732931.7	24.5	
2018-05-23-00-03	  -17.5	 -38.5	  141000835201.5	321332884334.2	15.3	
2018-05-23-00-03	  -49.5	 -39.5	   81190456910.3	189051348939.8	15.6	
2018-05-23-00-03	  -38.0	  62.5	   15676005231.4	72643191857.1	31.0	
2018-05-23-00-03	  174.5	 -55.0	   23158069288.3	62556238488.8	18.0	
2018-05-23-00-03	   54.0	   8.5	   30537493449.8	60971234884.0	13.3	
2018-05-23-00-03	  137.5	 -50.5	   19661226508.6	48700149277.3	16.5	
2018-05-23-00-03	 -144.5	 -41.5	   11610973191.3	22962442644.6	13.2	
2018-05-23-00-03	   14.0	 -31.5	    5285148271.0	13890490608.9	17.5	
2018-05-23-03-06	  -17.0	 -38.5	  131121452285.7	311321559266.0	15.8	
2018-05-23-03-06	  -48.5	 -39.5	   88447580464.2	202789788457.2	15.2	
2018-05-23-03-06	  176.0	 -54.5	   55508408975.4	164555254718.3	19.7	
2018-05-23-03-06	  137.5	 -50.5	   59167320391.3	154987712231.2	17.4	
2018-05-23-03-06	   53.5	   8.5	   39708636012.5	73217970912.3	12.2	
2018-05-23-03-06	 -143.5	 -42.0	   13836595448.4	25809453150.9	12.4	
2018-05-23-03-06	  -39.0	  62.0	    5756948803.4	21006114142.9	24.2	
2018-05-23-06-09	  177.0	 -55.0	  139503241689.9	412443232196.7	19.5	
2018-05-23-06-09	  -17.0	 -38.5	  121273063950.0	313262173512.6	17.1	
2018-05-23-06-09	  -48.0	 -39.5	   88482257869.7	195043712206.4	14.5	
2018-05-23-06-09	  138.0	 -50.5	   57366752633.6	150366124899.6	17.3	
2018-05-23-06-09	   53.0	   8.5	   33610799152.0	58368846659.5	11.4	
2018-05-23-06-09	 -143.0	 -42.0	   18448793931.3	34771782979.9	12.4	
2018-05-23-09-12	  178.0	 -56.5	  182498703629.9	580819318075.2	21.0	
2018-05-23-09-12	  -17.0	 -39.0	  116203854825.4	305321485930.4	17.3	
2018-05-23-09-12	  -47.0	 -39.5	   90884476292.3	187182295212.4	13.5	
2018-05-23-09-12	  138.5	 -50.5	   19764769192.7	48045136244.9	15.9	
2018-05-23-09-12	 -142.5	 -42.0	   18448793931.3	33179534126.5	11.8	
2018-05-23-09-12	  171.0	 -37.0	   14860286035.3	30953653233.0	13.6	
2018-05-23-09-12	   53.5	   8.5	    6110146845.7	11291654512.9	12.1	
2018-05-23-12-15	  178.5	 -56.5	  182260662372.6	565535885574.0	20.4	
2018-05-23-12-15	  -17.0	 -39.0	   94417810345.9	255252300094.7	17.7	
2018-05-23-12-15	  -46.0	 -39.5	   83747725431.4	157879048729.8	12.3	
2018-05-23-12-15	 -180.0	 -57.0	   47905697519.9	138716133337.0	18.9	
2018-05-23-12-15	  -15.0	 -46.5	   19305377031.0	41671851907.4	14.1	
2018-05-23-12-15	  171.0	 -37.0	   14860286035.3	29714058785.7	13.0	
2018-05-23-15-18	  178.5	 -56.5	  153721482238.4	444129556970.1	18.8	
2018-05-23-15-18	 -179.5	 -57.0	  108596081120.1	327460218192.7	19.6	
2018-05-23-15-18	  -14.5	 -46.0	  118064169879.5	302095263900.3	16.6	
2018-05-23-15-18	  -16.5	 -39.0	   79620798010.4	200417145160.5	16.3	
2018-05-23-15-18	  171.5	 -37.0	   12391641706.3	24408494231.6	12.7	
2018-05-23-15-18	   23.0	 -60.0	    3114379826.7	7624974654.8	15.8	
2018-05-23-15-18	  -43.5	 -39.0	    2402218422.6	4177916219.3	11.3	
2018-05-23-18-21	  -14.0	 -46.5	  191865124926.4	507438937635.1	17.1	
2018-05-23-18-21	 -179.0	 -57.0	  155515468666.1	443993408906.4	18.4	
2018-05-23-18-21	  178.5	 -56.5	  100241868227.3	282148168871.5	18.1	
2018-05-23-18-21	  -16.5	 -39.0	   40988202540.7	103321301837.0	16.2	
2018-05-23-18-21	  145.0	 -44.5	   26360762305.6	75617723063.6	18.4	
2018-05-23-18-21	  110.5	 -57.5	   15106063639.6	47085267646.1	20.0	
2018-05-23-18-21	 -147.0	 -43.0	   11303356400.2	21677862237.4	12.3	
2018-05-23-18-21	  171.5	 -37.0	    9906857356.9	19445133850.6	12.6	
2018-05-23-21-24	  -13.5	 -47.0	  236142947433.6	651169271503.6	17.7	
2018-05-23-21-24	 -179.0	 -56.5	  164511459341.2	443927938099.0	17.2	
2018-05-23-21-24	  179.0	 -56.0	   61734469658.9	170239575412.4	17.6	
2018-05-23-21-24	  145.0	 -44.5	   48291438701.4	145656356909.6	19.2	
2018-05-23-21-24	  111.5	 -57.0	   31917183487.7	95834659517.9	19.1	
2018-05-23-21-24	 -146.5	 -43.0	   29498589030.0	57715100814.6	12.4	
2018-05-23-21-24	  -16.5	 -39.0	    7223539259.7	18860173364.2	16.6	
2018-05-23-21-24	 -137.0	 -38.5	    9726510564.8	18199158703.7	11.9	
2018-05-23-21-24	  171.5	 -37.5	    4937288658.0	10152457330.5	13.1	
2018-05-24-00-03	  -12.5	 -47.5	  240511767335.1	697107472526.5	18.4	
2018-05-24-00-03	 -178.5	 -55.5	  129764512524.2	334810576112.4	16.4	
2018-05-24-00-03	  112.5	 -57.0	   57095709288.7	167707002586.3	18.6	
2018-05-24-00-03	  145.0	 -44.5	   52680870375.5	165190867707.7	19.8	
2018-05-24-00-03	  179.0	 -55.5	   28187787853.6	78867984066.4	17.7	
2018-05-24-00-03	 -146.5	 -43.0	   29498589030.0	57001692931.3	12.2	
2018-05-24-00-03	 -136.5	 -38.0	   24390683431.7	46901328721.2	12.1	
2018-05-24-00-03	   66.0	 -50.5	    3973813343.7	9577235641.6	15.2	
2018-05-24-03-06	  -11.5	 -48.0	  226632329770.2	664441369406.0	18.6	
2018-05-24-03-06	  114.0	 -58.0	   93681094746.0	268523711406.4	18.1	
2018-05-24-03-06	 -178.5	 -55.0	   98271545416.3	249385802041.7	16.0	
2018-05-24-03-06	  145.0	 -44.5	   52680870375.5	159611235703.3	19.1	
2018-05-24-03-06	 -136.0	 -38.0	   48929246792.7	98769881734.9	12.7	
2018-05-24-03-06	 -169.0	 -65.0	   14637873525.2	56524132759.2	24.3	
2018-05-24-03-06	  179.0	 -55.5	   17618340670.0	49665268787.6	17.7	
2018-05-24-03-06	 -147.0	 -43.0	    9042685120.1	16824424919.4	11.7	
2018-05-24-03-06	   -1.0	 -62.5	    4305774109.8	13433870697.1	19.6	
2018-05-24-06-09	  -11.0	 -48.5	  192248687623.5	544963098372.4	17.9	
2018-05-24-06-09	  116.0	 -58.5	   76441123895.3	213214840016.4	17.6	
2018-05-24-06-09	 -178.5	 -54.5	   80899144852.5	204441452902.0	15.9	
2018-05-24-06-09	 -169.0	 -65.0	   42069944102.3	169862028221.8	25.4	
2018-05-24-06-09	 -135.5	 -38.0	   68628110564.2	138541743947.7	12.7	
2018-05-24-06-09	  145.0	 -44.5	   43863528328.4	130870343997.2	18.8	
2018-05-24-06-09	    0.5	 -62.5	   12965067878.5	38919915604.1	18.9	
2018-05-24-06-09	  179.0	 -55.5	    8842549567.2	25498730899.1	18.1	
2018-05-24-06-09	 -168.0	 -36.5	    2484784349.4	4921126016.1	12.4	
2018-05-24-09-12	  -10.5	 -48.5	  127186073606.9	339152274920.5	16.8	
2018-05-24-09-12	 -169.0	 -65.0	   52324247263.3	204817040489.6	24.6	
2018-05-24-09-12	 -178.5	 -54.5	   59494479795.2	146570667852.7	15.5	
2018-05-24-09-12	 -135.5	 -37.5	   68742774131.7	136106733498.5	12.4	
2018-05-24-09-12	   63.5	 -49.5	   46313119761.5	116849024587.2	15.8	
2018-05-24-09-12	  145.0	 -45.0	   28451035894.0	80531773910.9	17.8	
2018-05-24-09-12	  108.0	 -36.0	   10065786315.0	21180857219.2	13.2	
2018-05-24-09-12	  118.0	 -60.0	    7797600331.9	20382159098.1	16.4	
2018-05-24-09-12	 -167.0	 -37.5	    7389605591.9	9129603342.1	7.7	
2018-05-24-09-12	 -169.5	 -45.0	    2185722126.6	4639588604.1	13.3	
2018-05-24-12-15	  108.5	 -38.0	  100596914223.0	212952783575.5	13.3	
2018-05-24-12-15	  -10.5	 -48.5	   41123476775.3	111826584668.6	17.1	
2018-05-24-12-15	 -135.5	 -37.5	   51643918558.9	100030404630.2	12.2	
2018-05-24-12-15	 -169.0	 -65.0	   23806393763.0	91807204185.0	24.2	
2018-05-24-12-15	 -178.5	 -54.5	   34301165761.8	82654904430.8	15.1	
2018-05-24-12-15	   63.5	 -49.5	   12085836757.0	28777386249.6	15.0	
2018-05-24-12-15	 -168.5	 -45.5	   13095009579.6	28043997918.7	13.4	
2018-05-24-12-15	  145.5	 -45.0	   10947434699.5	26985069664.8	15.5	
2018-05-24-12-15	  165.5	 -40.0	    9540424431.5	19406253056.2	12.8	
2018-05-24-12-15	   66.5	 -50.5	    5919241847.1	16264844239.1	17.3	
2018-05-24-12-15	  164.0	 -51.5	    3869519871.1	8354128463.0	13.6	
2018-05-24-12-15	 -165.5	 -38.0	    2435802716.8	4372082168.6	11.3	
2018-05-24-15-18	  108.5	 -38.0	  112290900497.9	230594190859.2	12.9	
2018-05-24-15-18	   66.5	 -50.5	   31665017824.0	85255317938.2	16.9	
2018-05-24-15-18	 -167.5	 -45.0	   35026527042.9	74472113638.8	13.4	
2018-05-24-15-18	 -135.5	 -37.5	   39366567513.1	74291033544.2	11.9	
2018-05-24-15-18	  163.5	 -50.5	   19619300077.9	52663974260.9	16.9	
2018-05-24-15-18	 -164.5	 -38.5	   16966933816.6	33043611171.3	12.2	
2018-05-24-15-18	  165.5	 -40.0	   11908327485.2	24164091774.6	12.7	
2018-05-24-15-18	 -178.5	 -54.5	    9040666189.7	21195997511.9	14.7	
2018-05-24-15-18	 -174.0	 -50.5	    7906148519.0	16937630106.5	13.4	
2018-05-24-15-18	  -10.5	 -48.0	    4136669064.4	8578006102.8	13.0	
2018-05-24-15-18	 -168.5	 -64.5	    1330743411.4	5309950967.3	25.0	
2018-05-24-15-18	   55.5	  15.5	    2978656777.1	4001377381.5	8.4	
2018-05-24-15-18	  146.0	 -45.0	    2185722126.6	3667692645.8	10.5	
2018-05-24-18-21	 -166.5	 -45.0	   90168743529.5	207477901538.3	14.5	
2018-05-24-18-21	  109.0	 -39.0	   94407360658.3	197433311585.6	13.1	
2018-05-24-18-21	  -37.0	 -45.0	   65927128944.6	178023352910.2	17.0	
2018-05-24-18-21	   55.5	  15.5	   41648581824.6	85884857886.3	12.9	
2018-05-24-18-21	 -164.0	 -38.5	   43775050609.2	81916640137.9	11.7	
2018-05-24-18-21	  165.0	 -40.0	   28551918483.4	58530850898.8	12.9	
2018-05-24-18-21	   66.0	 -50.0	   17902445341.5	46961392115.7	16.5	
2018-05-24-18-21	 -134.5	 -37.5	   22086806156.1	40946365045.4	11.6	
2018-05-24-18-21	   81.5	 -61.0	    8991277749.4	28185740811.1	19.7	
2018-05-24-18-21	 -174.0	 -50.5	    5919241847.1	12447369970.9	13.2	
2018-05-24-21-24	  -36.5	 -45.0	  125479274647.5	338341784370.2	17.0	
2018-05-24-21-24	 -165.5	 -45.0	  123307825979.5	283424373448.7	14.5	
2018-05-24-21-24	   55.0	  16.0	   74343832690.3	186866107268.0	15.8	
2018-05-24-21-24	  109.5	 -40.0	   76296335372.6	166861979653.7	13.7	
2018-05-24-21-24	 -163.5	 -38.0	   56053145626.6	105915418796.0	11.9	
2018-05-24-21-24	  165.5	 -40.0	   38075094491.0	88388930324.7	14.6	
2018-05-24-21-24	 -168.5	 -53.5	   33331500080.3	84737621744.1	15.9	
2018-05-24-21-24	   81.5	 -61.5	   22454432789.3	74885381297.3	20.9	
2018-05-24-21-24	 -134.5	 -37.5	   14713527959.3	27827744184.3	11.9	
2018-05-24-21-24	   65.0	 -49.5	    6022483478.8	12054082672.7	12.5	
2018-05-24-21-24	  164.5	 -47.5	    2108109930.5	2671954352.2	7.9	
2018-05-25-00-03	  -36.0	 -45.0	  212711710114.7	515221634113.9	15.3	
2018-05-25-00-03	 -168.0	 -55.0	  131634070845.3	370620577647.2	17.7	
2018-05-25-00-03	 -164.5	 -45.0	  114058295006.6	252499092281.4	13.9	
2018-05-25-00-03	   55.0	  16.0	   86263514862.8	223402249567.9	16.3	
2018-05-25-00-03	  110.0	 -40.0	   83070380904.5	183283463346.9	13.8	
2018-05-25-00-03	   81.5	 -61.5	   34206163643.6	121017037358.8	22.2	
2018-05-25-00-03	  165.5	 -40.0	   30919821537.1	67954811649.1	13.8	
2018-05-25-00-03	 -163.5	 -38.0	   24473066958.4	41705607589.9	10.7	
2018-05-25-00-03	   64.0	 -49.5	    4035423885.6	10154779871.4	15.8	
2018-05-25-03-06	  -35.0	 -46.5	  293902425148.9	729505979012.2	15.6	
2018-05-25-03-06	 -167.5	 -55.0	  186314550498.9	516238357399.6	17.4	
2018-05-25-03-06	   54.5	  15.5	  107254189373.1	272234455244.7	15.9	
2018-05-25-03-06	 -162.5	 -45.5	  110985614808.0	234908890602.5	13.2	
2018-05-25-03-06	  110.0	 -40.0	   87701805471.3	186815628604.2	13.3	
2018-05-25-03-06	   82.0	 -62.0	   44363593334.1	160883831965.4	22.7	
2018-05-25-03-06	  -91.0	 -43.0	   27236187343.5	61224196611.8	14.0	
2018-05-25-03-06	  165.5	 -40.0	   11908327485.2	24199336966.8	12.7	
2018-05-25-03-06	  171.5	 -37.0	    7422073007.5	15146180018.6	12.7	
2018-05-25-06-09	  -34.0	 -47.0	  305068287559.5	829956535226.9	17.1	
2018-05-25-06-09	 -166.5	 -55.5	  210284575459.7	572746236263.5	17.1	
2018-05-25-06-09	   55.0	  16.0	  110153443853.0	267555789889.4	15.2	
2018-05-25-06-09	 -159.5	 -46.0	  110823910050.9	242901681930.6	13.7	
2018-05-25-06-09	  110.5	 -40.5	   94662680923.8	195775066226.0	12.9	
2018-05-25-06-09	   82.0	 -62.0	   48502936956.2	174737944256.1	22.5	
2018-05-25-06-09	  171.0	 -37.0	   27186992910.6	58276507548.1	13.4	
2018-05-25-06-09	  -89.5	 -44.0	   24532650463.1	57050044447.7	14.5	
2018-05-25-06-09	  113.0	 -35.0	    5079500732.1	9077004053.4	11.1	
2018-05-25-06-09	  165.5	 -39.5	    2385151477.6	4520899339.8	11.8	
2018-05-25-09-12	  -33.0	 -47.0	  270830621379.0	750101375785.3	17.5	
2018-05-25-09-12	 -166.0	 -56.0	  199915729594.4	527376335620.7	16.6	
2018-05-25-09-12	   54.5	  16.0	  110007704085.9	271458480576.5	15.5	
2018-05-25-09-12	 -158.0	 -46.0	  123662806384.8	267726116063.6	13.6	
2018-05-25-09-12	  111.0	 -40.5	   82722928283.4	172838981605.3	13.1	
2018-05-25-09-12	   82.0	 -62.0	   42319637967.3	160458810185.7	23.7	
2018-05-25-09-12	  113.0	 -34.5	   61164609870.8	134088727071.5	13.7	
2018-05-25-09-12	  171.0	 -37.0	   29639309844.5	63980150431.1	13.5	
2018-05-25-12-15	  -32.5	 -47.5	  216495320055.7	565847175905.4	16.5	
2018-05-25-12-15	   54.5	  16.0	  115919052058.7	305601516245.2	16.6	
2018-05-25-12-15	  113.0	 -34.5	   94399253062.6	217484177589.8	14.5	
2018-05-25-12-15	 -165.5	 -54.5	   68969931257.4	166187765756.0	15.2	
2018-05-25-12-15	 -165.5	 -59.0	   46809567532.2	132850767973.7	17.9	
2018-05-25-12-15	 -156.5	 -47.5	   57071314278.5	130388133244.1	14.4	
2018-05-25-12-15	   82.0	 -62.0	   32138660321.9	116795458878.5	22.9	
2018-05-25-12-15	  111.0	 -40.5	   54420600304.9	111408709648.5	12.9	
2018-05-25-12-15	  -87.0	 -48.5	   26926073512.4	64834507181.8	15.1	
2018-05-25-12-15	  171.0	 -37.0	   22266031647.7	46896038205.7	13.2	
2018-05-25-12-15	 -157.5	 -44.0	    6689258560.4	11880742090.0	11.2	
2018-05-25-15-18	  -31.5	 -48.5	  182875794805.6	473767214741.4	16.4	
2018-05-25-15-18	  113.0	 -34.5	  109879091511.0	263532795470.6	15.2	
2018-05-25-15-18	   54.0	  16.5	  106984667687.8	259290758870.4	15.3	
2018-05-25-15-18	 -155.5	 -48.0	   52224014129.1	130661677331.4	15.8	
2018-05-25-15-18	  -85.5	 -49.5	   30355784920.6	72038211693.5	15.0	
2018-05-25-15-18	   82.0	 -62.0	   17437506648.4	60349217827.2	21.9	
2018-05-25-15-18	  171.0	 -37.0	   22266031647.7	45734929141.3	13.0	
2018-05-25-15-18	  111.5	 -40.0	   14224486188.5	27274331823.4	12.1	
2018-05-25-15-18	 -164.5	 -54.5	   10879309523.5	25813227386.2	15.0	
2018-05-25-15-18	 -164.5	 -59.5	    9551894086.2	25379799192.7	16.8	
2018-05-25-18-21	  -31.0	 -48.5	  161328024466.1	416048567815.7	16.5	
2018-05-25-18-21	  113.0	 -34.5	  138691610284.4	312324932097.8	14.3	
2018-05-25-18-21	   54.0	  16.0	   56474385198.8	127984715770.6	14.4	
2018-05-25-18-21	  -85.0	 -50.0	   19971397454.9	48251290193.6	15.3	
2018-05-25-18-21	  171.5	 -37.0	   22233564232.1	45387725739.4	13.0	
2018-05-25-18-21	 -155.0	 -48.0	   18634663948.0	42497994724.4	14.5	
2018-05-25-21-24	  113.5	 -33.5	  146906832769.2	340006355358.2	14.9	
2018-05-25-21-24	  -30.0	 -49.0	  121399962700.2	299056968149.2	15.8	
2018-05-25-21-24	  -84.0	 -51.0	   21626344834.6	51444194028.3	15.3	
2018-05-25-21-24	  171.5	 -37.0	    9906857356.9	19220775023.7	12.4	
2018-05-25-21-24	   54.0	  15.5	   11899983137.8	12949280100.6	7.0	
2018-05-25-21-24	  116.5	 -36.5	    4969568698.9	8470184440.4	10.9	
2018-05-26-00-03	  113.5	 -33.0	  123876739866.2	285304119805.5	15.0	
2018-05-26-00-03	  -83.0	 -52.0	   47994554778.9	123718197843.5	16.7	
2018-05-26-00-03	  -29.5	 -49.0	   55435191886.6	117624644223.2	13.8	
2018-05-26-00-03	  -42.0	  59.5	   15571425077.3	71892940620.5	29.9	
2018-05-26-00-03	  -77.0	 -46.5	   17099352475.2	39732713330.9	15.1	
2018-05-26-00-03	  114.0	 -39.0	    4804436845.1	10990026181.2	14.8	
2018-05-26-03-06	  -82.0	 -52.5	   83488076570.2	219858330688.3	17.3	
2018-05-26-03-06	  113.0	 -34.5	   82582771251.3	160390068508.8	12.7	
2018-05-26-03-06	  -77.0	 -46.0	   32206849890.6	83082795767.3	16.9	
2018-05-26-03-06	  115.0	 -39.5	   28774325466.3	61319053492.7	13.9	
2018-05-26-03-06	  -41.0	  60.5	    4542823865.6	19585409179.2	28.2	
2018-05-26-06-09	  -81.0	 -53.0	  107132878516.8	288681498266.6	17.8	
2018-05-26-06-09	  -77.5	 -46.0	   36597616033.9	96834479070.1	17.4	
2018-05-26-06-09	  165.0	 -24.0	   33959759430.3	59915738151.9	11.6	
2018-05-26-06-09	  115.5	 -39.5	   16815163052.1	34483533226.1	13.5	
2018-05-26-06-09	  159.5	 -62.0	    4401042827.1	16791061306.3	25.1	
2018-05-26-06-09	  112.5	 -34.0	    7717831760.5	13721508297.5	11.7	
2018-05-26-09-12	  -79.5	 -53.0	   84045744288.4	221026514350.7	17.4	
2018-05-26-09-12	  165.0	 -23.5	   70760342088.9	141966852767.8	13.3	
2018-05-26-09-12	  -77.0	 -46.0	   19305051290.1	45555509043.4	15.6	
2018-05-26-09-12	  159.5	 -62.0	    8825735034.6	30898082702.4	23.2	
2018-05-26-12-15	  165.0	 -23.5	   82086143475.6	165892803079.6	13.4	
2018-05-26-12-15	 -148.5	 -44.0	   26830797425.4	56750476700.9	14.0	
2018-05-26-12-15	  -78.5	 -53.0	   16784973980.6	40954178460.9	16.2	
2018-05-26-12-15	  159.0	 -62.0	    7327150850.5	25327587733.1	22.9	
2018-05-26-15-18	  165.0	 -23.5	   82097649978.8	159977803693.4	12.9	
2018-05-26-15-18	 -148.0	 -43.5	   49398484879.0	101363714051.3	13.6	
2018-05-26-15-18	 -171.0	 -40.0	   33390123312.6	64950125606.6	12.9	
2018-05-26-15-18	  170.5	 -57.5	   18291489071.7	47828710790.5	17.3	
2018-05-26-15-18	  167.5	 -62.0	    2902346439.3	11459131220.7	26.2	
2018-05-26-18-21	 -168.5	 -45.0	  124490894155.2	294464077325.5	15.7	
2018-05-26-18-21	  172.0	 -57.5	   48523502207.6	126440954852.7	17.3	
2018-05-26-18-21	 -165.0	 -36.5	   67321016349.0	125926662529.5	12.4	
2018-05-26-18-21	 -147.0	 -43.5	   54104126787.7	109058367430.4	13.3	
2018-05-26-18-21	  165.0	 -23.5	   56644801683.1	103133293608.5	12.1	
2018-05-26-18-21	 -169.5	 -40.5	   40217150384.0	86237741129.8	14.2	
2018-05-26-21-24	 -168.5	 -44.5	  311429751263.3	787956430599.1	16.9	
2018-05-26-21-24	 -163.0	 -37.0	  171960137533.1	360440585435.9	13.9	
2018-05-26-21-24	  173.0	 -57.5	   31917183487.7	82713081994.7	17.1	
2018-05-26-21-24	 -146.5	 -43.5	   33927689057.5	66235799637.9	12.9	
2018-05-26-21-24	  164.5	 -23.5	   28356394338.6	40413653811.9	9.4	
2018-05-27-00-03	 -167.5	 -44.0	  687817837625.7	1779763477719.8	17.4	
2018-05-27-00-03	 -144.0	 -43.5	    4484376492.9	9166364215.6	13.5	
2018-05-27-00-03	  173.5	 -57.0	    3367043498.2	8270649592.7	16.2	
2018-05-27-00-03	 -145.0	 -43.0	    2260671280.0	4486983410.3	13.1	
2018-05-27-03-06	 -167.5	 -45.5	  853113131138.3	2363193887550.7	18.7	
2018-05-27-03-06	 -143.5	 -43.5	   11247907299.4	22076261188.3	12.9	
2018-05-27-03-06	  -77.5	 -60.0	    1545539148.2	4398645906.6	18.7	
2018-05-27-06-09	 -166.5	 -45.5	  890309031356.3	2568455993751.4	19.6	
2018-05-27-06-09	 -142.5	 -43.5	    2242188246.5	4240645936.2	12.4	
2018-05-27-09-12	 -166.0	 -45.5	  905446582793.5	2606754019418.4	19.7	
2018-05-27-12-15	 -165.0	 -45.5	  926128899304.7	2607026918199.2	19.4	
2018-05-27-15-18	 -164.5	 -45.0	  917595725124.2	2452425868979.2	18.5	
2018-05-27-15-18	  128.0	 -45.5	    2166565317.8	3801640601.4	11.8	
2018-05-27-18-21	 -163.5	 -45.0	  908796306013.1	2294334607455.3	17.5	
2018-05-27-18-21	  129.0	 -46.0	   19458963690.6	36844156997.5	12.8	
2018-05-27-21-24	 -162.5	 -45.0	  948756395591.7	2288116523505.2	16.9	
2018-05-27-21-24	   -4.5	 -60.5	   33810195339.4	102805080719.8	20.7	
2018-05-27-21-24	 -173.5	 -53.0	    5623715239.8	13031632836.3	15.7	
2018-05-28-00-03	 -161.0	 -45.0	  994706716244.6	2317178737035.5	16.4	
2018-05-28-00-03	   -3.0	 -61.0	   77953749023.8	257536774116.7	22.6	
2018-05-28-00-03	 -173.5	 -53.0	   78596474734.4	203769590975.0	17.7	
2018-05-28-03-06	 -159.5	 -45.5	 1042817334097.8	2347191865487.9	15.8	
2018-05-28-03-06	   -1.5	 -61.5	  116050470740.6	410137845991.2	24.3	
2018-05-28-03-06	 -173.0	 -53.0	  113529040445.5	298173594932.3	18.0	
2018-05-28-06-09	 -159.0	 -46.0	  949061281170.5	2104339849891.2	15.6	
2018-05-28-06-09	    0.0	 -61.5	  171368755076.9	698314064868.1	28.1	
2018-05-28-06-09	 -172.5	 -53.5	  100275027105.4	257406214058.5	17.6	
2018-05-28-06-09	  131.0	 -56.5	   13625823201.6	37034515909.3	18.6	
2018-05-28-09-12	 -164.5	 -50.0	  393542999773.5	982895705695.0	17.3	
2018-05-28-09-12	    1.5	 -61.5	  203370360827.9	889171130393.5	30.2	
2018-05-28-09-12	 -150.5	 -41.0	  392052693609.5	780712937467.5	13.7	
2018-05-28-09-12	 -172.0	 -53.0	   68804355194.8	169639263478.5	16.9	
2018-05-28-09-12	 -158.0	 -45.5	   39512405850.0	77873280676.1	13.5	
2018-05-28-09-12	  131.5	 -57.5	   25115809987.8	71952848322.6	19.6	
2018-05-28-09-12	 -142.5	 -37.0	   37125563393.8	70402666333.2	13.0	
2018-05-28-12-15	 -164.5	 -50.0	  463201050986.4	1194234264583.3	17.9	
2018-05-28-12-15	    2.5	 -62.0	  210976532543.7	924641834598.9	30.4	
2018-05-28-12-15	 -146.5	 -39.5	  430151155589.7	829846154157.2	13.3	
2018-05-28-12-15	  132.0	 -58.5	   31120786181.8	89255132653.8	19.6	
2018-05-28-12-15	 -156.5	 -38.0	   24522608872.9	44712787759.9	12.5	
2018-05-28-15-18	 -164.0	 -50.0	  482427822753.8	1247380049098.6	18.0	
2018-05-28-15-18	    3.5	 -62.0	  200197672823.7	867255931664.2	30.1	
2018-05-28-15-18	 -146.5	 -40.0	  214154647321.6	410104554939.3	13.2	
2018-05-28-15-18	 -155.5	 -38.0	  128618987279.2	236049701505.6	12.6	
2018-05-28-15-18	 -140.0	 -37.0	   79216360073.8	159700145985.3	13.9	
2018-05-28-15-18	  132.5	 -59.5	   28678015594.1	84261375251.8	20.2	
2018-05-28-18-21	 -164.0	 -50.0	  454317152589.1	1149878611166.0	17.7	
2018-05-28-18-21	    4.0	 -62.0	  181187252261.4	728837141426.1	28.1	
2018-05-28-18-21	 -154.5	 -38.5	  188416558498.7	345120718052.1	12.7	
2018-05-28-18-21	 -146.0	 -40.0	  166648510652.4	324135594968.1	13.5	
2018-05-28-18-21	 -139.5	 -37.0	   54371916224.0	103774687090.2	13.2	
2018-05-28-18-21	   23.0	 -38.0	   39201614927.4	82659551905.4	14.6	
2018-05-28-18-21	  133.5	 -60.5	    3067659035.0	8793353920.7	19.8	
2018-05-28-21-24	 -163.5	 -50.5	  379039646930.8	925073429722.0	17.2	
2018-05-28-21-24	 -149.0	 -39.0	  329157362535.7	619728219536.8	13.2	
2018-05-28-21-24	    4.5	 -62.0	  132465811870.2	481840074549.0	25.5	
2018-05-28-21-24	   23.0	 -38.0	   31779541919.9	72148206312.1	15.8	
2018-05-28-21-24	 -138.5	 -37.5	   32059159362.8	64520784088.5	14.0	
2018-05-28-21-24	 -160.0	 -42.5	    6855081692.4	12332721901.2	12.5	
2018-05-29-00-03	 -163.0	 -51.0	  280448187450.9	650160457867.6	16.4	
2018-05-29-00-03	 -149.5	 -40.0	  173863385903.7	350247120806.4	14.2	
2018-05-29-00-03	    5.0	 -62.0	   54403228346.3	170802933313.9	22.0	
2018-05-29-00-03	 -144.0	 -39.5	   50120316624.6	96488179630.7	13.5	
2018-05-29-00-03	 -154.5	 -37.5	   31945056077.0	56520005282.1	12.4	
2018-05-29-00-03	   23.0	 -38.0	   14597929913.3	34156297514.0	16.4	
2018-05-29-00-03	 -138.0	 -37.5	   12294239459.7	24421795903.0	13.9	
2018-05-29-03-06	 -148.5	 -40.0	  202617142341.7	410659573445.8	14.3	
2018-05-29-03-06	 -162.5	 -52.0	  123781186309.8	287626226160.8	16.3	
2018-05-29-03-06	 -158.5	 -49.5	   20237808019.6	46221304973.6	16.0	
2018-05-29-03-06	 -162.5	 -47.0	   12707280420.3	25500980470.5	14.1	
2018-05-29-06-09	 -148.0	 -40.0	  223964923232.6	435353209812.4	13.7	
2018-05-29-06-09	 -161.0	 -50.0	  135203066344.3	303795704018.4	15.8	
2018-05-29-06-09	  141.5	 -46.5	    4275000989.2	8910944218.8	14.6	
2018-05-29-09-12	 -147.5	 -40.0	  173250812047.7	323166684534.0	13.1	
2018-05-29-09-12	 -161.0	 -49.0	  126167326433.2	282388533364.1	15.7	
2018-05-29-09-12	  142.5	 -47.0	   21178693348.5	52843828420.6	17.4	
2018-05-29-12-15	 -161.0	 -49.0	  118263662057.2	258946327743.2	15.2	
2018-05-29-12-15	 -144.0	 -40.5	   56443012000.1	104936738658.0	12.9	
2018-05-29-12-15	 -148.5	 -40.5	   35394743805.2	64935805577.8	12.7	
2018-05-29-12-15	  143.5	 -47.5	   18913085472.2	44836062460.6	16.4	
2018-05-29-15-18	 -160.0	 -49.0	   93772626839.1	205767632629.9	15.1	
2018-05-29-15-18	 -142.5	 -41.0	   86395371950.0	164127533892.1	13.1	
2018-05-29-15-18	   31.5	 -61.0	   25757436322.7	81993183072.7	21.9	
2018-05-29-18-21	   33.5	 -60.0	  183664951745.8	638423610190.2	23.9	
2018-05-29-18-21	 -141.5	 -41.5	  104666869778.2	199052706253.1	13.0	
2018-05-29-18-21	 -159.0	 -50.0	   52190270465.0	118059458306.7	15.5	
2018-05-29-21-24	   34.0	 -60.0	  303933527978.3	1148957206337.6	26.0	
2018-05-29-21-24	 -141.0	 -41.5	  106716074032.5	199233471763.3	12.7	
2018-05-29-21-24	 -158.5	 -49.5	   30273588215.9	61630991900.3	13.8	
2018-05-29-21-24	  147.5	 -47.5	    8392823877.9	11789466461.3	9.5	
2018-05-29-21-24	   21.5	 -62.0	    2902346439.3	8472411166.5	19.8	
2018-05-30-00-03	   35.0	 -60.0	  444732260652.9	1698863070806.3	26.3	
2018-05-30-00-03	 -141.0	 -41.5	   78653912918.2	144212595673.0	12.4	
2018-05-30-03-06	   35.0	 -60.0	  526294969975.4	1986673831344.0	26.0	
2018-05-30-03-06	 -140.5	 -42.0	   36950421271.0	66239830857.6	12.0	
2018-05-30-06-09	   35.5	 -60.0	  585901811595.3	2149232039424.8	25.1	
2018-05-30-06-09	  -29.5	 -50.5	   23780360283.3	66927756314.9	18.7	
2018-05-30-06-09	 -140.5	 -41.5	   13908091527.1	24809975737.7	11.9	
2018-05-30-09-12	   36.5	 -60.0	  630582240114.9	2217772999757.6	23.9	
2018-05-30-09-12	  -30.0	 -50.0	    1986906671.9	3689978779.9	12.3	
2018-05-30-12-15	   42.0	 -60.0	  749704379654.3	2576541908009.7	23.3	
2018-05-30-15-18	   46.5	 -60.0	  749911437570.2	2580095991098.8	23.3	
2018-05-30-15-18	 -168.5	 -63.5	    9750974481.8	38538032732.7	25.9	
2018-05-30-15-18	 -156.0	 -49.5	    4014988985.9	8559222582.1	14.0	
2018-05-30-18-21	   48.0	 -60.0	  705760636887.3	2390773288060.1	22.9	
2018-05-30-18-21	 -168.5	 -63.5	    6968422858.6	29096870451.4	27.4	
2018-05-30-21-24	   49.0	 -60.0	  622301438502.5	2047328030833.3	22.2	
2018-05-31-00-03	   51.0	 -59.5	  438904280430.7	1467349738868.3	22.6	
2018-05-31-03-06	   51.0	 -59.5	  352801075424.2	1170467433718.6	22.4	
2018-05-31-06-09	   50.5	 -59.0	  313633082745.0	997197015182.3	21.4	
2018-05-31-09-12	   50.0	 -58.5	  216046507657.0	667500173206.9	20.6	
2018-05-31-09-12	  -38.0	 -45.0	   17542748325.6	37106507308.3	14.0	
2018-05-31-12-15	   51.0	 -58.5	  140074554783.7	414672068902.2	19.6	
2018-05-31-12-15	  -37.5	 -45.0	   17561738763.3	37494873555.4	14.1	
2018-05-31-15-18	   51.5	 -58.0	   72272507348.0	200604652313.1	18.2	
2018-05-31-15-18	  -37.5	 -45.0	    6595147255.1	13266567409.6	13.2	
2018-05-31-18-21	  160.0	 -42.5	   18303702882.3	41147266324.3	14.6	
2018-05-31-18-21	   39.5	 -58.0	    4914064141.1	13700131469.7	18.1	
2018-05-31-18-21	   49.5	 -56.5	    1706080229.0	4569297017.6	17.4	
2018-05-31-21-24	   46.0	 -58.0	  188882412416.9	571293504165.3	19.6	
2018-05-31-21-24	  160.5	 -40.0	  136347148232.7	325874856177.4	15.4	
2018-05-31-21-24	 -111.5	 -39.5	   26355223051.7	55853937060.0	13.6	
