2012-07-01-00-03	  -34.5	  55.5	   15689169549.6	41899369611.4	19.4	
2012-07-01-00-03	 -146.0	 -37.5	   17247855512.9	29736601813.4	12.5	
2012-07-01-03-06	  -34.0	  56.0	   39569203975.1	110395616707.6	20.4	
2012-07-01-03-06	 -144.0	 -39.5	    2385151477.6	3670262338.0	11.3	
2012-07-01-06-09	  -33.5	  56.5	   62974795645.0	180682931008.6	21.3	
2012-07-01-06-09	 -143.5	 -40.0	    2367903053.7	4282139924.7	13.4	
2012-07-01-09-12	  -33.0	  56.5	   79692733323.3	235613686589.7	22.1	
2012-07-01-12-15	  -32.5	  57.0	  107420268602.3	331106215698.3	23.3	
2012-07-01-15-18	  -32.0	  57.0	  124071709809.3	404231421679.1	24.8	
2012-07-01-18-21	  -32.5	  57.0	  120799292758.7	409498926015.6	26.0	
2012-07-01-21-24	  -32.5	  57.0	  116067195639.1	401989853342.2	26.7	
2012-07-02-00-03	  -33.0	  57.0	  111245378636.6	390547930728.0	27.2	
2012-07-02-03-06	  -33.0	  57.0	  101488084633.6	363523031976.2	27.8	
2012-07-02-06-09	  -33.5	  56.5	   89954373208.9	315984173533.4	27.2	
2012-07-02-09-12	  -34.0	  56.0	   78691589424.9	270869878941.8	26.5	
2012-07-02-09-12	  -54.5	 -51.0	   15687114691.8	48286703926.5	23.6	
2012-07-02-12-15	  -34.5	  56.0	   65584410805.7	224435422329.7	26.2	
2012-07-02-12-15	  -53.5	 -51.0	   41141052966.8	124047963043.5	23.0	
2012-07-02-12-15	  -97.0	 -64.5	    3992230234.2	15003526773.8	28.7	
2012-07-02-15-18	  -35.0	  55.0	   57590903104.3	197172011834.1	26.0	
2012-07-02-15-18	  -53.0	 -51.5	   19452341090.2	56432681805.1	22.0	
2012-07-02-15-18	  160.5	 -33.5	   12976375399.7	28981415088.3	16.9	
2012-07-02-18-21	  -35.0	  55.0	   56152225770.6	189351933930.5	25.5	
2012-07-02-18-21	  160.5	 -33.5	   18116601019.5	38765599800.6	16.1	
2012-07-02-18-21	 -111.0	 -32.0	   13149497118.2	21678572444.4	12.4	
2012-07-02-18-21	  -92.5	 -63.5	    1403319612.3	3897691849.7	20.9	
2012-07-02-21-24	 -112.5	 -32.5	  149357671340.5	292072852003.1	14.7	
2012-07-02-21-24	  -35.5	  54.5	   49373021446.0	166921882580.8	25.4	
2012-07-02-21-24	  160.5	 -33.5	   18087218562.1	38594524265.6	16.0	
2012-07-02-21-24	  -87.5	 -63.0	    2854600890.2	9238646760.3	24.2	
2012-07-03-00-03	 -113.0	 -32.5	  229789884455.5	516589882868.9	16.9	
2012-07-03-00-03	  -35.0	  54.5	   45805325410.1	151327993293.5	24.7	
2012-07-03-00-03	  161.0	 -33.5	    2577606140.7	6215958382.3	18.0	
2012-07-03-03-06	 -113.5	 -33.0	  299362402514.5	719400315771.9	18.0	
2012-07-03-03-06	  -35.5	  54.5	   33595881397.0	114786662896.6	25.4	
2012-07-03-06-09	 -114.0	 -33.0	  381205994658.1	915138492592.0	17.9	
2012-07-03-06-09	  -35.5	  54.5	   31867372394.9	105728965144.3	24.5	
2012-07-03-06-09	  -80.5	 -61.5	    2949869607.5	9332002482.9	23.3	
2012-07-03-09-12	 -114.0	 -33.0	  463418625470.1	1064858918430.6	17.1	
2012-07-03-09-12	  -35.0	  54.5	   22981035546.7	74734161867.2	23.8	
2012-07-03-09-12	   67.5	 -45.5	    6499695953.4	22816831867.5	25.7	
2012-07-03-12-15	 -114.5	 -33.5	  509322035561.5	1116687779947.3	16.2	
2012-07-03-12-15	  -35.5	  54.5	   14205515648.9	45258510883.0	23.2	
2012-07-03-15-18	 -115.0	 -33.5	  522068358647.3	1093566828204.4	15.4	
2012-07-03-15-18	  165.0	 -37.5	    9841922525.8	18165634175.6	13.4	
2012-07-03-15-18	  -35.0	  54.5	    3567967977.9	10110038543.7	20.5	
2012-07-03-18-21	 -115.5	 -33.5	  473315387806.4	953412282304.0	14.7	
2012-07-03-18-21	  -77.0	 -48.0	   29092024565.3	60286569548.9	14.9	
2012-07-03-18-21	  165.0	 -37.5	   22086806156.1	47742254558.2	15.6	
2012-07-03-21-24	 -116.0	 -33.0	  348308343897.8	678667526613.4	14.1	
2012-07-03-21-24	  -76.5	 -47.5	   31339883430.6	82969213792.7	19.0	
2012-07-03-21-24	 -111.5	 -43.5	   29295453454.8	62551498128.1	15.3	
2012-07-03-21-24	  165.0	 -37.5	   22070291939.0	47585107755.3	15.5	
2012-07-03-21-24	 -115.0	 -36.5	   14988267026.6	33371411502.7	16.0	
2012-07-03-21-24	  -54.5	 -51.5	    9684318456.3	28253073324.3	20.9	
2012-07-03-21-24	 -150.5	 -47.5	    6284713947.3	12456854594.2	14.2	
2012-07-04-00-03	 -114.0	 -33.0	  135130920626.2	274278893735.4	14.5	
2012-07-04-00-03	 -124.0	 -33.5	  119464756897.6	218111530547.5	13.1	
2012-07-04-00-03	 -111.5	 -43.0	   86060981760.9	190712512013.7	15.9	
2012-07-04-00-03	  -76.5	 -47.5	   33766005119.8	91978051438.6	19.5	
2012-07-04-00-03	 -150.0	 -47.0	   23168920440.5	52481486209.3	16.2	
2012-07-04-00-03	  -54.0	 -51.5	   13574727200.8	38384831051.0	20.2	
2012-07-04-00-03	  149.5	 -48.0	    4136669064.4	12980737903.1	22.4	
2012-07-04-00-03	  165.0	 -37.5	    4904633867.8	9980932225.1	14.5	
2012-07-04-03-06	 -111.5	 -42.5	   82159514775.4	185505314881.8	16.2	
2012-07-04-03-06	  149.0	 -48.0	   52004549869.0	122728296952.7	16.9	
2012-07-04-03-06	 -125.0	 -33.5	   59370142017.2	108358698085.4	13.0	
2012-07-04-03-06	 -114.0	 -33.0	   57148266701.8	107999874182.6	13.5	
2012-07-04-03-06	  -77.0	 -47.0	   23305483268.0	52003659323.3	15.9	
2012-07-04-03-06	 -149.5	 -47.0	   12687794554.3	29704049995.9	16.7	
2012-07-04-03-06	 -121.0	 -33.0	   18146377571.8	25842480270.3	10.2	
2012-07-04-03-06	  -53.5	 -51.0	    9768171317.7	24860044396.6	18.2	
2012-07-04-03-06	  -26.5	 -54.5	    9106064759.4	23682993334.0	18.6	
2012-07-04-06-09	  148.5	 -48.0	   98352451317.3	250867641798.2	18.3	
2012-07-04-06-09	 -125.5	 -34.5	   84933659316.5	157517524916.4	13.3	
2012-07-04-06-09	 -111.5	 -42.5	   52773721829.9	116772152125.5	15.9	
2012-07-04-06-09	  -77.0	 -46.5	   14912979235.2	32758034709.7	15.7	
2012-07-04-06-09	  -53.5	 -51.0	    9768171317.7	27819041364.7	20.4	
2012-07-04-06-09	  -66.0	 -61.0	    1498584184.1	5416778317.1	25.9	
2012-07-04-06-09	 -148.5	 -46.5	    2127757561.6	4472864149.7	15.0	
2012-07-04-09-12	  148.0	 -48.0	  140460628707.4	390884784974.3	20.1	
2012-07-04-09-12	 -126.0	 -34.5	   69439622396.3	130752576093.2	13.5	
2012-07-04-09-12	 -112.0	 -32.5	   23505482849.9	44374331231.2	13.5	
2012-07-04-09-12	  -77.0	 -46.5	   10696919665.2	23020742997.7	15.4	
2012-07-04-09-12	  -53.5	 -51.0	    7822892603.6	21163384133.8	19.4	
2012-07-04-09-12	 -111.0	 -42.0	    4612198482.8	9675667906.0	15.0	
2012-07-04-12-15	  148.0	 -47.5	  159228663111.3	452338609663.1	20.5	
2012-07-04-12-15	 -125.5	 -34.0	   25670176999.8	48187730473.8	13.5	
2012-07-04-12-15	 -112.5	 -33.0	   23447907589.5	44229961883.4	13.6	
2012-07-04-12-15	  -77.0	 -46.5	    6441566307.0	13281296129.0	14.8	
2012-07-04-15-18	  147.5	 -47.5	  169823323710.7	474841352654.8	20.3	
2012-07-04-15-18	 -125.5	 -34.0	    5125238958.0	7377459361.2	10.4	
2012-07-04-15-18	  -77.0	 -46.0	    2147243427.7	4530081860.4	15.2	
2012-07-04-18-21	  147.5	 -48.0	  142488852888.2	389315891807.9	20.0	
2012-07-04-21-24	  147.5	 -48.0	  112964475789.7	292636506524.0	19.0	
2012-07-04-21-24	  145.0	 -54.5	    9062419529.5	23919100339.7	19.3	
2012-07-04-21-24	 -138.0	 -55.0	    1772969689.9	5610648460.3	23.2	
2012-07-05-00-03	  147.5	 -48.0	   71112653555.9	186209337515.6	19.3	
2012-07-05-00-03	  145.0	 -54.5	   10857417633.3	30000206321.0	20.3	
2012-07-05-00-03	 -138.0	 -55.0	    1772969689.9	5719451618.7	23.7	
2012-07-05-03-06	  147.0	 -47.5	   37646947848.0	82681075610.0	16.2	
2012-07-05-03-06	  145.0	 -54.5	    8996745885.5	25690712155.5	21.0	
2012-07-05-06-09	   45.0	 -45.5	   15242584459.7	34616306350.4	16.8	
2012-07-05-06-09	  146.5	 -47.5	   10500933808.4	18985515087.3	13.3	
2012-07-05-06-09	  145.5	 -54.5	    1794998103.8	6122496735.1	25.2	
2012-07-05-09-12	   45.0	 -45.5	   15242584459.7	32664638078.4	15.8	
2012-07-05-09-12	  147.0	 -47.0	    2108109930.5	3247981963.7	11.4	
2012-07-05-12-15	  -39.0	 -41.5	   46442300724.8	88858202275.7	14.2	
2012-07-05-12-15	   45.5	 -45.0	    2185722126.6	4681681162.8	15.8	
2012-07-05-15-18	  -37.0	 -44.0	   40190491953.4	87597303343.6	16.2	
2012-07-05-18-21	  -33.5	 -45.0	   78890721039.9	177734135455.6	16.8	
2012-07-05-21-24	    4.0	 -54.5	   16286195725.2	58199907947.0	26.6	
2012-07-06-00-03	  -47.0	 -36.5	   44900240445.4	84355903404.1	14.1	
2012-07-06-00-03	    4.0	 -54.5	   21802125726.5	69085266871.9	23.7	
2012-07-06-03-06	  -47.0	 -36.0	   67563493615.5	128886461440.1	14.4	
2012-07-06-06-09	  -46.5	 -36.0	   57688344410.3	111514536663.8	14.6	
2012-07-06-09-12	  -46.5	 -36.0	   30181599017.0	56542605691.5	14.2	
2012-07-06-09-12	   74.5	 -59.5	    4729704176.7	9901499533.0	15.9	
2012-07-06-12-15	   79.0	 -60.0	   13932918401.9	54478111014.3	29.7	
2012-07-06-12-15	 -138.0	 -55.0	   17729291196.4	54120776676.9	23.2	
2012-07-06-12-15	   74.5	 -60.0	    4683220505.2	14197508171.4	23.0	
2012-07-06-12-15	  123.0	 -53.0	    3720513666.8	8322728850.5	17.0	
2012-07-06-12-15	  122.0	 -52.5	    1881729203.2	3801646462.3	15.3	
2012-07-06-15-18	   78.5	 -60.5	   27678485292.3	105250916671.0	28.7	
2012-07-06-15-18	 -138.0	 -55.0	   32044539159.6	101630067836.6	24.0	
2012-07-06-15-18	 -148.0	 -33.0	    7806373227.7	15173086033.2	14.7	
2012-07-06-15-18	   74.5	 -59.5	    1568840678.5	3156081095.9	15.2	
2012-07-06-18-21	   78.5	 -60.5	   30675653660.5	111546402240.7	27.3	
2012-07-06-18-21	 -138.0	 -55.0	   32110623111.8	103411266329.3	24.1	
2012-07-06-18-21	 -167.0	 -63.5	   13888670514.4	55160760907.1	29.8	
2012-07-06-18-21	 -146.0	 -33.5	    2577606140.7	4444618894.7	12.9	
2012-07-06-18-21	  122.0	 -51.5	    1924241156.9	4396467096.3	17.1	
2012-07-06-21-24	 -165.5	 -63.5	   27825516231.6	110756946164.2	29.6	
2012-07-06-21-24	   -6.0	 -51.5	   38419372980.5	108557179255.1	21.0	
2012-07-06-21-24	 -138.5	 -55.0	   24931038978.1	76568258561.7	22.8	
2012-07-06-21-24	   79.0	 -60.5	   18264972876.5	67555862204.5	27.5	
2012-07-06-21-24	  122.5	 -51.5	   17317732651.7	42125400061.5	18.1	
2012-07-06-21-24	 -144.5	 -35.0	    7611563391.4	14320000197.6	14.0	
2012-07-06-21-24	  125.0	 -52.5	    1881729203.2	4611990706.4	18.2	
2012-07-07-00-03	   -6.0	 -51.5	   28925997661.0	83718401099.3	21.3	
2012-07-07-00-03	 -144.0	 -36.0	   35151167715.8	79117967439.1	16.6	
2012-07-07-00-03	 -165.0	 -63.5	   18074541749.8	66263982786.4	27.0	
2012-07-07-00-03	  124.0	 -51.5	   19241973808.7	46200906392.9	17.7	
2012-07-07-00-03	   79.0	 -60.5	   10654606325.0	36271892092.3	25.1	
2012-07-07-00-03	 -138.5	 -55.0	    7135935587.4	22066329827.5	22.8	
2012-07-07-03-06	 -143.5	 -37.0	   52177250777.3	115255530454.7	16.2	
2012-07-07-03-06	  125.0	 -51.5	    1924241156.9	4562303675.6	17.4	
2012-07-07-06-09	 -151.5	 -59.0	   68683214947.1	212225245177.2	22.6	
2012-07-07-06-09	 -143.0	 -37.5	   66371529101.5	137828788324.3	15.2	
2012-07-07-06-09	  -43.0	 -33.5	   51668668788.8	127606813303.9	18.0	
2012-07-07-06-09	   15.5	 -33.5	   52064966887.2	125378634276.2	17.6	
2012-07-07-09-12	 -150.5	 -59.0	  119635842366.8	385072400425.4	23.4	
2012-07-07-09-12	   15.0	 -33.0	  120136814583.1	285791337752.4	17.3	
2012-07-07-09-12	  -42.0	 -34.0	   84919652272.7	195865467656.8	16.7	
2012-07-07-09-12	 -143.0	 -38.5	   84979048218.5	179049647253.5	15.3	
2012-07-07-12-15	 -149.5	 -58.5	  123736164603.4	400135506153.8	23.4	
2012-07-07-12-15	   14.5	 -32.5	  157160550038.7	379320641144.4	17.5	
2012-07-07-12-15	 -142.5	 -39.5	  132138763841.0	276639758324.3	15.1	
2012-07-07-12-15	  -40.5	 -34.0	   84829350920.2	185839305973.4	15.8	
2012-07-07-15-18	   14.5	 -32.0	  173079498670.4	416342937020.8	17.4	
2012-07-07-15-18	 -149.0	 -58.0	  119645601513.2	370076301012.2	22.3	
2012-07-07-15-18	 -141.5	 -40.0	  166537990148.2	352797625545.3	15.3	
2012-07-07-15-18	  -40.0	 -34.0	   43713026442.7	86281077184.3	14.2	
2012-07-07-18-21	 -141.5	 -41.0	  192941817135.3	411718162867.5	15.4	
2012-07-07-18-21	 -149.5	 -58.5	  125988783376.3	404870571580.0	23.1	
2012-07-07-18-21	   14.5	 -32.0	  160223007168.1	395695921235.7	17.8	
2012-07-07-18-21	  -39.5	 -33.5	    5155212281.5	8468657574.6	11.8	
2012-07-07-21-24	 -141.5	 -41.5	  190543212815.6	419146708709.9	15.8	
2012-07-07-21-24	   14.0	 -31.5	  147486204818.7	351556577500.7	17.1	
2012-07-07-21-24	 -148.5	 -58.0	  102043807671.2	322546222784.2	22.6	
2012-07-07-21-24	 -139.0	 -55.0	    8908905277.2	24526732757.6	19.6	
2012-07-08-00-03	 -141.5	 -42.5	  188571695559.8	427912258217.8	16.2	
2012-07-08-00-03	   13.5	 -31.5	  119062731986.4	281516340730.9	16.9	
2012-07-08-00-03	 -148.0	 -57.5	   73318672584.4	227912415948.4	22.2	
2012-07-08-00-03	 -139.0	 -55.0	   25019151344.3	76135354200.4	21.7	
2012-07-08-03-06	 -141.5	 -43.0	  196511267713.5	478942753934.0	17.4	
2012-07-08-03-06	   13.5	 -31.0	   87559611453.0	202349404691.2	16.4	
2012-07-08-03-06	 -147.0	 -57.0	   50479883933.7	156953343898.1	22.1	
2012-07-08-03-06	 -138.5	 -55.0	   32110623111.8	97041727108.0	21.5	
2012-07-08-03-06	 -173.5	 -47.5	   25237254972.7	52366260103.5	14.7	
2012-07-08-03-06	 -164.5	 -34.5	    2547438072.9	4598954051.6	12.8	
2012-07-08-06-09	 -141.5	 -43.5	  220167948886.0	554085944380.8	17.9	
2012-07-08-06-09	 -172.5	 -47.5	  109065866038.5	232594631939.7	15.1	
2012-07-08-06-09	   13.5	 -31.0	   53124481421.4	122471542832.9	16.3	
2012-07-08-06-09	 -138.5	 -55.0	   32110623111.8	97656432640.2	21.5	
2012-07-08-06-09	 -146.5	 -56.5	   25477892024.1	76256463073.0	21.2	
2012-07-08-06-09	 -166.5	 -54.0	   16482390144.6	44504189891.0	19.1	
2012-07-08-06-09	 -164.5	 -35.0	   22803553911.3	39494245445.6	12.2	
2012-07-08-06-09	   88.0	 -41.5	    2315080147.0	4180284388.8	12.8	
2012-07-08-09-12	 -140.5	 -43.5	  261355741621.5	658443430578.8	17.9	
2012-07-08-09-12	 -171.5	 -47.5	  172288592162.5	373638250802.1	15.4	
2012-07-08-09-12	 -164.5	 -54.0	   42113376716.3	108278919300.2	18.2	
2012-07-08-09-12	 -138.5	 -55.0	   26836041338.3	82740880356.0	21.8	
2012-07-08-09-12	   87.0	 -41.5	   30095339578.6	68356655921.9	16.0	
2012-07-08-09-12	 -164.0	 -35.5	   35339131281.3	60748872714.2	12.1	
2012-07-08-09-12	   13.5	 -31.0	   23900496961.6	57793698896.0	17.1	
2012-07-08-09-12	 -146.0	 -57.0	    5095682207.1	14669598969.2	20.3	
2012-07-08-12-15	 -140.0	 -43.5	  280517250974.4	705389834811.8	17.9	
2012-07-08-12-15	 -170.5	 -47.0	  166657969114.8	355034049539.3	15.1	
2012-07-08-12-15	 -163.5	 -36.0	   42700077383.7	72433797977.2	12.0	
2012-07-08-12-15	   87.0	 -42.0	   30059591539.3	67299366981.4	15.8	
2012-07-08-12-15	 -138.5	 -55.0	   10703903381.1	30303835870.1	20.0	
2012-07-08-12-15	 -173.0	 -43.5	    4484376492.9	13373940968.2	21.0	
2012-07-08-15-18	 -139.5	 -44.0	  279616899939.2	698732123651.5	17.7	
2012-07-08-15-18	 -169.5	 -46.5	  125530935167.6	259006052252.9	14.6	
2012-07-08-15-18	 -163.0	 -36.0	   42590142955.3	73498211604.3	12.1	
2012-07-08-15-18	   87.0	 -42.0	   13836595448.4	30737897109.8	15.6	
2012-07-08-15-18	 -173.0	 -43.5	    8987236019.4	24958207644.8	19.5	
2012-07-08-15-18	  -36.0	 -31.0	    5299141865.1	11792411541.7	15.6	
2012-07-08-18-21	 -138.5	 -44.5	  246773124110.9	602832344022.0	17.3	
2012-07-08-18-21	 -168.5	 -46.5	   81293688224.3	167032837606.5	14.5	
2012-07-08-18-21	  -36.0	 -30.5	   34676853930.1	72772180112.5	14.7	
2012-07-08-18-21	 -161.5	 -36.0	   30181599017.0	55613284119.5	12.9	
2012-07-08-18-21	  -38.5	 -28.5	    2716492267.4	4660052054.8	12.0	
2012-07-08-18-21	   30.0	 -50.5	    1966167587.6	3875422975.0	13.8	
2012-07-08-21-24	 -137.5	 -44.5	  208608699041.6	488553535935.9	16.5	
2012-07-08-21-24	 -168.0	 -46.0	   40834629146.5	81499521956.4	14.0	
2012-07-08-21-24	  -35.5	 -31.0	   31959338563.5	56924799128.9	12.5	
2012-07-08-21-24	 -162.0	 -36.0	   12550952783.5	23700182892.4	13.2	
2012-07-08-21-24	   30.5	 -51.5	    5814798585.2	18957201839.3	22.9	
2012-07-08-21-24	  -38.0	 -29.0	    8123526968.6	14158634403.1	12.2	
2012-07-09-00-03	 -137.0	 -45.0	  149962860200.3	342112192635.9	16.1	
2012-07-09-00-03	   78.0	 -40.0	    7155272953.9	15234907855.5	14.9	
2012-07-09-00-03	 -158.5	 -35.5	    5032989055.8	10067331257.7	14.0	
2012-07-09-03-06	 -136.5	 -45.5	   87361266553.9	184945957572.3	14.9	
2012-07-09-03-06	   78.0	 -40.0	    7155272953.9	15542833141.3	15.3	
2012-07-09-06-09	   17.5	 -35.5	    5048557187.1	16864524350.7	23.5	
2012-07-09-09-12	   44.5	 -45.5	   32574776839.3	68930367518.1	14.9	
2012-07-09-09-12	   17.5	 -35.5	   15129911633.5	43633146175.0	20.3	
2012-07-09-12-15	   45.5	 -45.5	   54392357388.0	125313717937.8	16.3	
2012-07-09-12-15	   17.5	 -35.5	   22678818906.2	65735084146.8	20.5	
2012-07-09-15-18	   46.0	 -45.5	   76151473705.7	179100610710.4	16.5	
2012-07-09-15-18	   17.5	 -35.5	   30259246034.8	83262079675.6	19.3	
2012-07-09-15-18	   44.5	 -58.5	   16173527505.0	50508577247.2	21.9	
2012-07-09-18-21	   41.0	 -45.5	  237325600326.5	579698186551.4	17.2	
2012-07-09-18-21	   17.5	 -35.5	   35369303586.7	95522489239.2	18.9	
2012-07-09-18-21	 -140.0	 -35.0	   48352677441.7	92078380402.7	13.3	
2012-07-09-18-21	   44.0	 -59.0	   28725107266.1	85709944802.0	20.9	
2012-07-09-18-21	   14.5	 -32.0	   10513919779.7	23818649370.3	15.8	
2012-07-09-18-21	  -33.5	 -48.0	    8293305605.0	19518222360.4	16.5	
2012-07-09-18-21	 -135.0	 -36.5	    2484784349.4	4555968765.0	12.8	
2012-07-09-21-24	   41.0	 -46.0	  347102231947.2	867500776658.9	17.6	
2012-07-09-21-24	 -139.0	 -35.5	   70627139662.3	140423289953.1	13.9	
2012-07-09-21-24	   41.5	 -59.0	   43397990939.0	118998303200.7	19.2	
2012-07-09-21-24	 -135.0	 -37.5	   44287528776.0	92999110583.9	14.7	
2012-07-09-21-24	   17.5	 -35.5	   27804636386.0	81388131635.5	20.4	
2012-07-09-21-24	   14.0	 -32.0	   21041432794.4	48922250572.5	16.2	
2012-07-09-21-24	 -138.0	 -54.5	    1794998103.8	5405711041.3	21.0	
2012-07-10-00-03	   43.0	 -46.0	  374432552336.5	965338668218.6	18.2	
2012-07-10-00-03	 -137.5	 -37.0	  168626716651.6	342102148479.6	14.2	
2012-07-10-00-03	   39.5	 -58.5	   69832599706.0	197587744050.5	19.8	
2012-07-10-00-03	  -43.5	 -53.5	   31665470508.1	91519783398.8	20.2	
2012-07-10-00-03	   14.0	 -32.0	   28989943846.3	65798925839.0	15.8	
2012-07-10-00-03	 -138.5	 -55.0	   16132681472.9	49944928924.3	21.6	
2012-07-10-00-03	   17.5	 -35.5	   15176615106.4	45266843983.9	20.8	
2012-07-10-03-06	   44.5	 -46.5	  395670793999.4	1007894421577.8	18.0	
2012-07-10-03-06	   38.5	 -58.0	  142945252213.1	409332750593.6	20.0	
2012-07-10-03-06	 -137.0	 -37.5	  179933280347.0	383706182996.7	14.9	
2012-07-10-03-06	   48.0	 -57.5	   67930489402.0	196305808724.9	20.2	
2012-07-10-03-06	  -43.5	 -53.5	   33482360502.1	94096201605.3	19.6	
2012-07-10-03-06	 -138.5	 -55.0	   19722541156.8	60010106721.5	21.2	
2012-07-10-03-06	   14.0	 -31.5	   26382955248.2	59787303909.6	15.8	
2012-07-10-06-09	   42.5	 -58.0	  353629073468.5	1051765956392.7	21.0	
2012-07-10-06-09	   46.5	 -46.0	  293599829152.9	711368826221.8	17.0	
2012-07-10-06-09	 -136.5	 -37.5	  144895093879.5	306249035272.8	14.8	
2012-07-10-06-09	   37.0	 -47.0	   38454384049.4	102285496952.1	18.5	
2012-07-10-06-09	   50.0	 -50.5	   41598794683.2	102192443104.2	17.1	
2012-07-10-06-09	   50.5	 -47.0	   23188086461.4	47397596116.3	14.2	
2012-07-10-06-09	 -138.5	 -55.0	   10703903381.1	33091742251.0	21.5	
2012-07-10-06-09	   14.0	 -31.5	   10542108160.8	26222727882.7	17.3	
2012-07-10-06-09	 -130.0	 -64.0	    1355039299.1	4755015971.3	24.4	
2012-07-10-09-12	   43.0	 -58.0	  428877030114.1	1324628152854.7	21.8	
2012-07-10-09-12	   48.0	 -46.5	  213068595588.5	537145685289.2	17.6	
2012-07-10-09-12	 -136.0	 -38.0	   95069031298.6	190027386532.8	13.9	
2012-07-10-09-12	 -129.0	 -64.5	   32567778844.7	124143440251.7	26.5	
2012-07-10-09-12	   36.5	 -47.0	   27699334737.8	72486536142.6	18.2	
2012-07-10-09-12	   52.0	 -52.0	   28883485707.3	67170954686.9	16.2	
2012-07-10-09-12	 -138.5	 -55.0	    3545939379.7	10071338542.5	19.7	
2012-07-10-12-15	   44.5	 -58.5	  456776363144.2	1468691891326.3	22.7	
2012-07-10-12-15	   48.0	 -46.5	  169475707666.4	440133603510.9	18.1	
2012-07-10-12-15	 -128.5	 -64.0	   34092677386.3	113385665788.4	23.1	
2012-07-10-12-15	 -135.5	 -38.5	   43608434681.3	76706475918.7	12.2	
2012-07-10-12-15	   36.5	 -47.0	   19188466256.5	45090749634.9	16.3	
2012-07-10-15-18	   45.5	 -58.5	  467544880589.9	1512758795243.1	22.8	
2012-07-10-15-18	   47.5	 -46.5	  136919475766.3	355920220941.3	18.1	
2012-07-10-15-18	   42.5	 -52.5	   16999548257.7	46551167498.5	19.0	
2012-07-10-15-18	 -128.0	 -64.0	    9606238652.5	28639614286.9	20.6	
2012-07-10-15-18	   36.5	 -46.5	    6422244416.9	12796973603.2	13.8	
2012-07-10-15-18	   64.0	 -48.5	    2048209897.0	5670427483.0	19.2	
2012-07-10-15-18	   51.0	 -46.0	    2147243427.7	1637936294.5	5.3	
2012-07-10-18-21	   46.0	 -58.5	  475304512759.2	1524651108418.7	22.6	
2012-07-10-18-21	   47.5	 -46.5	  137194035565.5	345676744242.5	17.5	
2012-07-10-18-21	   42.5	 -53.0	   78793419205.4	221468082153.8	19.5	
2012-07-10-18-21	   63.5	 -48.5	    2048209897.0	5612263156.3	18.9	
2012-07-10-21-24	   48.5	 -58.5	  247565649742.8	905870749894.1	25.6	
2012-07-10-21-24	   34.0	 -56.5	  162029417258.7	416728309698.6	17.8	
2012-07-10-21-24	   42.0	 -53.5	  126571600946.6	390456408678.9	21.4	
2012-07-10-21-24	   47.0	 -46.5	  134484547096.4	323701705824.8	16.7	
2012-07-10-21-24	   39.5	 -58.0	   21316716851.3	54186031635.5	17.6	
2012-07-10-21-24	   64.0	 -48.5	    6164754326.2	17520661161.5	19.6	
2012-07-11-00-03	   49.0	 -58.0	  234355363067.8	835289411846.1	24.8	
2012-07-11-00-03	   41.5	 -53.5	  131739493172.4	424299226453.7	22.3	
2012-07-11-00-03	   34.0	 -56.0	  127246607803.4	318110720190.5	17.3	
2012-07-11-00-03	   47.5	 -46.5	  117504210183.3	281133036492.0	16.5	
2012-07-11-00-03	   64.5	 -49.0	   26340948856.1	65617712669.7	17.2	
2012-07-11-03-06	   49.5	 -58.0	  220640646495.7	752619793325.5	23.6	
2012-07-11-03-06	   41.5	 -53.5	  124449044000.9	394782711041.9	21.8	
2012-07-11-03-06	   33.5	 -55.5	   84646906894.6	204822216063.4	16.6	
2012-07-11-03-06	   47.5	 -46.5	   79034414977.2	183427511831.8	15.9	
2012-07-11-03-06	   65.0	 -49.5	   62615671439.4	158004868537.6	17.3	
2012-07-11-03-06	   79.5	 -60.0	   23461873178.7	76773675436.5	22.4	
2012-07-11-03-06	  -51.0	 -39.0	   24105870900.2	44520825165.5	12.6	
2012-07-11-06-09	   50.0	 -57.5	  199187782836.8	637914121395.9	21.9	
2012-07-11-06-09	   41.5	 -53.0	  118911781469.9	375923581081.5	21.6	
2012-07-11-06-09	   64.0	 -49.0	  107304746280.0	300054966137.1	19.0	
2012-07-11-06-09	  -50.0	 -38.0	   94796289052.6	179964466757.5	12.9	
2012-07-11-06-09	  158.5	 -62.0	   36610763493.9	146866332115.8	27.3	
2012-07-11-06-09	   79.5	 -60.0	   41913842715.5	140618301221.1	22.8	
2012-07-11-06-09	   47.5	 -46.5	   44993213499.9	102076612006.8	15.4	
2012-07-11-06-09	   33.0	 -54.5	   25194554170.3	59829928943.4	16.1	
2012-07-11-06-09	   70.5	 -53.0	    5602242870.0	23080347878.2	28.0	
2012-07-11-06-09	   74.5	 -59.5	    3160863498.2	6449466498.7	13.8	
2012-07-11-06-09	   83.5	 -60.0	    1545539148.2	2432136261.7	10.7	
2012-07-11-09-12	   50.0	 -57.0	  181162003102.5	541285342243.2	20.3	
2012-07-11-09-12	   63.5	 -49.0	  163398611732.6	488081702154.3	20.2	
2012-07-11-09-12	   42.0	 -53.0	  113548952096.2	366548841299.1	21.8	
2012-07-11-09-12	   79.5	 -60.5	   84835537786.8	284090532071.9	22.6	
2012-07-11-09-12	  -48.5	 -37.5	  141918615587.0	279438299972.1	13.3	
2012-07-11-09-12	  158.5	 -62.0	   61563276039.4	259998783706.0	28.5	
2012-07-11-09-12	   70.5	 -53.0	   26193047186.3	89286372612.4	23.0	
2012-07-11-09-12	   47.5	 -46.5	   23619185776.4	50748916826.0	14.5	
2012-07-11-09-12	   74.0	 -60.0	    7844084003.4	20811828058.6	17.9	
2012-07-11-12-15	   65.0	 -50.0	  261127224232.8	780681102245.2	20.2	
2012-07-11-12-15	   79.5	 -60.5	  173812534024.4	609512411211.0	23.7	
2012-07-11-12-15	   50.5	 -56.0	  148916703439.0	425181313901.2	19.2	
2012-07-11-12-15	   42.5	 -53.0	  126742511569.6	402976242663.4	21.4	
2012-07-11-12-15	  -48.0	 -37.0	  140591183015.1	269428918494.6	12.9	
2012-07-11-12-15	  159.0	 -62.0	   65797884233.3	268053351120.9	27.4	
2012-07-11-12-15	   81.5	 -60.0	    7844084003.4	18207177015.7	15.6	
2012-07-11-12-15	   43.5	 -26.0	    2778242465.1	6303643824.8	15.2	
2012-07-11-12-15	   48.0	 -46.0	    2147243427.7	4475210137.1	14.0	
2012-07-11-12-15	   48.0	 -54.0	    1816889994.0	2621754976.8	9.7	
2012-07-11-15-18	   65.5	 -50.5	  255983696064.4	772093875254.9	20.3	
2012-07-11-15-18	   79.0	 -60.5	  202863743878.9	732657024799.4	24.3	
2012-07-11-15-18	   43.0	 -53.0	  115756129273.8	365561842191.7	21.2	
2012-07-11-15-18	   50.5	 -55.5	  104407416214.1	277255558896.7	17.8	
2012-07-11-15-18	  159.0	 -62.0	   48196054095.5	189391803692.6	26.3	
2012-07-11-15-18	  -46.0	 -36.0	   87743294510.1	168811559507.4	12.9	
2012-07-11-15-18	   81.5	 -60.0	   12457282186.6	29419560252.9	15.8	
2012-07-11-15-18	   47.5	 -54.0	    5472423321.8	10127106114.1	12.4	
2012-07-11-15-18	   43.5	 -26.0	    2778242465.1	5873412897.6	14.1	
2012-07-11-18-21	   79.5	 -60.5	  206512061529.4	757046878592.2	24.7	
2012-07-11-18-21	   66.0	 -50.5	  230662702276.4	689922223377.8	20.1	
2012-07-11-18-21	   43.0	 -53.0	   93394359827.1	295791262327.1	21.2	
2012-07-11-18-21	  -44.0	 -36.0	   70238915074.7	128285520771.8	12.2	
2012-07-11-18-21	  159.0	 -62.0	   30663725518.1	107580353547.4	23.4	
2012-07-11-18-21	   50.0	 -55.5	   38470737054.3	91525277360.5	15.9	
2012-07-11-18-21	   76.5	 -57.0	   13625823201.6	33089902764.6	16.2	
2012-07-11-18-21	   48.0	 -54.0	    1816889994.0	2586370818.0	9.5	
2012-07-11-21-24	   79.0	 -60.5	  293548034504.2	981971904062.7	22.5	
2012-07-11-21-24	   64.0	 -49.5	  154774467767.5	447647746647.6	19.4	
2012-07-11-21-24	   42.5	 -53.0	   61644295433.8	176298668233.8	19.1	
2012-07-11-21-24	   70.5	 -53.0	   54179521255.5	175030153617.8	21.5	
2012-07-11-21-24	  -42.0	 -36.5	   49933609593.7	88635576831.8	11.8	
2012-07-11-21-24	  -40.5	 -40.5	   30782017467.3	55359022914.6	12.0	
2012-07-11-21-24	   51.0	 -55.0	    3545939379.7	4571348302.4	8.6	
2012-07-12-00-03	   79.0	 -60.0	  368945320791.9	1135575745452.9	20.7	
2012-07-12-00-03	  -40.0	 -39.5	  226232625210.3	419068528317.0	12.4	
2012-07-12-00-03	   64.0	 -49.5	  130608923820.7	369001590661.7	18.8	
2012-07-12-00-03	   70.5	 -53.0	   44944353283.1	147503419477.5	21.8	
2012-07-12-00-03	   77.5	 -58.5	   59570782210.6	123708761916.3	13.8	
2012-07-12-00-03	  -41.5	 -48.5	   28895369170.9	69578608973.3	16.0	
2012-07-12-00-03	   42.0	 -53.0	   13107687313.0	37214016893.5	18.9	
2012-07-12-03-06	   77.0	 -59.0	  345432927831.2	1042180958404.6	20.2	
2012-07-12-03-06	  -39.0	 -39.5	  300391960491.3	576192679069.4	12.8	
2012-07-12-03-06	   64.0	 -49.5	  106425692215.6	287099412851.0	17.9	
2012-07-12-03-06	  -40.0	 -48.0	  102100322615.4	250180024757.2	16.2	
2012-07-12-03-06	   84.5	 -61.5	   35749542639.4	127068574466.1	23.5	
2012-07-12-03-06	  -89.0	 -61.5	   25498326002.6	83985917277.2	21.8	
2012-07-12-03-06	   70.5	 -53.0	   26193047186.3	83792222017.8	21.1	
2012-07-12-03-06	   77.0	 -58.5	   35230949921.2	72375348769.2	13.6	
2012-07-12-03-06	  -42.5	 -51.0	    3890557428.3	12489977225.8	21.2	
2012-07-12-06-09	   77.0	 -59.0	  320489217568.1	939039369143.0	19.5	
2012-07-12-06-09	  -38.0	 -39.5	  316479291937.4	616016122620.7	12.9	
2012-07-12-06-09	  -38.5	 -47.5	  169822892767.2	435329786440.3	17.0	
2012-07-12-06-09	 -112.0	 -35.0	  186891089081.4	374313397539.3	13.2	
2012-07-12-06-09	  -87.0	 -62.0	   67435664808.6	262667618214.8	25.7	
2012-07-12-06-09	   64.5	 -49.5	   70337623048.7	182044903640.9	17.1	
2012-07-12-06-09	   77.0	 -58.5	   38322028217.6	80492307931.3	13.8	
2012-07-12-06-09	   84.5	 -61.5	   22288547751.8	79880460829.7	23.6	
2012-07-12-06-09	  -42.0	 -51.0	   25662821113.9	62077247474.9	15.9	
2012-07-12-09-12	  -37.5	 -45.5	  559761404178.5	1241097520673.5	14.8	
2012-07-12-09-12	   77.0	 -58.5	  222153503769.9	649256739584.9	19.4	
2012-07-12-09-12	 -111.5	 -35.5	  299171858447.1	633323009691.2	14.0	
2012-07-12-09-12	  -86.0	 -63.0	   82206311935.7	314386932117.7	25.3	
2012-07-12-09-12	   64.0	 -49.5	   38304341112.0	92958072311.0	16.0	
2012-07-12-09-12	  -41.5	 -50.5	   29636483194.5	74052450155.1	16.5	
2012-07-12-09-12	   84.5	 -61.5	   13368558992.4	48284093024.2	23.8	
2012-07-12-09-12	  159.5	 -55.5	    8842549567.2	23081567609.8	17.2	
2012-07-12-12-15	  -37.5	 -46.5	  654457309939.2	1503746089269.5	15.4	
2012-07-12-12-15	 -111.5	 -36.0	  315365877414.3	663738676561.7	14.0	
2012-07-12-12-15	   76.5	 -57.5	  112694940286.2	307139624897.9	18.0	
2012-07-12-12-15	  -85.0	 -63.0	   65458017893.5	228618812174.5	23.1	
2012-07-12-12-15	   78.5	 -61.0	   33484662429.2	118239917407.1	23.3	
2012-07-12-12-15	   84.5	 -61.5	    7469157862.6	26789080207.6	23.7	
2012-07-12-12-15	   74.0	 -59.5	    4752886317.8	10043701366.1	13.9	
2012-07-12-15-18	  -36.5	 -46.5	  625348390695.8	1482175014875.5	16.0	
2012-07-12-15-18	 -111.5	 -36.5	  285086008368.1	558477750558.8	13.1	
2012-07-12-15-18	  165.0	 -58.0	   49866999260.4	164113013502.6	21.9	
2012-07-12-15-18	   77.0	 -57.5	   35398040826.5	91796026062.6	17.2	
2012-07-12-15-18	   78.5	 -61.0	   21191423222.6	75459282482.6	23.6	
2012-07-12-15-18	  -77.0	 -59.5	   23554478300.7	74497187203.5	21.0	
2012-07-12-15-18	  -84.5	 -63.5	   15412107827.9	49393099991.3	21.3	
2012-07-12-15-18	   84.5	 -61.5	    1474934803.7	5113182664.3	23.0	
2012-07-12-18-21	  -36.0	 -47.0	  507603785555.9	1267806860320.5	16.9	
2012-07-12-18-21	  168.5	 -59.0	  124263436529.9	455834239175.0	24.6	
2012-07-12-18-21	 -111.5	 -36.5	  174868984604.1	324934971869.6	12.5	
2012-07-12-18-21	  -77.0	 -60.5	   72091182411.9	224947189708.6	20.9	
2012-07-12-18-21	   79.0	 -61.0	   10607651361.0	36520030200.8	23.0	
2012-07-12-21-24	  -36.0	 -47.0	  483952113202.7	1209512186050.7	17.0	
2012-07-12-21-24	  171.5	 -59.0	  180643105923.4	640712558856.7	24.0	
2012-07-12-21-24	  -77.5	 -61.0	   75178723250.3	235169894409.5	21.1	
2012-07-12-21-24	 -111.5	 -38.0	   39233712568.0	73231409817.1	12.5	
2012-07-12-21-24	 -112.5	 -33.5	   20679614593.4	34805451238.6	11.3	
2012-07-13-00-03	  -36.5	 -47.0	  457309313059.2	1108898366781.4	16.5	
2012-07-13-00-03	  173.0	 -59.0	  213087967776.9	649123480790.9	20.7	
2012-07-13-00-03	  -77.0	 -61.0	   64574504236.9	195675717456.7	20.4	
2012-07-13-00-03	 -112.5	 -33.5	    7762398203.4	14164245386.9	12.3	
2012-07-13-00-03	 -111.5	 -38.0	    2435802716.8	4357385571.4	12.0	
2012-07-13-03-06	  -37.5	 -47.5	  380726825711.3	886560420618.3	15.9	
2012-07-13-03-06	  172.0	 -58.0	   87583499243.3	240394368055.8	18.6	
2012-07-13-03-06	  -74.5	 -61.5	    5947037975.7	18015754621.7	20.4	
2012-07-13-03-06	 -138.5	 -55.0	    1772969689.9	4255373083.5	16.2	
2012-07-13-03-06	  -76.5	 -60.5	    1522119886.8	3752480314.5	16.6	
2012-07-13-06-09	  -38.5	 -48.5	  260388829998.5	585754272128.1	15.3	
2012-07-13-06-09	  -23.5	 -57.5	   38310732303.7	151723890260.9	26.8	
2012-07-13-06-09	  172.5	 -57.5	   41723272117.2	112018835453.6	18.2	
2012-07-13-06-09	 -138.5	 -55.0	   15978485154.6	48512982213.3	20.5	
2012-07-13-06-09	 -168.0	 -63.0	    4233939669.7	16030361137.1	25.6	
2012-07-13-09-12	 -166.0	 -63.0	   83319686754.5	347924407684.4	28.3	
2012-07-13-09-12	  -38.0	 -48.0	  102202058063.8	220272131319.2	14.6	
2012-07-13-09-12	  -24.0	 -57.0	   58965548579.8	202443082763.2	23.2	
2012-07-13-09-12	  173.0	 -57.5	   18495665617.7	48140673083.0	17.6	
2012-07-13-09-12	 -138.5	 -55.0	   14183487050.7	42344791722.8	20.2	
2012-07-13-09-12	  -42.0	 -49.5	   16080085000.4	30272999145.7	12.7	
2012-07-13-09-12	 -146.5	 -57.0	    6756645476.3	19762919130.9	19.8	
2012-07-13-12-15	 -164.5	 -63.0	  146175331511.3	686444466464.0	32.0	
2012-07-13-12-15	  -25.0	 -56.5	   32549051413.3	107567960363.1	22.3	
2012-07-13-12-15	  -38.5	 -48.0	   18714688616.7	41738419076.4	15.1	
2012-07-13-12-15	   66.0	 -50.5	   17964360067.9	38636732976.4	14.5	
2012-07-13-12-15	  -20.5	 -57.0	    8462725705.3	22648547898.2	18.1	
2012-07-13-12-15	 -147.0	 -57.5	    8394921479.9	22443584084.5	18.0	
2012-07-13-12-15	   -2.0	 -54.0	    7289313315.8	18376167517.5	17.0	
2012-07-13-12-15	 -138.5	 -55.0	    3545939379.7	10209500334.9	19.4	
2012-07-13-15-18	 -163.5	 -63.0	  241824080682.7	1132729141665.6	32.0	
2012-07-13-15-18	   65.0	 -50.0	   44162125338.7	113876947444.5	17.4	
2012-07-13-15-18	   -3.5	 -54.0	   45747853325.6	112252304398.5	16.5	
2012-07-13-15-18	  -25.5	 -56.0	    6958629351.0	25587626870.1	24.7	
2012-07-13-18-21	 -162.5	 -63.0	  288291011419.1	1358488468399.8	32.1	
2012-07-13-18-21	   65.0	 -50.0	   66220156853.7	177005065748.7	18.0	
2012-07-13-18-21	   -2.0	 -54.0	   14600379971.4	34718344397.7	15.9	
2012-07-13-18-21	   -5.5	 -53.5	    3677286667.6	8580590955.3	15.6	
2012-07-13-21-24	 -162.5	 -63.0	  301252598125.8	1351517255136.5	30.5	
2012-07-13-21-24	   65.0	 -50.0	   66159316814.5	177973737330.1	18.0	
2012-07-13-21-24	 -152.5	 -60.0	   17023878967.2	55194749334.6	21.7	
2012-07-13-21-24	   -6.5	 -57.0	   10191364414.2	27192232666.5	17.8	
2012-07-13-21-24	   73.5	 -56.5	    3412160458.0	9432140877.4	18.5	
2012-07-14-00-03	 -162.5	 -63.0	  270364597589.1	1154649425281.8	28.8	
2012-07-14-00-03	  -32.5	 -44.5	  138444972451.5	297367683005.1	14.3	
2012-07-14-00-03	   65.0	 -50.0	   64090982282.3	172746508475.5	18.0	
2012-07-14-00-03	 -152.0	 -60.0	   43645191448.8	135970085327.8	20.7	
2012-07-14-00-03	   74.0	 -57.0	   20224433112.2	56080908745.1	18.4	
2012-07-14-00-03	   -6.0	 -57.0	   16970568370.4	48606644217.9	19.0	
2012-07-14-03-06	 -162.5	 -63.0	  216033105481.6	862536543545.5	26.7	
2012-07-14-03-06	  -32.5	 -45.0	  182814470392.5	414448195041.0	15.1	
2012-07-14-03-06	   65.0	 -50.0	   58048371220.5	158238963609.0	18.1	
2012-07-14-03-06	  -49.5	 -40.0	   50033349878.9	104065693331.8	13.8	
2012-07-14-03-06	  -54.0	 -45.0	   35082655814.6	76670733214.4	14.5	
2012-07-14-03-06	   -6.0	 -57.0	   15264488141.4	45881888621.9	19.9	
2012-07-14-03-06	 -152.0	 -60.0	    4683220505.2	14073871421.2	19.9	
2012-07-14-03-06	 -150.0	 -59.0	    3184045639.3	9898981224.9	20.6	
2012-07-14-03-06	   74.5	 -57.5	    3367043498.2	8625297997.5	16.9	
2012-07-14-06-09	 -162.5	 -63.0	  137148346532.4	521353102478.6	25.3	
2012-07-14-06-09	  -33.5	 -45.0	  131247298089.4	312870646719.6	15.8	
2012-07-14-06-09	  -53.5	 -45.0	   85434712968.1	188094723554.4	14.6	
2012-07-14-06-09	   64.5	 -50.0	   62042772385.3	162404930833.3	17.3	
2012-07-14-06-09	  -49.0	 -40.0	   56895237308.8	116210892395.1	13.5	
2012-07-14-06-09	   -6.0	 -56.5	    5118240687.0	12885697049.7	16.6	
2012-07-14-09-12	  -33.5	 -45.5	  139224377246.5	327536622288.2	15.6	
2012-07-14-09-12	 -162.5	 -63.0	   64719607077.4	224704208415.9	23.1	
2012-07-14-09-12	  -53.0	 -45.0	   85494001131.9	185036121550.3	14.4	
2012-07-14-09-12	   64.5	 -50.0	   52047388116.3	131708590858.8	16.8	
2012-07-14-09-12	 -165.0	 -29.0	   57068971633.8	111397062954.8	12.9	
2012-07-14-09-12	  -49.0	 -40.5	   11769620626.7	21360979544.3	12.0	
2012-07-14-12-15	  -33.5	 -45.5	  140891971038.4	325250040657.0	15.4	
2012-07-14-12-15	 -165.0	 -29.5	  100178212776.9	205570041464.1	13.7	
2012-07-14-12-15	  -52.5	 -45.0	   41849039617.8	88283316417.8	14.0	
2012-07-14-12-15	   65.0	 -50.5	   27960048521.3	61279327602.8	14.6	
2012-07-14-12-15	  -49.5	 -42.5	   11485241986.4	21287202090.8	12.3	
2012-07-14-15-18	  -33.5	 -45.5	  139276044952.1	315104324345.7	15.2	
2012-07-14-15-18	 -165.0	 -29.5	  129531617162.7	253520657349.6	13.1	
2012-07-14-15-18	   66.0	 -50.5	   13866717271.4	34614620678.1	16.7	
2012-07-14-18-21	  -34.0	 -45.0	  147713457197.8	332368524145.0	15.1	
2012-07-14-18-21	 -166.0	 -30.0	  156006298327.2	295351564343.5	12.7	
2012-07-14-18-21	   66.0	 -50.5	   11859222778.5	30427092704.6	17.2	
2012-07-14-21-24	  -34.5	 -44.5	  155330018354.0	360216129540.4	15.5	
2012-07-14-21-24	 -166.0	 -30.0	  161140748309.8	296940076115.9	12.3	
2012-07-14-21-24	  174.5	 -46.5	   10677759540.1	32303833270.8	20.2	
2012-07-14-21-24	   66.0	 -50.5	    3953074259.5	9895311553.0	16.7	
2012-07-15-00-03	  -35.0	 -44.5	  171251135336.9	401530462762.7	15.6	
2012-07-15-00-03	 -166.0	 -29.5	  150809785118.6	272560350113.8	12.0	
2012-07-15-00-03	  174.5	 -46.5	   42690251541.5	120519377350.8	18.7	
2012-07-15-00-03	  -78.0	 -60.5	    3044239773.6	8369757473.5	18.2	
2012-07-15-03-06	  -35.0	 -44.5	  166571065011.6	386445151795.7	15.3	
2012-07-15-03-06	 -165.5	 -29.0	  159371493872.0	275214702519.1	11.4	
2012-07-15-03-06	  174.5	 -46.5	   34043312160.5	96186792447.4	18.6	
2012-07-15-03-06	   31.0	 -43.0	   33964482489.4	74085051078.1	14.4	
2012-07-15-03-06	 -162.0	 -31.5	    2635577338.4	4698995668.9	11.7	
2012-07-15-06-09	  -35.5	 -44.5	  132702550624.5	296061784581.3	14.7	
2012-07-15-06-09	 -164.5	 -28.0	  103586787505.4	180651946391.3	11.4	
2012-07-15-06-09	  -42.5	 -48.0	   62201106424.0	151744700201.1	16.0	
2012-07-15-06-09	   31.0	 -43.0	   58958310056.5	133710665690.9	14.9	
2012-07-15-06-09	 -163.0	 -31.5	   31710486687.3	51340149118.2	10.6	
2012-07-15-06-09	  174.5	 -47.0	    6363625053.7	17383067163.1	17.9	
2012-07-15-09-12	 -164.0	 -28.0	  104127635716.5	180025058386.9	11.2	
2012-07-15-09-12	  -36.0	 -45.0	   83583321520.2	172287416115.4	13.4	
2012-07-15-09-12	   31.0	 -43.0	   67962997350.9	147508805142.8	14.1	
2012-07-15-09-12	  -42.0	 -48.0	   60534584371.3	145479214187.6	15.6	
2012-07-15-09-12	   35.0	 -33.0	   49471238781.9	109812841569.7	14.4	
2012-07-15-09-12	 -163.5	 -31.5	   23775767483.8	37572422100.1	10.3	
2012-07-15-09-12	   40.0	 -44.0	   11154981963.8	27250309504.0	15.9	
2012-07-15-09-12	  -42.5	 -51.0	    3890557428.3	7988796920.0	13.3	
2012-07-15-09-12	  -42.5	 -52.0	    1903057679.5	6188742408.1	21.1	
2012-07-15-12-15	   36.5	 -32.0	  213454789269.9	404128422482.9	12.3	
2012-07-15-12-15	 -164.5	 -27.5	  121220536384.2	207151918888.5	11.0	
2012-07-15-12-15	   30.5	 -43.5	   65518366281.4	139913709144.3	13.8	
2012-07-15-12-15	   40.0	 -44.5	   55341998478.0	129501480238.7	15.1	
2012-07-15-12-15	  -41.5	 -47.5	   46257007018.9	99751819610.1	13.9	
2012-07-15-12-15	  -44.5	 -52.5	   26407762593.3	60156799496.1	14.7	
2012-07-15-12-15	   44.0	 -45.0	   10928610632.8	17905843084.9	10.6	
2012-07-15-12-15	 -163.5	 -31.5	   10570296541.9	15537520328.7	9.5	
2012-07-15-12-15	  -45.0	 -51.5	    5835836142.5	12508127553.1	13.8	
2012-07-15-12-15	  -33.0	 -46.5	    2127757561.6	4552909533.0	13.8	
2012-07-15-15-18	   38.0	 -32.5	  344268941477.5	681466836708.7	12.7	
2012-07-15-15-18	 -165.0	 -27.0	  146670938490.9	255702682772.4	11.2	
2012-07-15-15-18	  -39.0	 -47.5	   81932419923.8	189048235480.3	14.8	
2012-07-15-15-18	   39.5	 -45.0	   61615326232.6	141081254818.2	14.6	
2012-07-15-15-18	   30.5	 -43.5	   47361136267.6	98911858908.7	13.3	
2012-07-15-15-18	  -44.5	 -53.0	   33784234451.3	77431202515.1	14.6	
2012-07-15-15-18	  144.5	 -43.5	   11284700731.3	30182706222.0	17.1	
2012-07-15-15-18	  -46.0	 -51.0	    3890557428.3	9908900068.8	16.3	
2012-07-15-15-18	   44.0	 -45.0	    2185722126.6	2793790666.8	8.2	
2012-07-15-18-21	   39.0	 -34.5	  313174453900.5	639770000724.8	13.0	
2012-07-15-18-21	  -37.5	 -47.5	  128417936777.5	318791190595.1	15.8	
2012-07-15-18-21	 -165.0	 -26.5	  166409684890.0	303745000946.7	11.6	
2012-07-15-18-21	  144.5	 -43.5	   60475965192.3	161957318021.7	17.0	
2012-07-15-18-21	   39.0	 -45.0	   45936979461.9	99702154505.7	13.8	
2012-07-15-18-21	  -44.5	 -53.0	   14967944146.4	34678521610.6	14.7	
2012-07-15-18-21	   35.5	 -30.5	   13357174642.0	25468108724.6	12.1	
2012-07-15-18-21	   30.5	 -44.0	    8949929840.4	17708438532.4	12.5	
2012-07-15-18-21	   48.5	 -38.5	    4854905131.3	13519446001.7	17.6	
2012-07-15-21-24	   41.5	 -34.0	  394770306071.9	822386249307.7	13.3	
2012-07-15-21-24	  -37.0	 -47.5	  180056398623.3	423222362623.5	14.9	
2012-07-15-21-24	 -165.0	 -26.5	  177611965983.0	350757346916.1	12.5	
2012-07-15-21-24	  144.5	 -43.5	   78220482565.8	226550202401.1	18.3	
2012-07-15-21-24	   48.0	 -38.5	   65378882840.3	167121450017.5	16.1	
2012-07-15-21-24	  -97.0	 -51.0	   17652682754.1	43251265398.1	15.4	
2012-07-15-21-24	   37.5	 -45.5	   10890297015.3	22427524155.7	13.0	
2012-07-15-21-24	   39.5	 -45.5	    2166565317.8	4599554140.8	13.4	
2012-07-16-00-03	   41.5	 -38.5	  232408194208.8	505029128023.9	13.7	
2012-07-16-00-03	  -36.0	 -46.5	  215467382676.8	467458849032.0	13.7	
2012-07-16-00-03	   44.0	 -32.0	  190906552307.7	433165516516.3	14.3	
2012-07-16-00-03	 -164.5	 -26.5	  199778772856.3	411083402715.1	12.9	
2012-07-16-00-03	   48.0	 -38.5	  108830763450.6	270037257288.9	15.6	
2012-07-16-00-03	  144.5	 -43.5	   91687485328.3	260267707182.5	17.8	
2012-07-16-00-03	  -95.5	 -51.5	   77274178477.8	201742688561.4	16.4	
2012-07-16-00-03	  -49.0	 -49.0	   18473826605.1	48470809133.3	16.4	
2012-07-16-00-03	   40.0	 -31.0	   26577045985.6	43468997931.6	10.2	
2012-07-16-00-03	 -157.5	 -37.0	   14908326556.8	26394288690.4	11.1	
2012-07-16-00-03	  -51.0	 -51.0	    1945278714.2	4302382487.9	13.9	
2012-07-16-03-06	   44.5	 -35.5	  688162078898.2	1613942074022.7	14.8	
2012-07-16-03-06	  -35.5	 -45.5	  234171764578.1	483395514659.7	12.9	
2012-07-16-03-06	 -164.0	 -26.5	  213544354941.7	446625088975.4	13.0	
2012-07-16-03-06	  -94.5	 -52.0	  105114157937.9	300948349341.0	17.8	
2012-07-16-03-06	  144.5	 -43.5	   89372405181.2	245241000727.2	17.1	
2012-07-16-03-06	  -51.5	 -52.5	   62774786482.5	163010072598.8	16.1	
2012-07-16-03-06	  -48.5	 -48.5	   43333304466.9	102005079182.4	14.6	
2012-07-16-03-06	   49.0	 -43.5	   42803346651.8	97728741900.3	14.2	
2012-07-16-03-06	   45.5	 -45.0	   32766009605.5	72706997461.9	13.8	
2012-07-16-03-06	 -157.0	 -37.0	   22346539584.7	39737294305.6	11.0	
2012-07-16-03-06	  173.0	 -33.0	    7791780660.9	19848056041.5	15.8	
2012-07-16-03-06	   40.0	 -30.0	    2676951962.6	4309728381.9	10.0	
2012-07-16-06-09	   45.0	 -37.0	  953360675327.5	2391705852170.1	16.0	
2012-07-16-06-09	 -164.0	 -26.5	  216258308714.5	455148326719.6	13.1	
2012-07-16-06-09	  -35.0	 -45.0	  155519768151.4	318311336305.2	12.7	
2012-07-16-06-09	  -94.0	 -53.0	  103580523625.4	286653140485.4	17.2	
2012-07-16-06-09	  144.5	 -43.5	   71347612803.0	196525603914.0	17.1	
2012-07-16-06-09	  -51.5	 -52.5	   70235130731.7	191417874064.7	16.9	
2012-07-16-06-09	  -47.0	 -48.0	   39437654573.1	82255102899.0	12.9	
2012-07-16-06-09	 -157.0	 -37.0	   32301437463.0	56849330550.7	10.9	
2012-07-16-06-09	  -36.0	 -40.5	   16523034431.1	29513430352.1	11.1	
2012-07-16-06-09	  -33.5	 -41.0	    4700948144.1	8643367439.8	11.4	
2012-07-16-09-12	   45.5	 -38.5	 1097963654404.2	2949455777086.5	17.2	
2012-07-16-09-12	 -163.5	 -27.0	  210617912886.5	450973051299.4	13.3	
2012-07-16-09-12	  -93.0	 -54.0	   82923105843.7	233488492824.9	17.5	
2012-07-16-09-12	  -34.0	 -45.0	   92171638958.6	187703511193.8	12.6	
2012-07-16-09-12	  144.5	 -44.0	   55824916024.8	145759274343.1	16.2	
2012-07-16-09-12	  -51.0	 -52.5	   34167839892.7	76433093399.4	13.9	
2012-07-16-09-12	 -156.0	 -37.0	   27299968263.1	47151808750.8	10.7	
2012-07-16-09-12	  -47.0	 -48.5	   10341672660.9	18616936721.9	11.2	
2012-07-16-09-12	  -33.0	 -40.5	    4700948144.1	9072552184.9	12.0	
2012-07-16-12-15	   46.5	 -39.5	 1239804639370.8	3451453537188.0	18.0	
2012-07-16-12-15	 -163.0	 -27.0	  212999174265.8	449697168855.1	13.2	
2012-07-16-12-15	  -92.0	 -54.0	   50912966436.0	123859381662.4	15.1	
2012-07-16-12-15	  -49.0	 -52.0	   30765508593.2	73933196149.9	14.9	
2012-07-16-12-15	  144.5	 -44.0	   24606919577.2	69441031949.4	17.5	
2012-07-16-12-15	 -155.5	 -37.0	    9906857356.9	16805505296.8	10.5	
2012-07-16-12-15	  -33.5	 -45.5	    6538009570.9	13430974689.2	12.8	
2012-07-16-12-15	  178.5	 -35.5	    5064125318.5	9893121713.2	12.1	
2012-07-16-15-18	   47.0	 -42.5	  999453474837.8	2995398586517.5	19.3	
2012-07-16-15-18	   45.0	 -31.0	  403994058372.6	959630237971.4	14.9	
2012-07-16-15-18	 -162.5	 -27.0	  204629947996.1	417998716478.8	12.7	
2012-07-16-15-18	  179.0	 -35.0	   33114561970.6	59622403809.1	11.2	
2012-07-16-15-18	 -155.0	 -37.0	   19829664964.3	34521021079.3	10.8	
2012-07-16-15-18	  -47.5	 -51.0	    9726393570.8	22210159561.8	14.2	
2012-07-16-15-18	  -46.5	 -52.0	    1903057679.5	3599835610.7	11.7	
2012-07-16-15-18	  -89.0	 -54.5	    1794998103.8	3276061574.3	11.3	
2012-07-16-18-21	   47.0	 -43.0	 1151417354877.5	3418934878259.4	19.1	
2012-07-16-18-21	   45.5	 -30.5	  400734724573.5	944315108313.1	14.7	
2012-07-16-18-21	 -162.5	 -27.0	  196251943671.9	376491657716.1	11.9	
2012-07-16-18-21	  -99.5	 -40.0	   38176400101.4	87363505973.0	14.2	
2012-07-16-18-21	  179.0	 -35.0	   17907390044.5	32954971063.7	11.4	
2012-07-16-18-21	  176.5	 -46.0	   12922104346.2	30305880578.3	14.5	
2012-07-16-18-21	 -154.5	 -37.0	   17328930364.4	29933237047.8	10.7	
2012-07-16-18-21	   66.0	 -50.5	   11900549683.8	28060564374.1	14.6	
2012-07-16-18-21	   54.0	 -45.5	   10928444261.8	19347676315.2	11.0	
2012-07-16-18-21	   64.5	 -48.5	    2048209897.0	5686822588.4	17.2	
2012-07-16-21-24	   47.0	 -44.0	 1179159607455.5	3486899938386.5	19.0	
2012-07-16-21-24	   45.5	 -30.0	  386731084280.3	876020956222.9	14.1	
2012-07-16-21-24	 -161.5	 -27.0	  174200810199.9	316182898457.3	11.2	
2012-07-16-21-24	  -99.0	 -40.0	   73821866213.8	156311825051.4	13.1	
2012-07-16-21-24	   65.0	 -49.5	   42378326605.7	101169146622.2	14.7	
2012-07-16-21-24	  175.5	 -46.5	   38571782329.9	91455670031.5	14.6	
2012-07-16-21-24	  164.0	 -51.0	   15749780206.8	48781879137.3	19.1	
2012-07-16-21-24	 -178.0	 -35.5	   17646406161.3	35430531987.8	12.4	
2012-07-16-21-24	 -154.5	 -37.5	    4937288658.0	8391818994.3	10.5	
2012-07-17-00-03	   46.0	 -45.0	  826934648145.5	2651540817766.8	20.3	
2012-07-17-00-03	   46.0	 -30.0	  356178841841.8	779222054146.2	13.6	
2012-07-17-00-03	   49.0	 -38.5	  150632557369.6	356099843859.4	14.6	
2012-07-17-00-03	   55.5	 -43.0	  124181215136.7	265980243856.4	13.2	
2012-07-17-00-03	 -161.0	 -27.0	  138158064160.3	244387486254.3	10.9	
2012-07-17-00-03	  -98.5	 -40.0	   97595351484.4	194431434662.5	12.3	
2012-07-17-00-03	  174.5	 -46.5	   74858787814.6	186681280238.3	15.4	
2012-07-17-00-03	   65.0	 -50.0	   54298709084.3	128654177532.5	14.6	
2012-07-17-00-03	  165.0	 -51.0	   37355236167.9	114223837518.4	18.8	
2012-07-17-00-03	 -178.0	 -35.5	   50591272404.7	100953795306.5	12.3	
2012-07-17-03-06	   45.5	 -45.0	  760491717666.1	2403147724222.6	19.9	
2012-07-17-03-06	   46.0	 -29.5	  309107562299.7	671039553400.8	13.4	
2012-07-17-03-06	  174.5	 -46.5	  110577006171.7	304011455643.5	16.9	
2012-07-17-03-06	   57.0	 -43.0	  138154880079.7	297952535061.7	13.2	
2012-07-17-03-06	   49.5	 -38.0	  123979903194.7	287610325727.0	14.3	
2012-07-17-03-06	 -160.0	 -27.0	  132690131199.2	225012146758.5	10.4	
2012-07-17-03-06	  -97.5	 -41.0	  105999133559.5	201328860818.6	11.7	
2012-07-17-03-06	   65.0	 -50.0	   62286899912.7	147464840651.3	14.5	
2012-07-17-03-06	  164.5	 -51.0	   33485716296.9	97059749006.2	17.8	
2012-07-17-03-06	 -177.5	 -35.0	   48151649417.6	93365861314.5	11.9	
2012-07-17-06-09	   45.5	 -45.5	  675536526469.4	2044979400135.0	18.9	
2012-07-17-06-09	   46.0	 -29.5	  274832541668.6	585659459614.4	13.1	
2012-07-17-06-09	  175.5	 -46.5	  150506452152.2	429948362357.5	17.5	
2012-07-17-06-09	   58.0	 -42.5	  157475482735.1	349303003115.8	13.6	
2012-07-17-06-09	 -159.0	 -27.0	  138173561358.3	232094428755.0	10.3	
2012-07-17-06-09	   49.0	 -38.5	   87532294723.6	196884184023.3	13.8	
2012-07-17-06-09	   65.0	 -50.0	   78283722733.5	195683873111.9	15.3	
2012-07-17-06-09	  -95.5	 -43.0	   63710747190.9	126727590658.3	12.2	
2012-07-17-06-09	 -177.0	 -35.0	   45574043276.8	84099441580.3	11.3	
2012-07-17-06-09	  164.0	 -51.0	   21793303822.2	53725792168.1	15.1	
2012-07-17-06-09	  176.5	 -50.0	   15997888295.7	33622358674.8	12.8	
2012-07-17-06-09	   51.5	 -28.0	   13658650811.4	21821282169.2	9.8	
2012-07-17-06-09	  -38.5	 -50.5	    3953074259.5	9803371891.1	15.1	
2012-07-17-09-12	   45.0	 -45.5	  587152419608.2	1628726496207.3	17.2	
2012-07-17-09-12	   46.0	 -29.5	  253259520512.0	536107797291.2	13.0	
2012-07-17-09-12	  176.0	 -46.5	  163759927504.0	474195400482.9	17.7	
2012-07-17-09-12	   58.5	 -42.0	  179724620625.8	400439166853.1	13.6	
2012-07-17-09-12	  -93.0	 -45.5	  122755959876.6	273075920352.3	13.6	
2012-07-17-09-12	 -158.0	 -27.0	  140854891662.1	239134197321.8	10.4	
2012-07-17-09-12	   65.0	 -50.0	   80146959138.2	209225923084.2	15.9	
2012-07-17-09-12	   49.5	 -38.5	   55970762099.9	127521592756.9	13.9	
2012-07-17-09-12	   52.0	 -28.0	   30121501106.9	49775574001.3	10.1	
2012-07-17-09-12	  176.5	 -50.5	   19971397454.9	45699234472.1	14.0	
2012-07-17-09-12	  -38.0	 -50.0	   17964511331.0	42986231938.0	14.6	
2012-07-17-09-12	 -176.0	 -35.0	   25366173390.3	42889814358.6	10.3	
2012-07-17-09-12	   51.5	 -45.5	   10832661507.6	24739994123.4	13.9	
2012-07-17-09-12	  164.5	 -50.5	    7947475424.3	14725392232.7	11.3	
2012-07-17-12-15	   44.5	 -45.5	  462411396038.5	1139649403415.8	15.2	
2012-07-17-12-15	   59.0	 -41.5	  237745906525.6	525049669306.7	13.5	
2012-07-17-12-15	  176.5	 -46.5	  173008217602.9	519009544898.4	18.4	
2012-07-17-12-15	   46.0	 -29.5	  226199797416.3	468397774937.2	12.7	
2012-07-17-12-15	  -92.0	 -46.5	  139657468961.0	305010783170.9	13.3	
2012-07-17-12-15	   65.0	 -50.0	   86291432960.1	228776386147.7	16.2	
2012-07-17-12-15	 -157.5	 -27.0	  132566836234.3	228623825296.6	10.5	
2012-07-17-12-15	   49.5	 -38.0	   31631476458.4	73466657083.8	14.2	
2012-07-17-12-15	   52.0	 -27.5	   30171739089.9	49957841719.0	10.1	
2012-07-17-12-15	  -38.0	 -49.5	   22081980658.1	49240418854.6	13.6	
2012-07-17-12-15	  -41.5	 -50.5	   15894649796.2	36378463165.1	13.9	
2012-07-17-12-15	 -174.5	 -35.5	   15176615106.4	25120851651.5	10.1	
2012-07-17-12-15	 -180.0	 -49.5	   10220302847.0	24699275546.8	14.7	
2012-07-17-12-15	  164.5	 -50.0	    3973813343.7	6235173003.3	9.6	
2012-07-17-12-15	  177.0	 -49.5	    2007494492.9	2831227553.8	8.6	
2012-07-17-15-18	   44.5	 -45.5	  301835054304.3	676015153870.2	13.7	
2012-07-17-15-18	   59.0	 -40.5	  263071565889.0	593028100303.0	13.8	
2012-07-17-15-18	  177.5	 -46.0	  154095924189.7	514571991054.3	20.4	
2012-07-17-15-18	   46.0	 -29.5	  207579422219.0	416761343405.1	12.3	
2012-07-17-15-18	   65.0	 -50.0	   84325265372.4	221261032468.8	16.0	
2012-07-17-15-18	 -157.0	 -27.0	  118690710798.6	206034159160.1	10.6	
2012-07-17-15-18	  -89.5	 -49.0	   69730703413.9	170821210690.7	14.9	
2012-07-17-15-18	 -173.5	 -49.0	   54709369999.0	128426849547.0	14.3	
2012-07-17-15-18	 -180.0	 -47.0	   37920402375.8	86157610517.8	13.8	
2012-07-17-15-18	  -36.5	 -49.0	   26382899422.7	67813875040.3	15.6	
2012-07-17-15-18	   49.5	 -38.5	   21905151978.5	51640683231.3	14.3	
2012-07-17-15-18	  -42.0	 -50.0	   22040653752.8	48392998577.9	13.3	
2012-07-17-15-18	   52.5	 -27.5	   16500320818.9	26448438706.5	9.7	
2012-07-17-15-18	  -14.0	 -31.0	   10625867427.0	22516013990.2	12.9	
2012-07-17-15-18	 -173.5	 -36.0	   12582089046.3	21144185511.0	10.2	
2012-07-17-15-18	   71.5	 -53.5	    3677286667.6	10084532102.9	16.7	
2012-07-17-15-18	  164.5	 -50.0	    5981307836.7	9075457269.1	9.2	
2012-07-17-15-18	  165.0	 -48.5	    2048209897.0	3839743084.2	11.4	
2012-07-17-18-21	   59.5	 -40.0	  271871401388.4	613784652166.5	13.8	
2012-07-17-18-21	  178.0	 -46.0	  150282784397.2	491205130155.0	19.9	
2012-07-17-18-21	   43.0	 -45.5	  211902444568.5	447184720636.5	12.9	
2012-07-17-18-21	   46.5	 -29.5	  194156959184.4	370533583869.9	11.6	
2012-07-17-18-21	 -173.0	 -49.0	   91774804345.8	222124847588.2	14.7	
2012-07-17-18-21	  -87.5	 -49.5	   85037178049.1	219989547698.0	15.7	
2012-07-17-18-21	   65.0	 -50.0	   78262219410.9	200509980424.5	15.6	
2012-07-17-18-21	 -156.5	 -27.0	   93789128711.9	157372781759.0	10.2	
2012-07-17-18-21	 -180.0	 -46.5	   61848353143.3	156470485822.1	15.4	
2012-07-17-18-21	  -37.5	 -48.5	   24598175791.8	59130040966.1	14.6	
2012-07-17-18-21	   49.5	 -38.5	   21905151978.5	51309144659.1	14.2	
2012-07-17-18-21	  -14.0	 -31.0	   21209955817.4	41366147539.0	11.8	
2012-07-17-18-21	  164.5	 -49.5	   10057447126.3	20763448433.4	12.5	
2012-07-17-18-21	  -42.0	 -49.5	   10057754443.0	19304656747.5	11.6	
2012-07-17-18-21	   77.5	 -54.5	    3589996207.6	9307128147.9	15.7	
2012-07-17-21-24	   60.0	 -40.0	  252085021275.5	553793416634.6	13.4	
2012-07-17-21-24	  178.0	 -46.0	  137363306429.3	439428672818.5	19.5	
2012-07-17-21-24	   41.5	 -45.5	  174370376404.6	373838073900.8	13.0	
2012-07-17-21-24	   46.5	 -29.0	  140401564766.8	256737799199.1	11.1	
2012-07-17-21-24	 -172.5	 -48.5	  104668521513.1	246383817005.3	14.3	
2012-07-17-21-24	  -85.5	 -50.5	   93244629917.9	242671686611.7	15.8	
2012-07-17-21-24	 -180.0	 -46.0	   64212017695.9	164499884455.2	15.5	
2012-07-17-21-24	   65.5	 -50.0	   60198284876.1	153367981800.9	15.5	
2012-07-17-21-24	 -155.5	 -27.0	   63376261195.7	103406437381.8	9.9	
2012-07-17-21-24	  -39.0	 -48.5	   33052631767.8	76116793953.1	14.0	
2012-07-17-21-24	   49.0	 -38.5	   26760057109.9	61890023928.3	14.0	
2012-07-17-21-24	  -14.0	 -31.0	   29213430675.1	58958835009.8	12.2	
2012-07-17-21-24	  165.0	 -49.0	   12105657023.3	27380205047.9	13.7	
2012-07-17-21-24	   77.5	 -54.5	    3589996207.6	9635126992.3	16.3	
2012-07-18-00-03	   60.0	 -39.5	  205509459350.7	428789576363.0	12.7	
2012-07-18-00-03	  178.0	 -46.0	  124542395121.2	389238075487.5	19.0	
2012-07-18-00-03	   41.5	 -45.5	  172376042360.7	381127151812.9	13.4	
2012-07-18-00-03	 -172.0	 -48.5	  101457951756.1	225719304649.8	13.5	
2012-07-18-00-03	  -83.5	 -51.5	   74015242458.4	188149412146.4	15.4	
2012-07-18-00-03	 -179.5	 -46.0	   72898576606.1	165677982673.8	13.8	
2012-07-18-00-03	   45.0	 -30.5	   50816223409.4	82363905024.6	9.8	
2012-07-18-00-03	   49.0	 -38.5	   29162275532.4	68274832249.0	14.2	
2012-07-18-00-03	   66.0	 -50.5	   19889200750.2	46898492128.4	14.3	
2012-07-18-00-03	  -40.5	 -48.0	   20763215226.7	43945741707.6	12.8	
2012-07-18-00-03	  -14.0	 -31.0	   21209955817.4	41038094930.9	11.7	
2012-07-18-00-03	 -155.0	 -27.5	   21958630973.1	36059994664.1	9.9	
2012-07-18-00-03	   47.5	 -28.0	   19154640788.7	33613697770.9	10.6	
2012-07-18-00-03	  164.5	 -49.0	   10057447126.3	20089508804.9	12.1	
2012-07-18-00-03	   64.5	 -48.5	    2048209897.0	5406916433.9	16.0	
2012-07-18-00-03	   77.5	 -54.5	    1794998103.8	5006598374.8	16.9	
2012-07-18-03-06	   41.5	 -45.0	  201187042238.2	446517780533.7	13.5	
2012-07-18-03-06	  177.5	 -46.0	  120095324807.3	359523190503.1	18.2	
2012-07-18-03-06	   60.0	 -39.5	  134457124980.3	265455915905.1	12.0	
2012-07-18-03-06	 -171.0	 -48.0	  110527832926.7	235846526207.1	12.9	
2012-07-18-03-06	 -174.5	 -44.5	   72613356898.4	157984089481.8	13.2	
2012-07-18-03-06	 -180.0	 -46.5	   49339304681.3	116188128124.1	14.2	
2012-07-18-03-06	  -82.0	 -52.5	   33954426159.7	81997121326.9	14.6	
2012-07-18-03-06	   49.0	 -38.5	   31598078249.2	73931281209.8	14.1	
2012-07-18-03-06	   40.5	 -53.5	   14903244777.4	38891145403.4	15.8	
2012-07-18-03-06	   45.0	 -31.0	   13302819389.6	21871252211.7	9.9	
2012-07-18-03-06	  165.0	 -50.0	    1986906671.9	1991155337.7	6.1	
2012-07-18-06-09	   41.5	 -45.0	  218918686212.6	508761091975.3	14.1	
2012-07-18-06-09	  177.5	 -46.0	  105164331988.7	317634101724.9	18.3	
2012-07-18-06-09	 -174.0	 -44.5	  104022277505.8	239956442713.6	13.9	
2012-07-18-06-09	 -170.0	 -47.0	  107342793482.8	231228551899.5	13.0	
2012-07-18-06-09	   41.0	 -53.5	   42848061778.5	133085491795.6	18.7	
2012-07-18-06-09	 -180.0	 -46.5	   44968026799.3	104811151592.4	14.1	
2012-07-18-06-09	   60.0	 -39.0	   45674088483.6	85502146352.5	11.3	
2012-07-18-06-09	 -168.0	 -63.5	   22163747248.5	85380584210.9	23.2	
2012-07-18-06-09	   49.0	 -38.5	   24324254393.1	56064701823.2	13.9	
2012-07-18-06-09	  -45.5	 -47.0	   12727250107.4	28759374729.0	13.6	
2012-07-18-06-09	   44.5	 -30.5	   15993563200.6	25367809287.5	9.6	
2012-07-18-09-12	   42.0	 -45.0	  241209150640.2	557102910251.9	14.0	
2012-07-18-09-12	 -173.5	 -44.0	  131074687828.5	309145440927.1	14.2	
2012-07-18-09-12	  177.5	 -46.0	   98802005845.3	294364991561.4	18.0	
2012-07-18-09-12	 -168.5	 -46.5	  110590654863.6	243689154282.7	13.3	
2012-07-18-09-12	 -167.0	 -63.5	   50156707210.0	191298288718.5	23.0	
2012-07-18-09-12	   41.0	 -53.0	   46568290422.0	147007531642.2	19.0	
2012-07-18-09-12	 -180.0	 -46.5	   36284577535.8	82992917071.7	13.8	
2012-07-18-09-12	   44.5	 -30.5	   48193620987.7	82138105407.4	10.3	
2012-07-18-09-12	   48.5	 -38.5	   17000518110.8	37875849759.8	13.4	
2012-07-18-09-12	  -45.0	 -47.0	    8491382615.3	20144243830.0	14.3	
2012-07-18-09-12	 -176.5	 -50.5	    1966167587.6	5089460848.5	15.6	
2012-07-18-12-15	   42.5	 -45.0	  263575063518.7	601424933733.8	13.8	
2012-07-18-12-15	 -172.5	 -44.0	  134102902364.8	339265859240.4	15.3	
2012-07-18-12-15	 -168.0	 -46.5	  130399986814.4	286892944286.7	13.3	
2012-07-18-12-15	  177.5	 -46.0	   86037418053.4	255105032115.6	17.9	
2012-07-18-12-15	 -167.0	 -63.5	   59859189499.5	223018757597.8	22.5	
2012-07-18-12-15	  109.0	 -50.0	   78226089620.9	178730526700.8	13.8	
2012-07-18-12-15	   41.0	 -53.5	   39063274895.8	117190886913.0	18.1	
2012-07-18-12-15	   45.0	 -30.0	   40190350270.9	68032540633.9	10.2	
2012-07-18-12-15	 -180.0	 -45.5	   21549063722.5	48267837188.8	13.5	
2012-07-18-12-15	 -177.0	 -50.0	   13887305092.5	43948328410.4	19.0	
2012-07-18-12-15	 -180.0	 -48.0	    4136669064.4	3899944691.6	5.7	
2012-07-18-15-18	   43.0	 -45.0	  265893543494.5	598707835932.6	13.6	
2012-07-18-15-18	 -172.0	 -43.5	  123194288687.0	306821364181.8	15.0	
2012-07-18-15-18	 -167.5	 -46.0	  135279291193.5	295321213932.2	13.2	
2012-07-18-15-18	  108.5	 -50.0	  126194586968.6	284277465847.3	13.6	
2012-07-18-15-18	  177.5	 -46.0	   81743095174.0	232764954882.5	17.2	
2012-07-18-15-18	 -167.0	 -63.5	   54222248865.2	195258681570.5	21.7	
2012-07-18-15-18	   40.5	 -53.5	   27816554303.0	76488679886.1	16.6	
2012-07-18-15-18	 -177.0	 -50.0	   17881706257.3	60506244495.7	20.4	
2012-07-18-15-18	 -180.0	 -46.0	   19363341596.0	40709512393.7	12.7	
2012-07-18-15-18	   45.0	 -31.0	   15979771352.2	26392541277.0	9.9	
2012-07-18-15-18	 -180.0	 -48.0	    4136669064.4	3845074386.5	5.6	
2012-07-18-18-21	   43.0	 -44.5	  257302047871.1	566569899899.6	13.4	
2012-07-18-18-21	 -166.5	 -46.0	  133945592162.3	289574136818.7	13.1	
2012-07-18-18-21	 -172.0	 -44.0	  112060514889.1	268673900739.3	14.5	
2012-07-18-18-21	 -168.5	 -63.5	   73482796262.6	255124643089.7	21.0	
2012-07-18-18-21	  108.0	 -50.0	  100039223105.9	220276988123.1	13.3	
2012-07-18-18-21	  177.5	 -46.0	   70835125424.1	207930189729.4	17.8	
2012-07-18-18-21	 -177.0	 -50.0	   21937565042.5	68497358068.5	18.9	
2012-07-18-18-21	   41.0	 -53.5	   14881772407.6	37464443462.4	15.2	
2012-07-18-18-21	 -180.0	 -46.0	   15030376041.7	32281020778.9	13.0	
2012-07-18-18-21	 -180.0	 -48.0	    4136669064.4	3824680271.4	5.6	
2012-07-18-21-24	   43.0	 -44.5	  244188878603.7	529429116688.4	13.2	
2012-07-18-21-24	 -169.0	 -63.5	   70748736831.7	248527965757.2	21.3	
2012-07-18-21-24	 -166.0	 -45.5	  110696119566.5	234812903765.7	12.9	
2012-07-18-21-24	 -172.0	 -43.5	   85140895947.8	200381172009.7	14.3	
2012-07-18-21-24	  177.5	 -46.0	   68727015493.5	195832834958.6	17.3	
2012-07-18-21-24	 -177.0	 -50.0	   21937565042.5	69943262277.2	19.3	
2012-07-18-21-24	  108.5	 -50.0	   21999935216.6	47292681047.9	13.0	
2012-07-18-21-24	  158.0	 -62.0	   13250427242.1	44564853255.3	20.4	
2012-07-18-21-24	 -180.0	 -46.5	   10697245406.2	18195868806.1	10.3	
2012-07-18-21-24	 -180.0	 -48.0	    4136669064.4	3778506390.1	5.5	
2012-07-19-00-03	   43.0	 -44.5	  242395493359.6	519848019509.3	13.1	
2012-07-19-00-03	  157.0	 -62.0	   93482494578.8	345323371963.0	22.5	
2012-07-19-00-03	 -168.5	 -63.5	   58215741253.3	199477132495.5	20.9	
2012-07-19-00-03	 -166.0	 -45.5	   84739452690.5	173283368101.9	12.5	
2012-07-19-00-03	 -172.0	 -43.5	   65112461958.0	156893745926.7	14.7	
2012-07-19-00-03	  177.5	 -46.0	   57972460320.6	155485036779.4	16.3	
2012-07-19-00-03	 -177.0	 -50.0	   19909635649.9	67469714546.4	20.6	
2012-07-19-00-03	  -38.5	 -45.0	   17523591516.9	36273454549.7	12.6	
2012-07-19-00-03	 -180.0	 -46.5	    8550001978.5	14674483851.1	10.4	
2012-07-19-00-03	 -180.0	 -48.0	    2068334532.2	1887221237.9	5.5	
2012-07-19-03-06	  157.5	 -62.0	  157128892830.0	618802305427.9	24.2	
2012-07-19-03-06	   42.5	 -44.5	  235817977384.6	498717372628.2	13.0	
2012-07-19-03-06	 -167.0	 -63.5	   40383129937.9	130956682896.8	19.8	
2012-07-19-03-06	  177.0	 -46.5	   45012861131.0	113349714965.1	15.4	
2012-07-19-03-06	 -172.0	 -43.5	   44990431068.1	107846395017.9	14.7	
2012-07-19-03-06	 -166.0	 -45.5	   39169592641.9	75731792516.7	11.8	
2012-07-19-03-06	 -177.0	 -50.0	   17881706257.3	64722110755.9	22.1	
2012-07-19-03-06	  -37.5	 -44.5	   28660591955.5	62619058241.8	13.4	
2012-07-19-03-06	 -180.0	 -46.0	    4294486855.3	6311374471.5	9.0	
2012-07-19-03-06	  145.0	 -54.5	    1794998103.8	4371555050.2	14.9	
2012-07-19-03-06	 -180.0	 -48.0	    2068334532.2	1798525153.1	5.3	
2012-07-19-06-09	  157.5	 -62.0	  191563799928.0	793334741436.0	25.7	
2012-07-19-06-09	   40.0	 -44.0	  146660992706.8	322229325632.5	13.6	
2012-07-19-06-09	   46.0	 -44.5	   96564882796.4	184492441497.3	11.8	
2012-07-19-06-09	  177.0	 -46.5	   30041430193.3	70815679985.6	14.5	
2012-07-19-06-09	 -172.0	 -43.5	   29295796146.0	69832457299.7	14.7	
2012-07-19-06-09	 -177.0	 -50.0	   17881706257.3	63276139063.6	21.8	
2012-07-19-06-09	  -37.0	 -44.0	   24477031306.5	52188473910.3	13.1	
2012-07-19-06-09	  145.5	 -55.0	   14271599416.9	36295706552.8	15.6	
2012-07-19-06-09	   68.5	 -22.0	   20111304838.3	35862454921.7	11.0	
2012-07-19-06-09	 -166.5	 -63.5	    5516928043.5	16680905036.0	18.6	
2012-07-19-06-09	 -180.0	 -46.0	    4294486855.3	6009722959.3	8.6	
2012-07-19-06-09	 -168.0	 -63.0	    1403319612.3	4689865094.1	20.5	
2012-07-19-09-12	  158.5	 -62.0	  238181874451.4	988759792920.1	26.0	
2012-07-19-09-12	   40.0	 -44.0	  144662264108.4	313580289882.6	13.5	
2012-07-19-09-12	   46.5	 -45.0	   72353374373.8	134308179174.1	11.5	
2012-07-19-09-12	 -118.5	 -53.0	   41202363377.4	108507112381.9	16.4	
2012-07-19-09-12	  145.5	 -55.5	   29983591466.1	78317232031.5	16.2	
2012-07-19-09-12	   68.5	 -22.0	   22987297952.7	40437886047.6	10.9	
2012-07-19-09-12	  177.0	 -46.5	   17138975689.1	35675815611.0	12.9	
2012-07-19-09-12	 -172.0	 -43.5	   13508578579.5	33850081115.4	15.5	
2012-07-19-09-12	  -37.0	 -43.5	    6726564739.4	13245600872.8	12.2	
2012-07-19-09-12	 -176.5	 -50.5	    1966167587.6	4810090192.7	15.2	
2012-07-19-12-15	  159.5	 -62.0	  279947818721.2	1142710907904.3	25.9	
2012-07-19-12-15	   39.5	 -44.0	  135882397743.4	287222792976.6	13.3	
2012-07-19-12-15	 -118.5	 -53.0	   61533246337.7	167101227815.3	17.0	
2012-07-19-12-15	  145.5	 -55.5	   56151828175.1	154658017256.4	17.3	
2012-07-19-12-15	   47.0	 -44.5	   50781327492.1	102132991624.9	12.6	
2012-07-19-12-15	  177.5	 -46.0	    8588973710.6	13998401874.7	10.2	
2012-07-19-12-15	   68.5	 -21.5	    2875993114.5	5377540695.6	11.7	
2012-07-19-12-15	 -172.0	 -43.0	    2260671280.0	4491574144.3	12.4	
2012-07-19-15-18	  160.0	 -62.0	  286126357986.8	1140702380969.3	25.6	
2012-07-19-15-18	   39.5	 -44.0	  126951945293.9	260480871983.1	13.0	
2012-07-19-15-18	  146.0	 -56.0	   61000708757.6	174433414834.0	18.1	
2012-07-19-15-18	 -119.0	 -53.5	   51564260164.5	132881492025.2	16.3	
2012-07-19-15-18	   47.0	 -44.5	   51007862062.1	109311570153.9	13.6	
2012-07-19-18-21	  159.5	 -62.0	  285380453747.7	1093404292781.5	24.8	
2012-07-19-18-21	   39.5	 -44.0	  107294059840.6	211588798724.1	12.6	
2012-07-19-18-21	  146.0	 -56.0	   59183818763.6	168046069016.8	18.2	
2012-07-19-18-21	   47.5	 -44.0	   68981654429.9	148433152151.1	13.8	
2012-07-19-18-21	 -121.0	 -55.0	    3589996207.6	11676916570.8	20.8	
2012-07-19-18-21	 -119.0	 -53.5	    5537543501.0	10381134506.3	12.0	
2012-07-19-21-24	  159.0	 -62.0	  275130354634.5	1008002286232.5	23.9	
2012-07-19-21-24	   48.0	 -44.0	   84768359802.0	182423329316.0	13.9	
2012-07-19-21-24	   39.0	 -44.5	   66398985671.0	129714515581.6	12.6	
2012-07-19-21-24	  146.0	 -56.0	   41836985729.8	116183647315.2	17.9	
2012-07-19-21-24	   42.5	 -41.0	   16347315260.4	29343206176.2	11.5	
2012-07-19-21-24	   48.0	 -39.0	   12061744088.9	26242844902.8	14.0	
2012-07-20-00-03	  159.0	 -62.0	  231621979623.0	834937966786.5	23.6	
2012-07-20-00-03	   48.0	 -44.0	   96089180189.9	207436874474.9	14.0	
2012-07-20-00-03	   48.0	 -39.0	   38603051063.0	83661123915.1	14.0	
2012-07-20-00-03	  145.5	 -55.5	   26215896032.6	67420686729.0	16.7	
2012-07-20-00-03	   39.0	 -44.5	   33144631100.2	62620999266.0	12.2	
2012-07-20-00-03	   43.0	 -41.0	   25766819061.4	45373171753.4	11.4	
2012-07-20-00-03	   66.0	 -50.5	   11859222778.5	31968030435.8	17.5	
2012-07-20-00-03	  144.0	 -43.0	    9042512484.8	27812314755.4	19.9	
2012-07-20-03-06	  159.0	 -62.0	  190359087484.2	655208753965.3	22.6	
2012-07-20-03-06	   48.0	 -44.0	  100684619228.7	222291071247.0	14.4	
2012-07-20-03-06	   48.0	 -39.0	   67510792677.4	143831460240.9	13.9	
2012-07-20-03-06	  144.5	 -43.5	   29350383544.1	77010828978.6	17.1	
2012-07-20-03-06	   66.0	 -50.5	   21648133180.5	65563974785.3	19.7	
2012-07-20-03-06	   43.0	 -41.0	   25766819061.4	45576656862.7	11.5	
2012-07-20-03-06	  145.5	 -56.0	   12210648959.7	30042878180.0	16.0	
2012-07-20-03-06	   40.0	 -43.5	    2242188246.5	3656054111.5	10.6	
2012-07-20-06-09	  162.0	 -62.0	  130119911897.1	465880864046.4	23.5	
2012-07-20-06-09	   48.0	 -44.0	  112041358080.4	248403770212.0	14.5	
2012-07-20-06-09	   48.5	 -38.5	   91578869708.4	192805630896.5	13.8	
2012-07-20-06-09	  152.5	 -60.5	   38167062133.6	118299852793.7	20.3	
2012-07-20-06-09	  144.0	 -43.0	   33871037036.8	96149289938.7	18.6	
2012-07-20-06-09	   66.0	 -51.0	   23614300768.1	72424622698.6	20.1	
2012-07-20-06-09	   43.0	 -41.0	   28081899208.5	50158536049.4	11.7	
2012-07-20-06-09	  145.5	 -55.5	   10504568730.7	26494854017.7	16.5	
2012-07-20-09-12	  164.0	 -62.5	  129645172695.2	484968071003.7	24.6	
2012-07-20-09-12	   48.0	 -44.0	  118598358089.0	267360560369.5	14.8	
2012-07-20-09-12	   48.5	 -38.5	   96416338119.9	206383523234.0	14.0	
2012-07-20-09-12	   66.0	 -51.0	   35368329496.1	103976479014.4	19.2	
2012-07-20-09-12	  144.0	 -43.0	   31647501879.9	89308963472.3	18.5	
2012-07-20-09-12	  152.5	 -60.5	   27514088750.8	85655096607.9	20.4	
2012-07-20-09-12	   43.0	 -41.0	   37483438066.1	69073363783.1	12.1	
2012-07-20-09-12	  160.5	 -30.0	   26835627160.9	59583017061.9	14.5	
2012-07-20-09-12	  -26.5	 -41.5	   13943839566.4	32921026818.8	15.4	
2012-07-20-09-12	  145.5	 -55.5	    8776060097.0	22092553596.6	16.5	
2012-07-20-09-12	  165.0	 -50.0	    1986906671.9	1927174073.8	6.3	
2012-07-20-12-15	   48.0	 -44.0	  120784080215.6	277069605500.6	15.0	
2012-07-20-12-15	  168.0	 -63.0	   51189461703.8	215370001118.3	27.5	
2012-07-20-12-15	   48.5	 -38.5	   96499830971.3	207623076467.7	14.1	
2012-07-20-12-15	  159.0	 -61.5	   60374136609.3	205710716660.2	22.3	
2012-07-20-12-15	   66.0	 -51.0	   41203718481.8	119649719233.8	19.0	
2012-07-20-12-15	   43.0	 -41.0	   37483438066.1	69786984958.5	12.2	
2012-07-20-12-15	  144.0	 -43.0	   22697572039.5	64167032525.8	18.5	
2012-07-20-12-15	  161.0	 -29.5	   32348306570.0	64132907661.0	12.9	
2012-07-20-12-15	  -26.5	 -42.0	   23006757287.8	48925690781.1	13.9	
2012-07-20-12-15	  153.0	 -61.0	    7563528028.7	23713959650.0	20.5	
2012-07-20-12-15	  145.5	 -55.5	    8776060097.0	21704385386.6	16.1	
2012-07-20-12-15	  -50.5	 -53.0	    5645187609.6	5017617060.2	5.8	
2012-07-20-15-18	   48.5	 -44.0	  129564615381.2	300817572706.8	15.2	
2012-07-20-15-18	   48.5	 -38.5	   99070318162.1	215800209735.7	14.2	
2012-07-20-15-18	   66.0	 -51.0	   45156792741.3	135422187689.4	19.6	
2012-07-20-15-18	  159.0	 -61.5	   35444609065.4	117202915424.2	21.6	
2012-07-20-15-18	  167.5	 -63.0	   28521487777.7	111588299145.2	25.5	
2012-07-20-15-18	  -52.0	 -45.0	   35160287908.8	83045108619.0	15.4	
2012-07-20-15-18	  -26.5	 -42.5	   36589792540.3	75889534906.6	13.5	
2012-07-20-15-18	   43.0	 -41.0	   37483438066.1	69449993861.3	12.1	
2012-07-20-15-18	  161.5	 -29.0	   35183413671.7	63667174986.8	11.8	
2012-07-20-15-18	  144.0	 -43.0	    9079305916.7	26932380150.9	19.3	
2012-07-20-15-18	  -50.0	 -53.0	    5645187609.6	4994541240.7	5.8	
2012-07-20-18-21	   48.5	 -44.0	  134085268873.9	316520283142.4	15.4	
2012-07-20-18-21	  -51.0	 -45.0	  116015663167.6	301067632711.6	17.0	
2012-07-20-18-21	   48.5	 -38.5	   86926918489.1	185773743955.4	13.9	
2012-07-20-18-21	   66.0	 -51.0	   41141803755.4	125306903318.1	19.9	
2012-07-20-18-21	  -26.0	 -43.0	   40892284552.4	82196412108.7	13.1	
2012-07-20-18-21	  159.0	 -62.0	   16200184645.9	50587223581.4	20.3	
2012-07-20-18-21	   43.0	 -41.0	   23451738914.4	42765033379.3	11.9	
2012-07-20-18-21	  162.0	 -28.5	   19015030957.1	35191669773.3	12.1	
2012-07-20-18-21	   71.0	 -54.0	    9149709989.4	30556728222.7	21.7	
2012-07-20-18-21	  167.5	 -63.0	    4257920502.5	15530608265.7	23.7	
2012-07-20-21-24	  -50.0	 -45.5	  166609022119.8	433125814406.5	17.1	
2012-07-20-21-24	   48.5	 -44.0	  129564615381.2	308087923544.3	15.6	
2012-07-20-21-24	  137.0	 -50.5	   89154078435.0	205993306766.1	15.1	
2012-07-20-21-24	   48.5	 -38.5	   79823389885.7	170348726800.1	14.0	
2012-07-20-21-24	   66.0	 -51.0	   35201822824.0	107107850103.9	19.9	
2012-07-20-21-24	  -25.5	 -43.0	   18103335367.9	34857811802.2	12.6	
2012-07-20-21-24	  -44.0	  58.0	    8144233994.6	26587704134.9	21.3	
2012-07-20-21-24	   71.0	 -54.0	    7332819995.4	23874347483.8	21.3	
2012-07-20-21-24	   42.5	 -41.0	    7016206822.2	11989366248.1	11.2	
2012-07-20-21-24	  162.5	 -28.5	    5445751994.3	9382387358.4	11.2	
2012-07-21-00-03	  -49.0	 -45.5	  182110920487.6	470559151553.0	17.0	
2012-07-21-00-03	   48.5	 -44.0	  113724853851.2	274470512570.2	15.9	
2012-07-21-00-03	  137.5	 -50.5	   75285252875.5	183016401104.9	16.0	
2012-07-21-00-03	   48.0	 -39.0	   60405982666.7	127103257944.6	13.8	
2012-07-21-00-03	   66.0	 -51.0	   29408061796.1	86889900563.7	19.4	
2012-07-21-00-03	  -43.5	  58.5	   12943364100.0	55123802785.6	27.9	
2012-07-21-00-03	  -25.5	 -43.5	   11247907299.4	21565679057.2	12.6	
2012-07-21-00-03	   71.0	 -53.5	    3677286667.6	12985266870.5	23.2	
2012-07-21-03-06	  -48.5	 -45.5	  204008070625.7	488606023882.1	15.9	
2012-07-21-03-06	   48.5	 -44.0	  104850212723.4	246670725108.0	15.6	
2012-07-21-03-06	  138.0	 -50.5	   39527730965.4	93706644475.3	15.7	
2012-07-21-03-06	   48.5	 -39.0	   38704353541.3	83399453298.2	14.2	
2012-07-21-03-06	  -43.5	  58.5	   11305342166.9	48932743564.4	28.6	
2012-07-21-03-06	   66.0	 -51.0	   15729041122.6	48840898640.7	20.5	
2012-07-21-03-06	  -25.0	 -44.0	   13397170210.3	28454068802.4	14.0	
2012-07-21-06-09	  -45.0	 -44.0	  288315155122.4	634728333757.7	14.8	
2012-07-21-06-09	   48.0	 -44.0	   82637914140.9	190687845028.6	15.4	
2012-07-21-06-09	 -136.0	 -45.0	   32804156851.9	65300880586.8	13.2	
2012-07-21-06-09	   48.5	 -38.5	   19369152239.1	39328405992.6	13.5	
2012-07-21-06-09	  145.0	 -55.0	   12520793375.1	33870354460.6	18.0	
2012-07-21-06-09	  -43.0	  58.5	    4799130105.5	27015035944.6	37.4	
2012-07-21-06-09	  -25.0	 -44.5	    8856495442.5	18919367914.3	14.2	
2012-07-21-06-09	  164.5	 -37.5	    2452316933.9	2903790614.6	7.9	
2012-07-21-09-12	  -42.0	 -43.0	  296451228275.2	648661019726.8	14.8	
2012-07-21-09-12	   48.5	 -44.0	   55716746456.3	126100571186.8	15.2	
2012-07-21-09-12	 -136.0	 -44.5	   57130949739.6	117330112125.1	13.8	
2012-07-21-09-12	  164.0	 -38.0	   29327599182.7	58186135317.8	13.3	
2012-07-21-09-12	  145.0	 -55.0	   19634293556.6	54582696225.8	18.7	
2012-07-21-09-12	  -42.0	  59.5	    4659918790.6	26416649743.4	38.0	
2012-07-21-09-12	  -24.5	 -44.5	    4409425128.5	9943140582.6	15.1	
2012-07-21-12-15	  -39.0	 -41.5	  205696415293.4	441593679309.7	14.6	
2012-07-21-12-15	 -136.0	 -44.5	   61861689175.5	125532621594.6	13.7	
2012-07-21-12-15	  -46.5	 -46.5	   34199030691.2	73885519779.7	14.6	
2012-07-21-12-15	  164.5	 -38.0	   34182134539.2	70558352858.1	14.0	
2012-07-21-12-15	  145.5	 -55.0	   21296718238.0	58755656773.5	18.6	
2012-07-21-12-15	  -42.0	  59.5	    9296418412.0	48231855224.2	35.1	
2012-07-21-12-15	   48.5	 -44.0	   20011477406.3	37719516223.6	12.7	
2012-07-21-15-18	  -38.5	 -42.0	  145257028153.3	306542914684.2	14.4	
2012-07-21-15-18	  164.0	 -37.5	   68607491421.9	155853684445.1	15.4	
2012-07-21-15-18	 -136.0	 -44.5	   26625615099.1	54686210404.7	13.9	
2012-07-21-15-18	  145.5	 -55.5	   14139025994.5	37887124156.8	18.2	
2012-07-21-15-18	  167.5	 -36.0	   15051687383.5	33019335369.5	14.9	
2012-07-21-18-21	  -38.0	 -42.0	   89380430789.0	184320170544.5	14.1	
2012-07-21-18-21	  164.0	 -38.0	   75832147560.3	170555238451.6	15.3	
2012-07-21-18-21	  145.0	 -55.5	   33596285072.6	93028142350.1	18.9	
2012-07-21-18-21	  167.5	 -36.0	   15051687383.5	32245368986.3	14.6	
2012-07-21-18-21	   19.5	 -39.0	   12095328383.1	26912206727.9	15.1	
2012-07-21-18-21	  -42.0	 -46.5	   12825002967.7	25431767491.4	13.5	
2012-07-21-21-24	  164.0	 -38.5	   60940148398.6	133406295542.1	15.0	
2012-07-21-21-24	  145.5	 -55.5	   35368449253.8	99100219280.3	19.1	
2012-07-21-21-24	  -38.0	 -43.5	   47526096591.5	92188346849.7	13.2	
2012-07-21-21-24	  -36.0	  56.5	   11784396330.6	31569132826.2	18.3	
2012-07-21-21-24	  -42.0	 -46.5	    8530516112.4	16519883993.7	13.2	
2012-07-21-21-24	   20.5	 -39.5	    7189588322.7	15595557005.4	14.8	
2012-07-22-00-03	  -35.5	  57.5	  104921601020.1	343387949566.4	22.4	
2012-07-22-00-03	  165.5	 -38.5	   43692667082.5	97986184657.6	15.3	
2012-07-22-00-03	  145.5	 -55.5	   30050480926.9	82945456287.0	18.9	
2012-07-22-00-03	  -37.5	 -44.5	   26606287313.2	54422245136.2	14.0	
2012-07-22-03-06	  -34.0	  58.5	  198357136950.0	743096630648.1	25.7	
2012-07-22-03-06	  165.5	 -38.5	   48480036982.7	106622440681.0	15.0	
2012-07-22-03-06	  -84.5	 -53.5	   29546991588.2	96947678824.3	22.4	
2012-07-22-03-06	  -38.0	 -46.5	   34429237584.7	68972301217.4	13.6	
2012-07-22-03-06	  145.5	 -55.0	   12410517360.9	32742957073.9	18.0	
2012-07-22-03-06	   37.0	 -45.0	    8761878944.0	20742119220.6	16.1	
2012-07-22-03-06	  151.0	 -59.5	    3160863498.2	10244636252.2	22.1	
2012-07-22-06-09	  -33.5	  59.5	  231505338211.2	916159219750.9	27.2	
2012-07-22-06-09	  -83.0	 -54.5	   63957063888.9	198884928581.0	21.2	
2012-07-22-06-09	  165.0	 -39.0	   43524751875.7	93038003753.1	14.6	
2012-07-22-06-09	   38.0	 -44.5	   37460283929.8	90323011723.9	16.4	
2012-07-22-06-09	  151.5	 -60.0	   20231343867.9	63719072099.2	21.4	
2012-07-22-06-09	  -37.5	 -47.0	   21198501270.6	45616877133.3	14.6	
2012-07-22-09-12	  -32.5	  60.5	  247126273513.1	989917471712.0	27.6	
2012-07-22-09-12	  -81.0	 -54.5	   50674101798.5	144824937975.5	19.5	
2012-07-22-09-12	   38.5	 -44.5	   46466849946.1	111424421856.5	16.4	
2012-07-22-09-12	  165.0	 -39.0	   31413645693.2	67313676839.3	14.6	
2012-07-22-09-12	  158.0	 -61.5	   20885127819.4	63901436365.7	20.9	
2012-07-22-09-12	  152.5	 -60.5	    9202977105.0	28361710910.1	21.0	
2012-07-22-12-15	  -31.5	  61.5	  240101864947.2	978146100020.8	28.2	
2012-07-22-12-15	  158.5	 -61.5	   34088031893.3	109643033783.7	22.0	
2012-07-22-12-15	   39.5	 -44.0	   46729173088.6	108697548242.9	15.9	
2012-07-22-12-15	 -137.5	 -39.0	   50662223677.9	87511557017.2	11.8	
2012-07-22-12-15	  -79.0	 -55.5	   15978485154.6	42265500824.1	18.1	
2012-07-22-12-15	  165.0	 -39.0	   19335567944.9	40181327012.2	14.2	
2012-07-22-15-18	  -31.0	  62.0	  205433829512.9	859134497668.9	29.0	
2012-07-22-15-18	 -136.5	 -40.0	  148008099256.4	289870236058.9	13.5	
2012-07-22-15-18	  158.5	 -62.0	   29450611888.0	96658843693.4	22.5	
2012-07-22-15-18	   40.0	 -43.5	   31407583374.6	68168530973.3	14.9	
2012-07-22-15-18	  166.0	 -39.0	    4821320837.1	5208098737.5	7.4	
2012-07-22-15-18	 -146.5	 -34.0	    2562619479.0	4528329165.8	12.1	
2012-07-22-18-21	  -30.5	  62.5	  163516098818.0	695852750474.1	29.5	
2012-07-22-18-21	 -136.0	 -40.5	  110755658300.3	215558090031.2	13.4	
2012-07-22-18-21	 -146.0	 -34.5	   84156393209.6	163303508243.3	13.3	
2012-07-22-18-21	  159.0	 -62.0	   19078881704.8	59681829324.5	21.5	
2012-07-22-18-21	   28.5	 -43.0	   15952524266.5	38687569927.0	16.6	
2012-07-22-18-21	   41.0	 -43.0	    6836771294.1	17652180841.0	17.7	
2012-07-22-21-24	  -30.5	  62.5	  128151323822.3	541622725521.2	29.4	
2012-07-22-21-24	   33.0	 -34.5	   33267342016.1	80897162924.7	16.8	
2012-07-22-21-24	 -131.5	 -43.0	   33963273305.2	63292208325.2	12.9	
2012-07-22-21-24	 -146.0	 -33.5	   30989448290.3	55171051642.8	12.3	
2012-07-22-21-24	   29.5	 -43.0	   18213195546.5	42833536229.0	16.2	
2012-07-22-21-24	 -143.5	 -35.5	   17615078102.0	30218543977.8	11.8	
2012-07-22-21-24	 -136.5	 -40.5	   11804657305.3	25765473115.8	15.1	
2012-07-23-00-03	  -30.0	  63.0	   94907876505.6	405533150515.9	29.9	
2012-07-23-00-03	   33.5	 -34.5	   56404090566.2	142241809585.0	17.6	
2012-07-23-00-03	 -143.0	 -35.0	   48106105936.1	85757348116.7	12.4	
2012-07-23-00-03	 -143.5	 -39.5	    4787369900.2	9271172294.8	13.5	
2012-07-23-00-03	   30.5	 -42.5	    2278981678.3	4084921997.7	12.5	
2012-07-23-03-06	  -30.0	  63.0	   67155353600.2	294362497554.5	31.0	
2012-07-23-03-06	   34.0	 -34.0	   74430190145.7	176193278787.5	16.7	
2012-07-23-03-06	 -143.0	 -34.5	   76851498128.5	135997988765.8	12.5	
2012-07-23-03-06	 -143.5	 -39.5	   64550690235.8	119069959837.8	13.0	
2012-07-23-06-09	  -30.0	  63.0	   54650491775.0	229441870508.3	29.9	
2012-07-23-06-09	   34.5	 -34.0	   84902896697.8	194741580856.0	16.3	
2012-07-23-06-09	 -142.0	 -34.0	   59261706218.1	103561501968.7	12.4	
2012-07-23-06-09	 -144.5	 -40.0	   42948886147.2	78584247944.9	13.0	
2012-07-23-06-09	 -141.5	 -40.0	    4770302955.2	8287025681.0	12.3	
2012-07-23-09-12	   34.5	 -34.0	   77303957793.8	173394455981.2	16.1	
2012-07-23-09-12	  -30.0	  63.0	   39409649697.6	159064594220.1	28.9	
2012-07-23-09-12	 -145.0	 -40.0	   21414436547.9	41957042244.4	14.0	
2012-07-23-09-12	 -141.5	 -33.5	   23300603049.9	39552680021.8	12.1	
2012-07-23-12-15	  -30.0	  62.5	   28184807637.4	109215700634.7	27.9	
2012-07-23-12-15	   34.5	 -34.0	   43860722497.8	86425981618.7	14.2	
2012-07-23-15-18	  -29.5	  62.5	   14152674962.9	53239938054.2	27.2	
2012-07-23-15-18	   35.0	 -33.5	    7762398203.4	7225934457.8	6.7	
2012-07-24-00-03	   44.0	 -35.0	   27866521265.1	57201188694.6	15.1	
2012-07-24-03-06	   44.5	 -35.0	   40634458956.0	76138479837.1	13.9	
2012-07-24-03-06	   43.5	 -31.5	   18476827364.3	35879773374.9	14.3	
2012-07-24-06-09	   44.0	 -31.5	   58188977988.7	114800132748.4	14.7	
2012-07-24-06-09	   45.0	 -35.0	   35677181449.6	61327608679.1	12.8	
2012-07-24-09-12	   44.5	 -31.5	  100044952498.1	195481904537.6	14.6	
2012-07-24-12-15	   45.0	 -31.5	   82128020897.8	165123273785.0	15.0	
2012-07-24-12-15	   79.0	 -60.5	    7657437956.8	28827784733.9	28.1	
2012-07-24-12-15	   45.5	 -34.0	    2562619479.0	2691114298.0	7.8	
2012-07-24-15-18	  -80.5	 -59.0	   97399557424.1	293829208130.3	22.6	
2012-07-24-15-18	   45.0	 -31.5	   74236489634.1	146382589086.4	14.7	
2012-07-24-15-18	   78.5	 -60.5	    6111898808.6	23365567368.1	28.5	
2012-07-24-15-18	 -169.0	 -63.5	    6944335257.2	23161004467.0	24.9	
2012-07-24-18-21	  -78.0	 -59.5	   55533045343.4	159112314183.8	21.4	
2012-07-24-18-21	   45.0	 -31.5	   58314510764.3	113270973494.5	14.5	
2012-07-24-18-21	 -129.5	 -38.0	   31878065467.0	71043989172.8	16.6	
2012-07-24-18-21	 -169.0	 -63.5	   12533526104.9	40968200584.1	24.4	
2012-07-24-21-24	 -129.0	 -39.0	   41020682853.2	91042683496.5	16.6	
2012-07-24-21-24	   45.0	 -31.5	   37092378721.8	70616523778.9	14.2	
2012-07-24-21-24	 -168.5	 -63.0	    2806639224.6	9235382999.5	24.6	
2012-07-25-00-03	 -128.0	 -40.5	   47180177053.1	101700245889.1	16.1	
2012-07-25-00-03	   45.0	 -31.5	   15883230255.5	29613123778.0	13.9	
2012-07-25-03-06	 -127.5	 -42.0	   55484800496.9	116856313109.0	15.6	
2012-07-25-03-06	  -36.0	 -38.0	    4904633867.8	8527543338.0	12.9	
2012-07-25-03-06	 -166.0	 -38.5	    2419102414.6	3905644937.9	12.0	
2012-07-25-06-09	 -126.5	 -43.5	   63254079793.0	136858401822.9	16.0	
2012-07-25-06-09	  -43.0	 -36.0	   60173128759.8	110145037973.2	13.5	
2012-07-25-06-09	 -175.5	 -39.0	   12044860096.9	26390788222.2	16.2	
2012-07-25-06-09	 -165.5	 -38.5	   12095328383.1	20785010249.3	12.7	
2012-07-25-09-12	 -125.5	 -44.5	   62195412774.8	144166031777.9	17.1	
2012-07-25-09-12	 -175.0	 -39.5	   40903418885.6	92121567738.5	16.6	
2012-07-25-09-12	  -42.0	 -36.0	   12519432927.7	22180679392.9	13.0	
2012-07-25-12-15	 -174.0	 -39.0	   69861259011.3	157281963017.1	16.5	
2012-07-25-12-15	 -124.5	 -45.5	   52375717276.5	118535181079.3	16.6	
2012-07-25-12-15	 -173.0	 -43.5	   13545372011.3	32054955190.9	17.4	
2012-07-25-15-18	 -173.5	 -39.0	   79586847073.4	167163250385.8	15.4	
2012-07-25-15-18	 -173.0	 -43.0	   38521579353.0	101103986522.3	19.2	
2012-07-25-15-18	 -122.5	 -47.0	    8510868481.4	19819041660.9	17.0	
2012-07-25-18-21	 -172.5	 -43.0	   72556364213.1	178191586237.6	18.0	
2012-07-25-18-21	 -173.0	 -38.5	   79957337205.1	157553554942.5	14.4	
2012-07-25-18-21	 -169.5	 -40.5	    4700948144.1	10396204790.0	16.1	
2012-07-25-18-21	  177.0	 -46.0	    2147243427.7	5207015291.8	17.7	
2012-07-25-21-24	 -168.0	 -42.0	  275520970414.7	600595674978.1	16.0	
2012-07-25-21-24	  -29.5	 -46.5	   77155866538.3	176387880385.9	16.7	
2012-07-25-21-24	 -172.0	 -43.0	   65592292151.5	163114681217.4	18.1	
2012-07-25-21-24	  177.0	 -46.0	    4294486855.3	8405504541.5	14.2	
2012-07-26-00-03	 -167.0	 -42.5	  358311849764.8	837827754055.2	17.2	
2012-07-26-00-03	  -28.5	 -47.0	   57190489394.6	121836415088.4	15.5	
2012-07-26-00-03	 -172.0	 -43.0	   45174390857.6	117129583771.7	18.9	
2012-07-26-03-06	 -166.5	 -42.5	  393492645901.9	936791300789.3	17.5	
2012-07-26-03-06	 -172.5	 -43.0	   29351242667.4	80049873663.9	19.8	
2012-07-26-06-09	 -165.5	 -43.5	  440934415575.8	1021065648968.4	17.0	
2012-07-26-06-09	   28.0	 -56.0	    6958629351.0	17446033514.8	18.1	
2012-07-26-06-09	 -172.5	 -43.5	    6763530806.5	16184288473.7	17.3	
2012-07-26-09-12	 -164.0	 -43.5	  477596318459.5	1079848491271.2	16.5	
2012-07-26-09-12	   28.5	 -56.0	   38160051886.9	100863641663.8	19.0	
2012-07-26-12-15	 -163.0	 -43.5	  494709181997.4	1091040320138.0	16.0	
2012-07-26-12-15	   29.5	 -56.0	   26061018200.8	63230837535.1	17.4	
2012-07-26-15-18	 -161.5	 -43.0	  487012182547.9	1061923541312.8	15.8	
2012-07-26-15-18	  -40.0	 -55.0	    8930933691.2	31634055840.6	25.4	
2012-07-26-18-21	 -161.0	 -43.0	  447423946496.3	952965175458.4	15.5	
2012-07-26-18-21	  -40.5	 -55.0	   40886414214.6	129446321331.3	22.7	
2012-07-26-21-24	 -160.0	 -42.5	  299815510161.0	642911442438.3	15.5	
2012-07-26-21-24	  -40.0	 -55.0	   62138534872.7	200405164562.5	23.2	
2012-07-26-21-24	 -164.5	 -44.5	   39796413978.4	77824705044.7	14.0	
2012-07-27-00-03	 -159.5	 -43.0	  257670306087.9	548031320081.3	15.4	
2012-07-27-00-03	  -40.5	 -55.0	   74393640651.1	249477725951.7	24.1	
2012-07-27-00-03	 -155.0	 -47.5	   18952541025.4	42974649303.4	16.3	
2012-07-27-00-03	  158.0	 -62.0	   10229497289.8	36522826164.8	25.6	
2012-07-27-03-06	 -159.0	 -43.0	  227239504765.3	473719781413.4	15.1	
2012-07-27-03-06	  -41.0	 -55.0	   72642834609.2	236559362236.2	23.5	
2012-07-27-03-06	 -154.5	 -48.0	   56376676188.2	127172107349.7	16.2	
2012-07-27-03-06	  158.0	 -62.5	   31733948508.7	125789569222.2	28.5	
2012-07-27-06-09	 -156.5	 -45.0	  308201010763.9	649769645231.7	15.3	
2012-07-27-06-09	  158.0	 -62.5	   40368931005.5	160080979234.9	28.7	
2012-07-27-06-09	  -40.5	 -55.0	   51457472415.5	156568665431.8	22.0	
2012-07-27-09-12	 -155.5	 -45.5	  288567751361.1	591736226685.2	15.0	
2012-07-27-09-12	  158.5	 -62.5	   49146476834.8	188060660112.1	27.8	
2012-07-27-09-12	  -40.5	 -55.0	   24953067392.1	76702155280.1	22.3	
2012-07-27-12-15	 -154.5	 -45.5	  251897861376.3	530490154110.1	15.5	
2012-07-27-12-15	  158.5	 -62.5	   43247404670.2	159677681889.0	27.0	
2012-07-27-12-15	  -40.0	 -54.5	    3589996207.6	14793386737.4	30.0	
2012-07-27-15-18	 -153.5	 -45.5	  230043056452.3	501651315013.4	16.1	
2012-07-27-15-18	  158.5	 -62.5	   18722015208.0	63247588468.2	24.8	
2012-07-27-15-18	   -4.0	 -53.5	    7354573335.1	18394098996.1	18.3	
2012-07-27-18-21	 -152.5	 -46.5	  178714226459.0	405257253175.2	16.8	
2012-07-27-18-21	   -3.0	 -54.0	   54918480193.4	147161623748.4	19.8	
2012-07-27-21-24	 -152.0	 -46.5	  150121022709.1	348959610861.5	17.3	
2012-07-27-21-24	   -3.0	 -54.0	   64024266562.2	173156572098.1	20.0	
2012-07-27-21-24	   34.0	 -33.5	   10340004344.2	18834715678.0	13.5	
2012-07-28-00-03	 -152.0	 -46.5	  133054521795.3	299446517204.0	16.8	
2012-07-28-00-03	   -3.0	 -54.0	   67614262769.9	182792886409.8	20.1	
2012-07-28-00-03	   34.0	 -33.5	   15524599083.1	24015897520.0	11.5	
2012-07-28-03-06	 -151.0	 -46.0	  151457425316.3	320641967311.0	15.8	
2012-07-28-03-06	   -3.0	 -54.0	   58552121631.0	157047120020.2	20.0	
2012-07-28-03-06	   34.5	 -33.0	   18160771525.1	27212997779.4	11.1	
2012-07-28-03-06	   36.0	 -38.5	    2419102414.6	5133529515.4	15.8	
2012-07-28-06-09	 -149.5	 -45.0	  157917033027.4	326561437975.5	15.4	
2012-07-28-06-09	   -3.0	 -54.0	   56865048605.7	147461027226.7	19.3	
2012-07-28-06-09	   36.0	 -38.5	   19352451937.0	37957388228.2	14.6	
2012-07-28-06-09	   35.0	 -33.0	    2592396031.4	2294196948.2	6.6	
2012-07-28-09-12	 -149.0	 -44.5	  150568671800.1	315039362560.1	15.6	
2012-07-28-09-12	   -3.0	 -54.0	   60628926532.5	155473502198.3	19.1	
2012-07-28-09-12	   36.5	 -38.5	   16950233514.4	34095270836.8	14.9	
2012-07-28-09-12	   66.0	 -50.5	    9872316106.6	28452250794.0	21.4	
2012-07-28-12-15	 -148.5	 -44.0	  139914879458.9	290622517398.6	15.4	
2012-07-28-12-15	   -3.0	 -54.0	   55005492262.7	143055624286.1	19.3	
2012-07-28-12-15	  -76.5	 -47.0	   40207249370.8	108743229076.6	20.0	
2012-07-28-12-15	   66.0	 -51.0	   23614300768.1	66344963331.7	20.8	
2012-07-28-12-15	   26.5	 -40.5	    4718377125.8	12509229805.8	19.6	
2012-07-28-12-15	   41.0	 -42.0	    2297118335.8	6055304252.0	19.5	
2012-07-28-12-15	  145.5	 -44.5	    2204712564.3	4794965699.8	16.1	
2012-07-28-15-18	  -76.5	 -47.5	   92516895776.3	269786303187.9	21.6	
2012-07-28-15-18	 -148.5	 -44.5	  115299431660.1	235340074582.4	15.1	
2012-07-28-15-18	   40.5	 -42.5	   68361116319.0	176922622849.9	19.1	
2012-07-28-15-18	   -2.5	 -54.0	   53101590199.3	137735004796.4	19.1	
2012-07-28-15-18	   66.0	 -51.0	   27483820639.2	82030651327.5	22.0	
2012-07-28-15-18	  145.0	 -44.5	   15432652259.9	44149831025.0	21.1	
2012-07-28-15-18	   26.0	 -40.5	    7068851197.8	17293314573.8	18.0	
2012-07-28-18-21	  -76.5	 -47.0	  120101759480.2	365971641792.4	22.4	
2012-07-28-18-21	   40.0	 -43.5	  101477545588.3	272263463402.5	19.7	
2012-07-28-18-21	 -148.5	 -45.0	   74849878210.9	150132150404.5	14.7	
2012-07-28-18-21	   -2.5	 -54.0	   38371527940.4	98533238334.7	18.8	
2012-07-28-18-21	   66.0	 -51.0	   29429099353.3	90219469305.2	22.5	
2012-07-28-18-21	  145.0	 -44.5	   11061208006.7	33633324705.4	22.3	
2012-07-28-18-21	  158.5	 -46.5	    8569323868.6	19451334494.9	16.6	
2012-07-28-18-21	   26.5	 -40.5	    7068851197.8	18518782166.9	19.2	
2012-07-28-21-24	  -76.5	 -47.0	  121087193749.0	365695048703.9	22.1	
2012-07-28-21-24	   40.0	 -43.5	  112018578325.1	290474946112.9	19.0	
2012-07-28-21-24	   66.0	 -51.0	   17715947794.4	51200437150.5	21.1	
2012-07-28-21-24	   -2.5	 -54.0	   20094556633.0	49697452021.9	18.0	
2012-07-28-21-24	   26.5	 -40.5	   11769620626.7	28063076885.9	17.4	
2012-07-28-21-24	 -149.5	 -46.5	    6422244416.9	12830559647.7	14.6	
2012-07-29-00-03	  -76.5	 -47.0	  104549817136.8	304544885327.3	21.2	
2012-07-29-00-03	   40.0	 -44.0	  107182733643.6	254807438945.0	17.3	
2012-07-29-00-03	  -78.0	 -59.5	   12596970321.2	34785592797.0	20.0	
2012-07-29-00-03	   26.5	 -40.5	    4700948144.1	13122044629.8	20.3	
2012-07-29-00-03	   -2.0	 -54.0	    3633779988.0	8962638162.8	17.9	
2012-07-29-00-03	   78.5	 -38.5	    2419102414.6	5563775541.8	16.7	
2012-07-29-03-06	  -76.5	 -46.5	   75142891380.7	219381731158.3	21.2	
2012-07-29-03-06	   40.0	 -44.0	   88949361689.7	205293325442.2	16.7	
2012-07-29-03-06	  160.5	 -41.0	   77246037999.7	147360812281.6	13.8	
2012-07-29-03-06	   44.0	 -31.5	   10570296541.9	19622886125.7	13.4	
2012-07-29-03-06	  166.0	 -39.0	    4821320837.1	6072711745.2	9.1	
2012-07-29-06-09	  161.5	 -41.0	  119193406788.7	236063693658.4	14.3	
2012-07-29-06-09	   40.5	 -44.0	   60066469796.3	131982524962.6	15.9	
2012-07-29-06-09	  -77.5	 -46.0	   43154284590.1	108881690694.8	18.2	
2012-07-29-06-09	  165.5	 -39.0	   31379508671.2	72663237768.9	16.7	
2012-07-29-06-09	   44.5	 -31.5	   31710083748.7	58345373055.8	13.3	
2012-07-29-06-09	  167.5	 -32.5	    2606988598.1	1897714335.7	5.2	
2012-07-29-09-12	  165.5	 -37.0	  329700236678.4	693964051736.4	15.2	
2012-07-29-09-12	   45.0	 -32.5	   83850519169.3	156163826077.9	13.4	
2012-07-29-09-12	   40.5	 -44.5	   37554225731.9	77364942149.1	14.8	
2012-07-29-09-12	  -77.5	 -46.0	   10793853751.4	23736909605.3	15.8	
2012-07-29-09-12	 -109.5	 -57.5	    6688712465.3	17865315805.6	19.2	
2012-07-29-09-12	   44.0	 -45.0	    2185722126.6	2804329949.3	9.2	
2012-07-29-12-15	  166.0	 -37.0	  403012200805.5	969844089085.5	17.4	
2012-07-29-12-15	   45.0	 -33.0	  112182495835.8	220062259773.4	14.0	
2012-07-29-12-15	 -106.5	 -58.0	   69409326464.0	216834486201.9	22.3	
2012-07-29-12-15	   41.0	 -45.0	   24270157264.6	51642555955.5	15.2	
2012-07-29-12-15	 -142.0	 -40.5	   18838471824.5	34746906332.4	13.2	
2012-07-29-12-15	   44.0	 -45.0	    4371444253.1	5670536679.7	9.2	
2012-07-29-15-18	  165.5	 -38.5	  471350420559.3	1295336822957.4	19.8	
2012-07-29-15-18	 -103.0	 -58.0	  126753092806.4	403225076846.7	22.6	
2012-07-29-15-18	   44.5	 -33.5	  130074113608.1	261388471298.3	14.3	
2012-07-29-15-18	   47.0	 -39.5	   71906566534.6	171987830850.0	17.0	
2012-07-29-15-18	 -142.0	 -41.0	   56109195358.2	104860438629.6	13.2	
2012-07-29-15-18	   43.0	 -40.5	    9454002675.5	14210771588.8	10.6	
2012-07-29-15-18	   39.5	 -44.5	    6632960285.5	13312387977.0	14.2	
2012-07-29-15-18	   44.5	 -45.0	    6557166379.7	9042681537.2	9.8	
2012-07-29-15-18	   41.0	 -44.0	    2223535157.0	5275243940.2	16.8	
2012-07-29-18-21	  166.0	 -39.0	  512439746862.9	1412299852645.7	19.8	
2012-07-29-18-21	 -100.0	 -57.5	  151506168170.6	478275990736.4	22.3	
2012-07-29-18-21	   46.5	 -39.5	  164614806728.1	380972900171.8	16.4	
2012-07-29-18-21	   44.5	 -33.5	  137662042727.0	273663616979.4	14.0	
2012-07-29-18-21	 -142.0	 -41.5	   60259704542.6	113510906753.3	13.3	
2012-07-29-18-21	   39.5	 -44.5	    8856495442.5	16144003373.1	12.8	
2012-07-29-18-21	   45.0	 -45.0	    6557166379.7	10458558427.9	11.2	
2012-07-29-21-24	  167.0	 -40.0	  479986325098.2	1273215929891.1	18.9	
2012-07-29-21-24	  -99.0	 -56.0	  173035663117.9	527854124217.8	21.5	
2012-07-29-21-24	   44.5	 -34.0	  127253643475.7	251235373067.8	13.9	
2012-07-29-21-24	   48.5	 -38.5	   91563448602.6	214006624951.8	16.4	
2012-07-29-21-24	   42.0	 -41.0	   72453305534.4	167491628320.0	16.2	
2012-07-29-21-24	   40.5	 -35.0	   40603902136.2	73086381817.8	12.6	
2012-07-29-21-24	 -142.5	 -42.5	   27564720644.4	51854972308.5	13.2	
2012-07-29-21-24	   39.0	 -44.5	   19936356538.7	40528115289.3	14.2	
2012-07-30-00-03	  -96.0	 -55.5	  227066247444.3	743523248125.0	23.1	
2012-07-30-00-03	  167.0	 -41.5	  225827316174.8	649830232137.8	20.2	
2012-07-30-00-03	  -45.5	 -35.5	  136159789904.2	320353734417.3	16.5	
2012-07-30-00-03	   41.5	 -42.0	  118980221700.8	269534467326.5	15.9	
2012-07-30-00-03	  173.5	 -34.0	  115786455606.0	266108343957.5	16.1	
2012-07-30-00-03	   44.5	 -34.0	  127035808472.9	250480319013.5	13.8	
2012-07-30-00-03	   49.0	 -38.5	   58055146557.9	134223334575.8	16.2	
2012-07-30-00-03	   40.0	 -35.0	   48275224431.3	86988382992.7	12.6	
2012-07-30-00-03	   26.5	 -46.0	   17255234981.8	32938262806.1	13.3	
2012-07-30-03-06	  -93.5	 -55.0	  334493597226.8	1213821661970.5	25.6	
2012-07-30-03-06	  -44.5	 -36.0	  247939956091.5	551062834228.3	15.5	
2012-07-30-03-06	  167.0	 -41.5	  156469336465.7	425811813080.4	19.0	
2012-07-30-03-06	   41.0	 -42.5	  143037136209.5	334161920746.3	16.3	
2012-07-30-03-06	   44.5	 -34.0	  119408084057.5	236803705403.2	13.8	
2012-07-30-03-06	  174.5	 -34.5	   92442088673.9	231117129610.6	17.4	
2012-07-30-03-06	   27.5	 -46.0	   39016507122.2	76099608337.0	13.5	
2012-07-30-03-06	   49.0	 -38.5	   19352451937.0	43616347170.1	15.7	
2012-07-30-03-06	   39.5	 -35.5	   20271491252.1	36277746364.3	12.4	
2012-07-30-06-09	  -92.0	 -54.5	  450182496927.9	1634483559260.4	25.7	
2012-07-30-06-09	  -43.0	 -36.5	  288567189421.2	577448450190.7	14.0	
2012-07-30-06-09	   40.5	 -43.0	  153425037734.4	364115213406.7	16.5	
2012-07-30-06-09	  167.0	 -42.0	  118375016259.1	283346035192.1	16.6	
2012-07-30-06-09	  175.0	 -34.5	   99751417737.5	257654582571.2	17.9	
2012-07-30-06-09	   44.5	 -33.5	  111781531977.8	226703552526.8	14.1	
2012-07-30-06-09	   28.0	 -46.0	   30388889631.3	59951932620.2	13.7	
2012-07-30-06-09	 -180.0	 -32.5	    5228371149.6	11550928007.6	15.3	
2012-07-30-09-12	  -90.5	 -54.0	  582614097249.9	2043863542438.7	24.9	
2012-07-30-09-12	  -41.0	 -37.5	  265948105651.3	485453247617.4	12.7	
2012-07-30-09-12	   40.0	 -43.5	  183600021336.5	445100115460.7	16.8	
2012-07-30-09-12	  176.0	 -35.0	  132346366746.6	301042441475.8	15.8	
2012-07-30-09-12	   45.0	 -33.5	  104093868285.2	211080263098.4	14.0	
2012-07-30-09-12	  167.0	 -42.0	   78287856216.2	195088749098.7	17.2	
2012-07-30-09-12	  172.5	 -47.0	   14795904484.8	36979302332.6	17.3	
2012-07-30-09-12	   28.5	 -45.5	   13076019141.9	24921113952.9	13.2	
2012-07-30-09-12	 -180.0	 -32.5	    2606988598.1	5307775239.3	14.1	
2012-07-30-09-12	   39.5	 -35.0	    2532062659.2	4884630815.6	13.3	
2012-07-30-09-12	 -180.0	 -33.5	    2577606140.7	2510008540.9	6.7	
2012-07-30-12-15	  -89.0	 -53.5	  641239409070.2	2133935825598.3	23.6	
2012-07-30-12-15	   38.5	 -44.5	  223778106024.6	593062420841.4	18.4	
2012-07-30-12-15	  177.0	 -35.0	  118917937199.5	275528440462.1	16.0	
2012-07-30-12-15	   45.0	 -33.0	  101692716995.7	196437184707.5	13.3	
2012-07-30-12-15	  167.0	 -42.0	   57620802362.2	142602846393.7	17.1	
2012-07-30-12-15	  173.0	 -47.0	   33885973768.8	93050580374.8	18.9	
2012-07-30-12-15	  -37.0	 -40.0	   14259163594.0	25218765384.3	12.2	
2012-07-30-12-15	 -180.0	 -34.0	   12827889312.3	20453223984.3	11.0	
2012-07-30-12-15	   39.5	 -35.5	   10128057919.2	18840914586.5	12.8	
2012-07-30-12-15	 -180.0	 -35.5	    2516494527.9	5540817341.9	15.2	
2012-07-30-15-18	  -87.5	 -53.0	  535218461186.7	1647879003793.1	21.7	
2012-07-30-15-18	   38.0	 -45.0	  266621133005.6	742168665325.0	19.4	
2012-07-30-15-18	  178.0	 -35.5	   88350808327.2	201198544771.9	15.8	
2012-07-30-15-18	   45.0	 -32.5	   81133380394.6	161994823159.4	13.8	
2012-07-30-15-18	  173.5	 -46.5	   57387436997.8	159860923772.4	19.3	
2012-07-30-15-18	  167.5	 -42.5	   20763173219.4	53214791935.4	17.7	
2012-07-30-15-18	 -180.0	 -36.0	   17615078102.0	35146399167.4	13.8	
2012-07-30-15-18	   46.0	 -44.5	   13265920571.0	32031994504.4	16.7	
2012-07-30-15-18	  -93.0	 -55.0	    5318773835.5	14138580948.0	18.4	
2012-07-30-18-21	  -87.0	 -52.5	  419781773578.4	1169332702682.5	19.5	
2012-07-30-18-21	   38.0	 -45.0	  331862854967.0	945762566349.7	19.9	
2012-07-30-18-21	  174.0	 -46.5	   63907266614.3	178973719237.5	19.3	
2012-07-30-18-21	   45.0	 -32.0	   65568575338.3	122988444166.0	12.9	
2012-07-30-18-21	 -178.5	 -36.0	   57829411785.1	114347979786.2	13.6	
2012-07-30-18-21	  179.0	 -35.5	   45293834415.2	90236922862.3	13.7	
2012-07-30-18-21	  -26.0	 -46.5	    8550001978.5	18808742010.1	15.2	
2012-07-30-21-24	   38.0	 -45.0	  391301951988.8	1096984957209.5	19.5	
2012-07-30-21-24	  -86.5	 -52.0	  308614669490.0	793383843262.3	17.8	
2012-07-30-21-24	  174.5	 -46.5	   57661846455.1	160564803611.3	19.1	
2012-07-30-21-24	 -178.0	 -36.0	   65346418556.8	136471989055.1	14.3	
2012-07-30-21-24	   45.0	 -32.0	   50001788015.8	97785599320.5	13.4	
2012-07-30-21-24	  134.0	  20.0	   37684826100.2	64958776343.8	11.8	
2012-07-30-21-24	 -180.0	 -36.5	    4985518949.4	8998867722.6	12.4	
2012-07-30-21-24	  179.0	 -36.5	    5001469199.9	6709852401.5	9.2	
2012-07-31-00-03	   39.0	 -45.0	  419865052708.4	1184730560848.5	19.6	
2012-07-31-00-03	  -86.5	 -51.0	  203296421416.0	493611520989.3	16.7	
2012-07-31-00-03	  134.0	  20.0	   95723672346.7	169974963738.3	12.2	
2012-07-31-00-03	  174.5	 -46.5	   53406493096.9	136109982205.6	17.4	
2012-07-31-00-03	 -177.5	 -36.0	   50123484491.9	98952468590.9	13.5	
2012-07-31-00-03	   45.0	 -32.0	   42081465344.9	82351148525.7	13.4	
2012-07-31-00-03	 -147.5	 -39.0	    2402218422.6	3869883243.4	11.0	
2012-07-31-03-06	   39.5	 -45.0	  430867944431.1	1201560918705.2	19.2	
2012-07-31-03-06	  -86.0	 -50.0	  106760314550.3	257218858015.5	16.4	
2012-07-31-03-06	  133.5	  20.0	  136509254454.4	251537138592.9	12.6	
2012-07-31-03-06	  175.0	 -46.5	   38513165177.6	95820079427.9	16.9	
2012-07-31-03-06	   45.0	 -32.0	   34218717934.4	69078099873.5	13.7	
2012-07-31-03-06	 -177.5	 -36.5	   30008053909.0	56384738162.8	12.8	
2012-07-31-06-09	   40.5	 -45.0	  422821798065.6	1159930126456.5	18.8	
2012-07-31-06-09	  133.5	  20.0	  180122380136.6	333403368358.7	12.5	
2012-07-31-06-09	  -85.5	 -50.0	   61877926476.0	146002965821.6	15.9	
2012-07-31-06-09	  175.5	 -46.5	   23580378020.2	58972532962.8	16.9	
2012-07-31-06-09	   45.0	 -32.0	   10542108160.8	21584004399.9	13.8	
2012-07-31-06-09	 -138.5	 -55.5	    7069715111.4	20379564988.3	19.5	
2012-07-31-06-09	  124.0	  20.5	    2895326796.1	4206705458.5	9.8	
2012-07-31-09-12	   40.5	 -45.0	  405341000393.6	1096916975440.1	18.4	
2012-07-31-09-12	  133.5	  19.5	  212235755464.4	391249900496.6	12.4	
2012-07-31-09-12	  176.0	 -46.5	   32149376148.0	81494216388.0	17.0	
2012-07-31-09-12	  123.5	  20.5	   31799929837.7	61782203113.0	13.0	
2012-07-31-09-12	  -36.5	 -46.5	   12805517101.7	23621960419.4	12.4	
2012-07-31-09-12	 -138.5	 -55.5	    5296745421.5	16774135536.7	21.2	
2012-07-31-09-12	  170.5	  57.5	    6597713938.8	14657458955.2	14.9	
2012-07-31-09-12	  -84.5	 -50.0	    3973813343.7	8549908694.9	14.4	
2012-07-31-12-15	   40.5	 -44.5	  372566569611.5	968397496647.2	17.5	
2012-07-31-12-15	  133.0	  19.5	  247004418588.4	450437977888.0	12.2	
2012-07-31-12-15	  176.0	 -46.5	   42787840425.9	110271252474.7	17.2	
2012-07-31-12-15	  123.5	  21.0	   51892779278.8	100163593543.9	12.9	
2012-07-31-12-15	   51.5	 -31.0	   15979771352.2	29876227650.4	12.5	
2012-07-31-12-15	  170.5	  57.0	    9964757805.4	29508115271.0	19.8	
2012-07-31-12-15	  166.0	 -39.0	    2402218422.6	2621250479.1	7.3	
2012-07-31-15-18	   40.5	 -44.5	  328769206302.1	820585482320.7	16.7	
2012-07-31-15-18	  133.0	  19.5	  279022914872.0	503488890051.4	12.1	
2012-07-31-15-18	  176.0	 -46.5	   47062515674.3	123341954513.1	17.4	
2012-07-31-15-18	  123.5	  21.0	   66281864491.4	120924839335.7	12.1	
2012-07-31-15-18	  -19.5	 -56.0	   29517904471.7	85817425810.4	19.3	
2012-07-31-15-18	   52.0	 -31.0	   23969657028.3	46011701532.0	12.8	
2012-07-31-15-18	  166.0	 -39.0	    4821320837.1	5340466546.3	7.4	
2012-07-31-18-21	   40.0	 -44.5	  268784102644.8	643850395119.2	15.9	
2012-07-31-18-21	  133.0	  20.0	  302151788156.3	544496432985.1	12.0	
2012-07-31-18-21	  -18.0	 -55.5	   54604617025.3	152990449353.2	18.5	
2012-07-31-18-21	  123.5	  21.0	   80481481797.7	141222785227.5	11.6	
2012-07-31-18-21	  176.0	 -46.5	   40640596998.3	106056058891.2	17.2	
2012-07-31-18-21	   52.0	 -30.5	   21401618237.4	38821457721.1	12.0	
2012-07-31-18-21	  165.5	 -38.5	    9676225968.5	15837632661.9	10.8	
2012-07-31-21-24	  133.0	  20.0	  310581124680.3	564293333247.4	12.0	
2012-07-31-21-24	   39.5	 -45.0	  202334936843.0	463247218562.6	15.1	
2012-07-31-21-24	   -6.0	 -52.0	  111019616595.9	271942305487.0	16.1	
2012-07-31-21-24	  123.5	  21.5	   80241823627.3	133701269953.1	10.9	
2012-07-31-21-24	  176.0	 -46.5	   34218516557.3	86915900196.2	16.6	
2012-07-31-21-24	  -17.5	 -56.0	   33264512233.9	84104687263.1	16.6	
2012-07-31-21-24	   30.5	 -43.5	   18048231537.8	36728589234.2	13.3	
2012-07-31-21-24	   52.0	 -30.0	   16074892675.4	27525192461.3	11.2	
2012-07-31-21-24	  165.5	 -38.5	    9676225968.5	15802253331.7	10.7	
