2011-10-01-00-03	  -30.0	  62.0	  112829051765.8	527488614377.5	34.4	
2011-10-01-00-03	  155.5	 -46.0	  204092141446.1	462933802525.7	16.7	
2011-10-01-00-03	  146.5	 -47.5	   21041162878.9	46264817469.6	16.1	
2011-10-01-00-03	 -148.5	 -37.5	    4904633867.8	9763758169.1	14.6	
2011-10-01-00-03	  165.5	 -48.5	    2048209897.0	4770395429.3	17.0	
2011-10-01-03-06	  -29.5	  61.5	  115181738683.6	452097058416.9	28.7	
2011-10-01-03-06	  156.0	 -46.5	  190049613435.5	426080456763.7	16.4	
2011-10-01-03-06	 -148.0	 -37.5	   85808788092.3	173826844910.3	14.8	
2011-10-01-03-06	  122.5	  16.5	   26571217470.9	49386748885.6	13.5	
2011-10-01-03-06	  146.5	 -47.5	   10500933808.4	20078349733.9	13.9	
2011-10-01-06-09	  157.0	 -47.0	  199760642831.5	452912720971.9	16.5	
2011-10-01-06-09	 -146.5	 -37.5	  180884998956.6	356202021840.8	14.3	
2011-10-01-06-09	  -30.0	  62.0	   44693097593.6	173451708620.4	28.1	
2011-10-01-06-09	  -27.0	  60.0	   30722137147.8	114884926211.7	27.0	
2011-10-01-09-12	  158.0	 -47.0	  172408555468.4	416841309145.6	17.4	
2011-10-01-09-12	 -146.0	 -38.0	  190639740278.4	353830279266.4	13.3	
2011-10-01-09-12	  -29.5	  63.0	   32224449296.7	125317769323.6	27.9	
2011-10-01-09-12	  -26.0	  60.5	    3044239589.4	10863881500.4	25.5	
2011-10-01-09-12	  -24.5	  61.0	    1498584276.2	5463865307.1	26.1	
2011-10-01-12-15	  158.5	 -47.5	  141477913363.3	350447908761.4	17.6	
2011-10-01-12-15	 -144.5	 -38.0	  100251807563.0	175108418290.7	12.4	
2011-10-01-12-15	  -30.0	  63.5	   31744010457.8	123462967226.5	27.6	
2011-10-01-12-15	   60.0	 -44.0	   44786955381.1	101438331978.4	16.1	
2011-10-01-12-15	  138.5	 -52.0	   28735497811.9	77458922224.8	19.1	
2011-10-01-12-15	  157.5	  47.5	    6264906025.2	14468669620.3	16.4	
2011-10-01-12-15	  127.5	  17.0	    2956012624.3	5273645914.7	12.6	
2011-10-01-15-18	  159.0	 -47.0	  131007371661.8	322643930240.2	17.4	
2011-10-01-15-18	  160.5	  49.0	  118383923652.0	269514521038.0	16.1	
2011-10-01-15-18	  144.5	 -55.0	   57062744233.9	172758131109.1	21.4	
2011-10-01-15-18	 -142.5	 -38.5	   89610773100.7	156157442085.8	12.3	
2011-10-01-15-18	  138.5	 -52.5	   45605925722.1	127344076380.6	19.7	
2011-10-01-15-18	   61.5	 -43.5	   58424564766.2	120768940589.1	14.6	
2011-10-01-15-18	  -30.0	  63.5	   24631594544.0	96099385364.6	27.5	
2011-10-01-15-18	  -32.0	  58.0	   11305342166.9	35879167658.4	22.4	
2011-10-01-15-18	  127.5	  17.0	    2956012624.3	5214296779.3	12.4	
2011-10-01-15-18	  -60.0	  28.0	    2729259911.2	4940844174.2	12.7	
2011-10-01-18-21	  161.5	  50.5	  236130212216.5	609635833970.9	18.3	
2011-10-01-18-21	  160.0	 -47.0	   97606259567.7	227634016521.3	16.5	
2011-10-01-18-21	  144.5	 -55.0	   69757714300.5	211836981299.5	21.4	
2011-10-01-18-21	  138.5	 -52.0	   47594005282.4	132610416367.6	19.7	
2011-10-01-18-21	  -29.5	  64.0	   13501596706.1	51928821934.9	27.1	
2011-10-01-18-21	  -30.5	  58.5	   16035535507.7	46714577101.2	20.5	
2011-10-01-18-21	 -141.0	 -39.5	   14345042755.6	25232448949.4	12.4	
2011-10-01-21-24	  162.0	  51.0	  190974720228.0	499104513889.5	18.6	
2011-10-01-21-24	  145.0	 -55.0	   48263970340.4	147312418785.8	21.6	
2011-10-01-21-24	 -130.0	 -44.0	   51566750387.5	107134331888.4	14.7	
2011-10-01-21-24	  160.0	 -46.5	   42650309956.4	93647605818.4	15.6	
2011-10-01-21-24	  138.5	 -52.0	   28778009765.6	79414771730.0	19.6	
2011-10-01-21-24	  -28.5	  59.0	   19057548622.4	70976003123.9	26.4	
2011-10-02-00-03	  161.5	  51.5	   92439088467.4	244013498145.2	18.9	
2011-10-02-00-03	 -128.5	 -44.0	  113650242782.9	228600669997.0	14.4	
2011-10-02-00-03	  145.0	 -55.0	   23224153240.5	69264480517.6	21.3	
2011-10-02-00-03	  -28.0	  59.0	    9482591600.0	35481774528.8	26.7	
2011-10-02-00-03	  138.5	 -52.0	    7696818707.5	20615406943.0	19.1	
2011-10-02-03-06	  161.5	  51.5	   46010864798.6	119153633839.9	18.5	
2011-10-02-03-06	 -129.5	 -43.0	   20436900759.4	39757461131.4	13.9	
2011-10-02-03-06	 -126.0	 -45.0	    8780869381.7	17103177202.7	13.9	
2011-10-02-03-06	  145.0	 -54.5	    3589996207.6	11177590488.2	22.2	
2011-10-02-06-09	 -119.0	 -52.0	   74335159838.3	193760997768.4	18.8	
2011-10-02-06-09	  160.5	 -33.5	   36394504594.5	95969541016.7	18.9	
2011-10-02-06-09	  161.5	  51.5	   34423488847.0	89533089759.7	18.7	
2011-10-02-09-12	 -119.0	 -53.0	  155555451153.1	453312788291.9	21.2	
2011-10-02-09-12	  161.5	 -34.0	   82633687799.8	208484791197.8	18.3	
2011-10-02-09-12	  161.5	  52.0	   15245355468.4	39396054244.1	18.7	
2011-10-02-09-12	   -2.0	 -54.0	    9084449970.1	20529269396.7	16.3	
2011-10-02-12-15	 -119.0	 -53.5	  195019504558.9	582353546532.9	21.9	
2011-10-02-12-15	  161.5	 -34.5	   95392804876.2	221741038207.5	16.9	
2011-10-02-12-15	   -2.0	 -54.0	    7267559976.1	17560607933.2	17.6	
2011-10-02-15-18	 -119.5	 -54.0	  184290850579.5	531513394181.3	21.2	
2011-10-02-15-18	  162.5	 -35.5	   91846141054.5	212659866421.9	17.0	
2011-10-02-15-18	  170.5	  56.5	   23794114730.5	85396644027.0	26.3	
2011-10-02-15-18	   -2.0	 -54.0	    5450669982.1	12417377029.5	16.7	
2011-10-02-15-18	  -58.5	  32.0	    2621382735.7	4566168145.8	12.7	
2011-10-02-18-21	 -120.0	 -54.5	  131178573203.8	361969037538.1	20.4	
2011-10-02-18-21	  163.5	 -36.5	   84997406704.1	211636195260.9	18.4	
2011-10-02-18-21	  170.5	  56.5	   30505386965.5	111047426207.0	26.8	
2011-10-02-18-21	  -58.0	  31.5	   15742291666.3	29473882313.8	13.8	
2011-10-02-18-21	 -117.0	 -58.0	    6597711727.9	21662620521.4	24.2	
2011-10-02-21-24	  164.0	 -37.0	   99567597051.2	241434459298.3	18.0	
2011-10-02-21-24	  170.0	  55.5	   62570198154.3	196312775602.6	23.3	
2011-10-02-21-24	 -120.5	 -55.0	   66869150129.1	175870641877.3	19.5	
2011-10-02-21-24	 -115.5	 -59.0	   12943360415.2	42417844679.8	24.3	
2011-10-02-21-24	   -4.0	 -53.5	    1838643333.8	4336332462.3	17.5	
2011-10-03-00-03	  164.5	 -37.5	  106314373941.0	253746371938.3	17.8	
2011-10-03-00-03	  170.0	  55.5	   78612224528.9	249560780241.2	23.7	
2011-10-03-00-03	 -121.0	 -55.0	    7135935587.4	23202767777.1	24.2	
2011-10-03-00-03	   -4.5	 -54.0	    7332819995.4	18324747314.6	18.6	
2011-10-03-00-03	   -3.0	 -54.0	    3633779988.0	8399273579.6	17.2	
2011-10-03-03-06	  170.0	  56.0	   99255355402.3	305349181066.2	23.0	
2011-10-03-03-06	  165.0	 -38.0	  105877732977.0	252322394859.4	17.8	
2011-10-03-03-06	   -3.5	 -54.0	   12783489977.4	30879646185.0	18.0	
2011-10-03-03-06	  163.0	  54.0	    5428778644.6	15444696148.5	21.2	
2011-10-03-06-09	  170.5	  56.0	  100893377335.4	323926031107.5	24.0	
2011-10-03-06-09	  165.0	 -38.0	  100679044600.3	231968173012.3	17.2	
2011-10-03-06-09	  163.0	  53.5	    9106066049.1	28160407107.9	23.0	
2011-10-03-06-09	  -14.0	  69.0	    4405748659.5	23321802938.2	39.4	
2011-10-03-06-09	   -2.5	 -54.0	    7267559976.1	17172173222.7	17.6	
2011-10-03-06-09	   -4.0	 -53.5	    1838643333.8	4257266025.6	17.2	
2011-10-03-09-12	  170.0	  56.0	   90706639068.7	295437243171.1	24.3	
2011-10-03-09-12	  165.0	 -38.5	   75833088671.5	170662286960.2	16.7	
2011-10-03-09-12	  -13.5	  68.5	   20089543576.1	110899033511.8	41.0	
2011-10-03-09-12	  -30.5	  64.5	   13307131127.1	67247813369.8	37.5	
2011-10-03-09-12	   -2.5	 -54.0	    9084449970.1	21475143719.7	17.5	
2011-10-03-09-12	   -6.0	 -56.5	    5118240687.0	15490128360.2	22.4	
2011-10-03-09-12	   -5.0	 -55.5	    5296745421.5	10210070453.2	14.3	
2011-10-03-12-15	  170.0	  55.5	   82423403243.2	256230428742.1	23.1	
2011-10-03-12-15	  -13.0	  68.5	   33531689800.6	184483966846.4	40.8	
2011-10-03-12-15	  165.5	 -38.5	   51215124487.3	114249363088.7	16.5	
2011-10-03-12-15	  -30.5	  64.5	   21242495271.8	103352458551.3	36.0	
2011-10-03-12-15	   -6.0	 -56.5	   27676726143.9	73060371145.7	19.5	
2011-10-03-12-15	   -2.0	 -54.5	   12674446177.8	30841765552.1	18.0	
2011-10-03-15-18	  -13.0	  68.5	   42568677586.8	236097276143.9	41.1	
2011-10-03-15-18	   -4.5	 -55.5	   44142361819.0	109330642825.3	18.3	
2011-10-03-15-18	  -30.0	  64.5	   24219921953.2	105568073110.6	32.2	
2011-10-03-15-18	  168.5	  54.0	   32505895900.2	88321931101.0	20.1	
2011-10-03-15-18	  170.5	  56.0	   23794114730.5	87787459939.9	27.3	
2011-10-03-15-18	  165.5	 -38.5	   34116451314.6	73006270020.0	15.8	
2011-10-03-15-18	   47.5	 -49.5	    2007494492.9	3759272974.2	13.8	
2011-10-03-18-21	  -12.5	  68.5	   52813624263.5	293680204900.6	41.2	
2011-10-03-18-21	  -30.0	  64.0	   22962269240.1	89527120476.1	28.8	
2011-10-03-18-21	  170.5	  56.0	   13557892401.6	49307413076.3	26.8	
2011-10-03-18-21	   -5.5	 -56.0	   19146585149.4	46124771922.9	17.8	
2011-10-03-18-21	  165.5	 -38.5	   12145612979.4	24298395294.5	14.8	
2011-10-03-18-21	 -128.0	  48.5	    4096420899.5	10131486667.2	18.2	
2011-10-03-18-21	  168.0	  54.0	    3633780356.5	6313620215.0	12.8	
2011-10-03-18-21	   -2.5	 -54.0	    1816889994.0	3964706602.9	16.1	
2011-10-03-21-24	  -12.5	  68.5	   53694366542.9	296949940091.4	40.9	
2011-10-03-21-24	   45.5	 -46.0	   49847352182.0	163402498214.0	24.2	
2011-10-03-21-24	  -32.0	  64.0	   42367972355.7	161976355319.9	28.2	
2011-10-03-21-24	  171.0	  57.0	    1683521933.3	7063382997.7	30.9	
2011-10-04-00-03	  -32.5	  63.5	   80036943550.9	329844214278.4	30.5	
2011-10-04-00-03	  -12.5	  69.0	   54373654092.3	289150397553.7	39.4	
2011-10-04-00-03	   46.0	 -45.5	   76111671223.7	231070738740.4	22.5	
2011-10-04-03-06	  -32.0	  63.5	   85841637166.4	368103330462.4	31.9	
2011-10-04-03-06	   46.5	 -45.5	   82764117375.3	237824186843.9	21.3	
2011-10-04-03-06	  -12.5	  69.0	   47073116993.6	237535551742.0	37.4	
2011-10-04-06-09	  -31.5	  63.5	   73236161193.4	307069270113.5	31.3	
2011-10-04-06-09	  -12.0	  69.0	   41130760253.9	192034602583.2	34.8	
2011-10-04-06-09	   46.5	 -45.5	   67638788223.8	179480279624.7	19.8	
2011-10-04-06-09	   57.5	 -47.5	   43732311668.6	108943906023.3	18.5	
2011-10-04-09-12	   58.5	 -47.5	   73519939386.9	190318265419.3	19.4	
2011-10-04-09-12	  -31.0	  63.5	   46962368857.7	186653782357.9	29.8	
2011-10-04-09-12	  -12.0	  69.0	   31490717597.8	135882492888.4	32.4	
2011-10-04-09-12	   46.0	 -45.0	   28356253024.5	71763337716.0	19.0	
2011-10-04-09-12	  -35.5	 -38.5	   14581229611.2	26977565942.3	13.9	
2011-10-04-12-15	  -11.5	  68.0	   50019337952.7	220451099249.5	33.3	
2011-10-04-12-15	   60.0	 -47.0	   65485408227.8	159900976518.3	18.4	
2011-10-04-12-15	  -33.0	 -39.5	   57649403078.3	123690861667.3	16.2	
2011-10-04-12-15	  -30.5	  63.5	   27462215798.9	106068627156.4	29.2	
2011-10-04-12-15	 -151.0	 -60.0	   34046342398.6	105487294975.0	23.4	
2011-10-04-12-15	   46.0	 -45.5	    4352287444.4	8605635915.1	14.9	
2011-10-04-15-18	  -11.0	  68.5	   69074576080.7	355940978835.0	39.1	
2011-10-04-15-18	  -30.5	 -41.0	  117821629417.8	271392899355.6	17.5	
2011-10-04-15-18	 -151.5	 -60.0	   52824398678.8	173717050702.1	24.9	
2011-10-04-15-18	   61.0	 -46.5	   42748706928.8	96911912961.3	17.2	
2011-10-04-15-18	  -30.0	  63.5	   13695238628.5	51405017991.3	28.4	
2011-10-04-15-18	  162.0	  50.5	    1966167403.4	4976926475.1	19.1	
2011-10-04-18-21	  -10.5	  68.5	   67515112429.4	353807471219.0	39.8	
2011-10-04-18-21	  -29.0	 -41.5	   93075457992.4	193448852820.0	15.8	
2011-10-04-18-21	 -151.5	 -60.0	   54393002237.1	182451627756.3	25.4	
2011-10-04-18-21	 -138.0	 -55.5	    8820521153.2	25312529649.3	21.7	
2011-10-04-18-21	   61.5	 -45.5	   12979904935.3	24993691948.9	14.6	
2011-10-04-18-21	  -30.0	  64.0	    2710078966.6	10638245093.5	29.7	
2011-10-04-21-24	  -11.0	  68.5	   47150659638.0	228058679722.1	36.6	
2011-10-04-21-24	 -151.5	 -60.0	   51465261824.2	172352048555.9	25.3	
2011-10-04-21-24	  -25.0	 -43.0	   45577374935.8	103605442783.4	17.2	
2011-10-04-21-24	 -138.0	 -55.0	   15956321506.5	47312789432.9	22.4	
2011-10-05-00-03	 -151.0	 -59.5	   61481710365.6	197740628777.8	24.2	
2011-10-05-00-03	   11.0	  73.0	   12523060019.7	80689177267.0	48.5	
2011-10-05-00-03	  -11.5	  68.5	   17849257450.2	77955784318.8	32.9	
2011-10-05-00-03	  -24.0	 -43.5	   24848383140.9	54179455642.4	16.4	
2011-10-05-00-03	 -138.5	 -55.0	   10659711319.1	31444805440.8	22.2	
2011-10-05-00-03	  -94.0	 -55.5	    1750806041.8	4643267039.1	19.9	
2011-10-05-03-06	 -151.0	 -59.5	   63304444903.4	202015632235.6	23.9	
2011-10-05-03-06	   10.5	  72.5	   28066412328.1	185758840956.2	49.6	
2011-10-05-03-06	  -94.5	 -55.5	    5252418125.5	13962975680.0	19.9	
2011-10-05-03-06	 -138.5	 -55.0	    3545939379.7	9551716963.8	20.1	
2011-10-05-06-09	    8.5	  72.5	   59434268852.3	385598584310.0	48.5	
2011-10-05-06-09	 -151.0	 -59.5	   58296829738.8	187588708238.4	24.0	
2011-10-05-06-09	   -2.0	  71.5	   14507260628.3	95332650285.8	48.9	
2011-10-05-09-12	   11.0	  72.0	   37512406806.7	250527729394.6	49.5	
2011-10-05-09-12	   -1.0	  71.5	   29193471950.4	182455128824.8	46.3	
2011-10-05-09-12	  -14.5	 -46.5	   70811879719.2	178707965838.3	18.7	
2011-10-05-09-12	 -151.5	 -60.0	   50036222036.9	162113064479.2	24.0	
2011-10-05-12-15	  -13.5	 -47.0	  177386273586.1	482524995929.5	20.1	
2011-10-05-12-15	   11.0	  72.0	   37096460800.9	229438798466.3	45.5	
2011-10-05-12-15	 -151.5	 -60.0	   43901850236.9	144707717358.3	24.2	
2011-10-05-15-18	  -12.5	 -47.5	  157995138993.6	459881286452.6	21.4	
2011-10-05-15-18	   11.5	  71.5	   29583852360.7	170372200469.1	42.2	
2011-10-05-15-18	 -151.5	 -60.0	   40787470410.2	134910920812.0	24.2	
2011-10-05-15-18	  -16.5	 -42.5	   13655405930.7	32751184208.0	17.5	
2011-10-05-18-21	  -11.0	 -48.0	  108734404938.3	301550031840.5	20.3	
2011-10-05-18-21	   11.5	  71.5	   16263581788.2	92994898381.9	41.8	
2011-10-05-18-21	  -37.0	  61.5	   11704433935.9	38585468702.7	24.1	
2011-10-05-18-21	   -6.0	 -51.5	    3890557428.3	10759975898.6	20.2	
2011-10-05-18-21	 -150.0	 -59.0	    1592022819.7	5132004112.1	23.5	
2011-10-05-18-21	 -151.0	 -59.5	    1568840678.5	4752067024.4	22.1	
2011-10-05-18-21	  -39.5	  60.5	    1522119794.7	4606728283.3	22.1	
2011-10-05-21-24	  -34.5	  61.5	  102498665530.3	339835247321.0	24.2	
2011-10-05-21-24	   -5.5	 -51.5	   79122512419.7	208564790788.3	19.2	
2011-10-05-21-24	  -10.5	 -48.0	   37408462013.2	107290794777.4	20.9	
2011-10-05-21-24	   11.5	  71.5	    9654356003.2	54985631602.8	41.5	
2011-10-06-00-03	  -33.0	  62.0	  149179510310.5	568605926016.6	27.8	
2011-10-06-00-03	   -4.0	 -52.5	  120096487009.7	318892382938.7	19.3	
2011-10-06-00-03	  103.5	 -55.5	   10615519257.1	33398815063.1	22.7	
2011-10-06-00-03	   43.5	 -49.5	   10078342264.0	31348142708.6	22.5	
2011-10-06-00-03	  -10.5	 -48.0	    6205003596.6	15150884358.8	17.6	
2011-10-06-00-03	   12.0	  71.5	    1961627297.2	11309841530.0	41.7	
2011-10-06-03-06	  -32.5	  62.5	  168290448477.7	720270520521.6	30.9	
2011-10-06-03-06	   -3.0	 -53.0	  105177994314.6	261064388721.0	17.8	
2011-10-06-03-06	  105.0	 -55.5	   31712905608.4	97053328325.0	21.9	
2011-10-06-03-06	   60.0	 -42.0	   34760189254.0	65495788965.7	13.5	
2011-10-06-03-06	   44.5	 -50.0	    3994401164.8	12133380147.2	21.7	
2011-10-06-06-09	  -32.0	  62.5	  170645258699.4	747658205951.4	31.6	
2011-10-06-06-09	  106.5	 -56.5	   31066592878.6	93677037878.9	21.5	
2011-10-06-06-09	   63.5	 -43.5	   40578948686.7	82621136835.9	14.5	
2011-10-06-06-09	   -2.0	 -53.5	   20333144169.7	47692248892.8	16.7	
2011-10-06-06-09	   45.5	 -49.5	    2007494492.9	6668253660.4	23.7	
2011-10-06-09-12	  -32.0	  62.5	  147266471748.7	620609779198.6	30.2	
2011-10-06-09-12	  108.5	 -57.0	   37237536835.1	118089954023.8	22.6	
2011-10-06-09-12	   -0.5	 -54.0	   20094556633.0	46063052207.8	16.3	
2011-10-06-12-15	  -31.5	  62.5	  110214079106.6	406888758639.6	26.3	
2011-10-06-12-15	    7.0	 -54.5	   63129496603.8	207250715015.0	23.3	
2011-10-06-12-15	  109.5	 -57.5	   36694375273.9	114188442370.2	22.0	
2011-10-06-12-15	  -15.0	  62.5	   20077048795.5	95633128384.5	33.7	
2011-10-06-12-15	    0.0	 -54.0	   25610486634.4	61951101991.5	17.1	
2011-10-06-15-18	    7.5	 -54.5	  170067700518.4	643956038142.7	26.8	
2011-10-06-15-18	  -31.5	  62.0	   54372270154.0	189593840491.1	24.5	
2011-10-06-15-18	  -15.5	  62.0	   40677832704.5	185935724137.7	32.1	
2011-10-06-15-18	  111.5	 -58.0	   54437249571.8	165676840160.4	21.4	
2011-10-06-15-18	 -169.0	 -46.0	   66637736630.8	153940944639.7	16.2	
2011-10-06-15-18	   -0.5	 -53.5	   22041547145.2	52168858989.3	16.6	
2011-10-06-18-21	    8.0	 -54.0	  227575976158.8	920358152908.2	28.4	
2011-10-06-18-21	 -168.5	 -46.5	  158619961113.6	374696788823.5	16.5	
2011-10-06-18-21	  113.5	 -58.5	   63760924926.5	191428179238.1	20.9	
2011-10-06-18-21	  -16.5	  61.5	   43937698872.6	174908858440.9	27.7	
2011-10-06-18-21	  150.0	  39.0	   24055590725.6	62329358777.5	18.0	
2011-10-06-18-21	  -30.5	  63.5	    8251095809.1	28145327403.2	23.7	
2011-10-06-18-21	  -11.5	  55.0	    5252417572.8	14141077163.8	18.7	
2011-10-06-18-21	    1.5	 -53.5	    1838643333.8	4403811166.1	16.6	
2011-10-06-18-21	    0.0	 -54.0	    1838643333.8	4156453972.6	15.7	
2011-10-06-21-24	    8.5	 -54.0	  289812350301.6	1108846888870.8	26.8	
2011-10-06-21-24	 -167.5	 -46.5	  241342373517.7	591925566820.0	17.0	
2011-10-06-21-24	  151.0	  39.0	   74464576632.2	173459437397.5	16.1	
2011-10-06-21-24	  115.0	 -59.0	   40397444298.4	111902971865.6	19.1	
2011-10-06-21-24	  -17.0	  61.5	   30996610997.8	107587706077.2	24.0	
2011-10-06-21-24	   -8.0	  64.5	   14418202821.3	66530592483.7	31.8	
2011-10-06-21-24	  -12.0	  55.5	    5230120717.3	11730303440.7	15.5	
2011-10-07-00-03	    8.0	 -54.0	  318407157883.3	1158569833564.9	25.4	
2011-10-07-00-03	 -168.0	 -46.5	  352781337882.8	840516927367.7	16.6	
2011-10-07-00-03	  153.0	  39.5	  129130795355.7	299392074280.3	16.0	
2011-10-07-00-03	   -7.5	  64.5	   27333792993.9	124458289431.1	31.3	
2011-10-07-00-03	  -49.0	  49.5	   11983204047.1	37429106831.0	21.5	
2011-10-07-00-03	  -35.5	  55.5	    3501611715.2	10257319001.8	20.1	
2011-10-07-03-06	    8.0	 -53.5	  306124877610.9	1041860823634.7	23.7	
2011-10-07-03-06	 -170.0	 -46.0	  411391403812.0	956519012249.3	16.1	
2011-10-07-03-06	  156.5	  40.0	  182861172391.5	452673400776.2	17.1	
2011-10-07-03-06	  -49.0	  50.0	   51448415049.2	163367134566.2	21.8	
2011-10-07-03-06	   -7.5	  65.0	   28247918835.2	123246581881.5	30.0	
2011-10-07-03-06	  -35.5	  55.5	   33196690321.3	102358560451.8	21.2	
2011-10-07-06-09	 -170.5	 -46.0	  381299308561.3	927610116840.3	16.9	
2011-10-07-06-09	    7.5	 -53.5	  252495574408.3	810266375174.2	22.2	
2011-10-07-06-09	  157.5	  40.0	  205475697815.1	543969909818.7	18.3	
2011-10-07-06-09	  -49.0	  50.0	   72843349886.2	226651324744.1	21.4	
2011-10-07-06-09	  -35.5	  55.5	   59076300492.7	186287564831.1	21.7	
2011-10-07-06-09	   -7.0	  65.5	   20533011649.7	84670274511.8	28.3	
2011-10-07-06-09	  174.0	  40.0	   23555775368.6	51291124884.7	14.9	
2011-10-07-09-12	 -169.0	 -47.0	  378071030326.7	1103953181368.2	20.3	
2011-10-07-09-12	  160.0	  40.5	  293769972958.2	757757790488.9	17.8	
2011-10-07-09-12	    7.5	 -53.5	  165638231637.2	493712398164.9	20.5	
2011-10-07-09-12	  -50.5	  52.0	  126787921106.7	371593730930.1	20.1	
2011-10-07-09-12	  -35.0	  56.0	   82507815465.1	267303037989.4	22.2	
2011-10-07-09-12	 -121.0	  12.0	   36258322043.8	67259858445.9	12.7	
2011-10-07-09-12	  177.0	  39.5	    2385151846.1	5380475362.4	15.4	
2011-10-07-09-12	  -57.0	  29.5	    2690337187.6	3900912994.5	9.9	
2011-10-07-12-15	 -168.0	 -47.5	  469403731836.5	1534895894421.7	22.7	
2011-10-07-12-15	  162.0	  41.0	  392765370524.4	1009123447887.7	17.7	
2011-10-07-12-15	  -51.0	  52.5	  138483646079.1	442915212349.3	21.9	
2011-10-07-12-15	  -34.5	  56.0	   90494548197.6	289735037294.8	21.9	
2011-10-07-12-15	    7.0	 -54.0	   56626606068.0	163860187076.0	19.7	
2011-10-07-12-15	 -121.0	  12.0	   39264452340.7	72065113069.2	12.5	
2011-10-07-12-15	  -57.5	  30.0	   21360853640.5	47807609138.6	15.2	
2011-10-07-12-15	   10.5	 -53.5	    3698900167.2	8068508340.1	14.8	
2011-10-07-15-18	 -167.5	 -48.0	  585811588914.3	1898053431496.0	22.5	
2011-10-07-15-18	  164.5	  41.5	  445022788942.7	1126195321094.8	17.4	
2011-10-07-15-18	  -51.5	  53.0	  136962927357.2	442101263884.4	22.0	
2011-10-07-15-18	  -34.5	  56.5	   71484108750.3	223118612642.9	21.2	
2011-10-07-15-18	  -57.0	  30.0	   82460817941.0	183112364187.4	15.1	
2011-10-07-15-18	 -121.5	  12.0	   48282155269.5	87085905331.6	12.2	
2011-10-07-15-18	    6.5	 -54.0	   10923093303.9	25712569199.8	15.9	
2011-10-07-18-21	 -166.5	 -49.0	  659161985863.9	2003866798396.5	21.1	
2011-10-07-18-21	  166.5	  42.0	  523031184322.2	1301430093839.1	17.1	
2011-10-07-18-21	  -52.0	  53.5	   96094937587.0	306788488742.6	21.7	
2011-10-07-18-21	  -56.5	  30.5	   92906192287.4	205079893439.8	15.0	
2011-10-07-18-21	  -34.5	  56.0	   34253306719.3	99741548288.6	19.7	
2011-10-07-18-21	 -122.0	  12.0	   51311178999.3	87982581992.1	11.6	
2011-10-07-21-24	 -165.0	 -49.5	  617370056109.6	1616474854080.5	18.1	
2011-10-07-21-24	  169.0	  43.0	  612221555233.4	1603850466283.9	18.1	
2011-10-07-21-24	  -55.5	  30.5	   84903325614.6	197321386556.9	15.8	
2011-10-07-21-24	  -41.5	  60.5	   24163562878.2	112324993218.8	31.5	
2011-10-07-21-24	 -122.0	  12.5	   51287826433.8	84654187805.7	11.2	
2011-10-07-21-24	  -52.5	  54.0	   19963069873.5	66545222353.7	22.6	
2011-10-07-21-24	  151.0	  39.5	    4770303692.2	11233236344.8	15.9	
2011-10-07-21-24	  -43.5	  58.0	    4891127963.8	9004616078.2	12.5	
2011-10-08-00-03	  171.0	  44.0	  708485987170.5	1914798626244.2	18.7	
2011-10-08-00-03	 -162.0	 -50.0	  403398085327.8	920926933103.7	15.6	
2011-10-08-00-03	  -42.0	  60.0	   69876362667.0	274977480308.9	26.7	
2011-10-08-00-03	  -54.5	  30.5	   63571473970.5	135926914475.5	14.5	
2011-10-08-00-03	 -122.0	  12.5	   27141714738.4	44358160677.0	11.1	
2011-10-08-00-03	  151.0	  39.5	    9506110168.1	21598125584.4	15.4	
2011-10-08-03-06	  172.5	  45.0	  771582308314.4	2135518663006.0	19.1	
2011-10-08-03-06	  -42.0	  59.5	   83948386628.5	330898399253.7	26.6	
2011-10-08-03-06	 -157.5	 -51.5	   68057636879.7	152891150793.7	15.1	
2011-10-08-03-06	  -55.0	  31.0	   21070022455.9	42760556959.4	13.7	
2011-10-08-03-06	  -36.0	  55.5	    8687138721.6	23204764718.1	18.0	
2011-10-08-03-06	 -122.0	  12.5	    6029660833.6	10027268534.6	11.2	
2011-10-08-03-06	   65.5	 -34.0	    2562619479.0	3994014328.2	10.5	
2011-10-08-06-09	  173.5	  45.0	  877523686240.1	2341628652853.1	18.4	
2011-10-08-06-09	  -42.0	  59.5	   85497483317.1	351292036944.8	27.6	
2011-10-08-06-09	  -36.5	  56.0	   29226735386.1	81899787425.5	18.8	
2011-10-08-06-09	   36.5	 -47.0	    2108109930.5	7001651929.7	22.2	
2011-10-08-06-09	 -156.5	 -48.0	    2068334532.2	4233640837.0	13.7	
2011-10-08-09-12	  174.0	  45.0	  883724318312.5	2309524130470.9	18.0	
2011-10-08-09-12	  -41.5	  59.5	   84936218630.5	330845266872.2	26.1	
2011-10-08-09-12	   -3.0	 -46.5	   21277090320.9	57413189425.8	18.0	
2011-10-08-09-12	   36.5	 -47.5	   14756448931.6	46856118945.5	21.2	
2011-10-08-09-12	  164.0	  41.5	   18448446449.7	27515796224.1	10.0	
2011-10-08-09-12	  -36.5	  56.0	    6869178462.3	19977256018.0	19.4	
2011-10-08-09-12	   42.5	 -52.5	    3763458406.4	11217841988.1	19.9	
2011-10-08-09-12	 -180.0	  44.0	    2223535525.4	4383117226.1	13.2	
2011-10-08-12-15	  174.5	  45.5	  810036566894.7	2071146514478.1	17.5	
2011-10-08-12-15	  -39.5	  61.5	   99373895710.6	425484062667.4	28.7	
2011-10-08-12-15	 -180.0	  47.5	   91123606239.2	258270903674.2	18.9	
2011-10-08-12-15	  166.5	  43.5	   17937169176.2	30833167736.0	11.4	
2011-10-08-12-15	   36.5	 -47.5	    4196411938.9	10764765802.6	17.1	
2011-10-08-15-18	  174.5	  45.5	  578130935837.0	1484022625631.4	17.4	
2011-10-08-15-18	  -38.5	  62.0	  118597626738.0	551293313093.4	31.1	
2011-10-08-15-18	 -179.5	  47.5	  155171896562.7	504192721827.2	21.7	
2011-10-08-15-18	  159.5	  40.0	   68456992484.1	132869152543.1	12.9	
2011-10-08-18-21	  173.5	  45.5	  474055305727.0	1177678738286.9	16.7	
2011-10-08-18-21	 -178.5	  48.0	  222219847688.4	712227436689.4	21.4	
2011-10-08-18-21	  -39.0	  61.5	  127332488531.1	633757421019.7	33.2	
2011-10-08-18-21	  160.0	  40.0	   18873509977.1	36379851358.0	12.8	
2011-10-08-18-21	 -122.0	  13.5	   21039240491.6	34077092651.4	10.7	
2011-10-08-21-24	  173.0	  45.0	  407802442863.6	976547024125.7	16.1	
2011-10-08-21-24	 -177.0	  48.5	  275717069580.7	830345733286.5	20.2	
2011-10-08-21-24	  -39.0	  61.5	  124912523769.0	615836418923.1	33.0	
2011-10-08-21-24	  -16.0	  61.5	   40988164402.4	146718849452.4	23.8	
2011-10-08-21-24	  -49.0	  34.0	   28005864681.8	63050027387.1	14.9	
2011-10-08-21-24	 -122.5	  13.5	   24038500197.7	41372112265.2	11.4	
2011-10-08-21-24	   -8.0	  65.5	    1281849386.1	2349927928.1	12.2	
2011-10-09-00-03	  172.5	  45.5	  352702930864.2	824665067850.3	15.7	
2011-10-09-00-03	 -175.5	  49.0	  278199712478.4	802053055276.3	19.4	
2011-10-09-00-03	  -39.5	  61.5	   98137868288.6	456510958056.9	31.2	
2011-10-09-00-03	  -46.0	  36.0	  119974273548.8	274887449694.6	15.3	
2011-10-09-00-03	  -16.0	  61.5	   53047445167.7	198284263878.5	25.0	
2011-10-09-00-03	 -122.5	  13.5	   45032403928.0	78771374501.1	11.7	
2011-10-09-03-06	 -174.5	  49.0	  254557278233.5	700935638964.0	18.6	
2011-10-09-03-06	  173.5	  45.5	  258752048202.3	590326107194.1	15.4	
2011-10-09-03-06	  -45.5	  37.0	  209149856964.5	531828699382.3	17.1	
2011-10-09-03-06	  -39.5	  61.5	   55922548666.8	236675994285.5	28.4	
2011-10-09-03-06	  -16.0	  61.5	   48575341535.1	181471613933.3	25.0	
2011-10-09-03-06	 -122.5	  13.5	   42033144222.0	72315990766.7	11.5	
2011-10-09-03-06	  168.5	  45.0	   21856722705.2	54489817854.6	16.7	
2011-10-09-03-06	 -133.0	  52.0	    5687844562.2	17956237568.8	21.1	
2011-10-09-06-09	  -45.5	  37.5	  256050545544.6	707873946843.9	18.7	
2011-10-09-06-09	 -173.5	  49.5	  228564233024.2	586145688687.7	17.3	
2011-10-09-06-09	  173.0	  45.5	  189632443598.2	431636065623.9	15.3	
2011-10-09-06-09	  -16.0	  61.5	   35278513991.3	127516659251.1	24.3	
2011-10-09-06-09	 -133.0	  52.0	   15202843330.4	47392947032.4	20.9	
2011-10-09-06-09	  -41.0	  60.5	   10537047292.9	39582875417.6	25.2	
2011-10-09-06-09	  -29.5	  64.0	    9412388720.2	37059309123.9	26.4	
2011-10-09-06-09	 -122.5	  13.5	   21026646404.3	34268222117.9	10.9	
2011-10-09-06-09	   15.0	 -53.0	   11225958109.8	24299170075.7	14.5	
2011-10-09-06-09	  168.5	  44.5	    4390434875.1	9133913388.7	14.0	
2011-10-09-09-12	  -45.0	  38.0	  302284347576.3	793769958922.9	17.9	
2011-10-09-09-12	 -170.5	  50.0	  176717532451.7	468197486980.7	18.0	
2011-10-09-09-12	  172.5	  45.5	  101260841650.9	229140553917.7	15.3	
2011-10-09-09-12	  -30.0	  64.0	   21485650274.7	97135404461.1	30.5	
2011-10-09-09-12	  -16.0	  61.5	   23550877279.1	78882700404.8	22.6	
2011-10-09-09-12	 -131.0	  50.5	   25454986431.1	76483200894.5	20.3	
2011-10-09-09-12	   17.0	 -53.5	   24053657836.5	52659314777.6	14.8	
2011-10-09-09-12	 -122.5	  13.0	   27050353991.0	42150367447.8	10.5	
2011-10-09-09-12	 -179.5	  47.0	   18854142394.8	40200383221.3	14.4	
2011-10-09-12-15	  -44.0	  39.0	  315777697952.0	806783658078.6	17.6	
2011-10-09-12-15	 -168.5	  50.5	  149159658630.8	426021547077.7	19.6	
2011-10-09-12-15	  -30.0	  64.0	   39486679318.5	178597911464.8	30.9	
2011-10-09-12-15	  172.5	  45.5	   47392615037.3	104169949412.0	15.0	
2011-10-09-12-15	 -131.0	  50.5	   13762872613.7	42607196660.3	21.1	
2011-10-09-12-15	 -123.0	  13.5	   24038500197.7	36757949893.4	10.4	
2011-10-09-12-15	  -17.5	  70.0	    6241636368.8	31756382110.6	34.7	
2011-10-09-12-15	  -16.0	  61.5	    7327152048.1	22376954140.0	20.8	
2011-10-09-12-15	   20.0	 -54.0	    9149709989.4	21914421048.6	16.3	
2011-10-09-15-18	  -43.5	  40.0	  298138392869.0	756433620675.6	17.6	
2011-10-09-15-18	 -167.5	  50.5	  156647326426.4	455430585369.4	20.1	
2011-10-09-15-18	  -30.0	  63.5	   54994181793.6	253702293537.9	31.8	
2011-10-09-15-18	 -123.0	  13.5	   21020463775.4	31664340543.2	10.4	
2011-10-09-15-18	  -15.0	  69.5	    1082518328.5	4527846395.1	28.8	
2011-10-09-15-18	  172.5	  46.0	    2147243243.4	3308290365.5	10.6	
2011-10-09-18-21	  -43.0	  40.5	  269415795539.8	707122192176.3	18.4	
2011-10-09-18-21	 -167.0	  50.5	  158990048122.5	442893146068.9	19.5	
2011-10-09-18-21	  -30.0	  63.5	   65104105358.4	302973936325.0	32.4	
2011-10-09-18-21	  -14.0	  69.0	   14349793727.4	66349639785.0	32.1	
2011-10-09-18-21	 -123.5	  13.5	   21020463775.4	32144015382.5	10.6	
2011-10-09-21-24	  -42.5	  41.0	  234876482212.7	635286775745.2	19.1	
2011-10-09-21-24	 -165.5	  50.0	  149953226707.4	385218885649.5	18.0	
2011-10-09-21-24	  -30.0	  63.0	   73858558404.3	338818833925.3	32.2	
2011-10-09-21-24	  -13.5	  69.0	   14400326130.1	63469835569.1	30.8	
2011-10-09-21-24	 -123.5	  13.5	   24019723481.4	37483241298.3	10.9	
2011-10-10-00-03	  -42.0	  41.5	  215637001206.4	562375203854.8	18.5	
2011-10-10-00-03	 -165.0	  50.0	  146664485025.3	350671063157.9	16.9	
2011-10-10-00-03	  -30.0	  63.0	   78474206829.8	348628418804.9	31.4	
2011-10-10-00-03	 -123.5	  13.5	   15009121446.7	23558739544.2	11.0	
2011-10-10-00-03	  -13.0	  69.0	    3323230331.1	12826403532.8	27.1	
2011-10-10-03-06	  -41.5	  41.5	  173383437058.0	434832270663.2	17.8	
2011-10-10-03-06	  -30.0	  63.0	   71457820186.8	312321905885.6	31.0	
2011-10-10-03-06	 -162.0	  50.0	   70903612636.8	172753608620.0	17.3	
2011-10-10-03-06	 -168.5	  49.0	   30438609524.1	69415586629.6	16.1	
2011-10-10-03-06	 -123.0	  14.0	    2999259706.0	4759626808.8	11.2	
2011-10-10-06-09	  -41.5	  42.0	  149362268193.4	365606026385.1	17.4	
2011-10-10-06-09	  -30.0	  63.5	   59971344972.5	259108105921.3	30.7	
2011-10-10-06-09	 -159.5	  50.5	   54904675079.4	135875926153.0	17.6	
2011-10-10-06-09	 -168.5	  48.5	    8131999733.1	17471433073.3	15.2	
2011-10-10-06-09	   10.5	 -44.5	    2204712564.3	5330343537.8	17.1	
2011-10-10-06-09	   65.5	 -50.0	    3973813343.7	4774460629.5	8.5	
2011-10-10-09-12	  -41.0	  42.5	  125570103302.3	305086903775.4	17.3	
2011-10-10-09-12	  -30.0	  63.5	   49983030552.8	203310563404.2	28.9	
2011-10-10-09-12	   11.5	 -45.5	   50153675405.8	121629552866.1	17.2	
2011-10-10-09-12	 -158.5	  50.5	   33403208959.2	81980625845.9	17.4	
2011-10-10-09-12	   66.0	 -50.5	    9893055190.9	24304090741.1	17.4	
2011-10-10-12-15	   14.0	 -47.0	  104137772007.5	255369862657.7	17.4	
2011-10-10-12-15	  -40.5	  43.0	  110895586134.6	244678433596.8	15.7	
2011-10-10-12-15	  -30.0	  63.5	   27606842003.8	110141055973.0	28.3	
2011-10-10-12-15	   66.0	 -50.5	    9893055190.9	24558400410.4	17.6	
2011-10-10-12-15	 -158.0	  50.5	    7864669613.6	18284265723.0	16.4	
2011-10-10-15-18	  -40.0	  44.0	   86836953195.1	188299296790.6	15.3	
2011-10-10-15-18	   16.0	 -48.5	   49616599377.8	118840165374.2	16.9	
2011-10-10-15-18	  -30.0	  63.5	    8226903097.3	32078820456.8	27.5	
2011-10-10-15-18	  159.5	 -40.0	   14207057206.8	26472788542.2	13.1	
2011-10-10-15-18	   66.0	 -50.5	    7926887603.2	17780161030.1	15.8	
2011-10-10-18-21	   19.5	 -49.5	   46619009094.0	130139266050.6	19.6	
2011-10-10-18-21	  -38.5	  46.0	   42786209694.7	103819095749.6	17.0	
2011-10-10-18-21	   13.0	  74.5	   10738460660.4	71689958679.2	46.9	
2011-10-10-18-21	 -152.5	  51.0	    9684318272.0	24161138443.8	17.5	
2011-10-10-18-21	  -40.5	  42.5	    6818635189.4	14285715010.8	14.7	
2011-10-10-21-24	   12.5	  74.0	   21066119460.6	147499195215.0	49.2	
2011-10-10-21-24	  -38.0	  46.5	   40109979226.1	95183521360.1	16.7	
2011-10-10-21-24	   22.0	 -50.5	   23904036814.7	69781765556.9	20.5	
2011-10-10-21-24	 -152.0	  50.5	    9789059270.0	24058576634.0	17.2	
2011-10-10-21-24	   23.5	 -37.5	    9874389941.4	21351514123.2	15.2	
2011-10-11-00-03	   12.0	  74.0	   29018738569.8	200262980252.1	48.6	
2011-10-11-00-03	  -37.5	  48.0	   31063066843.7	72988930836.8	16.5	
2011-10-11-00-03	   23.0	 -38.0	   19683096658.2	41123095664.9	14.7	
2011-10-11-00-03	  175.5	 -46.5	   10697245406.2	32216996143.7	21.2	
2011-10-11-00-03	  165.0	 -49.0	   10159773072.2	22385796254.0	15.5	
2011-10-11-03-06	   12.5	  74.0	   28140697102.7	196469585145.3	49.2	
2011-10-11-03-06	   28.0	 -53.5	   29546991588.2	94259703057.6	22.4	
2011-10-11-03-06	  176.0	 -46.5	   32071273129.6	89495188800.5	19.6	
2011-10-11-03-06	  164.5	 -49.5	   20197092615.5	55089397631.4	19.2	
2011-10-11-03-06	   23.0	 -38.0	   17132630373.9	42777117610.9	17.6	
2011-10-11-03-06	  -37.0	 -37.5	   14713527959.3	28378885538.9	13.6	
2011-10-11-06-09	   29.5	 -53.5	   93607913031.8	316852881846.7	23.9	
2011-10-11-06-09	   12.0	  74.0	   26462753390.5	180097296761.9	48.0	
2011-10-11-06-09	  176.5	 -46.5	   40640271257.4	112417275718.5	19.5	
2011-10-11-06-09	  164.5	 -49.5	   22163411466.3	59194570147.1	18.8	
2011-10-11-06-09	  -36.5	 -38.0	    9759538999.1	18032225010.6	13.0	
2011-10-11-06-09	   22.5	 -38.5	    7274007545.9	15131266243.4	14.6	
2011-10-11-09-12	   31.0	 -54.0	  153358292351.3	555378199904.8	25.7	
2011-10-11-09-12	  177.0	 -46.0	   57991946186.7	150369480904.3	18.3	
2011-10-11-09-12	   11.5	  73.5	   23184621871.4	145246799859.9	44.2	
2011-10-11-09-12	  -35.0	  54.0	    5428778644.6	14915157317.8	19.4	
2011-10-11-09-12	  164.5	 -49.5	    4035423885.6	7666476349.6	13.4	
2011-10-11-09-12	  164.0	 -49.5	    2007494492.9	5524206435.2	19.4	
2011-10-11-12-15	   33.0	 -54.0	  192930316896.3	723238865205.2	26.7	
2011-10-11-12-15	  -34.5	  54.0	   80901210027.8	249360175884.4	21.8	
2011-10-11-12-15	  178.0	 -45.5	   49596667460.4	106233307164.9	15.1	
2011-10-11-12-15	  155.5	 -45.5	   41239054186.1	87515244238.1	15.0	
2011-10-11-12-15	   11.5	  73.5	   13813151867.0	79450280785.8	40.6	
2011-10-11-12-15	 -180.0	 -44.5	    6670435967.7	23046488759.8	24.4	
2011-10-11-15-18	   33.5	 -54.0	  204094211596.0	680928664868.7	23.8	
2011-10-11-15-18	  -34.0	  54.5	  133485273628.8	457493556056.9	24.3	
2011-10-11-15-18	  155.0	 -46.5	   55781181621.4	118297149626.4	15.0	
2011-10-11-15-18	 -179.5	 -45.0	   35025524026.2	80502899179.0	16.2	
2011-10-11-15-18	  179.0	 -45.5	   19382827462.0	36196372374.0	13.2	
2011-10-11-18-21	   36.5	 -54.5	  301156156428.0	851387467850.4	20.2	
2011-10-11-18-21	  -34.5	  55.0	  175761193958.8	641074762953.3	26.0	
2011-10-11-18-21	 -179.5	 -45.0	   37097144525.2	79440044987.1	15.1	
2011-10-11-18-21	   36.5	 -47.0	   12766221839.6	28063670056.7	15.5	
2011-10-11-18-21	  157.0	 -45.5	    6499695953.4	15342699227.4	16.7	
2011-10-11-18-21	  155.0	 -47.5	    4196411938.9	8363125103.8	14.1	
2011-10-11-18-21	  179.0	 -46.0	    6441730283.0	6976685918.0	7.6	
2011-10-11-21-24	  -34.0	  55.5	  186139293224.5	673338351663.1	25.9	
2011-10-11-21-24	   43.0	 -55.0	  198516103954.1	542001520293.3	19.5	
2011-10-11-21-24	   32.5	 -54.0	  125812084772.0	346941198648.4	19.7	
2011-10-11-21-24	 -179.5	 -45.0	   37097144525.2	72960919269.5	14.0	
2011-10-12-00-03	  -33.0	  56.0	  178556735882.9	612412718177.5	24.7	
2011-10-12-00-03	   32.0	 -54.0	  106002675992.0	279722643185.3	18.9	
2011-10-12-00-03	   42.0	 -53.5	  100144802591.9	272655352472.6	19.5	
2011-10-12-00-03	   47.5	 -56.0	   68231759956.7	198621249036.1	20.9	
2011-10-12-00-03	  150.0	 -49.0	    6124349186.7	13046998152.8	15.2	
2011-10-12-00-03	 -180.0	 -46.0	    4294486855.3	4415816798.6	7.3	
2011-10-12-03-06	  -31.5	  57.0	  158435674293.5	519515400077.0	23.7	
2011-10-12-03-06	   31.0	 -53.5	  134940199501.7	375648291956.0	20.1	
2011-10-12-03-06	   49.5	 -56.0	   70204329053.5	206203484861.8	21.1	
2011-10-12-03-06	   42.0	 -53.0	   59784038600.4	158872178134.3	19.1	
2011-10-12-03-06	 -126.5	  44.0	   57354132568.1	150206197837.0	18.8	
2011-10-12-03-06	  149.5	 -48.5	    4096419794.1	8319817917.4	14.6	
2011-10-12-06-09	  -31.0	  58.0	  130518477469.2	441795653243.4	24.5	
2011-10-12-06-09	   31.5	 -53.5	  129792211004.2	385551296430.6	21.5	
2011-10-12-06-09	 -126.5	  44.0	  129547170554.6	341209008939.6	19.0	
2011-10-12-06-09	   50.0	 -55.5	   47558276588.6	131446690734.4	19.9	
2011-10-12-06-09	   42.5	 -53.0	   26258175472.1	74156820716.0	20.3	
2011-10-12-09-12	 -127.0	  44.5	  186851078773.8	488110763317.8	19.0	
2011-10-12-09-12	  -31.0	  58.0	  119314916903.4	391026754274.6	23.7	
2011-10-12-09-12	   32.0	 -53.5	  107129286523.0	304836444455.3	20.6	
2011-10-12-09-12	   48.0	 -47.0	    6343977422.7	15202811031.1	17.3	
2011-10-12-09-12	   51.0	 -55.5	    3545939379.7	4936810660.1	10.0	
2011-10-12-12-15	 -127.0	  44.5	  199639643345.2	517309936878.1	18.9	
2011-10-12-12-15	  -31.0	  58.5	   75441021151.7	221126339180.3	21.2	
2011-10-12-12-15	   32.0	 -53.5	   58854702887.5	151631593612.2	18.7	
2011-10-12-12-15	   66.5	 -50.5	   35638679904.6	107140032942.8	21.8	
2011-10-12-12-15	  -39.5	 -46.5	   44720745959.7	98034086381.0	15.9	
2011-10-12-15-18	 -127.5	  44.5	  183823736441.9	462237471573.2	18.3	
2011-10-12-15-18	  -38.5	 -46.5	  112973004748.2	254723524016.6	16.4	
2011-10-12-15-18	   66.0	 -50.5	   75288882086.2	221494561995.4	21.3	
2011-10-12-15-18	  -17.5	  60.5	   43362184126.3	142976577350.9	23.9	
2011-10-12-18-21	   65.5	 -50.5	  127681058675.6	401249343367.7	22.8	
2011-10-12-18-21	 -127.5	  44.5	  148914497133.8	346082747534.4	16.9	
2011-10-12-18-21	  -38.0	 -46.5	  150103723802.8	333618550626.2	16.1	
2011-10-12-18-21	  -17.5	  61.0	   79039655021.0	302240033127.0	27.7	
2011-10-12-18-21	  145.0	 -55.0	   12410517360.9	37347693625.7	21.8	
2011-10-12-21-24	   64.5	 -50.0	  147753552994.0	460720194138.2	22.7	
2011-10-12-21-24	  -38.0	 -46.0	  174833038504.0	380686672980.1	15.8	
2011-10-12-21-24	  -17.5	  61.0	   85127554204.1	333049190535.8	28.4	
2011-10-12-21-24	 -127.5	  44.5	   72216775803.3	150741172835.6	15.1	
2011-10-12-21-24	  145.0	 -55.0	   35501556426.9	102979573704.0	21.0	
2011-10-12-21-24	  -33.5	 -46.5	   29982485089.2	61098040682.7	14.7	
2011-10-13-00-03	   64.0	 -50.0	  143616269480.6	434779090550.2	22.0	
2011-10-13-00-03	  -37.0	 -45.5	  206961916557.0	429406317342.7	15.1	
2011-10-13-00-03	  -17.0	  61.0	   71501031801.8	275697053672.4	28.0	
2011-10-13-00-03	  145.0	 -55.0	   32022241751.5	92668535517.6	21.0	
2011-10-13-00-03	  -39.0	  62.0	    2902346807.7	14457687114.5	36.1	
2011-10-13-00-03	 -126.5	  45.0	    2185722126.6	4184383514.9	13.9	
2011-10-13-03-06	   63.5	 -50.0	  119553171605.9	350135983926.6	21.3	
2011-10-13-03-06	  -37.5	 -45.0	  138597704778.1	280265726453.7	14.7	
2011-10-13-03-06	  -37.5	  62.5	   58345290794.0	258032364086.0	32.2	
2011-10-13-03-06	  -17.0	  61.0	   57732158867.1	212424990996.7	26.7	
2011-10-13-03-06	  145.0	 -55.0	   15978485154.6	48440340021.9	22.0	
2011-10-13-03-06	   70.0	 -53.0	    7483972073.2	24916242983.1	24.1	
2011-10-13-03-06	  -34.0	 -45.0	    4371444253.1	7963876776.3	13.2	
2011-10-13-06-09	  -32.0	  64.0	  115621931292.3	520905554228.7	32.9	
2011-10-13-06-09	   63.5	 -50.0	   81930757871.2	224248556152.9	19.9	
2011-10-13-06-09	  -16.5	  61.5	   56210039072.4	195707820448.4	25.3	
2011-10-13-06-09	  -37.5	 -44.5	   75232621765.3	150579167666.6	14.5	
2011-10-13-06-09	   70.0	 -53.0	    7483972073.2	25408403455.0	24.6	
2011-10-13-06-09	  145.5	 -55.0	    1772969689.9	5383051432.1	22.0	
2011-10-13-09-12	  -31.0	  64.0	  124328662187.9	622735927325.8	36.6	
2011-10-13-09-12	  -16.5	  61.5	   56210039072.4	198096303872.0	25.6	
2011-10-13-09-12	   64.0	 -50.0	   35948546666.4	84446528855.1	17.0	
2011-10-13-09-12	  -37.5	 -44.5	   15432652259.9	30930093907.8	14.5	
2011-10-13-09-12	   -9.0	  67.5	    2365808768.1	9960765410.4	30.5	
2011-10-13-12-15	  -30.5	  64.0	  139299448460.7	699260026218.5	36.8	
2011-10-13-12-15	  -16.0	  61.5	   56115220275.6	203238570701.4	26.4	
2011-10-13-12-15	   19.0	 -39.5	   38196013094.9	73337021791.2	13.9	
2011-10-13-12-15	   74.0	 -57.0	    8485284185.2	22877222653.4	19.6	
2011-10-13-12-15	   -8.5	  67.5	    1182904384.0	4949227880.3	30.4	
2011-10-13-15-18	  -30.5	  63.5	  125283744699.0	648629546028.4	38.0	
2011-10-13-15-18	  -15.5	  61.5	   44292652286.4	161527822685.5	26.6	
2011-10-13-15-18	   20.0	 -39.5	   73936426605.4	142060257908.6	14.0	
2011-10-13-15-18	   74.0	 -57.0	   11874886163.3	33290443456.3	20.4	
2011-10-13-15-18	    7.5	 -40.0	    9506109062.7	20704142540.1	15.9	
2011-10-13-18-21	  -30.5	  63.5	  109100579371.3	549488334297.7	37.1	
2011-10-13-18-21	   21.0	 -39.5	   69131081812.8	136937944299.0	14.5	
2011-10-13-18-21	  -15.0	  61.0	   28093251777.0	101807216961.6	26.5	
2011-10-13-18-21	    7.0	 -40.5	   14189808782.9	30430547226.8	15.7	
2011-10-13-18-21	  -41.0	  60.0	    6135317517.3	25368788113.0	30.2	
2011-10-13-18-21	   74.5	 -57.0	    6801762436.1	19840054345.3	21.3	
2011-10-13-21-24	  -30.0	  63.0	  107041252552.1	518947033505.5	35.8	
2011-10-13-21-24	   21.0	 -40.0	   80745112510.0	159129759229.9	14.5	
2011-10-13-21-24	  -40.5	  60.0	   15220848899.3	57968730327.6	28.0	
2011-10-13-21-24	  178.0	 -46.0	   19402478409.5	44226250371.6	16.7	
2011-10-13-21-24	  -15.5	  61.0	    5947038712.7	17370610570.6	21.4	
2011-10-14-00-03	  -30.5	  63.0	  132734861249.6	632203105087.7	35.3	
2011-10-14-00-03	   21.5	 -40.0	   54597948364.3	112315300738.0	15.1	
2011-10-14-00-03	  178.0	 -46.0	   23716287154.9	57192053387.2	17.7	
2011-10-14-00-03	  -39.5	  61.0	   14914667818.7	48904694798.4	24.1	
2011-10-14-00-03	   18.0	 -41.0	   23381308310.7	43519338748.3	13.7	
2011-10-14-03-06	  -30.5	  63.0	  194720201623.1	854598198668.1	32.8	
2011-10-14-03-06	   20.5	 -40.5	   72789248520.1	145358172394.9	14.8	
2011-10-14-03-06	  177.5	 -46.0	   19383156519.3	42152815992.6	16.1	
2011-10-14-06-09	  -31.0	  63.0	  177845913185.5	794745561563.8	33.6	
2011-10-14-06-09	   21.5	 -41.0	   35115177766.0	69656374845.3	14.7	
2011-10-14-06-09	  177.0	 -46.0	    6441730283.0	14557672859.4	16.8	
2011-10-14-09-12	  -31.0	  63.0	  159025971192.2	705670597211.1	33.5	
2011-10-14-09-12	   21.5	 -41.5	   18644787710.5	34533203484.8	13.9	
2011-10-14-12-15	  -31.0	  63.0	  127614247978.5	573027918611.8	34.1	
2011-10-14-12-15	  -39.5	  62.0	    2902346807.7	14944233152.9	38.8	
2011-10-14-15-18	  -30.5	  63.0	   92718426967.0	388942182413.3	31.9	
2011-10-14-15-18	 -180.0	 -49.0	    8151968314.8	19245078327.3	17.9	
2011-10-14-15-18	  -39.5	  62.0	    4353520211.6	19170558642.2	33.4	
2011-10-14-18-21	  -30.0	  62.5	   59386358037.6	232355897056.5	29.8	
2011-10-14-18-21	 -179.5	 -49.0	   18412986565.8	46945935665.5	19.4	
2011-10-14-21-24	  -30.0	  62.5	   29778991622.8	110495021071.3	28.2	
2011-10-14-21-24	   30.0	 -43.0	   34220303526.3	76272811595.1	16.9	
2011-10-14-21-24	 -179.5	 -48.5	   22650743650.1	57354243900.9	19.2	
2011-10-15-00-03	   31.0	 -43.0	   84224179747.7	191545900129.4	17.3	
2011-10-15-00-03	 -180.0	 -48.0	    2068334532.2	2796473441.2	10.3	
2011-10-15-03-06	   31.5	 -43.0	   81543087485.4	172930383209.3	16.1	
2011-10-15-03-06	  -36.0	 -38.5	   29111254518.4	55588040248.1	14.5	
2011-10-15-03-06	 -177.0	 -48.0	    2068334532.2	5363105041.9	19.6	
2011-10-15-06-09	  -37.5	 -42.0	   20709813798.3	40897083789.9	14.9	
2011-10-15-06-09	   24.5	 -43.5	    4484376492.9	10039598485.7	16.9	
2011-10-15-06-09	   21.5	 -41.0	    2332866375.1	4704797039.8	15.2	
2011-10-15-06-09	  -34.0	 -39.0	    2402218422.6	4480089419.3	14.1	
2011-10-15-06-09	   30.5	 -44.0	    2223535157.0	4425338371.7	15.0	
2011-10-15-09-12	   25.5	 -43.5	   76079390814.4	200116366466.5	19.8	
2011-10-15-09-12	  -37.0	 -43.5	   31667017777.5	70806774628.3	16.8	
2011-10-15-09-12	   22.0	 -40.5	   32957490730.7	69744105206.4	15.9	
2011-10-15-12-15	   26.5	 -44.0	  140397253490.0	423518811948.1	22.7	
2011-10-15-12-15	  -36.5	 -44.0	   33445953795.5	71729303345.0	16.0	
2011-10-15-12-15	   22.5	 -39.5	   31004971835.0	60717224025.6	14.7	
2011-10-15-15-18	   27.5	 -44.0	  214095677713.2	677488713757.7	23.7	
2011-10-15-15-18	  -47.5	 -45.5	   49963114940.9	116848696345.4	17.4	
2011-10-15-15-18	   29.0	 -36.5	   20005496154.4	39147799866.4	14.5	
2011-10-15-15-18	  -33.5	 -45.0	   13171304072.5	29141931527.1	16.4	
2011-10-15-15-18	   23.0	 -39.0	    2402218422.6	4373669072.6	13.5	
2011-10-15-18-21	   28.5	 -44.0	  310270809656.3	954221344513.5	22.9	
2011-10-15-18-21	  -46.5	 -45.5	  170343621502.0	434933044825.2	18.9	
2011-10-15-18-21	   29.5	 -36.5	   27523269559.6	51243625600.2	13.7	
2011-10-15-21-24	   29.5	 -44.0	  307700729457.4	966795087637.6	23.2	
2011-10-15-21-24	  -44.5	 -45.5	  292522643542.3	750461900834.3	18.9	
2011-10-15-21-24	   29.5	 -36.5	    9986988149.3	17070161305.4	12.5	
2011-10-16-00-03	  -42.5	 -45.5	  402903129922.1	1022493342360.6	18.6	
2011-10-16-00-03	   30.5	 -43.5	  287544544042.5	865803788250.0	22.0	
2011-10-16-00-03	  -10.5	 -48.0	    4136669064.4	11804116804.4	20.6	
2011-10-16-03-06	  -41.5	 -45.5	  467951252889.6	1173592700313.0	18.3	
2011-10-16-03-06	   31.0	 -43.5	  297210606636.4	802867340511.6	19.6	
2011-10-16-03-06	   -6.0	 -51.5	   15435858449.6	39632412604.7	18.5	
2011-10-16-03-06	  -10.5	 -48.5	    6184878961.4	16894915370.6	19.6	
2011-10-16-06-09	  -40.5	 -45.5	  542533092383.9	1315833034234.5	17.6	
2011-10-16-06-09	   31.5	 -43.0	  263032613502.4	650506745771.2	17.8	
2011-10-16-06-09	   -6.0	 -51.5	   49942905001.4	129925431821.8	18.6	
2011-10-16-06-09	  -10.5	 -48.5	    4136669064.4	12286642124.3	21.2	
2011-10-16-09-12	  -39.0	 -46.0	  687527236928.6	1619277896284.6	17.1	
2011-10-16-09-12	   32.0	 -42.5	  211154804856.2	455869825514.7	15.4	
2011-10-16-09-12	   -6.0	 -52.0	   83915755052.8	226004350765.4	19.2	
2011-10-16-09-12	  143.5	 -42.0	    2297118335.8	3147404565.0	9.7	
2011-10-16-12-15	  -36.5	 -47.0	  725283213836.8	1799255090932.3	17.9	
2011-10-16-12-15	   -5.5	 -52.0	  110065286347.4	301607716528.8	19.4	
2011-10-16-12-15	   31.5	 -43.0	   86246488267.0	183662547447.7	15.0	
2011-10-16-12-15	  -12.5	  68.5	   11152771144.7	47122085971.0	29.8	
2011-10-16-12-15	  144.0	 -42.5	   13746261853.5	43223720199.9	22.1	
2011-10-16-15-18	  -35.0	 -47.5	  676675322253.3	1726053340356.3	18.2	
2011-10-16-15-18	   -5.0	 -52.0	  108120732259.4	299798828982.0	19.4	
2011-10-16-15-18	  144.0	 -55.0	   41217645011.6	109006737958.7	18.5	
2011-10-16-15-18	  -12.5	  68.5	   19032250362.8	85566247210.2	31.4	
2011-10-16-15-18	  144.0	 -42.5	   20528275693.6	64091589927.2	21.8	
2011-10-16-15-18	  -46.5	 -48.0	   26988186299.5	57248166912.3	14.8	
2011-10-16-15-18	   31.5	 -43.0	   11376597993.2	22569839295.3	13.8	
2011-10-16-15-18	  159.5	 -62.0	    5828454462.6	21010896815.7	25.2	
2011-10-16-15-18	  -30.0	  64.0	    2710078966.6	10299210300.9	26.5	
2011-10-16-18-21	  -34.0	 -47.5	  681509503224.1	1736469201395.9	18.0	
2011-10-16-18-21	   -5.0	 -52.0	   92835190163.2	251204184816.3	18.8	
2011-10-16-18-21	  144.0	 -55.0	   58813416515.6	157201058363.8	18.5	
2011-10-16-18-21	  -12.5	  68.5	   24646047731.2	112948115863.6	31.8	
2011-10-16-18-21	  144.0	 -42.5	   34219433717.0	97140649269.2	19.7	
2011-10-16-18-21	  -29.5	  63.0	    8299376582.9	30875817102.4	25.8	
2011-10-16-18-21	  -46.0	 -48.5	   10341672660.9	20604522524.0	13.8	
2011-10-16-18-21	  159.5	 -62.0	    4353519658.9	15482055291.3	24.6	
2011-10-16-21-24	  -33.5	 -47.5	  622048513943.6	1565985955970.9	17.7	
2011-10-16-21-24	  144.5	 -55.0	   58702871507.2	153965996445.6	18.1	
2011-10-16-21-24	   -5.0	 -52.0	   55014283951.2	142506034666.5	17.9	
2011-10-16-21-24	  144.0	 -42.5	   45540060281.7	124908047319.0	18.9	
2011-10-16-21-24	  -12.0	  68.5	   23488109325.2	105942883024.9	31.1	
2011-10-16-21-24	  -29.5	  62.5	    7064562767.0	24724126840.2	24.1	
2011-10-16-21-24	  -42.0	 -47.5	   10461158410.1	23954926399.0	15.8	
2011-10-17-00-03	  -34.0	 -46.5	  456582593357.3	1095836934089.1	16.7	
2011-10-17-00-03	  144.0	 -42.5	   52247801875.6	140268458320.8	18.5	
2011-10-17-00-03	  -26.0	 -53.5	   50050924965.0	132054364825.7	18.2	
2011-10-17-00-03	  -12.0	  68.5	   21272707097.3	94369091958.2	30.5	
2011-10-17-00-03	  145.0	 -55.5	   26505082299.2	68936720665.5	17.9	
2011-10-17-00-03	   -5.5	 -52.0	    9578838829.8	25441484362.4	18.3	
2011-10-17-03-06	  -34.0	 -46.0	  344065770896.2	804212259712.0	16.3	
2011-10-17-03-06	  -22.5	 -54.0	   75387268925.3	198027753653.6	18.1	
2011-10-17-03-06	  144.0	 -43.0	   54471337032.6	151619905997.8	19.2	
2011-10-17-03-06	  -12.0	  68.5	   21272707097.3	92880644158.6	30.1	
2011-10-17-06-09	  -33.5	 -46.0	  233171585926.6	526569310552.1	15.7	
2011-10-17-06-09	  -20.5	 -54.0	  120656740204.3	340400113606.7	19.6	
2011-10-17-06-09	  144.0	 -43.0	   63327832475.0	169489138177.2	18.6	
2011-10-17-06-09	  -12.0	  68.5	   22405590996.8	99232517835.4	30.7	
2011-10-17-09-12	  -19.5	 -54.5	  142102877165.8	390104803241.3	19.2	
2011-10-17-09-12	  -33.0	 -46.0	  126781170826.2	289203940460.3	16.0	
2011-10-17-09-12	  144.0	 -43.0	   60975446701.7	163364154472.8	18.7	
2011-10-17-09-12	  -12.0	  68.5	   25753791174.9	119777303882.8	32.5	
2011-10-17-12-15	  -18.5	 -54.0	  125615739642.1	325899651665.6	18.3	
2011-10-17-12-15	  -11.5	  68.5	   37257315094.2	176759510393.4	33.5	
2011-10-17-12-15	  -33.0	 -46.5	   70869844284.2	156666943703.5	15.6	
2011-10-17-12-15	  144.0	 -43.0	   40541473004.5	112132477649.3	19.5	
2011-10-17-15-18	  -11.0	  68.0	   68619313532.7	353385586932.7	36.8	
2011-10-17-15-18	  -17.0	 -54.5	   79687848867.7	188971114865.8	16.9	
2011-10-17-15-18	  144.5	 -43.5	   13489582798.7	43843221948.4	23.1	
2011-10-17-15-18	  -33.0	 -46.5	   19227110036.7	40263988239.7	14.9	
2011-10-17-18-21	  -10.0	  68.0	   94689658094.1	540333060326.9	41.4	
2011-10-17-18-21	  -13.0	 -55.5	   10549163547.0	25113095779.8	17.1	
2011-10-17-21-24	   -9.5	  67.5	  106690682454.1	627237437309.1	43.1	
2011-10-18-00-03	   -8.5	  67.5	  115516059781.7	653995673465.1	42.0	
2011-10-18-03-06	   -8.5	  67.5	  102521932699.4	536928634538.4	39.1	
2011-10-18-06-09	   -8.0	  67.0	   75817245650.2	362589899703.8	36.0	
2011-10-18-09-12	 -100.5	 -61.0	   77432308007.2	252813663039.6	24.7	
2011-10-18-09-12	   -7.5	  66.5	   34135579934.3	151215138353.9	33.4	
2011-10-18-12-15	  -99.0	 -61.5	  102403852537.1	331998837039.1	24.6	
2011-10-18-12-15	   -8.0	  66.5	   12300112561.1	51927671572.1	31.9	
2011-10-18-15-18	  -98.5	 -62.5	   62583334928.2	198845030920.4	24.0	
2011-10-18-15-18	  -36.0	  55.0	   47734367560.7	138925892378.7	22.0	
2011-10-18-15-18	   54.5	 -38.5	    2419102414.6	5176237273.2	16.1	
2011-10-18-18-21	  -36.0	  55.5	   80127359226.0	248138677987.3	23.4	
2011-10-18-18-21	  -98.0	 -63.0	   32609604218.3	105643513870.5	24.4	
2011-10-18-18-21	   55.0	 -38.5	   12128912677.3	25849081066.8	16.1	
2011-10-18-21-24	  -35.5	  56.0	   86213207604.6	273878101702.6	24.0	
2011-10-18-21-24	  -98.0	 -64.0	   33027100902.0	120768043651.0	27.6	
2011-10-18-21-24	   56.0	 -39.0	   16933349522.4	37177051068.7	16.5	
2011-10-18-21-24	   -1.0	  63.5	    1379232195.1	6050329280.9	33.0	
2011-10-19-00-03	  -35.0	  56.0	   68370626369.3	209519177824.2	23.2	
2011-10-19-00-03	    0.5	  63.5	   35253567174.5	144477275344.5	31.0	
2011-10-19-00-03	  -97.0	 -64.0	   34357844313.4	127145201092.9	28.0	
2011-10-19-00-03	   56.5	 -39.0	   16933349522.4	35169349758.6	15.7	
2011-10-19-00-03	  171.5	 -37.0	    7422073007.5	14975584457.6	15.2	
2011-10-19-03-06	  -96.5	 -64.0	   24559328331.3	88493519924.2	27.4	
2011-10-19-03-06	  -35.0	  56.5	   25477246622.3	73712466807.5	22.0	
2011-10-19-03-06	  171.5	 -37.0	    4937288658.0	10141210915.1	15.6	
2011-10-19-06-09	  -95.5	 -64.0	    8202813929.8	27383030427.5	25.5	
2011-10-19-06-09	   10.5	  72.5	    2788515648.3	17132191070.6	47.0	
2011-10-19-09-12	   11.0	  72.5	    1859010432.2	10244613226.8	42.3	
2011-10-19-12-15	   11.5	  72.5	     929505216.1	4976847754.8	41.3	
2011-10-19-15-18	   24.0	 -35.5	   42621471014.6	112072774393.2	20.3	
2011-10-19-18-21	   23.5	 -36.5	   79290266045.6	175378476998.1	17.1	
2011-10-19-18-21	   36.0	 -38.0	   14614444130.5	31686741373.1	16.8	
2011-10-19-21-24	   23.5	 -38.0	   68557949507.5	150427317045.3	17.1	
2011-10-19-21-24	   28.0	 -35.5	   22772610366.3	38114264893.1	13.0	
2011-10-19-21-24	   36.0	 -38.5	   16932979747.5	32419393612.8	14.9	
2011-10-19-21-24	  -21.5	 -37.5	   12294239459.7	26043207043.1	16.4	
2011-10-19-21-24	   25.5	 -35.5	    2516494527.9	3410233815.6	10.5	
2011-10-20-00-03	   23.5	 -38.0	   29245215656.0	67076431243.9	17.9	
2011-10-20-00-03	   29.0	 -35.5	   35338746767.0	64505825855.0	14.2	
2011-10-20-00-03	  -20.0	 -38.0	   14664358951.9	31615735039.5	16.8	
2011-10-20-00-03	   27.5	 -35.0	    2532062659.2	3247500922.9	10.0	
2011-10-20-03-06	  -17.5	 -39.0	   80092037892.5	191475643271.0	18.7	
2011-10-20-03-06	   30.0	 -35.5	    7565051715.0	13098562584.0	13.5	
2011-10-20-03-06	  -77.5	 -46.5	    4275000989.2	8422031769.7	15.4	
2011-10-20-06-09	  -17.0	 -39.0	  118686421446.6	346184827054.8	22.9	
2011-10-20-06-09	  -77.0	 -46.5	    4275000989.2	8504193307.8	15.5	
2011-10-20-09-12	  -16.5	 -39.0	  147638913746.5	485791005471.4	25.9	
2011-10-20-09-12	  -77.0	 -46.0	    2147243427.7	4056936647.3	14.8	
2011-10-20-12-15	  -16.0	 -39.0	  161980846118.5	519074494054.0	25.2	
2011-10-20-12-15	  -77.5	 -46.0	    2147243427.7	4014783014.7	14.6	
2011-10-20-15-18	  -16.0	 -39.0	  147020927211.4	418375131761.6	22.4	
2011-10-20-15-18	   32.5	 -41.5	   23239024382.1	46912616782.8	15.8	
2011-10-20-15-18	  -77.0	 -46.0	    2147243427.7	4011719242.8	14.6	
2011-10-20-18-21	   34.0	 -40.0	  123657549759.1	267782483157.1	17.1	
2011-10-20-18-21	  -15.5	 -39.0	   98432991865.3	243979481457.4	19.5	
2011-10-20-18-21	  -77.0	 -46.5	    4275000989.2	8405516256.6	15.4	
2011-10-20-21-24	   35.0	 -39.5	  329196868202.8	734833298416.3	17.7	
2011-10-20-21-24	  -13.0	 -39.5	   38349065266.7	77821744164.6	16.0	
2011-10-20-21-24	  -77.0	 -46.5	    4275000989.2	8512934995.7	15.7	
2011-10-21-00-03	   36.0	 -39.0	  429556733314.8	965576732300.0	18.0	
2011-10-21-00-03	  -77.5	 -46.5	    4275000989.2	8554182484.2	15.8	
2011-10-21-00-03	  -11.0	 -39.5	    4770302955.2	8437332921.8	13.9	
2011-10-21-03-06	   36.5	 -39.0	  399706113419.4	860860952120.7	17.2	
2011-10-21-03-06	   37.5	 -45.0	   48464187881.3	117084540549.6	19.1	
2011-10-21-03-06	   -8.5	 -40.0	   23799588025.5	55262202325.5	18.3	
2011-10-21-03-06	  -77.0	 -46.5	    4275000989.2	8622113562.5	15.9	
2011-10-21-06-09	   38.5	 -37.5	  223719873939.4	434636380177.0	15.5	
2011-10-21-06-09	   39.0	 -44.5	  136921536151.3	335013792695.2	19.5	
2011-10-21-06-09	   -8.0	 -40.0	   64308673391.5	134486456768.4	16.6	
2011-10-21-06-09	   31.0	 -43.5	   60700640017.4	128768371639.7	16.8	
2011-10-21-06-09	  -77.5	 -46.5	    4275000989.2	8620217507.9	16.0	
2011-10-21-09-12	   40.0	 -44.5	  201011698922.5	489530126625.4	19.5	
2011-10-21-09-12	   -7.5	 -40.0	   64188845688.1	142595703876.3	17.7	
2011-10-21-09-12	   36.5	 -38.5	   29128691238.3	51119863499.9	13.9	
2011-10-21-09-12	   30.5	 -43.5	   20179184050.4	43345578877.9	17.1	
2011-10-21-09-12	   41.0	 -36.5	    9955087648.2	20104915338.6	16.0	
2011-10-21-09-12	  -77.0	 -46.0	    2147243427.7	4281255279.2	15.8	
2011-10-21-12-15	   40.5	 -44.0	  214940358372.4	518201247877.4	19.3	
2011-10-21-12-15	   -6.5	 -40.0	   40270335511.6	85315085721.3	16.9	
2011-10-21-12-15	   -0.5	 -42.5	   32140472071.5	61999873723.4	15.4	
2011-10-21-12-15	    4.5	 -43.0	   15879630155.0	37547015688.0	18.8	
2011-10-21-15-18	   41.5	 -44.5	  200421244127.8	491305972847.5	19.6	
2011-10-21-15-18	    0.0	 -42.5	   85986705645.7	175623898345.5	16.3	
2011-10-21-15-18	    5.0	 -43.0	   34165719813.1	78860574186.6	18.4	
2011-10-21-15-18	   48.0	 -56.5	   17262395939.0	43171318069.3	19.9	
2011-10-21-15-18	   -5.0	 -40.5	    4718377125.8	7478417581.8	12.6	
2011-10-21-18-21	   42.5	 -45.5	  199003284874.7	494562248649.4	19.9	
2011-10-21-18-21	    0.0	 -42.5	  137156840116.3	295524204204.8	17.2	
2011-10-21-18-21	   50.0	 -56.0	   67450900013.6	192022423276.6	22.7	
2011-10-21-18-21	    5.0	 -42.5	   36462838148.8	80554863004.3	17.6	
2011-10-21-21-24	   43.5	 -45.5	  172044777663.2	426526047308.7	19.8	
2011-10-21-21-24	    0.0	 -42.5	  160348073625.6	374378298677.1	18.6	
2011-10-21-21-24	   51.0	 -56.5	   60470771761.9	155096848991.4	20.4	
2011-10-21-21-24	    5.0	 -42.5	   41129096911.6	86047798811.3	16.6	
2011-10-22-00-03	    0.0	 -42.5	  160380281811.8	382943350104.2	19.0	
2011-10-22-00-03	   44.5	 -46.0	   99810633494.0	256552503393.0	20.5	
2011-10-22-00-03	  -31.0	  64.0	   18800481552.7	72415429881.0	30.6	
2011-10-22-00-03	    4.5	 -42.5	   34310636015.8	70411326239.9	16.3	
2011-10-22-00-03	   52.0	 -57.0	    3389601978.1	8426510875.2	19.7	
2011-10-22-00-03	   51.0	 -55.5	    5296745421.5	7848944323.3	11.8	
2011-10-22-03-06	    0.0	 -42.5	  136898841147.6	313576018796.3	18.3	
2011-10-22-03-06	  -30.5	  64.5	   29469908629.0	135881588578.7	36.8	
2011-10-22-03-06	   44.5	 -46.0	   43388116456.8	100301543698.8	18.4	
2011-10-22-03-06	    4.5	 -42.5	   34310636015.8	68731791039.2	16.0	
2011-10-22-06-09	    0.0	 -42.5	   80607845691.6	172093943481.0	17.1	
2011-10-22-06-09	  -30.5	  64.5	   21412764177.8	100560774370.7	37.5	
2011-10-22-06-09	 -164.0	 -43.5	   36019790885.3	78599740665.6	17.4	
2011-10-22-06-09	    4.5	 -42.5	   32049964735.8	64711051424.9	16.1	
2011-10-22-06-09	   45.0	 -46.0	   23889523840.7	49226173159.8	16.4	
2011-10-22-09-12	 -163.5	 -44.5	  104543829436.5	258891543519.0	19.8	
2011-10-22-09-12	    5.0	 -42.5	   29807430113.2	62350963725.7	16.7	
2011-10-22-09-12	    0.0	 -42.5	   20727425180.1	55552454662.6	21.4	
2011-10-22-09-12	  -30.0	  64.0	   10743132315.8	44304013965.5	32.9	
2011-10-22-09-12	   77.0	 -56.0	   12099298442.7	34913041399.1	23.0	
2011-10-22-09-12	   45.5	 -45.5	    4333130635.6	7798312301.4	14.4	
2011-10-22-09-12	    1.5	 -41.0	    2332866375.1	3411618899.7	11.7	
2011-10-22-12-15	 -162.5	 -45.5	  155334731095.5	392755696223.2	20.3	
2011-10-22-12-15	   76.5	 -56.5	   36251987783.1	118373399328.2	26.2	
2011-10-22-12-15	    5.0	 -42.5	   27564720644.4	59628445842.0	17.3	
2011-10-22-15-18	 -162.0	 -46.0	  173397150603.3	458686916918.6	21.4	
2011-10-22-15-18	   76.5	 -56.5	   41414559451.1	133768528323.3	25.9	
2011-10-22-15-18	    5.0	 -42.0	   20691677140.8	44283933668.2	17.2	
2011-10-22-18-21	 -161.5	 -46.5	  189239797003.9	459884202317.6	19.7	
2011-10-22-18-21	   76.5	 -56.5	   36251987783.1	111562482569.0	24.8	
2011-10-22-18-21	    5.0	 -41.5	    2315080147.0	4723952794.1	16.4	
2011-10-22-21-24	 -160.5	 -47.0	  143097573678.7	329956334972.6	18.7	
2011-10-22-21-24	   76.5	 -56.5	   17239967534.4	47425243342.5	22.2	
2011-10-23-00-03	 -158.5	 -47.5	   79882925671.6	189209511739.0	19.2	
2011-10-23-00-03	   76.5	 -56.5	    5140669091.7	15025248733.4	23.6	
2011-10-23-03-06	 -157.0	 -48.0	   41684421616.7	95323608031.8	18.6	
2011-10-23-06-09	  -11.0	 -48.5	   10301423390.6	30756402921.4	24.4	
2011-10-23-09-12	  -10.5	 -48.5	    6184878961.4	19267213009.7	25.6	
2011-10-23-12-15	  -10.5	 -48.0	    2068334532.2	6698728561.8	26.6	
2011-10-23-18-21	   -6.0	 -52.0	   13427175223.4	38134964038.6	23.4	
2011-10-23-21-24	   -5.5	 -52.0	   58797775976.9	168190232312.9	23.6	
2011-10-23-21-24	  -12.5	  50.0	   13908044176.7	41273484696.7	24.5	
2011-10-24-00-03	   -5.0	 -52.5	   73849148858.3	212303623012.0	23.8	
2011-10-24-00-03	  155.0	  45.0	   28164688068.9	79608068900.1	23.3	
2011-10-24-00-03	  -12.5	  50.0	   13804500755.7	40871739440.7	24.4	
2011-10-24-03-06	  155.5	  45.0	   56539600631.4	164056253961.1	24.0	
2011-10-24-03-06	   -5.0	 -52.5	   41671991505.3	112061654031.4	22.2	
2011-10-24-06-09	  156.5	  45.0	   58763470188.6	165719495376.2	23.3	
2011-10-24-09-12	  156.5	  45.0	   41469922326.3	109263690222.3	21.6	
2011-10-24-12-15	  -12.0	  57.5	   26435602940.1	95177672206.9	29.5	
2011-10-24-12-15	  156.5	  44.5	   17561739500.3	41476054307.9	19.3	
2011-10-24-12-15	   31.0	 -43.5	    4484376492.9	10442731592.5	19.0	
2011-10-24-15-18	  -12.0	  57.5	   23091245970.5	80679876991.0	28.6	
2011-10-24-15-18	   31.0	 -43.5	   17918512770.3	39658638838.6	18.1	
2011-10-24-18-21	   30.5	 -43.5	   17955648893.4	38321445751.3	17.4	
2011-10-24-18-21	  -12.0	  58.0	    8144233994.6	24992664205.7	25.0	
2011-10-24-21-24	  153.5	 -38.5	    4838204829.2	9029926909.1	15.2	
2011-10-25-00-03	   38.5	 -45.0	   52683545209.6	125688984883.0	19.3	
2011-10-25-00-03	  154.0	 -38.5	   43742765593.8	100837032664.0	18.7	
2011-10-25-03-06	   38.0	 -45.0	   92268734441.3	236194033767.6	20.6	
2011-10-25-03-06	  154.5	 -38.0	   70913988258.9	150627317752.9	17.1	
2011-10-25-06-09	   38.0	 -44.5	  110017183736.2	289889119675.3	21.1	
2011-10-25-06-09	  154.5	 -37.5	   56709945445.3	116446789210.4	16.4	
2011-10-25-06-09	 -152.5	 -60.5	   15455038288.7	56834762054.5	29.3	
2011-10-25-09-12	   37.5	 -44.5	  108019501267.3	283149561781.3	20.8	
2011-10-25-09-12	 -152.5	 -60.5	   72376865489.8	266287925474.2	29.1	
2011-10-25-09-12	  154.5	 -37.0	   14924466577.2	26244887801.9	13.9	
2011-10-25-12-15	 -153.5	 -61.0	  174433148596.0	698317892415.7	31.6	
2011-10-25-12-15	   37.5	 -44.5	   88295387415.6	227788351950.5	20.2	
2011-10-25-12-15	   41.0	 -42.5	    2278981678.3	4152789329.8	14.2	
2011-10-25-15-18	 -153.0	 -61.0	  256902565231.4	1138562895222.0	34.9	
2011-10-25-15-18	   38.0	 -44.5	   64268358346.6	156226375990.4	18.9	
2011-10-25-15-18	   37.0	 -38.0	   29212374043.8	51581833061.3	13.7	
2011-10-25-15-18	   42.0	 -41.0	    4665732750.2	8589620400.3	14.3	
2011-10-25-18-21	 -152.5	 -61.0	  285604226705.3	1320976645542.7	36.3	
2011-10-25-18-21	   37.0	 -38.0	   58405822134.8	107398708325.2	14.2	
2011-10-25-18-21	   41.5	 -41.5	   23184789255.8	54925576404.3	18.2	
2011-10-25-18-21	  -62.5	  39.0	   16815166000.0	40073487814.5	18.3	
2011-10-25-18-21	   37.5	 -44.5	    2204712564.3	5856226490.5	20.4	
2011-10-25-21-24	 -152.0	 -61.0	  299254021159.1	1328004037257.5	34.6	
2011-10-25-21-24	  -60.5	  40.5	   63422041981.6	180782270660.3	21.9	
2011-10-25-21-24	   36.5	 -38.5	   60607840335.2	114728888312.4	14.5	
2011-10-25-21-24	   42.0	 -41.0	   39531214440.3	99279235845.5	19.2	
2011-10-25-21-24	   31.0	 -43.0	    2260671280.0	4762931200.8	16.1	
2011-10-26-00-03	 -151.5	 -61.0	  272802117907.5	1132403768700.5	32.2	
2011-10-26-00-03	   42.0	 -41.0	   65383392546.4	150354258952.7	17.6	
2011-10-26-00-03	  -60.0	  41.0	   56002668681.0	148207644248.5	20.2	
2011-10-26-00-03	   36.0	 -39.0	   65108204479.9	127764445779.4	15.0	
2011-10-26-00-03	   30.5	 -43.5	    9024202086.6	19324124729.7	16.3	
2011-10-26-03-06	 -151.5	 -61.0	  211373560242.9	781326352734.5	28.4	
2011-10-26-03-06	   42.0	 -41.0	   95455303651.6	219982612773.0	17.6	
2011-10-26-03-06	   36.0	 -39.0	   74562207155.4	151010838152.5	15.4	
2011-10-26-03-06	  -59.0	  42.0	   48362599274.3	126974133225.7	20.0	
2011-10-26-03-06	   30.5	 -43.5	    9024202086.6	19243169436.9	16.2	
2011-10-26-06-09	 -152.0	 -61.0	  108995361922.0	377492397795.2	26.2	
2011-10-26-06-09	   42.0	 -41.0	  144142904480.4	340739848885.2	17.9	
2011-10-26-06-09	   36.0	 -39.0	   86588170778.3	178500378711.2	15.6	
2011-10-26-06-09	  -58.0	  42.0	   43316361148.8	98327779664.2	17.1	
2011-10-26-06-09	   31.0	 -43.0	    2260671280.0	4873367923.5	16.3	
2011-10-26-09-12	   42.0	 -41.0	  181112689464.6	454332942943.1	18.9	
2011-10-26-09-12	 -170.0	 -63.0	   53636286826.3	179202406489.0	25.0	
2011-10-26-09-12	   36.0	 -39.0	   76999102983.5	159006900809.9	15.5	
2011-10-26-09-12	 -152.5	 -61.0	   43951804854.7	146350322341.0	24.9	
2011-10-26-09-12	  -57.5	  43.5	   20216323305.6	44614494731.4	16.5	
2011-10-26-12-15	   42.0	 -41.0	  199465025024.1	526645949666.4	19.7	
2011-10-26-12-15	 -169.5	 -63.0	   81962593979.5	282957241778.0	25.7	
2011-10-26-12-15	   36.0	 -39.0	   60220819036.0	121344293304.0	15.0	
2011-10-26-12-15	  -55.5	  44.0	   46935887760.7	97902072517.7	15.5	
2011-10-26-12-15	 -153.0	 -60.5	   18241553615.1	60379472722.4	24.6	
2011-10-26-12-15	   46.5	 -39.5	    2385151477.6	3917952526.8	12.2	
2011-10-26-15-18	   42.0	 -41.0	  217993098178.4	560380676789.7	19.1	
2011-10-26-15-18	 -169.0	 -62.5	   59727976893.0	205167798091.0	25.4	
2011-10-26-15-18	  -14.5	  43.5	   35724774261.5	86772882130.5	17.9	
2011-10-26-15-18	   36.0	 -39.0	   40971685191.4	78600897129.1	14.2	
2011-10-26-15-18	  -55.5	  44.0	   15526596272.9	31761427698.2	15.1	
2011-10-26-15-18	   46.0	 -44.5	   11117506281.6	27980590923.4	18.6	
2011-10-26-15-18	 -152.5	 -60.5	    1522119886.8	5255448928.2	25.5	
2011-10-26-18-21	   42.0	 -41.0	  218560337852.6	545419037924.8	18.4	
2011-10-26-18-21	  -14.0	  43.5	   80560875251.2	189675796773.9	17.3	
2011-10-26-18-21	 -168.5	 -62.5	   31328127002.3	107476498937.5	25.2	
2011-10-26-18-21	  -54.5	  44.5	   24213189267.9	71770783181.6	21.8	
2011-10-26-18-21	   46.5	 -44.5	   24477031306.5	57151982814.3	17.1	
2011-10-26-18-21	  -50.0	 -40.0	   19063600439.1	41762100490.0	16.1	
2011-10-26-18-21	   36.5	 -39.0	   14413127582.4	25241191099.2	12.8	
2011-10-26-21-24	   42.0	 -41.0	  178761557278.0	432370058394.0	17.8	
2011-10-26-21-24	  -13.5	  43.0	  111828357235.0	270442647678.5	17.7	
2011-10-26-21-24	 -136.5	  55.0	   63199114144.9	200125118944.4	23.2	
2011-10-26-21-24	  -49.5	 -40.0	   63979170237.5	140257194197.1	16.0	
2011-10-26-21-24	   46.0	 -44.0	   28942754709.9	70962970844.1	17.9	
2011-10-26-21-24	   47.0	 -39.5	   21551333591.4	47469497227.0	16.1	
2011-10-26-21-24	  -49.0	 -36.0	    5017229127.8	9876356926.7	14.4	
2011-10-26-21-24	  -28.5	  59.0	    1592023003.9	4890074212.5	22.4	
2011-10-26-21-24	 -168.0	 -62.5	    1427300445.1	4766626628.9	24.4	
2011-10-27-00-03	   42.0	 -41.0	  141663046593.9	333379832531.8	17.2	
2011-10-27-00-03	 -136.5	  55.0	   91492496960.9	320724653753.3	25.6	
2011-10-27-00-03	  -48.5	 -39.0	  147114586385.3	313618307530.4	15.6	
2011-10-27-00-03	  -12.0	  43.5	  120134212340.6	295761690573.9	18.0	
2011-10-27-00-03	   46.0	 -44.5	   28942754709.9	69985749684.2	17.6	
2011-10-27-00-03	   47.0	 -39.5	   16746896746.3	36639630062.6	15.9	
2011-10-27-03-06	  -48.5	 -38.0	  171812867262.6	359118376549.8	15.3	
2011-10-27-03-06	 -136.5	  54.5	   91604896555.3	336034833318.0	26.9	
2011-10-27-03-06	  -12.0	  43.0	   91502725004.7	213677437474.3	17.1	
2011-10-27-03-06	   42.0	 -41.0	   88636842755.7	204878594984.1	16.9	
2011-10-27-03-06	   46.0	 -44.0	   15601882774.5	37036057721.1	17.3	
2011-10-27-03-06	   48.5	 -43.0	    4521342560.1	9267282066.1	14.9	
2011-10-27-03-06	  158.5	 -61.5	    2949869607.5	8989331892.6	22.2	
2011-10-27-03-06	   48.0	 -39.0	    2402218422.6	5204373447.2	15.8	
2011-10-27-06-09	 -136.5	  54.5	   86554330755.3	317762068820.2	27.0	
2011-10-27-06-09	  -47.5	 -36.0	   95078769072.8	196692594694.0	15.2	
2011-10-27-06-09	  -48.5	  49.0	   32159407420.7	98330712452.4	22.4	
2011-10-27-06-09	   42.5	 -40.5	   39885480721.2	95854434447.0	17.6	
2011-10-27-06-09	  -48.0	 -41.5	   37216484722.7	73422018043.5	14.5	
2011-10-27-06-09	   49.0	 -43.5	   24885176572.7	58589726537.7	17.3	
2011-10-27-06-09	  159.0	 -62.0	   16081713336.5	55392128752.1	25.2	
2011-10-27-06-09	  -12.0	  43.0	   22458512104.8	48681921589.7	15.9	
2011-10-27-06-09	   46.0	 -44.5	    4428247721.2	11335128158.8	18.7	
2011-10-27-09-12	  -48.0	  49.5	   99950643316.3	341989864762.0	25.3	
2011-10-27-09-12	 -136.0	  54.5	   61981381460.6	229409989629.9	27.4	
2011-10-27-09-12	  -47.0	 -36.0	   85286015554.4	172553238244.9	14.9	
2011-10-27-09-12	  159.5	 -62.5	   23194453977.9	78250609977.8	24.9	
2011-10-27-09-12	   49.0	 -43.5	   29332246886.6	67091299784.3	16.9	
2011-10-27-09-12	   42.0	 -41.0	   11699547269.4	21657168970.8	13.6	
2011-10-27-09-12	   22.5	 -39.0	    2402218422.6	4162284748.0	12.8	
2011-10-27-12-15	  -47.5	  49.5	  158459991737.5	522859880554.3	24.7	
2011-10-27-12-15	  -46.5	 -36.0	   70379215816.0	135439184776.0	14.3	
2011-10-27-12-15	 -136.0	  54.5	   33706559428.6	113022786020.3	24.9	
2011-10-27-12-15	   49.0	 -43.5	   27108711729.7	62092430944.2	17.0	
2011-10-27-12-15	   47.5	 -39.0	   16815163052.1	37330473140.9	16.5	
2011-10-27-12-15	  160.0	 -62.0	    1451173219.6	4752280941.1	24.3	
2011-10-27-15-18	  -47.5	  49.5	  172304484745.1	551639456824.0	24.1	
2011-10-27-15-18	  -46.0	 -35.5	   45280182591.1	81981087098.1	13.5	
2011-10-27-15-18	  -49.0	 -39.5	   28910124792.4	58228390153.5	15.0	
2011-10-27-15-18	   47.5	 -39.0	   16815163052.1	39493535627.3	17.5	
2011-10-27-15-18	   49.0	 -43.0	    9079305916.7	18770378551.3	15.4	
2011-10-27-18-21	  -47.5	  49.0	  186434848573.7	616149234707.3	24.9	
2011-10-27-18-21	  -49.0	 -39.5	   42981927662.7	95124517360.5	16.6	
2011-10-27-18-21	   47.5	 -39.0	   14430011574.5	32361008645.0	16.8	
2011-10-27-18-21	  -45.0	 -35.5	   10065978111.5	17351149954.1	12.9	
2011-10-27-21-24	  -48.0	  49.0	  187971015669.2	660997035866.9	26.6	
2011-10-27-21-24	  -49.0	 -40.0	   47682875806.9	99254154379.1	15.6	
2011-10-28-00-03	  -48.0	  49.5	  167633505318.3	639517519392.0	28.9	
2011-10-28-00-03	  -36.0	  55.0	   61805162439.8	210350851899.9	25.6	
2011-10-28-00-03	  -48.5	 -40.0	   21465818861.7	42644490754.6	14.9	
2011-10-28-03-06	  -47.5	  49.5	  151597935725.7	561764887147.9	28.0	
2011-10-28-03-06	  -36.0	  55.0	  128874832636.2	489824080202.6	28.7	
2011-10-28-03-06	  -43.5	  52.0	    7569573765.4	17709969657.8	17.5	
2011-10-28-06-09	  -41.5	  52.0	  386809934218.2	1374634585540.7	27.1	
2011-10-28-06-09	   26.0	 -40.5	    7086280179.5	19336484131.2	20.4	
2011-10-28-09-12	  -36.0	  55.0	  278541360536.2	1032623636788.3	28.2	
2011-10-28-09-12	  -47.0	  49.5	  127494574762.5	418845415059.5	24.8	
2011-10-28-09-12	 -135.5	  54.0	    3633780356.5	8563614455.5	17.7	
2011-10-28-12-15	  -35.5	  55.0	  243203947685.7	954730192937.2	29.9	
2011-10-28-12-15	  -47.0	  49.5	  111438431535.5	345389853927.7	23.4	
2011-10-28-12-15	 -133.5	  53.0	   22279013381.4	58724467092.9	19.8	
2011-10-28-15-18	  -35.5	  54.5	  212703642315.4	846362561362.9	30.4	
2011-10-28-15-18	  -47.0	  49.5	   79841225122.3	235504512414.2	22.3	
2011-10-28-18-21	  -35.5	  54.5	  185405933050.9	721926928344.2	29.9	
2011-10-28-18-21	  -48.0	  49.0	   42115140286.5	93727047996.1	16.9	
2011-10-28-18-21	   26.5	 -44.0	    4447070313.9	9738939874.3	16.6	
2011-10-28-21-24	  -35.5	  54.0	  150042738027.6	567022592088.8	29.1	
2011-10-28-21-24	  169.0	  53.5	   22041550830.0	66749489323.8	23.1	
2011-10-28-21-24	  149.5	 -48.5	   16465864688.7	45688794475.3	21.2	
2011-10-28-21-24	  -48.0	  49.5	    8029978708.7	13221730045.9	12.6	
2011-10-28-21-24	  -52.0	 -51.5	    3890557428.3	8885216236.8	17.4	
2011-10-29-00-03	  -35.5	  54.0	  112888462635.2	406024710396.3	27.8	
2011-10-29-00-03	  169.5	  53.5	   25740451734.2	83919839141.1	25.0	
2011-10-29-00-03	  149.0	 -48.5	   16546048911.4	44892041775.0	20.8	
2011-10-29-00-03	  -52.0	 -51.5	    5835836142.5	13551011819.9	17.8	
2011-10-29-00-03	  -53.0	  43.5	    2242188799.2	10166053885.1	34.8	
2011-10-29-03-06	  -35.5	  54.0	   77197657734.9	260823377437.4	26.1	
2011-10-29-03-06	   39.0	 -44.0	   40170987110.4	92426101210.0	17.8	
2011-10-29-03-06	  -51.5	 -51.5	    9705356013.5	21868377446.7	17.4	
2011-10-29-03-06	  169.5	  53.0	    5559158106.0	9804212132.9	13.6	
2011-10-29-03-06	  149.5	 -48.0	    2068334532.2	7360714104.3	27.4	
2011-10-29-03-06	  170.5	  57.5	    1660835036.3	3638323656.1	16.9	
2011-10-29-06-09	   39.5	 -44.0	   93825252053.4	227949405187.5	18.9	
2011-10-29-06-09	  -35.5	  54.0	   45003428831.0	141638154925.5	24.4	
2011-10-29-06-09	  -52.0	 -51.5	    7760077299.4	17399717930.9	17.4	
2011-10-29-09-12	   39.5	 -43.5	  127616190908.8	319163709310.7	19.5	
2011-10-29-09-12	  169.0	 -58.5	   27592937214.7	75988613675.7	21.4	
2011-10-29-09-12	  -30.0	  63.0	   16935227415.1	63744535817.2	29.2	
2011-10-29-09-12	  -35.5	  54.0	    8996746622.5	27318272460.2	23.5	
2011-10-29-12-15	   39.5	 -43.5	  165326691215.6	407030973014.2	19.1	
2011-10-29-12-15	  172.5	 -59.0	   90064197644.5	259563618641.9	22.3	
2011-10-29-12-15	  -46.0	  48.5	   83323930967.1	208136140820.1	19.4	
2011-10-29-12-15	  -30.0	  62.5	   48355928310.3	191234009168.3	30.6	
2011-10-29-15-18	   39.5	 -44.0	  169512677602.7	430686564827.8	19.7	
2011-10-29-15-18	  -30.5	  62.0	   70596079031.2	283293438951.0	31.1	
2011-10-29-15-18	  -48.0	  48.5	   80846599230.9	231685816965.9	22.2	
2011-10-29-15-18	  173.0	 -58.0	   62240327252.1	171762235458.8	21.3	
2011-10-29-15-18	  178.0	 -59.5	   25100853910.3	68499657366.5	21.1	
2011-10-29-18-21	   39.5	 -44.0	  169046793100.2	440915832941.2	20.2	
2011-10-29-18-21	  -30.5	  61.5	  100821331661.1	399353336512.4	30.7	
2011-10-29-18-21	  -48.0	  49.0	  102598269568.2	332272674867.0	25.1	
2011-10-29-18-21	  -25.5	  60.5	   19528325595.0	70955257295.4	28.0	
2011-10-29-18-21	  -42.5	  51.0	   23321860224.3	66757456219.0	22.1	
2011-10-29-18-21	  173.5	 -58.0	   21590344935.7	60702967925.8	21.7	
2011-10-29-18-21	  -54.0	 -52.0	   19156661008.8	47323029519.3	19.0	
2011-10-29-21-24	  -31.0	  61.5	  133241929961.5	519886412634.8	30.2	
2011-10-29-21-24	  -47.0	  49.0	  155636392244.5	500501340843.5	24.8	
2011-10-29-21-24	   39.0	 -44.5	  161725833538.1	415694099355.7	19.8	
2011-10-29-21-24	  -26.0	  60.0	   59521947879.9	213157580689.1	27.5	
2011-10-29-21-24	  -53.5	 -51.5	   13574727200.8	34791103853.7	19.7	
2011-10-30-00-03	  -30.0	  61.0	  245947560832.5	919658352401.9	28.9	
2011-10-30-00-03	  -47.0	  49.0	  148435005025.5	489836856538.7	25.3	
2011-10-30-00-03	   39.0	 -44.5	  137087714503.0	346441360993.8	19.3	
2011-10-30-00-03	  -46.5	 -46.0	   28164688805.9	60643536966.3	16.4	
2011-10-30-00-03	  -53.0	 -51.5	    5814798585.2	14596718398.9	19.1	
2011-10-30-00-03	   45.0	 -45.0	    4371444253.1	7049372444.5	12.3	
2011-10-30-03-06	  -30.0	  61.5	  265538143937.3	1005539232164.6	29.0	
2011-10-30-03-06	  -46.5	  49.0	  128710945709.7	430308425747.9	25.4	
2011-10-30-03-06	   39.5	 -44.5	  112505198779.7	274233045317.0	18.5	
2011-10-30-03-06	  -45.0	 -46.5	  113889218703.0	252320302511.3	16.8	
2011-10-30-03-06	  -35.5	  54.5	   33573452623.9	104221971458.1	23.4	
2011-10-30-03-06	 -168.0	 -62.5	    4281901335.3	14317801303.1	25.2	
2011-10-30-03-06	   45.5	 -45.0	    6557166379.7	10735664093.5	12.4	
2011-10-30-03-06	   78.0	 -38.5	    4838204829.2	9021648955.6	14.1	
2011-10-30-06-09	  -31.0	  60.5	  382683508766.1	1415002832279.0	28.1	
2011-10-30-06-09	  -44.0	 -46.5	  177745795203.0	399078057459.5	16.8	
2011-10-30-06-09	  -47.0	  49.0	  104830386377.0	342786054658.4	24.5	
2011-10-30-06-09	   40.0	 -45.0	   72675525326.8	163697141287.8	16.8	
2011-10-30-06-09	  -12.0	  68.5	   14727146896.1	61235282216.4	31.0	
2011-10-30-06-09	 -168.0	 -63.0	    7088540559.9	24157231547.9	25.4	
2011-10-30-06-09	  159.0	 -62.0	    4353519658.9	14987634544.7	25.7	
2011-10-30-06-09	  -28.5	  60.0	    7610482624.3	14315796276.2	14.0	
2011-10-30-06-09	   45.5	 -45.0	    8742888506.3	13267475155.4	11.3	
2011-10-30-06-09	   78.0	 -38.5	    4838204829.2	9599286701.6	14.8	
2011-10-30-09-12	  -32.0	  60.0	  449711233739.0	1746708914803.6	29.3	
2011-10-30-09-12	  -42.5	 -46.5	  235594618604.4	541421076237.7	17.0	
2011-10-30-09-12	  -47.5	  48.5	   70748745859.6	215019276347.3	22.4	
2011-10-30-09-12	  159.0	 -62.5	   44674597057.0	172188181957.8	28.4	
2011-10-30-09-12	  -11.5	  68.0	   33127584145.6	141275997908.2	31.4	
2011-10-30-09-12	  167.0	 -63.0	   22812394055.6	99030926857.4	32.0	
2011-10-30-09-12	   40.0	 -45.0	   30846314082.0	69857219381.9	16.7	
2011-10-30-09-12	  -54.0	 -51.0	   13616653631.6	37320667465.7	20.2	
2011-10-30-09-12	   45.5	 -45.0	   10928610632.8	17317770622.6	11.7	
2011-10-30-09-12	  -28.5	  60.0	    7610482624.3	14458885301.2	14.0	
2011-10-30-09-12	   78.5	 -38.5	    2419102414.6	5601355922.6	17.0	
2011-10-30-12-15	  -32.5	  59.5	  497522902678.5	2036493157081.1	30.5	
2011-10-30-12-15	  163.5	 -62.5	  141700297039.5	593110492780.5	30.5	
2011-10-30-12-15	  -41.0	 -46.5	  238676162898.8	551225526052.4	16.8	
2011-10-30-12-15	  -11.5	  68.0	   44455735546.6	199423990587.0	32.5	
2011-10-30-12-15	  -48.0	  48.5	   32303061561.6	97788967465.7	21.9	
2011-10-30-12-15	  -53.5	 -51.0	   17507062376.1	49236401136.6	20.4	
2011-10-30-12-15	   45.5	 -45.0	   10928610632.8	17255016859.4	11.4	
2011-10-30-15-18	  -33.0	  58.5	  527364543418.6	2264629938273.5	31.5	
2011-10-30-15-18	  164.0	 -62.5	  193077578691.6	811942582867.5	30.2	
2011-10-30-15-18	  -40.5	 -46.0	  219425078477.7	485109888189.9	15.8	
2011-10-30-15-18	  -11.0	  68.0	   49237105586.5	226007867465.9	32.7	
2011-10-30-15-18	  -53.5	 -51.5	   13616653631.6	36862822350.1	19.3	
2011-10-30-15-18	   45.5	 -45.5	    8742888506.3	14645013668.9	11.9	
2011-10-30-15-18	  -48.0	  49.5	    4014989354.3	7447668890.0	13.2	
2011-10-30-18-21	  -33.0	  58.5	  576460320282.2	2643634602838.0	33.3	
2011-10-30-18-21	  164.5	 -63.0	  209770734542.5	889904019304.6	30.1	
2011-10-30-18-21	  -39.0	 -46.0	  146608336723.9	315466057993.7	15.1	
2011-10-30-18-21	  -10.5	  68.0	   44931908524.5	208050252530.1	32.5	
2011-10-30-18-21	    7.0	  73.5	    5189791577.8	29246158461.2	39.5	
2011-10-30-18-21	  -53.0	 -51.5	    5814798585.2	14872995372.4	17.9	
2011-10-30-18-21	   46.0	 -45.0	    2185722126.6	3453167040.7	11.1	
2011-10-30-21-24	  -33.5	  59.5	  495455153300.8	2857071869683.5	41.5	
2011-10-30-21-24	  164.5	 -63.0	  112560451477.8	548809168426.2	34.0	
2011-10-30-21-24	  -11.0	  68.0	    2315876812.0	12784109690.0	38.2	
2011-10-31-00-03	  -33.5	  59.5	  523295208945.2	3250554621442.5	44.6	
2011-10-31-00-03	  167.0	 -63.0	   45408641599.8	226929913745.9	34.4	
2011-10-31-00-03	  159.5	 -62.5	   41581605124.9	183696897005.2	30.4	
2011-10-31-03-06	  -33.5	  60.0	  600310214184.1	3494178088441.1	41.8	
2011-10-31-03-06	  167.5	 -63.0	   42554148767.9	196723240203.3	31.7	
2011-10-31-03-06	  159.5	 -62.5	   37347665455.2	152560408956.9	28.0	
2011-10-31-06-09	  -32.5	  60.5	  673522404954.3	3451225541558.0	36.8	
2011-10-31-06-09	  -54.0	  43.5	  100443673386.7	275395063523.4	18.8	
2011-10-31-06-09	  167.5	 -63.0	   42578021542.4	181004921992.1	29.2	
2011-10-31-06-09	  159.0	 -62.5	   37371427039.3	137916744452.8	25.3	
2011-10-31-09-12	  -32.0	  61.0	  671775220937.8	3101010935027.2	33.1	
2011-10-31-09-12	  -53.5	  43.5	   78266650998.2	192325730164.0	16.9	
2011-10-31-09-12	  167.5	 -63.0	   25547092071.4	104130201023.9	28.0	
2011-10-31-09-12	  159.0	 -62.5	   15843541543.3	55790697865.7	24.2	
2011-10-31-09-12	 -136.0	  54.5	   16022405827.2	46109977080.8	19.8	
2011-10-31-09-12	   -8.5	  67.5	    1182904384.0	4273919069.5	24.8	
2011-10-31-12-15	  -31.5	  61.5	  588046472218.0	2557257236873.8	31.0	
2011-10-31-12-15	 -135.5	  54.5	   24974960019.2	79597657210.2	22.0	
2011-10-31-12-15	   -9.0	  67.0	    9488021598.0	37200688324.2	27.0	
2011-10-31-12-15	  168.0	 -63.0	    8491860172.1	33140992776.6	26.9	
2011-10-31-15-18	  -31.5	  61.5	  451022987081.2	1928364080426.9	30.2	
2011-10-31-15-18	   -9.5	  67.5	   19934344701.6	80039576754.1	27.6	
2011-10-31-15-18	 -136.0	  54.5	   17817404115.3	51917184691.5	20.1	
2011-10-31-15-18	   59.0	 -39.5	   23867492294.6	45367184249.3	13.1	
2011-10-31-18-21	  -31.5	  61.5	  336087975772.4	1415484982610.9	29.4	
2011-10-31-18-21	   60.0	 -40.0	   73639060335.7	147303594405.7	13.7	
2011-10-31-18-21	  160.5	 -33.5	   44038586620.8	103354150206.0	16.1	
2011-10-31-18-21	  -49.0	  48.5	   32547349564.4	97983538834.3	20.6	
2011-10-31-18-21	  -10.0	  67.5	   18601646844.7	73860584822.4	27.2	
2011-10-31-18-21	   -5.5	 -52.0	   11481896509.3	26584239808.2	15.8	
2011-10-31-18-21	  -28.5	  60.0	    7610482624.3	14898393018.9	13.4	
2011-10-31-18-21	 -171.5	  39.0	    2402218791.0	4979903555.7	14.2	
2011-10-31-21-24	  -31.5	  61.5	  198165918462.6	848073114916.2	29.5	
2011-10-31-21-24	  -48.5	  48.5	   93477210593.1	334044233474.3	24.4	
2011-10-31-21-24	  161.0	 -34.0	   77390922697.0	178363087987.4	15.7	
2011-10-31-21-24	  155.5	  39.5	   66744492505.9	167596923779.2	17.1	
2011-10-31-21-24	   61.0	 -40.5	   70891361977.7	136630047443.5	13.1	
2011-10-31-21-24	  -27.0	  60.0	   35615183814.1	119136377479.6	22.8	
2011-10-31-21-24	   -4.0	 -52.5	   45265697069.3	104289936070.5	15.7	
2011-10-31-21-24	  -10.5	  68.0	    2290822305.5	9724527421.4	28.9	
