2019-06-01-00-03	   32.0	 -58.5	  163942743146.9	443897618378.3	19.7	
2019-06-01-00-03	  -28.0	  58.5	   19173217233.3	63358542011.1	23.9	
2019-06-01-00-03	  -24.0	  59.5	    7774298617.3	27408615680.3	25.5	
2019-06-01-03-06	  -26.0	  59.0	   18918458354.9	60279193762.5	23.1	
2019-06-01-09-12	  -21.0	 -56.0	   15578613118.2	48874080833.4	22.8	
2019-06-01-12-15	  -19.0	 -56.0	   47000616977.0	137934408040.8	21.5	
2019-06-01-12-15	   89.0	 -54.5	    1794998103.8	4692902209.3	19.1	
2019-06-01-15-18	  -18.0	 -56.5	   40020618800.6	119045337460.4	21.8	
2019-06-01-18-21	  -17.5	 -56.5	    6913903538.2	20479397516.1	21.8	
2019-06-02-03-06	 -177.5	 -48.0	    6244938549.0	18256055790.3	21.9	
2019-06-02-06-09	   48.0	 -66.0	   25856570541.9	119402837305.1	34.7	
2019-06-02-06-09	 -177.0	 -48.0	   12489717543.9	31324811257.6	18.8	
2019-06-02-09-12	   47.5	 -65.5	   60830698620.4	279595420945.0	34.6	
2019-06-02-09-12	 -175.5	 -48.5	   53551097561.2	123338984402.5	17.3	
2019-06-02-09-12	  -86.0	 -52.0	    3806115359.0	7052590257.5	13.9	
2019-06-02-12-15	   47.5	 -65.5	   54740773597.8	245333071181.5	33.8	
2019-06-02-12-15	 -174.0	 -48.5	   92701527867.1	231651066454.9	18.8	
2019-06-02-12-15	   18.0	 -58.0	    1638021380.4	3712299167.9	17.0	
2019-06-02-15-18	 -173.0	 -48.5	  121708016883.3	315272966849.9	19.6	
2019-06-02-15-18	   48.0	 -65.5	   24770888952.2	99637964630.3	30.4	
2019-06-02-18-21	 -172.5	 -48.5	  115201982800.1	290709825346.0	19.2	
2019-06-02-21-24	 -171.5	 -49.0	  112997678149.0	262261847746.2	17.6	
2019-06-02-21-24	  -94.0	 -51.0	   44801699211.0	114045754036.7	19.3	
2019-06-02-21-24	   -9.5	 -61.0	   16766388692.3	57720886724.9	26.0	
2019-06-02-21-24	   92.5	 -52.5	   15202842962.0	37924532854.4	18.9	
2019-06-02-21-24	 -173.0	 -43.5	    6745047773.0	19851693615.1	22.2	
2019-06-03-00-03	  -95.0	 -49.5	  170373126849.2	430505633903.7	19.1	
2019-06-03-00-03	 -170.0	 -47.5	  171057497283.5	417900746272.6	18.5	
2019-06-03-00-03	  -10.5	 -61.5	   54663813896.9	199664539557.1	27.6	
2019-06-03-00-03	 -172.5	 -43.5	   22550918429.0	54521196464.2	18.2	
2019-06-03-00-03	   93.0	 -52.5	   18923356628.8	47775525594.6	19.0	
2019-06-03-03-06	 -169.0	 -47.5	  217978087380.9	568749822429.7	19.8	
2019-06-03-03-06	  -95.0	 -49.0	  107629217031.6	281364288853.1	19.7	
2019-06-03-03-06	  -11.5	 -62.0	   73336762904.9	276479467792.0	28.4	
2019-06-03-03-06	   -3.0	 -61.0	   15127056057.4	46623216336.7	23.2	
2019-06-03-03-06	  -94.5	 -54.5	   14512950961.1	40460027640.6	21.0	
2019-06-03-03-06	 -172.5	 -43.5	   11247907299.4	26193749145.8	17.5	
2019-06-03-03-06	   93.5	 -52.5	    7569573765.4	18735923493.9	18.6	
2019-06-03-06-09	 -168.0	 -47.0	  296522916518.9	785792589362.8	20.1	
2019-06-03-06-09	   -6.0	 -61.5	  131687341369.4	447543443346.0	25.6	
2019-06-03-06-09	  -95.0	 -49.5	   80620289805.5	194008405310.5	18.1	
2019-06-03-06-09	  -94.0	 -55.0	    7135935587.4	19954324292.5	21.0	
2019-06-03-09-12	 -167.5	 -47.0	  336106530476.3	929324127162.1	20.9	
2019-06-03-09-12	   -4.5	 -62.0	  108544206786.5	390459503553.8	27.0	
2019-06-03-09-12	  -95.0	 -50.0	   39942794909.8	97046303562.6	18.2	
2019-06-03-09-12	 -157.0	 -32.0	   41953721473.9	75017865667.7	13.4	
2019-06-03-12-15	 -166.5	 -47.0	  358305795000.2	1005713379530.4	21.2	
2019-06-03-12-15	   -5.0	 -62.5	  104903951960.7	395459261813.5	28.2	
2019-06-03-12-15	 -157.0	 -32.5	   88794043518.2	153450413494.3	12.9	
2019-06-03-12-15	  -94.5	 -50.0	    1986906671.9	4603671821.0	17.2	
2019-06-03-15-18	 -166.0	 -47.0	  362330568926.4	1017928991190.2	21.2	
2019-06-03-15-18	   -5.0	 -62.5	   71126596299.0	266438787144.3	27.9	
2019-06-03-15-18	 -157.0	 -33.0	   77815835145.4	132890408226.6	12.7	
2019-06-03-15-18	   36.5	 -39.0	    4821320837.1	8409680258.1	13.0	
2019-06-03-18-21	 -165.0	 -46.5	  348307251339.2	952540495258.1	20.6	
2019-06-03-18-21	   -5.0	 -62.0	   24788083485.1	78664289624.5	23.6	
2019-06-03-18-21	   82.0	 -61.5	   20861592116.7	70262862935.3	25.0	
2019-06-03-18-21	  -95.0	 -51.5	   17296404175.4	43055170215.5	18.5	
2019-06-03-18-21	   36.0	 -38.5	    7257123553.9	12916655730.0	13.2	
2019-06-03-18-21	 -157.5	 -33.0	    5199384629.5	7892712201.0	11.3	
2019-06-03-21-24	 -164.5	 -47.0	  301466435893.2	734125843812.8	18.2	
2019-06-03-21-24	   81.0	 -61.5	   50877956288.3	180032546500.4	26.2	
2019-06-03-21-24	  -94.5	 -54.5	   51116776891.9	137281347777.4	19.9	
2019-06-03-21-24	   77.0	 -57.0	   37531554864.0	106677458914.4	21.0	
2019-06-04-00-03	 -163.5	 -47.0	  209732313787.9	450933898273.9	15.9	
2019-06-04-00-03	  -94.5	 -55.0	  104309502510.0	302746666120.8	21.4	
2019-06-04-00-03	   81.0	 -61.0	   86557219126.6	299033556622.8	25.4	
2019-06-04-00-03	   77.0	 -57.0	   81879601254.7	249979657977.2	22.5	
2019-06-04-00-03	 -157.5	 -37.0	    2468644329.0	4573148571.1	13.6	
2019-06-04-03-06	   79.0	 -59.0	  217288540742.8	700815823727.2	23.7	
2019-06-04-03-06	  -93.5	 -55.5	  162566927546.6	509928715772.6	23.0	
2019-06-04-03-06	 -160.0	 -48.0	   51822005983.9	107123568454.0	15.1	
2019-06-04-03-06	 -163.5	 -46.0	   21549557861.2	47553606093.5	16.1	
2019-06-04-03-06	 -157.5	 -37.0	    2468644329.0	4423704460.5	13.0	
2019-06-04-06-09	  -93.0	 -55.5	  219527885665.3	701475117989.5	23.4	
2019-06-04-06-09	   80.0	 -59.5	  186529673450.6	589825024785.2	23.1	
2019-06-04-06-09	  -78.0	 -46.0	   32265305277.9	77836267891.2	17.5	
2019-06-04-09-12	  -92.5	 -55.5	  292033106158.9	896917887826.8	22.5	
2019-06-04-09-12	   96.5	 -37.0	  143865492789.9	302343707844.9	15.3	
2019-06-04-09-12	   81.5	 -61.0	   86911835284.2	280445413620.6	23.4	
2019-06-04-09-12	  -77.5	 -46.0	   53792262836.1	137043696690.4	18.5	
2019-06-04-09-12	   77.0	 -57.0	   15376890315.2	40299883524.7	19.0	
2019-06-04-12-15	  -92.0	 -55.0	  377968664031.6	1118537441990.0	21.7	
2019-06-04-12-15	   96.5	 -36.5	  181790920198.5	364248955478.4	14.5	
2019-06-04-12-15	  -77.0	 -46.5	   66673432345.3	188290961779.5	20.5	
2019-06-04-12-15	   82.0	 -61.5	   32778526126.6	108281831754.6	23.9	
2019-06-04-15-18	  -91.5	 -55.0	  447723871343.0	1327091567236.5	21.7	
2019-06-04-15-18	   97.0	 -36.0	  122944403209.8	228572821860.9	13.4	
2019-06-04-15-18	  -77.0	 -46.5	   64565322414.7	176436050812.3	19.7	
2019-06-04-15-18	  100.5	 -42.5	   11467280175.2	27563344740.1	17.3	
2019-06-04-15-18	   82.5	 -61.5	    4424804411.2	15395495191.4	25.0	
2019-06-04-18-21	  -91.5	 -55.0	  481298875105.4	1390079727002.0	21.0	
2019-06-04-18-21	  -77.5	 -46.0	   51839042160.3	132978152204.4	18.3	
2019-06-04-18-21	  164.0	 -36.5	   27282883630.9	76018466851.8	19.9	
2019-06-04-18-21	   98.5	 -37.0	   37125186249.2	66006384516.6	12.7	
2019-06-04-18-21	  102.0	 -43.5	    4502859526.5	9328288980.4	14.8	
2019-06-04-21-24	  -91.0	 -55.5	  460001760745.8	1277349146868.7	20.0	
2019-06-04-21-24	  165.5	 -37.0	   91974254147.7	229189525397.4	17.7	
2019-06-04-21-24	   48.5	 -65.5	   30984265730.2	151203916207.5	34.6	
2019-06-04-21-24	  -78.0	 -46.0	   30292446367.5	78653510363.2	18.4	
2019-06-04-21-24	   99.0	 -36.0	   37602330554.0	63980106257.9	12.1	
2019-06-04-21-24	   97.0	 -33.5	    7777188094.1	13089878509.0	11.9	
2019-06-05-00-03	  -90.5	 -56.0	  374975905141.6	1021863596890.4	19.4	
2019-06-05-00-03	  166.5	 -36.5	  114494343262.2	254824781593.9	15.7	
2019-06-05-00-03	   49.0	 -65.5	   36184856503.9	175829951078.7	34.2	
2019-06-05-00-03	   99.0	 -35.0	   22834110731.1	38980261540.3	12.0	
2019-06-05-00-03	  -35.0	 -27.5	   10991979954.5	20290669958.1	13.0	
2019-06-05-00-03	   97.5	 -33.0	   12976572723.6	16926856683.7	9.2	
2019-06-05-00-03	  -77.5	 -46.0	    6480374063.2	14174682409.7	15.4	
2019-06-05-03-06	  -89.5	 -56.5	  268183594836.8	732473942720.4	19.2	
2019-06-05-03-06	  167.5	 -37.0	  141504014644.2	306009405322.1	15.1	
2019-06-05-03-06	  -35.0	 -28.0	   24688308930.8	52137734000.8	14.7	
2019-06-05-06-09	  -89.0	 -56.5	  203389621273.1	557755532872.7	19.0	
2019-06-05-06-09	  168.5	 -36.5	  212010952590.7	490354145432.3	16.0	
2019-06-05-06-09	   40.5	 -45.0	   41698297479.8	93425207934.0	15.5	
2019-06-05-06-09	   21.5	 -40.0	   42929821275.5	87045982742.1	14.0	
2019-06-05-06-09	   29.0	 -37.5	   27202191819.8	57117274681.6	14.5	
2019-06-05-06-09	  -83.0	 -43.5	   15787560257.8	35555062124.3	15.5	
2019-06-05-06-09	  -34.0	 -27.5	   13733799499.6	24795280750.2	12.4	
2019-06-05-09-12	  169.0	 -36.5	  238226808274.1	592352328694.0	17.1	
2019-06-05-09-12	  -88.0	 -56.5	  143782550271.2	397393801399.7	18.9	
2019-06-05-09-12	   33.5	 -41.5	  146100069606.0	305540768765.6	14.3	
2019-06-05-09-12	   22.5	 -41.5	  126945046698.2	299640235015.6	16.1	
2019-06-05-09-12	   41.0	 -45.0	   37384157281.9	81883003487.9	14.9	
2019-06-05-09-12	  -83.0	 -43.5	   13545372011.3	31217954763.9	15.7	
2019-06-05-09-12	  103.0	 -34.0	    5140225619.7	9279463919.0	12.3	
2019-06-05-09-12	   30.0	 -39.0	    4804436845.1	9190033035.8	13.0	
2019-06-05-12-15	   24.0	 -43.5	  261680212188.9	673697332339.2	17.5	
2019-06-05-12-15	  169.5	 -36.0	  213444436309.6	518370879036.9	16.5	
2019-06-05-12-15	   31.5	 -42.0	  148068112046.4	300210430860.3	13.7	
2019-06-05-12-15	  -88.0	 -57.0	  105466341540.4	294108684191.1	18.9	
2019-06-05-12-15	  104.0	 -34.5	  124898915794.6	223889510850.7	12.1	
2019-06-05-12-15	  -83.0	 -43.0	    2260671280.0	5101114804.1	15.2	
2019-06-05-15-18	   26.5	 -44.0	  549593824378.7	1596435776329.1	19.7	
2019-06-05-15-18	  104.5	 -33.5	  223540499211.3	436602736178.4	13.1	
2019-06-05-15-18	  170.0	 -36.0	  163415405814.2	346245225612.9	14.2	
2019-06-05-15-18	  -87.0	 -57.0	   62758731397.9	172011477469.6	18.3	
2019-06-05-15-18	   53.0	 -53.0	   60314802661.2	167973820075.8	18.6	
2019-06-05-15-18	   37.0	 -45.0	   63839198737.7	166092503838.2	17.4	
2019-06-05-15-18	  -27.0	 -31.5	   15897223849.6	26494965351.0	11.1	
2019-06-05-18-21	   28.5	 -44.0	  662055640474.2	2166823341283.0	22.1	
2019-06-05-18-21	  104.5	 -33.0	  268879432714.9	533853630733.2	13.1	
2019-06-05-18-21	   38.0	 -45.5	  133206290533.2	311121090222.0	15.4	
2019-06-05-18-21	   56.5	 -54.0	   65751781022.8	216543062294.7	21.7	
2019-06-05-18-21	  170.5	 -36.0	   85375780024.0	169772594774.6	13.1	
2019-06-05-18-21	  -26.5	 -31.5	   79384936711.5	159025059737.6	13.2	
2019-06-05-18-21	   36.0	 -37.5	   41702913493.9	86659302382.6	13.7	
2019-06-05-18-21	  -86.5	 -57.0	   28776873725.7	80528907014.0	18.4	
2019-06-05-18-21	  146.0	 -45.0	    2185722126.6	4469947179.9	13.4	
2019-06-05-18-21	   52.5	 -51.5	    1924241156.9	4133245914.0	14.1	
2019-06-05-21-24	   28.0	 -45.5	  780051912717.3	2487676376844.7	21.5	
2019-06-05-21-24	  105.0	 -32.5	  305991999082.8	594127068130.2	12.8	
2019-06-05-21-24	  -27.0	 -31.5	  137676577441.6	293368861588.3	14.0	
2019-06-05-21-24	   58.5	 -54.0	   91706945768.8	291324549737.7	20.8	
2019-06-05-21-24	   36.5	 -37.0	   61805801761.6	131590900087.3	13.9	
2019-06-05-21-24	   33.5	 -34.0	   43607735112.1	105134559955.7	15.8	
2019-06-05-21-24	  171.5	 -36.5	   42350516290.4	90123506954.4	13.9	
2019-06-05-21-24	  145.5	 -44.5	   24137227148.6	66220178989.2	17.9	
2019-06-06-00-03	   28.0	 -46.5	  726568867740.5	2298623565521.1	21.2	
2019-06-06-00-03	  106.0	 -33.0	  388657372925.3	723234168893.3	12.2	
2019-06-06-00-03	   60.0	 -53.5	  112123870392.6	349035922322.6	20.4	
2019-06-06-00-03	  -26.5	 -31.0	  153561902351.2	343121999185.0	14.6	
2019-06-06-00-03	   35.0	 -35.0	  159122670369.1	339012933832.0	13.9	
2019-06-06-00-03	  145.5	 -45.0	   26303792466.4	71743102853.1	17.8	
2019-06-06-00-03	  171.0	 -37.0	   24847274184.6	52800367513.0	13.9	
2019-06-06-00-03	  179.5	 -37.5	    2452316933.9	11787660884.9	31.3	
2019-06-06-03-06	   28.5	 -47.0	  730396245248.5	2147756628693.8	19.6	
2019-06-06-03-06	  107.0	 -33.0	  433424457741.8	781380128314.3	11.8	
2019-06-06-03-06	   35.5	 -34.5	  172248949971.5	352934372890.7	13.4	
2019-06-06-03-06	  -25.5	 -31.0	  156165864211.9	330153551827.6	13.8	
2019-06-06-03-06	   62.0	 -53.5	  114507294043.1	316155036198.5	18.0	
2019-06-06-03-06	 -172.5	 -46.0	   19324698921.1	46663028274.0	15.7	
2019-06-06-03-06	  145.5	 -45.0	    8780869381.7	21625137468.1	16.0	
2019-06-06-03-06	 -173.5	 -44.0	    6707911649.9	18157391430.6	17.6	
2019-06-06-06-09	   30.0	 -47.0	  669644900377.4	1853751463140.1	18.3	
2019-06-06-06-09	  107.0	 -32.5	  456299046572.5	808502843669.5	11.6	
2019-06-06-06-09	   35.5	 -34.5	  160136602730.8	315872066090.1	12.8	
2019-06-06-06-09	  -25.0	 -31.5	  153449567425.9	294148466867.5	12.5	
2019-06-06-06-09	 -171.5	 -47.0	   84710257239.3	211590732312.3	16.2	
2019-06-06-06-09	 -173.5	 -43.5	   22513612250.0	63234440110.0	18.2	
2019-06-06-06-09	   59.5	 -52.5	   15075018208.4	36806076866.7	15.8	
2019-06-06-06-09	   66.5	 -53.5	    9214830168.5	22791641783.0	16.0	
2019-06-06-09-12	   31.5	 -48.0	  658074012296.2	1720641634894.8	17.2	
2019-06-06-09-12	  107.0	 -31.5	  423301091376.1	754337356594.1	11.6	
2019-06-06-09-12	 -172.0	 -48.0	  116926170944.8	290674412014.2	16.1	
2019-06-06-09-12	  -23.5	 -32.0	  121285839700.5	214578110635.1	11.5	
2019-06-06-09-12	   35.0	 -33.5	   51786194933.6	113975669003.5	14.2	
2019-06-06-09-12	   38.0	 -35.5	   62892577752.4	111957656001.8	11.5	
2019-06-06-09-12	 -173.0	 -43.0	   36131878372.8	90035716136.7	16.1	
2019-06-06-09-12	  110.5	 -35.0	   17785940269.2	29383750249.0	10.7	
2019-06-06-09-12	   40.5	 -53.0	    9344228906.6	23245283526.2	16.1	
2019-06-06-12-15	   30.5	 -51.0	  529513884079.8	1450019928055.6	17.9	
2019-06-06-12-15	  107.0	 -31.0	  420755157275.6	734979474700.0	11.3	
2019-06-06-12-15	 -171.5	 -49.0	  133247702190.1	374948771453.8	18.2	
2019-06-06-12-15	   37.0	 -47.0	  100851509493.9	273395398120.5	17.5	
2019-06-06-12-15	 -172.5	 -43.0	   38447996174.2	101825388976.2	17.0	
2019-06-06-12-15	  -21.5	 -32.5	   47022376396.8	84872578481.6	11.6	
2019-06-06-12-15	   34.5	 -33.5	   38839992023.6	78250700942.0	13.0	
2019-06-06-12-15	   40.5	 -53.5	   20483874147.7	60155185280.9	18.9	
2019-06-06-12-15	   50.0	 -56.5	   17262264942.5	46703999323.6	17.4	
2019-06-06-12-15	   38.0	 -35.5	   22741282307.1	38800101724.6	11.0	
2019-06-06-12-15	  111.0	 -34.0	   10295437901.2	18450719969.3	11.5	
2019-06-06-12-15	  -23.5	 -30.5	    2663362781.0	3937110632.1	9.5	
2019-06-06-15-18	   32.0	 -52.5	  457067173509.4	1404088520298.0	19.9	
2019-06-06-15-18	  107.0	 -30.5	  544510577073.3	896460509978.8	10.6	
2019-06-06-15-18	 -171.5	 -49.0	  134508256539.9	357045091177.7	17.0	
2019-06-06-15-18	   37.0	 -47.0	   94256362238.8	262144490609.8	17.8	
2019-06-06-15-18	  106.0	 -31.0	  116704081227.6	165885240425.9	9.1	
2019-06-06-15-18	 -172.5	 -43.5	   47324342835.8	124536215346.6	16.8	
2019-06-06-15-18	   41.0	 -53.5	   37332552587.3	111488844827.5	19.1	
2019-06-06-15-18	   34.5	 -33.5	   23301589853.3	42089652811.7	11.5	
2019-06-06-15-18	  -20.5	 -33.0	   12990769353.0	22434902536.5	11.0	
2019-06-06-15-18	  111.0	 -33.5	   10325214453.5	12984488949.9	8.0	
2019-06-06-18-21	   33.5	 -53.5	  416108980219.5	1351300870138.5	21.0	
2019-06-06-18-21	  106.0	 -31.0	  518414748812.3	860952219499.0	10.7	
2019-06-06-18-21	 -171.0	 -49.5	  123471524978.6	291517020127.6	15.1	
2019-06-06-18-21	   37.0	 -47.0	   91974037478.5	242911705627.5	16.8	
2019-06-06-18-21	 -172.5	 -43.5	   54142631096.3	146516671978.4	17.2	
2019-06-06-18-21	  106.5	 -31.0	   98273067260.2	144330409095.0	9.4	
2019-06-06-18-21	   34.5	 -33.5	   18146377571.8	31648795351.3	11.1	
2019-06-06-18-21	  111.5	 -33.5	    2577606140.7	2458698915.3	6.1	
2019-06-06-21-24	   34.5	 -54.0	  445627582049.4	1411098002089.6	20.5	
2019-06-06-21-24	  106.0	 -31.0	  457256931966.2	775211615516.4	10.9	
2019-06-06-21-24	 -169.5	 -49.5	  161508864291.4	370358015812.6	14.6	
2019-06-06-21-24	 -172.0	 -43.5	   63202937547.4	163464580278.2	16.5	
2019-06-06-21-24	   37.0	 -47.0	   64413535805.4	160944885406.9	15.9	
2019-06-06-21-24	  116.0	 -39.0	   26508089322.7	54941274266.6	13.2	
2019-06-06-21-24	   34.5	 -33.5	   18146377571.8	31308554747.3	11.0	
2019-06-06-21-24	  107.0	 -30.5	   21360852166.5	30046264092.8	8.9	
2019-06-07-00-03	   36.0	 -54.5	  491331070861.9	1530943544380.3	20.2	
2019-06-07-00-03	  106.5	 -31.0	  406828989522.7	689367196436.3	10.9	
2019-06-07-00-03	 -168.0	 -49.5	  178794891186.5	410287028339.3	14.7	
2019-06-07-00-03	  116.5	 -39.5	   67254985090.2	142049240702.0	13.5	
2019-06-07-00-03	 -172.0	 -43.5	   42803689343.0	112639635521.7	16.8	
2019-06-07-00-03	   37.0	 -46.5	   27932994521.9	57215044663.5	13.0	
2019-06-07-00-03	   23.5	 -53.0	   13107687313.0	39177590970.8	19.0	
2019-06-07-00-03	  -17.5	 -36.0	   17583750042.7	34922348878.9	12.6	
2019-06-07-00-03	   34.5	 -33.5	   15539388973.7	24994607025.5	10.2	
2019-06-07-03-06	   35.5	 -55.5	  527657604859.9	1632101136172.0	20.1	
2019-06-07-03-06	  107.0	 -31.0	  294771149836.1	489470725551.0	10.6	
2019-06-07-03-06	 -167.5	 -49.5	  196303174906.8	453457726695.2	14.8	
2019-06-07-03-06	  117.5	 -39.5	  103157663639.6	227255835633.2	14.0	
2019-06-07-03-06	   22.0	 -53.0	   56042337587.1	168538134310.6	19.2	
2019-06-07-03-06	 -172.0	 -43.5	   33798312981.3	85361259876.4	16.1	
2019-06-07-03-06	  -17.0	 -36.0	   17536471732.9	31631705201.3	11.5	
2019-06-07-03-06	  106.0	 -32.0	   13177685499.3	21121492924.3	10.2	
2019-06-07-03-06	   37.0	 -46.0	    6441730283.0	10614360101.1	10.5	
2019-06-07-03-06	   35.0	 -33.0	    2592396031.4	3017263670.8	7.4	
2019-06-07-06-09	   35.5	 -57.0	  429814707410.8	1294637954003.0	19.4	
2019-06-07-06-09	   21.0	 -53.0	  110113797793.0	341403518211.9	19.8	
2019-06-07-06-09	  118.5	 -39.5	  124698596551.8	283158033481.4	14.5	
2019-06-07-06-09	 -166.5	 -51.0	  101988096024.8	282343408808.4	17.6	
2019-06-07-06-09	 -172.5	 -43.5	   26979678344.7	65606383318.0	15.5	
2019-06-07-06-09	 -167.5	 -46.5	   27855379009.5	55104679302.6	12.6	
2019-06-07-06-09	  107.5	 -32.0	   28947361511.9	47301863455.9	10.4	
2019-06-07-06-09	  107.5	 -28.0	   21883483943.1	33982955015.9	9.9	
2019-06-07-06-09	   41.0	 -53.5	    9279670667.4	23835868068.7	16.3	
2019-06-07-06-09	  172.0	 -37.0	    7422073007.5	16691025813.8	14.3	
2019-06-07-09-12	   37.0	 -57.5	  330473723601.1	935724365964.4	18.2	
2019-06-07-09-12	   21.0	 -53.0	  102157049254.3	304503598719.0	19.0	
2019-06-07-09-12	  119.0	 -39.5	  134218321695.5	295055882475.8	14.0	
2019-06-07-09-12	 -165.5	 -51.5	   99398364878.4	277533204270.0	17.8	
2019-06-07-09-12	   22.5	 -61.0	   27303205589.9	94593601473.8	22.0	
2019-06-07-09-12	   98.0	 -48.0	   29195814503.0	66789133031.6	14.5	
2019-06-07-09-12	 -178.0	 -53.5	   25891458260.4	64479957664.5	15.8	
2019-06-07-09-12	  161.5	 -64.0	   12340404852.1	48468595275.6	24.9	
2019-06-07-09-12	 -172.5	 -43.5	   18011438106.0	47010781263.8	16.6	
2019-06-07-09-12	  172.0	 -37.0	   19764919903.1	46249834430.2	14.8	
2019-06-07-12-15	   23.0	 -60.0	   90143828771.0	287037335959.3	20.2	
2019-06-07-12-15	  160.5	 -63.5	   72341048451.6	282777606604.4	24.8	
2019-06-07-12-15	 -177.5	 -53.5	   97611334345.9	270818449015.1	17.6	
2019-06-07-12-15	  120.0	 -39.0	  129603600194.5	266784259926.7	13.1	
2019-06-07-12-15	   36.0	 -58.5	   96839331497.4	260440117449.9	17.1	
2019-06-07-12-15	 -164.5	 -51.5	   94862425145.5	256917422816.3	17.2	
2019-06-07-12-15	   99.5	 -48.0	   52146690456.9	120181719580.2	14.6	
2019-06-07-12-15	   22.5	 -53.5	   36814415593.2	101301630738.3	17.4	
2019-06-07-12-15	  171.5	 -37.0	   27170665515.4	62335520022.1	14.5	
2019-06-07-12-15	   18.0	 -53.0	    7483972073.2	24334308879.4	20.6	
2019-06-07-12-15	   44.0	 -59.0	    8006235548.8	22246855298.9	17.6	
2019-06-07-12-15	 -172.5	 -43.5	    4502859526.5	11038750713.1	15.5	
2019-06-07-15-18	   24.5	 -59.5	  150566377611.2	454477519189.5	19.2	
2019-06-07-15-18	  160.0	 -63.0	   97421057706.7	407837269668.3	26.6	
2019-06-07-15-18	 -176.5	 -53.5	  119694010151.3	326178239097.1	17.3	
2019-06-07-15-18	  120.5	 -39.0	   98659643060.8	191520061718.8	12.3	
2019-06-07-15-18	 -163.0	 -52.0	   69054132337.4	177848604151.0	16.3	
2019-06-07-15-18	  101.5	 -48.0	   41725307445.2	96713832828.2	14.7	
2019-06-07-15-18	  171.5	 -37.0	   27170665515.4	59524990689.1	13.9	
2019-06-07-18-21	   25.5	 -59.0	  175248154773.3	513892665039.9	18.6	
2019-06-07-18-21	  159.0	 -63.0	   92431127068.2	392213382784.8	26.9	
2019-06-07-18-21	 -175.5	 -54.0	   97290373415.9	241219796765.4	15.7	
2019-06-07-18-21	  104.5	 -34.0	   94804827591.8	176020966718.3	11.7	
2019-06-07-18-21	  121.5	 -38.5	   53131610688.9	97860864039.3	11.6	
2019-06-07-18-21	  171.5	 -37.5	   19748779882.7	43022099863.2	13.7	
2019-06-07-18-21	 -162.5	 -52.5	    9451302968.6	21123908733.3	14.1	
2019-06-07-18-21	  101.5	 -47.5	    2088302008.4	4602928062.2	13.9	
2019-06-07-21-24	   27.5	 -59.0	  147431532116.3	419937764670.8	18.0	
2019-06-07-21-24	  158.0	 -62.5	   77641367903.3	310553684169.1	25.2	
2019-06-07-21-24	  105.0	 -33.5	   72343166596.7	126133266311.6	11.0	
2019-06-07-21-24	  122.5	 -39.0	   26541673616.9	50500090332.6	12.0	
2019-06-07-21-24	  172.0	 -37.5	   19732452487.6	42398514888.0	13.5	
2019-06-07-21-24	 -174.5	 -54.0	    9127956649.6	22049578720.5	15.2	
2019-06-08-00-03	   28.5	 -59.0	  106763531794.6	297290997313.2	17.5	
2019-06-08-00-03	  158.0	 -62.5	   44864683557.8	165962885990.4	23.2	
2019-06-08-00-03	   50.0	 -63.0	   29900826557.2	105557175780.3	22.1	
2019-06-08-00-03	   39.5	 -45.0	   43902338479.8	88599814747.1	12.7	
2019-06-08-00-03	  172.0	 -37.5	   22217236837.0	49678648635.9	14.0	
2019-06-08-00-03	  164.5	 -50.5	    3973813343.7	5070281651.8	8.0	
2019-06-08-00-03	  165.0	 -48.5	    2048209897.0	4442760579.5	13.6	
2019-06-08-03-06	   38.0	 -45.5	  158359763762.1	375215641925.1	14.8	
2019-06-08-03-06	   29.0	 -60.0	   73813423296.5	203680455049.1	17.2	
2019-06-08-03-06	   50.0	 -63.0	   27094187332.6	88492315984.2	20.4	
2019-06-08-03-06	  172.0	 -37.0	   27154525495.0	64381314341.7	14.8	
2019-06-08-03-06	   55.5	 -63.5	   15436195429.3	60266178401.2	24.4	
2019-06-08-03-06	  158.0	 -62.0	    4353519658.9	13406282197.5	19.2	
2019-06-08-03-06	  164.5	 -50.0	    3973813343.7	5119446192.3	8.0	
2019-06-08-03-06	  165.0	 -48.5	    2048209897.0	4200647481.3	12.8	
2019-06-08-03-06	   45.5	 -45.5	    2166565317.8	3671753684.8	10.6	
2019-06-08-06-09	   39.5	 -46.0	  314312320364.7	837122912874.8	16.7	
2019-06-08-06-09	  111.0	 -46.0	   34353929342.4	77655129510.3	14.0	
2019-06-08-06-09	  172.0	 -37.0	   29639309844.5	70723108563.6	14.8	
2019-06-08-06-09	   28.5	 -61.0	   19598698991.3	56982435936.1	18.0	
2019-06-08-06-09	   49.0	 -62.0	    2902346439.3	7014463899.5	15.0	
2019-06-08-09-12	   40.0	 -46.0	  290158902897.5	803029372625.9	17.2	
2019-06-08-09-12	   46.0	 -50.0	   75783250679.2	191312106080.7	15.6	
2019-06-08-09-12	  111.5	 -46.5	   51218166148.4	112445127526.2	13.6	
2019-06-08-09-12	  172.0	 -37.5	   29639309844.5	69562400121.6	14.5	
2019-06-08-09-12	   -7.0	 -39.5	    7206472314.8	12670830611.4	10.8	
2019-06-08-09-12	   29.0	 -61.0	    1498584184.1	4422807015.3	18.2	
2019-06-08-12-15	   41.0	 -46.0	  288196774091.9	767086417388.5	16.5	
2019-06-08-12-15	   48.0	 -52.0	   90335720388.7	226578900660.9	15.5	
2019-06-08-12-15	   42.0	 -52.5	   50953826654.8	149765904122.5	18.1	
2019-06-08-12-15	   -4.5	 -41.0	   44668559058.5	84359299992.4	11.6	
2019-06-08-12-15	  112.0	 -47.0	   31816671594.5	67466837281.2	13.1	
2019-06-08-12-15	  171.5	 -37.5	   22201096816.6	49591622068.7	13.7	
2019-06-08-15-18	   43.0	 -46.0	  240813738564.4	598810328680.9	15.4	
2019-06-08-15-18	   41.0	 -53.0	  136853951358.8	435235867609.1	19.6	
2019-06-08-15-18	   -3.0	 -40.0	   87608592532.9	191802434892.8	13.5	
2019-06-08-15-18	   51.0	 -54.5	   14447002243.0	34193260426.9	14.5	
2019-06-08-15-18	   49.0	 -53.0	   13150488159.1	25471722145.5	11.9	
2019-06-08-15-18	  172.0	 -37.5	    9858249920.9	22167892706.1	13.8	
2019-06-08-15-18	  112.5	 -46.5	    6402758550.8	13612737507.0	13.1	
2019-06-08-15-18	   82.5	 -61.5	    2949869607.5	9822171457.0	20.5	
2019-06-08-18-21	   41.5	 -53.0	  200040137200.4	738485636585.4	22.8	
2019-06-08-18-21	   44.5	 -46.0	  160527143984.9	389053663238.4	14.9	
2019-06-08-18-21	   -1.5	 -41.5	  136805487632.1	305108988259.7	13.7	
2019-06-08-18-21	   39.5	 -61.0	   55961716156.7	179806767616.8	19.7	
2019-06-08-18-21	   49.0	 -63.5	   52504326627.2	179679956487.2	21.0	
2019-06-08-18-21	   83.0	 -61.5	   19126292669.3	64993524109.0	20.8	
2019-06-08-18-21	 -168.5	 -40.5	   26028603662.9	56540344860.4	13.3	
2019-06-08-21-24	   42.0	 -53.0	  215660983144.7	858496902159.0	24.6	
2019-06-08-21-24	   48.5	 -64.0	  125131862652.0	469866710862.2	23.1	
2019-06-08-21-24	    0.0	 -41.5	  188983601217.5	391816620222.3	12.7	
2019-06-08-21-24	   40.5	 -60.5	   96566047762.4	312688413994.6	19.9	
2019-06-08-21-24	   45.0	 -46.0	   84587536005.9	222723720763.8	16.2	
2019-06-08-21-24	   83.5	 -62.0	   30711359876.8	106444601749.5	21.2	
2019-06-08-21-24	 -167.0	 -41.5	   41936280885.0	97556514052.6	14.2	
2019-06-09-00-03	   48.0	 -63.0	  392474511611.3	1323901983339.7	21.0	
2019-06-09-00-03	   41.5	 -53.5	  200353813730.6	754537195956.8	23.2	
2019-06-09-00-03	    1.0	 -40.0	  101696541319.4	185392584140.6	11.2	
2019-06-09-00-03	   45.5	 -46.0	   54161492379.9	136284111504.0	15.4	
2019-06-09-00-03	   83.5	 -62.0	   35041006761.1	121731021924.0	21.3	
2019-06-09-00-03	  150.5	  39.0	   33647216176.2	81038221337.5	14.7	
2019-06-09-00-03	    2.5	 -44.5	   33218906478.4	67800226505.3	12.5	
2019-06-09-00-03	 -166.5	 -42.0	   13836595448.4	30893623076.1	13.7	
2019-06-09-03-06	   49.5	 -63.0	  430064588926.9	1412765072226.6	20.5	
2019-06-09-03-06	   41.0	 -53.5	  137121263791.1	489280652030.1	22.0	
2019-06-09-03-06	  151.5	  39.0	  105741328598.3	259434121222.9	15.1	
2019-06-09-03-06	   83.5	 -62.0	   31995984785.5	109672749597.8	21.0	
2019-06-09-03-06	    3.5	 -41.5	   53365882158.4	107647659422.5	12.4	
2019-06-09-03-06	   45.5	 -46.0	   28184010696.0	63421465017.0	13.8	
2019-06-09-03-06	  113.0	 -34.5	   17907778796.3	48303298670.9	16.5	
2019-06-09-03-06	 -168.0	 -63.5	   12509438503.5	40622464726.4	19.9	
2019-06-09-06-09	   48.5	 -62.0	  388299472366.9	1241317395459.3	19.9	
2019-06-09-06-09	  152.5	  39.0	  180280441312.0	443558044138.1	15.2	
2019-06-09-06-09	   41.0	 -53.5	   83488942326.2	272767685368.3	20.1	
2019-06-09-06-09	    5.0	 -42.0	   36751795954.7	76484054765.2	12.8	
2019-06-09-06-09	  113.0	 -34.5	   28127116396.3	66530937973.7	14.5	
2019-06-09-06-09	   83.5	 -62.5	   17389872289.8	60043227257.1	21.2	
2019-06-09-06-09	 -167.5	 -63.5	    5516928043.5	17350856298.4	19.3	
2019-06-09-06-09	   46.0	 -46.0	    6499695953.4	11646937509.5	11.0	
2019-06-09-09-12	   48.0	 -61.5	  305682364927.3	993918176139.0	20.2	
2019-06-09-09-12	  154.0	  39.0	  228076778319.1	561435599335.4	15.2	
2019-06-09-09-12	   41.0	 -53.5	   44643904266.2	135168437701.6	18.6	
2019-06-09-09-12	  113.0	 -34.0	   35889903351.6	87169471683.5	14.9	
2019-06-09-09-12	 -158.0	 -43.5	   24755800496.5	57392560466.1	14.2	
2019-06-09-09-12	   83.5	 -62.5	    7208120549.1	24170866535.7	20.6	
2019-06-09-09-12	   28.5	 -59.5	    1568840678.5	4321379621.5	16.9	
2019-06-09-12-15	   48.0	 -61.0	  259916969310.8	834541707297.6	19.9	
2019-06-09-12-15	  155.0	  39.0	  253988510266.9	624994304585.1	15.2	
2019-06-09-12-15	 -158.5	 -44.5	  219886281191.5	536114058526.5	15.0	
2019-06-09-12-15	   30.5	 -60.0	   97210885630.1	289799678290.8	18.3	
2019-06-09-12-15	  112.5	 -34.0	   43668068484.2	105505253070.1	14.8	
2019-06-09-12-15	   41.0	 -53.0	    3720513666.8	10835514605.6	17.9	
2019-06-09-15-18	 -158.5	 -45.0	  386207202970.4	981720243736.8	15.7	
2019-06-09-15-18	   48.5	 -61.0	  232300537848.1	722398137761.7	19.2	
2019-06-09-15-18	  156.5	  39.5	  269856760677.7	651334581816.4	14.9	
2019-06-09-15-18	   30.5	 -60.5	  146102026446.7	445504937743.2	18.8	
2019-06-09-15-18	  112.5	 -34.5	   38438318463.0	94266214121.9	15.0	
2019-06-09-15-18	 -168.5	 -63.5	   19357108023.9	70011471096.9	22.2	
2019-06-09-15-18	   79.5	 -61.5	    5923388595.4	18858935121.3	19.5	
2019-06-09-18-21	 -157.0	 -45.5	  517693504247.9	1269813017125.3	15.2	
2019-06-09-18-21	   49.5	 -61.0	  219796314239.3	677562100182.1	19.0	
2019-06-09-18-21	   32.0	 -60.5	  204218109218.5	650116972830.0	19.6	
2019-06-09-18-21	  157.5	  40.0	  256749180593.9	617660833181.9	14.8	
2019-06-09-18-21	   62.0	 -36.0	  181632429922.0	374215468335.8	12.6	
2019-06-09-18-21	 -167.5	 -63.5	   43188496230.4	163957599438.9	23.2	
2019-06-09-18-21	  112.0	 -34.5	   38453499869.2	86467788339.1	13.7	
2019-06-09-18-21	   80.0	 -62.0	   25002158096.4	80062045460.3	19.6	
2019-06-09-21-24	 -155.5	 -46.5	  557739727058.6	1303709329987.9	14.5	
2019-06-09-21-24	   33.5	 -61.0	  248084906471.3	834860555152.9	20.7	
2019-06-09-21-24	  159.0	  40.0	  228800446595.0	558499807005.8	15.0	
2019-06-09-21-24	   64.0	 -36.5	  250305559060.6	541798449033.3	13.3	
2019-06-09-21-24	   48.5	 -60.0	  177654572821.7	519969977921.2	18.0	
2019-06-09-21-24	 -166.5	 -63.5	   55769667011.5	223444357038.6	24.5	
2019-06-09-21-24	   81.0	 -62.0	   43819219640.8	142788667905.0	19.9	
2019-06-09-21-24	  112.0	 -34.5	   28188230035.8	60207042448.1	13.0	
2019-06-09-21-24	  166.0	  38.5	   21737789499.6	42955578317.3	12.1	
2019-06-09-21-24	 -156.5	 -45.5	   17332192379.6	28545462767.8	10.0	
2019-06-10-00-03	 -154.0	 -46.5	  508797887284.1	1181272943659.3	14.4	
2019-06-10-00-03	   35.0	 -61.0	  258402336490.6	885804472599.5	21.1	
2019-06-10-00-03	  160.5	  40.5	  241502552193.3	577390044223.9	14.7	
2019-06-10-00-03	   65.0	 -36.0	  261875778709.6	574502600764.9	13.5	
2019-06-10-00-03	   48.0	 -59.0	  156138501237.6	442686520287.0	17.4	
2019-06-10-00-03	 -166.5	 -63.5	   51584007655.1	203254457357.9	24.1	
2019-06-10-00-03	   82.0	 -62.0	   45127606133.7	151743587137.7	20.6	
2019-06-10-00-03	  167.0	  38.5	   36167253689.3	74911618017.5	12.7	
2019-06-10-00-03	   40.0	 -54.0	   20072386352.3	63405829553.1	19.3	
2019-06-10-00-03	   -4.0	 -53.5	   12978429704.7	41291936322.0	19.4	
2019-06-10-03-06	   37.0	 -61.5	  241869943180.3	815461706555.6	20.8	
2019-06-10-03-06	 -152.0	 -48.5	  238442258072.1	627249201017.9	16.2	
2019-06-10-03-06	   65.5	 -35.5	  260839958695.2	571364993521.7	13.5	
2019-06-10-03-06	  162.5	  41.5	  227934858453.8	509411374146.7	13.8	
2019-06-10-03-06	   48.5	 -58.5	  152345993116.0	415556781878.1	16.8	
2019-06-10-03-06	 -155.0	 -40.0	  167992567802.7	314904824402.2	11.5	
2019-06-10-03-06	   -2.5	 -54.0	   85133205293.2	235019727422.3	16.9	
2019-06-10-03-06	   82.0	 -62.0	   46792738628.7	153539563109.9	20.1	
2019-06-10-03-06	   40.0	 -54.0	   45506491832.3	138939770869.4	18.7	
2019-06-10-03-06	 -167.0	 -63.5	   24946298871.6	93826618878.9	23.0	
2019-06-10-03-06	    8.0	 -57.0	   13558407912.4	42894388189.5	19.4	
2019-06-10-06-09	   40.0	 -61.5	  191628709702.1	610300564071.6	19.7	
2019-06-10-06-09	   66.0	 -35.0	  234187368821.0	488963936372.2	12.9	
2019-06-10-06-09	 -151.0	 -49.0	  185077039924.1	458406551036.3	15.3	
2019-06-10-06-09	   -2.5	 -53.5	  128172098373.2	361438746673.6	17.4	
2019-06-10-06-09	   49.5	 -57.5	  112650374948.7	307387009473.9	16.8	
2019-06-10-06-09	  165.5	  42.5	  116834625770.5	258606551765.6	13.7	
2019-06-10-06-09	   40.5	 -54.0	   58657543405.3	175261940572.8	18.4	
2019-06-10-06-09	 -152.0	 -43.0	   84418257588.1	157783361750.8	11.5	
2019-06-10-06-09	    4.0	 -54.5	   43362620228.5	141475993754.6	20.1	
2019-06-10-06-09	   82.5	 -62.0	   42415680779.9	134099204773.1	19.5	
2019-06-10-06-09	    8.5	 -56.5	   35826774282.3	120283964813.5	20.7	
2019-06-10-09-12	    2.0	 -54.0	  229024690660.9	679306614477.6	18.5	
2019-06-10-09-12	   66.5	 -34.5	  215022489855.2	414066852279.5	12.0	
2019-06-10-09-12	   41.0	 -53.5	   77843898610.0	242583207458.2	19.4	
2019-06-10-09-12	 -150.0	 -50.0	  102025858388.4	229055737867.9	13.9	
2019-06-10-09-12	  167.0	  43.5	   81192135728.9	194738857161.2	14.9	
2019-06-10-09-12	   50.0	 -57.5	   72092532726.0	193511736715.1	16.7	
2019-06-10-09-12	 -150.0	 -44.0	   69502896648.8	135879764015.6	12.1	
2019-06-10-09-12	    9.5	 -56.5	   37644864616.9	113148760669.0	18.6	
2019-06-10-09-12	   82.5	 -62.0	   35088753323.5	111295381922.5	19.7	
2019-06-10-09-12	   41.0	 -61.0	   34513825574.1	100962711595.1	18.1	
2019-06-10-12-15	    3.0	 -54.0	  259260704993.3	761215524208.2	18.5	
2019-06-10-12-15	   67.0	 -35.0	  191630862484.8	367540085439.3	12.0	
2019-06-10-12-15	   41.5	 -53.5	  102325697193.9	326523407097.9	20.0	
2019-06-10-12-15	   11.0	 -57.0	   79706223566.7	246357318387.5	19.3	
2019-06-10-12-15	  167.5	  44.0	   95526074367.1	237271883630.0	15.5	
2019-06-10-12-15	   83.0	 -62.0	   32115234335.6	104262342643.4	20.3	
2019-06-10-12-15	 -149.0	 -44.0	   24626084861.1	49096544729.6	12.4	
2019-06-10-12-15	   51.0	 -57.0	   16948009890.5	43210535536.7	15.9	
2019-06-10-12-15	 -148.5	 -50.0	    7947475424.3	15531124007.9	12.2	
2019-06-10-12-15	 -149.5	 -51.5	    5772723470.7	12479282873.5	13.5	
2019-06-10-15-18	    3.5	 -54.0	  279742743900.5	817143733308.2	18.5	
2019-06-10-15-18	   42.0	 -53.0	  108012822841.5	358438349722.9	20.9	
2019-06-10-15-18	   67.5	 -35.0	  181054304826.5	344269910621.2	12.0	
2019-06-10-15-18	   12.0	 -57.0	   98086275661.9	340849067929.5	21.9	
2019-06-10-15-18	  168.0	  45.0	  111798633928.8	299188127409.2	16.8	
2019-06-10-15-18	   82.5	 -62.0	   35064991739.4	112998483713.6	20.2	
2019-06-10-18-21	    2.5	 -54.0	  290271794603.9	859362857024.6	18.9	
2019-06-10-18-21	   13.0	 -57.0	  108544044008.1	372981615839.8	21.8	
2019-06-10-18-21	   68.0	 -35.0	  165526739621.8	311787342577.6	11.9	
2019-06-10-18-21	   41.5	 -53.0	   97177297098.4	304713942340.9	19.8	
2019-06-10-18-21	  168.0	  45.5	  108549212934.3	275906875325.7	16.1	
2019-06-10-18-21	   82.0	 -62.0	   39489683946.9	127873010505.9	20.4	
2019-06-10-18-21	  158.0	 -63.0	   21432947217.9	75468459653.7	22.2	
2019-06-10-18-21	  111.5	 -34.0	    2562619479.0	4798592710.4	11.8	
2019-06-10-21-24	    2.0	 -54.0	  262068620097.9	794265747002.2	19.4	
2019-06-10-21-24	   13.5	 -57.0	  105449215085.1	363523275859.5	21.9	
2019-06-10-21-24	  169.0	  46.0	  107470557620.5	262279854802.6	15.5	
2019-06-10-21-24	   68.5	 -34.5	  132593949559.8	238417142430.3	11.4	
2019-06-10-21-24	   42.0	 -53.0	   65599704047.1	198409552236.5	19.2	
2019-06-10-21-24	   82.5	 -62.0	   36539926543.1	118069437952.7	20.5	
2019-06-10-21-24	  158.0	 -63.0	   27237528906.0	90360028196.1	21.0	
2019-06-10-21-24	  112.5	 -34.5	   23048004416.1	52014712041.2	14.3	
2019-06-11-00-03	    0.5	 -54.0	  239900621543.5	705643228156.9	18.8	
2019-06-11-00-03	   14.5	 -57.0	  105516499377.9	350856659781.5	21.2	
2019-06-11-00-03	  170.0	  46.5	   80850745426.4	193345362672.7	15.2	
2019-06-11-00-03	   18.0	 -52.5	   43363788326.6	134324501077.9	19.7	
2019-06-11-00-03	  112.5	 -34.5	   35845336908.7	84153638908.9	14.9	
2019-06-11-00-03	   41.5	 -52.5	   24419103221.6	70758947889.1	18.4	
2019-06-11-00-03	   68.5	 -33.0	   41650672609.6	69737817853.1	10.6	
2019-06-11-00-03	  158.5	 -62.5	   18650180767.8	60262494827.8	20.5	
2019-06-11-00-03	   83.5	 -62.5	   17389872289.8	58190111925.8	21.3	
2019-06-11-00-03	   68.5	 -36.0	   15083015442.8	25478629242.5	10.7	
2019-06-11-00-03	   80.0	 -61.5	    2949869607.5	9699450570.9	20.9	
2019-06-11-03-06	   19.0	 -53.0	  173019871684.5	541565352673.2	20.1	
2019-06-11-03-06	   -2.5	 -53.5	  146643311497.0	430597250150.3	18.8	
2019-06-11-03-06	   15.5	 -57.0	   97077630325.9	295432003304.6	19.4	
2019-06-11-03-06	  171.0	  47.0	   39953931269.6	101749838383.0	16.2	
2019-06-11-03-06	    4.5	 -54.5	   32659681910.2	91084754667.8	17.8	
2019-06-11-03-06	  113.0	 -34.5	   28173048629.7	71963873478.9	16.3	
2019-06-11-03-06	   83.0	 -62.0	   13084098180.0	42912862701.8	20.9	
2019-06-11-03-06	  158.5	 -62.5	    7184247774.6	21003792737.1	18.6	
2019-06-11-03-06	  168.0	  46.0	    4275000989.2	8552301434.0	12.7	
2019-06-11-06-09	   19.5	 -53.0	  217615560583.0	697920249059.7	20.6	
2019-06-11-06-09	   -3.0	 -53.5	  120731788664.5	348309635868.0	18.5	
2019-06-11-06-09	   16.5	 -57.0	   79410416357.8	220839905616.4	17.8	
2019-06-11-06-09	 -140.5	 -54.0	   27164401635.5	79437935674.3	18.7	
2019-06-11-06-09	  171.0	  47.0	   25177833785.7	61481860375.8	15.6	
2019-06-11-06-09	    4.5	 -54.5	   10835664293.5	29505248769.8	17.4	
2019-06-11-06-09	  112.5	 -34.5	   12827889312.3	26979260629.5	13.4	
2019-06-11-06-09	  168.0	 -63.0	    4209958836.8	15759404639.8	23.9	
2019-06-11-06-09	   83.5	 -62.0	    4353519658.9	14403145696.4	21.1	
2019-06-11-09-12	   19.5	 -53.0	  166752466408.3	492871933486.2	19.0	
2019-06-11-09-12	   -3.5	 -53.5	   87382765086.1	238952412255.3	17.5	
2019-06-11-09-12	 -140.0	 -54.5	   71901446064.2	227152443722.6	20.2	
2019-06-11-09-12	   18.0	 -57.5	   48728178603.7	127010094219.7	16.7	
2019-06-11-09-12	  145.5	  34.5	   30553303123.2	58577899329.4	12.3	
2019-06-11-09-12	  168.0	 -63.0	   11298499396.7	41622272612.6	23.5	
2019-06-11-09-12	  171.0	  47.0	    8392824246.4	19195028784.1	14.6	
2019-06-11-09-12	    5.0	 -54.5	    3611888097.8	8347039649.7	14.8	
2019-06-11-12-15	 -139.0	 -54.5	   75337393900.3	238633458053.4	20.4	
2019-06-11-12-15	  146.0	  35.0	   58172282845.4	122741447367.0	13.5	
2019-06-11-12-15	  169.0	 -63.5	   27896929861.7	99915961731.7	23.0	
2019-06-11-12-15	   18.0	 -53.0	   30064146937.7	94677410672.4	20.2	
2019-06-11-12-15	   -3.5	 -53.5	   35257580346.9	93270679947.4	17.0	
2019-06-11-12-15	   21.5	 -58.5	   11443087094.9	30255471174.1	17.0	
2019-06-11-12-15	   22.5	 -53.0	    1860256833.4	3455418819.9	11.9	
2019-06-11-15-18	 -138.5	 -55.0	   60826777293.0	176971604250.1	18.7	
2019-06-11-15-18	  147.0	  35.5	   65424642991.0	143255950323.3	14.1	
2019-06-11-15-18	  170.0	 -63.5	   20712147323.0	74798585494.1	23.2	
2019-06-11-15-18	   22.5	 -58.5	   12989358975.9	40232805652.3	19.9	
2019-06-11-18-21	   15.5	 -43.5	   67595077772.0	141378477061.2	13.5	
2019-06-11-18-21	  147.5	  36.0	   60013632150.2	127942920418.8	13.8	
2019-06-11-18-21	 -138.0	 -55.0	   17729291196.4	53816087872.8	19.6	
2019-06-11-18-21	   23.0	 -58.5	    9759314775.9	29846410062.5	19.7	
2019-06-11-18-21	  171.5	 -64.5	    4065117897.2	15029650120.4	23.8	
2019-06-11-21-24	   16.5	 -43.0	  102233020217.2	202447995716.0	12.8	
2019-06-11-21-24	  148.5	  36.0	   34865783295.2	73869649164.9	13.7	
2019-06-11-21-24	   24.0	 -58.5	    9759314775.9	26872566212.6	17.8	
2019-06-12-00-03	   18.5	 -43.0	  102615422738.6	197653287597.4	12.5	
2019-06-12-00-03	   25.0	 -58.0	   21293528445.9	60196279772.1	18.3	
2019-06-12-03-06	   25.5	 -58.0	   39515453038.4	114138797596.5	18.7	
2019-06-12-03-06	   17.0	 -34.5	   15284240422.2	50070038358.9	21.2	
2019-06-12-03-06	   21.0	 -43.0	    4521342560.1	8110970710.4	11.6	
2019-06-12-03-06	   22.5	 -44.0	    2223535157.0	4426326101.4	12.9	
2019-06-12-06-09	   26.5	 -58.0	   43087924089.8	121997204566.4	18.4	
2019-06-12-06-09	   17.0	 -34.5	   33236588425.2	94670272351.6	18.5	
2019-06-12-09-12	   16.5	 -34.0	   62026025469.7	162784005737.9	17.1	
2019-06-12-09-12	   27.5	 -58.0	   14947132839.1	39049167269.3	17.0	
2019-06-12-09-12	 -168.5	 -64.0	    1355039299.1	5071764057.4	24.3	
2019-06-12-12-15	 -170.0	 -64.5	   86182256505.7	328919559891.0	24.8	
2019-06-12-12-15	   15.5	 -33.0	   80953100851.2	196094746938.5	15.7	
2019-06-12-12-15	  -10.5	 -48.0	   37468362046.7	108009718065.2	18.7	
2019-06-12-15-18	 -169.0	 -64.5	  133794522809.4	539842633470.6	26.3	
2019-06-12-15-18	   15.0	 -32.5	   73498890590.9	180973179307.2	16.0	
2019-06-12-15-18	  -10.5	 -48.5	   57929872458.9	159762576850.4	17.9	
2019-06-12-15-18	  150.5	  39.5	   45195150577.0	100426366990.2	14.4	
2019-06-12-15-18	   31.0	 -53.0	    7483972073.2	16922713812.7	14.6	
2019-06-12-18-21	 -169.0	 -64.5	  140014166230.9	572793376231.3	26.6	
2019-06-12-18-21	  -10.0	 -49.0	   95974170983.3	260966174356.1	17.6	
2019-06-12-18-21	  150.5	  39.5	  102222932934.8	252685870251.4	16.0	
2019-06-12-18-21	   14.5	 -32.0	   63329777339.9	147767715347.3	15.1	
2019-06-12-18-21	   31.5	 -53.0	   39106356711.9	96905861543.5	16.0	
2019-06-12-21-24	 -168.5	 -64.5	  133751808925.8	540840135844.1	26.3	
2019-06-12-21-24	   -8.0	 -50.0	  164317564637.9	466610506071.0	18.4	
2019-06-12-21-24	  151.0	  39.5	  144730335485.5	383193655446.0	17.2	
2019-06-12-21-24	   14.0	 -31.5	   42376114036.3	101006958313.2	15.4	
2019-06-12-21-24	   31.5	 -53.5	   38761400946.6	90912987705.8	15.2	
2019-06-13-00-03	   -6.5	 -51.0	  207056136933.9	618391646116.5	19.5	
2019-06-13-00-03	 -168.0	 -64.5	  118896309973.8	457496641825.7	25.1	
2019-06-13-00-03	  151.5	  40.0	  160416750055.5	432393979723.5	17.6	
2019-06-13-00-03	   32.0	 -54.0	   32855319548.5	76275965201.7	15.1	
2019-06-13-00-03	   14.0	 -31.0	   26563859742.6	62116993645.1	15.2	
2019-06-13-00-03	   34.0	 -34.0	    2562619479.0	5332604798.5	13.5	
2019-06-13-03-06	   -5.5	 -51.5	  172379474616.2	503536172795.2	19.2	
2019-06-13-03-06	  152.0	  40.5	  173901803434.1	442059798999.1	16.7	
2019-06-13-03-06	 -168.0	 -64.5	   90491551307.4	337219071252.0	24.5	
2019-06-13-03-06	   33.5	 -34.0	   17968114932.1	37051716885.2	13.5	
2019-06-13-06-09	  153.0	  41.0	  158694155609.3	392543916881.2	16.4	
2019-06-13-06-09	   -5.5	 -52.0	  120710481191.9	311487199765.8	17.1	
2019-06-13-06-09	 -167.0	 -64.0	   42053675112.1	155850613244.7	24.5	
2019-06-13-06-09	   34.0	 -34.0	   30840570687.4	58975954476.2	12.6	
2019-06-13-09-12	  153.5	  41.5	  134468144714.5	322723747823.1	16.1	
2019-06-13-09-12	   -5.0	 -52.5	   49349067512.6	118757855258.6	16.1	
2019-06-13-09-12	   68.5	  20.0	   23190402759.4	58642950248.8	16.9	
2019-06-13-09-12	   34.0	 -34.0	   23197864953.3	41007260634.3	11.8	
2019-06-13-09-12	 -167.5	 -64.0	    1355039299.1	5082812631.1	25.0	
2019-06-13-12-15	  154.5	  41.5	  105872491827.7	245995562730.1	15.7	
2019-06-13-12-15	   68.5	  20.5	   23171509601.8	75572768527.1	21.9	
2019-06-13-12-15	   34.0	 -34.0	   25804853551.4	43273524348.2	11.3	
2019-06-13-15-18	  155.0	  42.0	   82382020880.8	180038737881.4	14.8	
2019-06-13-15-18	  158.0	 -63.0	   27094187332.6	99036185674.4	24.8	
2019-06-13-15-18	  172.0	 -64.5	    8081644019.1	33753962583.3	28.3	
2019-06-13-15-18	   68.0	  20.0	   11599979803.7	15288721695.8	8.9	
2019-06-13-15-18	   34.5	 -33.5	    7747608312.8	10487806631.7	9.2	
2019-06-13-18-21	  158.0	 -63.0	   50949442417.9	217498983690.0	29.2	
2019-06-13-18-21	  156.0	  42.5	   43207370411.0	90033753528.6	14.2	
2019-06-13-18-21	  172.0	 -64.5	   17615098184.5	80706478524.1	31.3	
2019-06-13-18-21	   68.0	  20.5	   17371519700.0	41338372685.2	16.2	
2019-06-13-18-21	   66.0	 -50.5	    5939980931.4	16839703029.5	19.3	
2019-06-13-21-24	  158.0	 -63.0	   70424844417.6	301318659013.4	29.5	
2019-06-13-21-24	  172.0	 -64.5	   36511732542.6	156065053872.5	29.4	
2019-06-13-21-24	   68.0	  20.5	   40466356190.3	105396681701.6	17.9	
2019-06-13-21-24	   66.0	 -50.0	    7968214508.5	15278462635.9	13.2	
2019-06-14-00-03	  158.5	 -63.5	   70304948912.9	302413120761.3	29.9	
2019-06-14-00-03	  171.5	 -64.5	   54440602050.2	233925662198.7	29.9	
2019-06-14-00-03	   68.0	  21.0	   49074344658.6	115363082604.4	16.3	
2019-06-14-03-06	  158.5	 -63.0	   61766095914.9	247371865677.0	28.1	
2019-06-14-03-06	  171.0	 -64.0	   53037282437.9	214817704644.3	28.4	
2019-06-14-03-06	   68.0	  21.0	   60616765783.8	151404985547.1	17.5	
2019-06-14-06-09	   68.0	  21.0	   66397422188.3	170364670049.4	18.1	
2019-06-14-06-09	  158.5	 -63.0	   35393666999.3	126823090172.0	25.2	
2019-06-14-06-09	  172.0	 -64.5	   13453209440.0	52889529542.8	27.6	
2019-06-14-09-12	   67.5	  21.0	   75053852826.9	185072376993.6	17.4	
2019-06-14-09-12	 -172.0	 -43.0	   38374929427.4	108230702872.5	19.9	
2019-06-14-09-12	  158.5	 -63.0	    5661240114.8	19049011262.3	23.7	
2019-06-14-12-15	   67.0	  21.0	   77958515932.7	188420749391.9	17.1	
2019-06-14-12-15	 -172.0	 -43.5	   51753619183.4	141095758855.5	19.3	
2019-06-14-15-18	   67.0	  21.0	   80834509231.4	204245867431.1	18.0	
2019-06-14-15-18	 -172.0	 -43.5	   44953294945.1	115100146705.6	18.2	
2019-06-14-15-18	 -167.0	 -44.5	   39758600948.0	88595715684.6	15.8	
2019-06-14-18-21	   67.0	  21.0	   80929190214.8	198301538047.4	17.5	
2019-06-14-18-21	 -167.0	 -45.5	   76361854252.8	169882891148.2	15.9	
2019-06-14-18-21	 -172.5	 -43.5	   11247907299.4	32073302323.5	20.3	
2019-06-14-21-24	   67.0	  20.5	   80957198590.9	200045580917.5	17.7	
2019-06-14-21-24	 -167.0	 -46.0	   86656169195.3	190146055759.1	15.7	
2019-06-15-00-03	   66.5	  20.5	  101305422096.3	248015109542.3	17.6	
2019-06-15-00-03	 -166.5	 -46.0	   71163250259.2	148318956952.7	14.9	
2019-06-15-03-06	   66.5	  20.5	  104218093675.2	261408144573.1	18.0	
2019-06-15-03-06	 -164.5	 -45.5	   10871140206.5	21495387298.1	14.2	
2019-06-15-03-06	 -117.5	 -50.0	    5960568752.4	17111313912.8	20.6	
2019-06-15-06-09	   66.5	  20.5	  112912528403.9	309269287882.8	19.7	
2019-06-15-06-09	 -117.5	 -50.5	   31498809625.0	80265891988.6	18.3	
2019-06-15-09-12	   66.5	  20.5	  115815867910.7	299811125162.7	18.6	
2019-06-15-09-12	 -118.0	 -52.0	   44358479496.5	113186826358.9	18.3	
2019-06-15-12-15	   66.0	  20.5	  110015433615.7	290573284803.1	19.0	
2019-06-15-12-15	 -118.5	 -52.5	   47273949352.0	123412087648.2	18.7	
2019-06-15-12-15	   30.5	 -60.0	   24961522285.1	68895696022.0	19.8	
2019-06-15-12-15	  139.5	  31.0	   10570296910.4	16577943080.2	11.2	
2019-06-15-15-18	   66.0	  21.0	  121641210700.1	295384711387.4	17.5	
2019-06-15-15-18	 -118.5	 -53.0	   28052873997.5	72195613400.2	18.5	
2019-06-15-15-18	   30.5	 -60.0	   18709580490.5	50549496793.4	19.4	
2019-06-15-15-18	  139.5	  31.0	   10570296910.4	15879842745.3	10.8	
2019-06-15-18-21	   65.5	  20.5	   98409652196.7	231778872049.9	16.9	
2019-06-15-18-21	   27.5	 -49.0	    2027929392.6	4049617830.6	14.3	
2019-06-15-18-21	   29.0	 -49.0	    2027929392.6	3956482525.5	14.0	
2019-06-15-21-24	   65.5	  20.5	   86802541651.6	175358341109.7	14.5	
2019-06-15-21-24	 -121.0	 -55.0	   23268345302.5	70848153507.6	21.8	
2019-06-15-21-24	   -3.0	 -39.5	    4804436845.1	12740178282.4	18.9	
2019-06-16-00-03	   36.0	 -50.5	   55403449097.3	144730166663.0	18.6	
2019-06-16-00-03	   65.0	  20.5	   46322582645.8	90839314969.6	14.0	
2019-06-16-00-03	   -1.0	 -40.0	   31006243293.2	77741930212.7	17.9	
2019-06-16-00-03	 -121.5	 -55.0	   12498901484.9	39734434118.8	22.7	
2019-06-16-03-06	    0.5	 -40.5	   35535071998.6	84951299844.2	17.0	
2019-06-16-03-06	   37.0	 -47.0	   23463467245.7	68348200934.5	20.8	
2019-06-16-03-06	   65.0	  20.5	   34704592943.5	66138372427.0	13.6	
2019-06-16-06-09	 -165.5	 -34.5	   51203531574.3	86308145161.2	12.0	
2019-06-16-06-09	    3.5	 -41.5	   23328128157.7	56885014186.2	17.3	
2019-06-16-06-09	   37.0	 -46.5	   21413486961.5	49799812013.8	16.5	
2019-06-16-06-09	  -53.5	 -51.0	   17569727891.0	49131010046.9	19.9	
2019-06-16-09-12	 -165.0	 -34.5	   84511736388.6	146391579571.4	12.3	
2019-06-16-09-12	 -112.0	 -41.5	   46345411225.3	100572170073.7	15.4	
2019-06-16-09-12	  -53.5	 -51.0	   33214916152.2	94807847513.8	20.3	
2019-06-16-09-12	    5.0	 -42.0	   36878399916.7	90580140268.6	17.4	
2019-06-16-09-12	   36.5	 -46.0	    4294486855.3	8455465521.1	14.0	
2019-06-16-12-15	 -164.5	 -34.0	  100021341440.2	170497570355.2	12.1	
2019-06-16-12-15	 -112.0	 -41.5	   67311038690.9	147511932375.5	15.5	
2019-06-16-12-15	  -53.5	 -51.0	   35117973831.7	103014726884.6	20.8	
2019-06-16-12-15	   49.0	 -52.5	   17063099795.4	44473930137.8	18.5	
2019-06-16-15-18	 -164.0	 -34.0	  115871676284.5	195165721303.0	11.9	
2019-06-16-15-18	 -111.5	 -41.5	   46400539375.5	103830372813.7	15.9	
2019-06-16-15-18	  -53.5	 -51.5	   31081050579.8	90860308462.8	20.7	
2019-06-16-15-18	   48.0	 -46.5	   32090920760.7	73351693411.2	16.2	
2019-06-16-15-18	 -113.0	 -45.5	    6499530872.0	15389240060.1	16.8	
2019-06-16-15-18	   52.5	 -52.0	    5730356515.9	13095401083.5	16.2	
2019-06-16-18-21	 -163.5	 -33.5	   87866584131.9	146204676953.8	11.8	
2019-06-16-18-21	 -113.5	 -47.0	   61185449551.5	142930847621.2	16.6	
2019-06-16-18-21	   55.5	 -54.5	   34584368934.2	101826125661.2	20.9	
2019-06-16-18-21	   48.0	 -46.5	   40582141611.0	96910985641.1	17.0	
2019-06-16-18-21	  -53.5	 -51.5	   15540894788.5	43174703073.3	19.7	
2019-06-16-21-24	 -113.5	 -47.5	   88108334192.9	221046021363.3	18.0	
2019-06-16-21-24	   47.5	 -46.5	   27757464384.2	72145441381.5	18.6	
2019-06-16-21-24	   57.5	 -54.5	   16351594294.9	41163754396.0	18.0	
2019-06-16-21-24	 -174.0	 -49.0	   18250901347.7	40952533636.3	16.0	
2019-06-16-21-24	 -163.5	 -33.0	   15553981540.5	22422409367.1	10.3	
2019-06-17-00-03	 -113.5	 -48.0	   96437590135.5	244296535691.0	18.3	
2019-06-17-00-03	 -174.0	 -49.5	   26177788951.0	58551745408.8	16.1	
2019-06-17-03-06	 -113.5	 -48.0	   87492650874.5	218336331726.6	18.1	
2019-06-17-03-06	 -174.0	 -50.0	   18066533092.4	38970708458.5	15.6	
2019-06-17-03-06	   66.5	 -50.0	    1986906671.9	6636304692.0	24.2	
2019-06-17-06-09	 -113.5	 -48.5	   68463613242.0	169998862078.2	18.1	
2019-06-17-06-09	   66.0	 -50.5	   37646174397.5	109937796771.6	21.3	
2019-06-17-06-09	 -117.5	 -50.5	   39424946439.6	99974563053.0	18.5	
2019-06-17-09-12	   65.5	 -50.0	   84016029273.1	228214230896.8	19.9	
2019-06-17-09-12	 -117.5	 -51.0	   78005338794.8	202938385023.0	19.0	
2019-06-17-09-12	 -113.5	 -48.5	   55658257905.3	139170615176.0	18.3	
2019-06-17-12-15	   64.5	 -50.0	   94361663150.0	266246757972.5	20.7	
2019-06-17-12-15	 -117.5	 -51.0	   87540057969.9	231589639278.1	19.4	
2019-06-17-12-15	 -113.5	 -48.5	   51422390413.2	127086224562.8	18.1	
2019-06-17-15-18	   64.0	 -49.5	   90430092213.0	250633040568.2	20.4	
2019-06-17-15-18	 -117.5	 -51.0	   69808145369.7	181180032458.5	19.1	
2019-06-17-15-18	 -113.5	 -48.5	   41263867611.3	101010819563.3	18.0	
2019-06-17-18-21	   64.0	 -49.5	   58275279987.1	157614369879.1	19.9	
2019-06-17-18-21	 -113.5	 -48.5	   30802709201.2	75461777444.0	18.0	
2019-06-17-18-21	 -117.5	 -50.5	   19556634562.9	46932058936.7	17.6	
2019-06-17-21-24	   63.5	 -49.5	   34228201822.4	78671570266.3	17.0	
2019-06-17-21-24	 -113.5	 -49.0	   12309228148.1	31317995548.1	18.8	
2019-06-18-00-03	   63.0	 -49.0	    2027929392.6	3435794556.5	12.5	
2019-06-18-12-15	   -3.0	 -53.0	    1860256833.4	7665756485.7	31.1	
2019-06-18-15-18	   -2.5	 -53.5	   84958074224.9	308385505501.3	27.4	
2019-06-18-18-21	   -2.0	 -54.0	  151410704156.1	605864179843.4	30.2	
2019-06-18-18-21	   61.5	 -54.5	   26902397048.3	82891016622.6	23.1	
2019-06-18-18-21	   93.5	 -36.0	   20068152273.0	35215915722.4	13.1	
2019-06-18-21-24	   -1.5	 -54.0	  185162398600.3	717364656440.9	29.1	
2019-06-18-21-24	   61.5	 -54.5	  106906249061.9	298883229553.6	20.9	
2019-06-18-21-24	   94.5	 -35.5	  121091581118.1	263417755302.9	16.2	
2019-06-19-00-03	   -1.5	 -53.5	  200901343315.5	695678031099.4	25.9	
2019-06-19-00-03	   62.5	 -54.0	  159580264507.2	422137091553.1	19.7	
2019-06-19-00-03	   95.5	 -35.5	  141463578183.4	300788965039.6	15.8	
2019-06-19-00-03	    6.0	 -58.0	   23136990276.4	67785092355.7	21.7	
2019-06-19-03-06	    0.5	 -54.0	  328814269647.3	1038511314139.6	23.7	
2019-06-19-03-06	   96.5	 -36.5	   92666095619.6	180364646189.6	14.5	
2019-06-19-03-06	   66.5	 -54.0	   43865007980.7	130189076830.2	22.0	
2019-06-19-03-06	   59.0	 -53.5	   14903244777.4	37090074039.1	18.4	
2019-06-19-06-09	    2.5	 -55.0	  373602173877.8	1160269521304.6	23.5	
2019-06-19-06-09	   64.5	 -49.5	   50225629880.1	132889224795.7	19.7	
2019-06-19-06-09	   98.0	 -37.5	   37043740148.9	76371495053.3	15.4	
2019-06-19-06-09	   67.0	 -53.5	   18386013817.4	47846594213.5	19.4	
2019-06-19-09-12	    3.5	 -55.5	  367082972528.6	1127474767261.2	23.4	
2019-06-19-09-12	   65.5	 -50.0	   75700301527.7	204462893646.0	20.3	
2019-06-19-09-12	   99.0	 -37.5	   34558955799.4	69521555192.7	15.1	
2019-06-19-12-15	    8.5	 -58.0	  157237285608.4	523303985029.1	25.3	
2019-06-19-12-15	    2.5	 -54.0	  178341988602.0	495290052306.4	21.1	
2019-06-19-12-15	   67.0	 -50.5	   45364176582.4	131531656689.5	21.9	
2019-06-19-12-15	   99.5	 -37.5	    9841922525.8	19770910471.8	15.2	
2019-06-19-15-18	    9.5	 -58.0	  182206474596.7	595729299377.9	25.0	
2019-06-19-15-18	    4.0	 -54.5	   59844453592.0	179059495342.7	22.8	
2019-06-19-15-18	   -1.0	 -54.0	   61209918442.9	140532749664.6	17.5	
2019-06-19-15-18	   67.0	 -50.5	   15791408164.5	47668208101.3	22.9	
2019-06-19-15-18	  156.5	 -38.5	    4838204829.2	9403682720.0	14.8	
2019-06-19-18-21	   10.5	 -58.0	  184180309808.7	610452465843.1	25.4	
2019-06-19-18-21	    4.0	 -54.5	   56211227068.7	168920643660.2	22.9	
2019-06-19-18-21	  158.0	 -38.5	   60572780073.5	130504574687.4	16.4	
2019-06-19-18-21	   -1.0	 -54.0	   12805243317.2	24673777780.9	14.7	
2019-06-19-18-21	    0.0	 -52.0	    1903057679.5	2627398236.6	10.5	
2019-06-19-21-24	   11.5	 -58.0	  190222622397.5	648525250834.2	26.1	
2019-06-19-21-24	  158.5	 -38.5	  118883635096.1	262939884375.3	16.8	
2019-06-19-21-24	    4.5	 -54.5	   48944359107.9	153714589281.6	23.9	
2019-06-19-21-24	  -56.0	 -43.0	   15824353689.6	40498348471.9	19.4	
2019-06-20-00-03	   13.0	 -58.5	  197545785132.6	691258058664.8	26.7	
2019-06-20-00-03	  159.0	 -38.5	  140311675565.0	312132025948.9	16.9	
2019-06-20-00-03	  -54.5	 -43.0	   81505602775.3	216919662150.5	20.1	
2019-06-20-00-03	    4.5	 -54.5	   41699244486.8	127024888141.4	23.0	
2019-06-20-03-06	   14.0	 -58.5	  197120407655.9	669763554061.5	25.7	
2019-06-20-03-06	  -52.5	 -44.0	  147947524526.5	405550245774.4	20.7	
2019-06-20-03-06	  159.5	 -39.5	  143982412408.1	304132195282.9	15.9	
2019-06-20-03-06	    4.5	 -54.0	   34650596042.9	109104222398.9	23.7	
2019-06-20-06-09	   14.5	 -58.5	  179735492966.0	543081041072.2	22.7	
2019-06-20-06-09	  -50.5	 -44.0	  194166843063.0	516517780040.6	20.0	
2019-06-20-06-09	  159.5	 -39.5	  128821611949.7	253908947456.6	14.7	
2019-06-20-06-09	    4.5	 -54.0	   31038707945.1	95029413406.0	22.8	
2019-06-20-09-12	  -49.0	 -44.5	  220154079287.2	517955896378.4	17.5	
2019-06-20-09-12	   14.0	 -58.0	   95864600986.8	264437186725.7	20.5	
2019-06-20-09-12	  160.0	 -40.0	   73567179374.3	136390560896.2	13.7	
2019-06-20-09-12	    4.5	 -54.0	   16373486185.1	51428664258.1	23.3	
2019-06-20-12-15	  -45.5	 -45.0	  160416548494.1	342530763195.2	15.8	
2019-06-20-12-15	   14.0	 -57.5	   34899456394.4	92789914661.1	19.6	
2019-06-20-12-15	    5.0	 -54.0	    1816889994.0	4269655521.4	17.3	
2019-06-20-15-18	  -42.5	 -45.5	  124282171054.6	281956263635.9	16.8	
2019-06-20-18-21	  -39.5	 -46.0	  212389884902.7	520319748698.6	18.3	
2019-06-20-18-21	  162.5	 -44.0	   11192118086.9	24536513440.0	16.3	
2019-06-20-21-24	  -37.5	 -47.0	  274905825821.6	693446234531.4	19.0	
2019-06-21-00-03	  -36.5	 -46.5	  272600492476.7	654117495346.0	18.2	
2019-06-21-03-06	  -36.0	 -47.0	  210665288844.9	485138487631.4	17.4	
2019-06-21-06-09	  -36.0	 -47.0	  133739617040.1	294713997093.9	16.6	
2019-06-21-09-12	  -37.0	 -47.5	   71533555779.8	153653569523.4	16.1	
2019-06-21-09-12	 -154.5	 -36.5	   29911973418.8	52008723067.4	13.0	
2019-06-21-09-12	   49.0	 -64.0	    2710078598.1	8931593616.6	24.6	
2019-06-21-12-15	 -154.5	 -36.5	   49931136136.8	87132543263.2	12.9	
2019-06-21-12-15	  -37.5	 -47.5	   18853982287.9	45271560714.4	17.8	
2019-06-21-12-15	   81.0	 -62.0	    8873145999.1	31088823108.9	26.0	
2019-06-21-12-15	   33.0	 -53.5	    1838643333.8	4448341193.7	17.9	
2019-06-21-15-18	  -27.5	 -55.0	   96920059972.8	270019022230.1	20.5	
2019-06-21-15-18	   32.0	 -54.0	   47520262918.0	115729001559.4	17.9	
2019-06-21-15-18	 -154.0	 -36.5	   62416389850.9	109842396736.7	12.9	
2019-06-21-15-18	   81.0	 -62.0	   26689820697.9	103905367575.7	28.6	
2019-06-21-15-18	  -10.5	 -48.0	    4136669064.4	13375873647.9	23.7	
2019-06-21-15-18	  -23.0	 -57.5	    3321668967.1	9269658392.1	20.4	
2019-06-21-18-21	  -25.5	 -55.5	  166049691243.6	489309112890.7	21.6	
2019-06-21-18-21	   81.5	 -62.0	   41485119669.4	165026733733.1	29.0	
2019-06-21-18-21	   32.0	 -54.5	   50825954366.7	124058411163.5	17.8	
2019-06-21-18-21	 -153.5	 -36.0	   70107121735.6	123960847434.1	12.9	
2019-06-21-21-24	  -19.5	 -56.0	  118182411438.3	385433963967.9	23.6	
2019-06-21-21-24	  -26.0	 -55.5	   65240017164.6	180542422207.0	20.0	
2019-06-21-21-24	   81.5	 -62.0	   41556177527.0	166434571646.3	28.9	
2019-06-21-21-24	 -153.0	 -36.0	   60185258739.9	106079388378.0	12.7	
2019-06-21-21-24	 -148.0	 -29.5	   37701388773.2	70395275269.3	13.5	
2019-06-21-21-24	   32.5	 -54.5	    9040666189.7	20862351910.7	16.6	
2019-06-22-00-03	  -18.5	 -56.0	  153413744768.4	495415890407.5	23.2	
2019-06-22-00-03	 -146.0	 -31.5	  129799572048.9	245333894965.9	13.6	
2019-06-22-00-03	   81.5	 -61.5	   37250403417.2	138864475099.7	26.7	
2019-06-22-00-03	 -152.5	 -35.5	   22694578834.2	37948513710.3	12.0	
2019-06-22-00-03	   17.0	 -34.5	    7657495624.7	26659460755.5	24.9	
2019-06-22-00-03	  -26.0	 -55.0	    1772969689.9	8206899519.7	33.1	
2019-06-22-00-03	  -25.0	 -55.5	    1750806041.8	6015424708.3	24.6	
2019-06-22-03-06	  -17.5	 -56.0	  173968671338.6	532984690253.7	21.9	
2019-06-22-03-06	 -144.5	 -33.0	  206001089730.1	422810431533.3	14.6	
2019-06-22-03-06	   81.5	 -61.5	   25286058442.8	87820587922.8	24.7	
2019-06-22-03-06	   17.0	 -34.5	    5110057551.9	19140517231.2	26.6	
2019-06-22-03-06	 -152.0	 -35.0	    2532062659.2	4179245163.2	11.7	
2019-06-22-06-09	 -143.0	 -34.5	  266396474762.3	588008608337.3	15.7	
2019-06-22-06-09	  -16.0	 -56.5	  161325067925.1	465529426251.3	20.5	
2019-06-22-06-09	 -135.0	 -46.0	    6499695953.4	12668664530.6	13.8	
2019-06-22-06-09	   81.5	 -61.5	    2949869607.5	9031838928.9	21.6	
2019-06-22-06-09	  -12.0	 -59.0	    1592022819.7	3691228769.2	16.4	
2019-06-22-09-12	 -142.0	 -34.5	  290902175507.4	630165062814.0	15.3	
2019-06-22-09-12	  -14.0	 -57.0	  151188706191.8	411392317426.7	19.2	
2019-06-22-09-12	 -135.5	 -45.0	   69977093809.0	158383892831.4	15.9	
2019-06-22-12-15	 -142.0	 -34.5	  291888982567.8	597103926077.1	14.4	
2019-06-22-12-15	 -136.0	 -44.5	  130155861497.8	298127677962.6	16.1	
2019-06-22-12-15	  -11.0	 -58.0	   98141965015.0	274448938227.3	19.6	
2019-06-22-12-15	 -149.0	 -34.5	   43485123134.5	72850833623.5	11.7	
2019-06-22-12-15	   66.5	 -50.5	    1966167587.6	6504979103.7	23.1	
2019-06-22-15-18	 -138.5	 -42.5	  342900253486.5	821150805661.1	16.7	
2019-06-22-15-18	 -141.0	 -34.5	  250882482894.4	476804788283.6	13.2	
2019-06-22-15-18	 -148.5	 -35.5	  164041658025.3	311424401992.5	13.2	
2019-06-22-15-18	   -8.0	 -59.5	   42912766490.6	141419120321.8	22.8	
2019-06-22-15-18	   81.0	 -60.0	   37299928749.8	114317161110.5	21.2	
2019-06-22-15-18	   66.0	 -50.5	    5898502762.9	19111288496.7	22.4	
2019-06-22-15-18	  -12.0	 -57.0	    3367043498.2	7440198737.3	15.3	
2019-06-22-15-18	  -12.0	 -56.0	    1728508633.7	4767383813.0	19.1	
2019-06-22-18-21	 -139.0	 -42.0	  439248091496.7	1144070984093.6	18.1	
2019-06-22-18-21	 -148.0	 -36.0	  198983990252.5	402105972080.7	13.9	
2019-06-22-18-21	 -140.5	 -34.5	  171480195320.1	307118232178.2	12.3	
2019-06-22-18-21	   80.5	 -60.5	   69352980470.3	227913536308.7	22.6	
2019-06-22-18-21	   -7.0	 -59.5	   54102318262.3	179511538857.7	22.8	
2019-06-22-18-21	   66.0	 -50.5	    9872316106.6	28893511982.2	20.1	
2019-06-22-21-24	 -139.0	 -42.0	  495257986725.3	1282600652597.6	17.9	
2019-06-22-21-24	 -148.0	 -36.0	  221202863532.3	445172670176.8	13.8	
2019-06-22-21-24	   80.0	 -60.5	   86234005646.5	289828465430.5	23.0	
2019-06-22-21-24	   -5.5	 -59.5	   51080784362.7	158721889284.9	21.2	
2019-06-22-21-24	 -140.5	 -34.0	   81927532704.5	137774507730.1	11.5	
2019-06-22-21-24	   66.5	 -50.5	   17715947794.4	53964807599.2	20.8	
2019-06-23-00-03	 -139.5	 -42.5	  536767420614.5	1404803447641.9	18.0	
2019-06-23-00-03	 -147.5	 -35.5	  245114938114.7	470752679705.1	13.1	
2019-06-23-00-03	   79.0	 -60.5	  101829995974.2	342018656627.2	22.8	
2019-06-23-00-03	   -3.5	 -59.5	   31862788623.2	99545860612.2	21.1	
2019-06-23-00-03	   66.0	 -50.5	   25559579482.3	77975813505.4	20.6	
2019-06-23-00-03	  -11.0	 -48.5	   12349633287.6	33299342646.5	18.2	
2019-06-23-00-03	   75.0	 -59.5	    3137681357.0	7010939962.6	15.1	
2019-06-23-03-06	 -139.5	 -43.0	  618323763433.9	1674933857475.0	18.5	
2019-06-23-03-06	 -146.0	 -34.5	  264867019993.3	478958007176.6	12.2	
2019-06-23-03-06	   78.0	 -60.5	  140745837729.0	453735451371.5	21.7	
2019-06-23-03-06	   -6.0	 -53.5	  107826090385.1	287640137068.8	17.9	
2019-06-23-03-06	   66.0	 -50.5	   35493210789.8	104000898583.3	19.6	
2019-06-23-03-06	  -10.5	 -48.5	   32931416349.2	95363762235.8	19.4	
2019-06-23-03-06	   -2.0	 -59.5	   20718993133.2	63850040884.8	20.7	
2019-06-23-06-09	 -139.0	 -43.5	  685817919372.8	1870373709232.0	18.5	
2019-06-23-06-09	   -5.5	 -53.5	  176526079147.1	529039757651.3	20.0	
2019-06-23-06-09	   77.0	 -60.0	  145640286297.3	463961694980.6	21.2	
2019-06-23-06-09	 -144.0	 -33.5	  180854850050.0	326647354967.1	12.0	
2019-06-23-06-09	   66.0	 -50.5	   35493210789.8	103428117222.9	19.3	
2019-06-23-06-09	  -10.5	 -48.5	   22670711126.3	62137724709.8	18.2	
2019-06-23-06-09	 -147.0	 -36.0	    5017229127.8	6883274127.4	9.1	
2019-06-23-09-12	 -139.0	 -43.5	  707153815694.7	1857476087602.4	17.7	
2019-06-23-09-12	   -4.5	 -53.5	  211971326797.3	696655595319.1	21.8	
2019-06-23-09-12	 -143.0	 -33.5	  170960666741.7	306778766866.1	11.8	
2019-06-23-09-12	   80.0	 -60.0	   66988541730.3	203455932672.7	20.0	
2019-06-23-09-12	   74.5	 -60.0	   49686958126.8	173795827800.2	23.0	
2019-06-23-09-12	   66.0	 -50.5	   31561475140.0	92362882918.5	19.3	
2019-06-23-09-12	  -10.5	 -48.5	    8233088858.4	22372536737.9	17.9	
2019-06-23-09-12	   88.0	 -53.5	    1838643333.8	6254306491.3	22.4	
2019-06-23-12-15	 -139.0	 -43.5	  703342968248.6	1728515786766.5	16.4	
2019-06-23-12-15	   -4.0	 -53.5	  231885781312.5	773223784330.9	22.0	
2019-06-23-12-15	 -143.0	 -33.0	  129872571915.6	228719074618.0	11.6	
2019-06-23-12-15	   80.5	 -60.0	   53406782726.3	160653509638.5	19.7	
2019-06-23-12-15	   74.0	 -60.0	   35941978970.3	131251615557.0	24.0	
2019-06-23-12-15	   88.0	 -54.0	   43602453245.2	128332022891.2	19.3	
2019-06-23-12-15	   66.0	 -51.0	   25559579482.3	76232210544.1	19.5	
2019-06-23-12-15	 -168.0	 -64.0	    1355039299.1	4369690510.3	21.1	
2019-06-23-15-18	 -138.5	 -44.0	  683164269309.1	1586635196436.2	15.5	
2019-06-23-15-18	   -3.5	 -53.5	  218848306459.9	732571709016.9	22.1	
2019-06-23-15-18	   81.0	 -59.0	   65152308474.0	206247370377.8	20.8	
2019-06-23-15-18	   89.0	 -54.5	   61244600454.6	171268766966.4	18.3	
2019-06-23-15-18	 -168.0	 -64.5	   37696912599.2	149151884331.2	25.9	
2019-06-23-15-18	 -143.0	 -33.0	   67734551632.5	115101442857.4	11.1	
2019-06-23-15-18	   74.5	 -60.0	   25030713857.2	84099406330.7	22.0	
2019-06-23-15-18	   66.5	 -51.0	   23593411894.6	67804015083.8	18.8	
2019-06-23-18-21	 -138.0	 -44.0	  615409894830.8	1345660886386.4	14.6	
2019-06-23-18-21	   -3.0	 -53.5	  185403866770.1	610034209976.2	21.7	
2019-06-23-18-21	   81.0	 -58.5	   98417287210.1	317680751154.0	21.2	
2019-06-23-18-21	 -168.0	 -64.5	   73021915144.4	300505365485.8	27.1	
2019-06-23-18-21	   89.0	 -55.0	   83316511886.0	226363653843.8	17.8	
2019-06-23-18-21	   66.5	 -51.0	   21648133180.5	62894533326.6	19.0	
2019-06-23-18-21	   74.5	 -60.0	   18895395787.3	59723963896.4	20.7	
2019-06-23-21-24	 -137.5	 -44.5	  475775355598.6	994443402743.8	13.9	
2019-06-23-21-24	   80.5	 -58.5	  137273965165.0	455112321646.8	21.9	
2019-06-23-21-24	 -168.0	 -64.5	  101037053585.5	425094289339.8	27.8	
2019-06-23-21-24	   -3.0	 -53.5	  135044870487.5	411319263677.8	20.1	
2019-06-23-21-24	   88.0	 -55.5	   94486658305.6	251593980432.5	17.6	
2019-06-23-21-24	   66.5	 -51.0	   19661226508.6	59735743314.0	20.0	
2019-06-23-21-24	   74.5	 -59.5	    7913749816.0	20154316904.8	16.7	
2019-06-24-00-03	   81.0	 -57.5	  284042901006.1	883353427651.2	20.7	
2019-06-24-00-03	 -168.0	 -64.5	  113060602156.3	473122947483.1	27.8	
2019-06-24-00-03	 -139.0	 -41.0	  171106784206.2	316631335120.6	12.3	
2019-06-24-00-03	 -135.0	 -48.5	  107692496627.2	259143225919.1	15.9	
2019-06-24-00-03	   -3.0	 -53.5	   77542024660.8	216608124952.9	18.5	
2019-06-24-00-03	   66.5	 -51.0	   19661226508.6	58834654831.7	19.8	
2019-06-24-00-03	   16.0	 -42.5	   13710163384.7	27280706149.8	13.1	
2019-06-24-00-03	   74.5	 -59.0	    1592022819.7	2963334775.6	12.3	
2019-06-24-03-06	   80.5	 -57.5	  319050769616.5	1013990330383.9	21.3	
2019-06-24-03-06	 -167.5	 -64.5	  106505387919.1	428878473427.9	26.8	
2019-06-24-03-06	   17.0	 -42.0	   80463112810.3	166867851686.6	13.8	
2019-06-24-03-06	 -134.5	 -49.5	   69042812840.4	160825584371.7	15.5	
2019-06-24-03-06	 -140.0	 -41.5	   30219483165.0	55839219378.9	12.2	
2019-06-24-03-06	   66.5	 -51.0	    9789060191.2	29516530734.8	20.0	
2019-06-24-03-06	   -3.0	 -53.5	    5515930001.3	12769746008.5	15.3	
2019-06-24-03-06	   74.5	 -59.0	    1592022819.7	2757804785.6	11.5	
2019-06-24-06-09	   79.5	 -57.5	  312138970313.1	1017765002342.6	21.9	
2019-06-24-06-09	 -167.0	 -64.5	   85144073487.9	331314238623.3	26.0	
2019-06-24-06-09	   18.5	 -42.0	   94655566580.0	185608791207.5	13.1	
2019-06-24-06-09	 -133.5	 -50.0	   41805118760.9	91803081613.9	14.6	
2019-06-24-06-09	   67.0	 -50.5	    1966167587.6	6103127377.8	20.6	
2019-06-24-09-12	   79.0	 -57.5	  270808180998.5	949850838281.7	23.6	
2019-06-24-09-12	 -166.5	 -64.5	   54224526564.3	200527295876.0	24.6	
2019-06-24-09-12	   21.0	 -43.0	   61634721635.5	117006971240.8	12.6	
2019-06-24-09-12	 -131.5	 -51.0	   15749780206.8	36321065947.1	15.3	
2019-06-24-09-12	   85.0	 -54.5	    1794998103.8	4322877724.6	16.0	
2019-06-24-12-15	   78.5	 -57.5	  274827563065.0	1012356809083.0	24.7	
2019-06-24-12-15	 -167.0	 -64.0	   38134229365.0	127895040587.8	22.2	
2019-06-24-12-15	   23.0	 -44.5	   13284743163.7	27316042445.6	13.6	
2019-06-24-12-15	   22.0	 -40.5	    2350474072.1	4511788044.7	12.7	
2019-06-24-15-18	   78.0	 -57.5	  272453597140.0	1045252736127.5	25.6	
2019-06-24-15-18	   26.0	 -44.5	   46466346226.8	99517652877.4	14.1	
2019-06-24-15-18	 -168.0	 -64.0	    9557853228.9	33008168702.4	22.8	
2019-06-24-18-21	   77.5	 -57.5	  265966666988.0	1027111519830.0	25.7	
2019-06-24-18-21	 -151.0	 -56.5	   97351939371.0	271802400341.2	18.4	
2019-06-24-18-21	   26.0	 -45.0	   37307531336.5	73446286411.9	13.0	
2019-06-24-21-24	   77.0	 -57.5	  262611037871.7	964281741407.1	24.5	
2019-06-24-21-24	 -151.5	 -57.5	  111079344178.4	315136183485.4	18.7	
2019-06-25-00-03	   77.0	 -58.0	  245548730319.6	821960252970.6	22.3	
2019-06-25-00-03	 -151.5	 -58.0	   61106673679.2	166900389251.3	18.0	
2019-06-25-00-03	 -148.5	 -43.5	   73964689420.5	164079045598.2	14.6	
2019-06-25-00-03	   34.0	 -41.5	   27976074679.8	55143232622.5	13.0	
2019-06-25-03-06	   79.0	 -58.5	  123850225329.1	392975984652.0	21.1	
2019-06-25-03-06	 -147.5	 -43.0	   72679661941.7	160369449837.6	14.6	
2019-06-25-03-06	   73.0	 -56.5	   17351582808.0	50226726564.1	19.1	
2019-06-25-06-09	   80.5	 -59.5	   39775085133.6	129768802499.1	21.7	
2019-06-25-06-09	 -150.0	 -52.5	   13321113758.8	32836932749.4	16.4	
2019-06-25-06-09	  -19.0	 -56.5	    1706080229.0	5836646264.3	22.7	
2019-06-25-09-12	   81.0	 -59.5	   12689696859.1	38925067967.5	20.6	
2019-06-26-00-03	  -50.5	 -40.5	  115330354017.2	248613206308.3	14.4	
2019-06-26-00-03	  -42.5	 -42.0	  115750304996.6	227218337765.8	13.1	
2019-06-26-00-03	  -13.0	 -47.5	   67058565157.8	172690902349.1	17.2	
2019-06-26-00-03	  -11.0	 -52.5	   57045595301.0	147107344355.2	17.2	
2019-06-26-03-06	   -9.5	 -51.0	  419298769990.4	1249072026309.8	19.9	
2019-06-26-03-06	  -40.0	 -42.5	  376529965694.3	806260013526.6	14.2	
2019-06-26-03-06	  -51.0	 -42.5	  145209560626.3	356516537720.5	16.2	
2019-06-26-06-09	   -8.0	 -52.0	  532756591642.4	2048680745932.6	25.7	
2019-06-26-06-09	  -38.5	 -43.5	  451094467775.5	1035885444037.0	15.2	
2019-06-26-06-09	  -49.5	 -44.0	  238447520225.1	695119237343.0	19.2	
2019-06-26-09-12	   -6.5	 -52.5	  477488050873.9	2607048940562.0	36.4	
2019-06-26-09-12	  -49.0	 -45.0	  216822542286.3	781868581500.2	23.5	
2019-06-26-09-12	  -37.0	 -44.0	  176608624254.5	462879102138.0	17.0	
2019-06-26-12-15	   -5.0	 -53.0	  509455777818.9	3086275242853.4	40.4	
2019-06-26-12-15	  -48.0	 -46.0	  243860252076.0	849012585950.6	22.5	
2019-06-26-12-15	  -35.0	 -45.0	  217885609386.3	603515516990.4	17.9	
2019-06-26-15-18	   -4.5	 -53.0	  510883604921.5	3138866264004.9	40.9	
2019-06-26-15-18	  -46.5	 -46.5	  265989212202.4	917427531790.6	22.3	
2019-06-26-15-18	  -32.5	 -45.5	   99667954549.2	268471246915.1	17.3	
2019-06-26-15-18	  -37.0	 -44.0	   20030130495.8	49544408896.3	15.8	
2019-06-26-18-21	   -4.0	 -53.0	  503280796738.6	2959314327626.2	39.2	
2019-06-26-18-21	  -45.0	 -47.0	  353453652955.2	1179565983521.5	21.7	
2019-06-26-21-24	   -3.0	 -52.5	  559164595777.7	2800720266143.4	33.4	
2019-06-26-21-24	  -43.0	 -48.0	  741731871740.4	2297819372143.8	20.5	
2019-06-27-00-03	  -42.5	 -48.5	  908152014240.5	2861567126349.9	21.1	
2019-06-27-00-03	   -2.5	 -52.5	  522111095561.2	2261062597273.0	28.8	
2019-06-27-00-03	  -10.5	 -48.5	   16465864688.7	45559685771.4	17.9	
2019-06-27-03-06	  -43.0	 -50.0	  946283627176.3	3013563080140.5	21.5	
2019-06-27-03-06	   -2.0	 -52.5	  459092980058.7	1722984270979.4	25.0	
2019-06-27-03-06	   26.5	 -38.5	    2419102414.6	5007373691.1	13.5	
2019-06-27-06-09	  -43.0	 -51.0	  916345239632.6	2838708781130.2	21.1	
2019-06-27-06-09	   -1.0	 -53.0	  368782475112.5	1208947616468.2	21.8	
2019-06-27-06-09	   26.0	 -39.5	   40801203853.7	101533434487.1	16.4	
2019-06-27-09-12	  -43.0	 -51.5	  908392331446.7	2596693452672.4	19.6	
2019-06-27-09-12	   -1.0	 -53.0	  241429990455.5	703640615525.4	19.5	
2019-06-27-09-12	   26.0	 -40.0	   66881549103.5	166758690599.7	16.5	
2019-06-27-09-12	  158.5	 -62.0	    1451173219.6	4624757701.4	21.1	
2019-06-27-12-15	  -34.5	 -48.5	  426273794722.0	1033818082082.4	16.4	
2019-06-27-12-15	  -45.5	 -53.0	  312951723571.8	930117225182.4	20.1	
2019-06-27-12-15	   -1.0	 -52.5	   84240522435.0	204811774640.8	16.3	
2019-06-27-12-15	   26.0	 -40.0	   76042357314.5	195600308937.3	17.2	
2019-06-27-12-15	    3.5	 -54.5	    9084311419.7	32706474739.7	24.1	
2019-06-27-12-15	   13.5	 -37.0	   14827818619.8	29889245539.3	13.5	
2019-06-27-12-15	  158.0	 -62.0	    5804692878.5	19571534699.8	22.5	
2019-06-27-12-15	   76.0	 -57.0	    6779203956.2	19253388959.0	19.0	
2019-06-27-15-18	  -33.0	 -49.0	  316011831608.0	699107990207.2	15.0	
2019-06-27-15-18	  -45.0	 -53.5	  189175050100.3	532571706506.1	19.0	
2019-06-27-15-18	   26.0	 -40.0	   78271201422.0	206890897439.8	17.8	
2019-06-27-15-18	   14.5	 -37.0	   46967111722.9	87442192914.5	12.5	
2019-06-27-15-18	   12.0	 -56.5	    8597686359.0	21253047429.9	16.6	
2019-06-27-15-18	  -31.5	 -48.0	   10441350487.9	20574862902.9	13.2	
2019-06-27-15-18	  158.0	 -62.0	    5804692878.5	19793648511.3	22.9	
2019-06-27-15-18	   77.0	 -57.0	    6756645476.3	18732256978.0	18.6	
2019-06-27-18-21	   14.5	 -38.0	  134694020248.7	264497676405.2	13.3	
2019-06-27-18-21	   26.0	 -40.0	   89952605216.9	242304956840.7	18.3	
2019-06-27-18-21	  -44.5	 -53.5	   74426654714.4	191226316428.1	17.4	
2019-06-27-18-21	  -30.0	 -50.0	   50102260665.4	117893734044.5	15.9	
2019-06-27-18-21	   14.5	 -57.5	   30211103258.7	78012854974.0	17.5	
2019-06-27-18-21	  -37.0	 -48.0	    8313273081.2	16763358250.3	13.6	
2019-06-27-18-21	  158.0	 -62.0	    2902346439.3	9718675306.1	22.7	
2019-06-27-18-21	  -50.5	 -53.0	    3741986036.6	8931176323.6	16.1	
2019-06-27-21-24	   26.0	 -40.5	  104070359850.4	293468990988.7	19.3	
2019-06-27-21-24	   17.0	 -38.5	  133166350974.7	255647293880.9	13.1	
2019-06-27-21-24	  -55.5	 -53.0	   20526531100.4	50021885519.7	16.6	
2019-06-27-21-24	   15.5	 -57.5	   13377424930.6	37126102770.8	18.9	
2019-06-27-21-24	   80.0	 -60.0	    4683220505.2	13804165922.1	20.1	
2019-06-27-21-24	  -46.0	 -47.5	    4196411938.9	9542386665.3	15.5	
2019-06-27-21-24	  -43.5	 -53.0	    1860256833.4	6721580996.4	24.6	
2019-06-27-21-24	   12.0	 -38.5	    2419102414.6	3917647678.5	11.0	
2019-06-28-00-03	   23.5	 -39.5	  323330193349.4	747095660818.6	16.0	
2019-06-28-00-03	  -55.0	 -52.5	   91612292790.3	262990534529.2	19.7	
2019-06-28-00-03	   80.0	 -60.0	   27935031323.9	83461714291.3	20.5	
2019-06-28-00-03	   12.0	 -39.0	    4821320837.1	8314046001.8	11.8	
2019-06-28-03-06	   22.5	 -38.0	  440772447720.2	995506254107.6	15.7	
2019-06-28-03-06	  -54.5	 -52.5	  131504723142.5	448433645555.1	23.5	
2019-06-28-03-06	   81.5	 -61.0	   59100655890.7	180004315772.2	20.9	
2019-06-28-03-06	   18.0	 -47.0	   69645267355.7	156940779011.1	15.5	
2019-06-28-03-06	  -43.0	 -48.0	    8273338128.7	19647295681.4	16.3	
2019-06-28-06-09	   23.0	 -38.0	  496390126745.2	1135686467914.1	15.9	
2019-06-28-06-09	  -53.5	 -53.0	  172504306717.1	606714379535.1	24.3	
2019-06-28-06-09	   18.5	 -47.5	  229094469598.4	598620299290.3	18.0	
2019-06-28-06-09	   81.5	 -61.0	   69495813626.2	218983398567.8	21.6	
2019-06-28-06-09	  158.0	 -62.0	   26476869506.0	91321555796.6	23.6	
2019-06-28-09-12	   24.0	 -38.5	  471966138699.6	1155599717985.7	17.0	
2019-06-28-09-12	  -53.0	 -53.0	  179987277431.8	616674475985.4	23.7	
2019-06-28-09-12	   19.0	 -47.0	  249492323639.0	612257200457.2	16.9	
2019-06-28-09-12	  158.5	 -62.0	   64251560119.5	251724334564.9	26.9	
2019-06-28-09-12	   81.5	 -61.0	   63314239055.9	201029521175.2	21.8	
2019-06-28-09-12	   15.0	 -47.5	    6324169500.5	12434722873.3	13.5	
2019-06-28-12-15	   24.5	 -38.5	  475044047519.0	1190133724295.8	17.4	
2019-06-28-12-15	   19.5	 -47.0	  267839478480.8	632098562942.1	16.3	
2019-06-28-12-15	  -52.0	 -53.0	  163467899295.1	519773182146.5	21.9	
2019-06-28-12-15	  159.0	 -62.5	   78191930121.3	315649955719.2	27.8	
2019-06-28-12-15	   81.0	 -61.0	   43669501154.7	136658790658.8	21.5	
2019-06-28-15-18	   25.0	 -39.0	  475752033433.0	1192480887671.7	17.4	
2019-06-28-15-18	   20.5	 -47.5	  280721846119.6	667014316727.2	16.4	
2019-06-28-15-18	  160.0	 -62.5	  108069545795.5	425357631349.7	27.1	
2019-06-28-15-18	  -51.0	 -53.0	  137967465188.7	382521935465.9	19.0	
2019-06-28-15-18	   80.0	 -61.0	   15032685891.2	47734767374.9	21.7	
2019-06-28-18-21	   25.5	 -39.5	  453948476325.8	1119536063806.1	17.0	
2019-06-28-18-21	   21.5	 -47.5	  319975700457.3	727578151193.7	15.6	
2019-06-28-18-21	  160.5	 -62.5	  113395702600.6	433130369615.9	26.2	
2019-06-28-18-21	  -49.5	 -53.0	  111524258372.2	289767121259.1	17.8	
2019-06-28-18-21	   80.5	 -61.0	    3020704070.9	9177881600.4	20.7	
2019-06-28-21-24	   25.0	 -40.0	  763465595927.0	1784919411147.9	16.3	
2019-06-28-21-24	  159.0	 -62.5	   67796327163.6	250770542649.6	25.2	
2019-06-28-21-24	   30.5	 -54.0	   42177934955.5	99228136321.6	16.0	
2019-06-28-21-24	  -50.5	 -53.0	   26364961747.2	63729845329.6	16.4	
2019-06-28-21-24	  172.0	 -64.0	   15050588560.6	60229618973.1	27.2	
2019-06-28-21-24	  -46.0	 -53.0	   32052950202.9	58949736670.4	12.5	
2019-06-28-21-24	  165.0	 -63.0	   12749780674.6	47136614411.5	25.1	
2019-06-28-21-24	  -52.5	 -51.0	    5835836142.5	14001641269.6	16.3	
2019-06-29-00-03	   25.5	 -41.5	  584238824605.4	1407456531633.7	16.7	
2019-06-29-00-03	  159.0	 -62.5	   46221142906.8	157860497465.9	23.2	
2019-06-29-00-03	   30.5	 -53.5	   55501456396.6	129061985375.1	15.8	
2019-06-29-00-03	   23.0	 -36.5	   42239060386.6	102437843365.0	16.5	
2019-06-29-00-03	  173.0	 -64.5	   21704408793.5	90325512033.5	28.3	
2019-06-29-00-03	  -46.0	 -52.5	   28396565858.5	34192359409.4	8.2	
2019-06-29-00-03	   29.0	 -36.5	   17504761554.5	31686074283.4	12.3	
2019-06-29-03-06	   25.5	 -42.0	  515645235209.0	1238954867944.5	16.6	
2019-06-29-03-06	   29.5	 -52.5	   39536059468.0	94012127923.4	16.2	
2019-06-29-03-06	  158.5	 -62.5	   18841045509.4	61267087763.2	22.1	
2019-06-29-03-06	  173.0	 -64.0	    4065117897.2	16139140937.7	27.0	
2019-06-29-03-06	  -45.0	 -52.5	   11375689124.5	14180653369.4	8.5	
2019-06-29-03-06	   23.5	 -37.0	   12423731977.3	13849576665.3	7.6	
2019-06-29-03-06	   29.0	 -36.0	    7502203799.9	13668117434.8	12.4	
2019-06-29-06-09	   25.5	 -48.0	  322463644014.6	764628807664.7	16.3	
2019-06-29-06-09	   26.0	 -40.5	  136193756501.8	340083405188.2	17.0	
2019-06-29-06-09	  158.5	 -62.0	    5852216046.8	17786586193.6	20.6	
2019-06-29-06-09	   33.5	 -34.5	    5110057551.9	14899494866.6	19.8	
2019-06-29-09-12	   25.5	 -47.5	  228819441823.0	537309909194.7	16.1	
2019-06-29-09-12	   26.0	 -40.5	   80011729490.3	206807521444.3	17.6	
2019-06-29-09-12	   33.5	 -34.5	   64016045473.1	148426763484.7	15.8	
2019-06-29-09-12	 -173.5	 -65.0	   27774427600.5	112860233257.6	27.6	
2019-06-29-09-12	   29.0	 -52.0	   36220484509.1	86612112764.4	16.3	
2019-06-29-09-12	 -169.0	 -64.5	   17639394072.2	67117879473.4	25.9	
2019-06-29-09-12	  158.5	 -61.5	    7374561815.0	22154529581.2	20.4	
2019-06-29-09-12	   35.5	 -58.0	    3321668967.1	8197106804.4	16.8	
2019-06-29-12-15	   26.0	 -47.5	  176991229258.5	396228121977.7	15.3	
2019-06-29-12-15	 -171.5	 -65.0	   66582621009.2	261529310903.0	26.8	
2019-06-29-12-15	   33.5	 -34.0	   84560397991.8	197376789819.7	15.9	
2019-06-29-12-15	   26.0	 -40.5	   44865096906.1	111324392563.0	16.9	
2019-06-29-12-15	 -131.0	 -40.0	   33270295609.2	67257374476.8	13.8	
2019-06-29-12-15	  158.5	 -62.0	   14654189497.3	48945563904.1	22.7	
2019-06-29-12-15	   29.5	 -52.0	    5730356515.9	12487633504.5	14.8	
2019-06-29-12-15	   36.0	 -37.5	    2452316933.9	4578937674.9	12.7	
2019-06-29-15-18	 -130.5	 -40.0	  150098249955.1	363236375803.3	16.6	
2019-06-29-15-18	   34.0	 -34.0	  107829461287.7	246303777377.2	15.6	
2019-06-29-15-18	   26.5	 -47.5	  109766751426.9	229415627012.3	14.3	
2019-06-29-15-18	 -170.5	 -64.5	   49600616147.8	195099819355.7	26.9	
2019-06-29-15-18	  158.5	 -62.0	   18960187001.2	63831046681.6	23.0	
2019-06-29-15-18	   26.0	 -40.5	   18925434332.6	46505692228.9	16.8	
2019-06-29-15-18	   36.5	 -36.5	   17409061156.8	30594836074.7	12.0	
2019-06-29-18-21	 -130.0	 -40.0	  187773348045.9	464836204009.6	17.0	
2019-06-29-18-21	   34.5	 -34.0	  170849961626.5	362681492315.8	14.6	
2019-06-29-18-21	   27.0	 -48.0	   47787220867.5	101206729887.0	14.5	
2019-06-29-18-21	 -168.5	 -64.5	   25745127627.2	94244672977.0	25.1	
2019-06-29-18-21	  158.5	 -62.0	    7255866098.1	25106144389.7	23.7	
2019-06-29-21-24	 -129.5	 -40.5	  182422421112.7	430583291589.0	16.2	
2019-06-29-21-24	   35.0	 -34.0	  191432210269.0	396222327830.0	14.2	
2019-06-29-21-24	 -167.5	 -64.0	   20591499095.1	70722249088.1	23.5	
2019-06-29-21-24	   27.0	 -48.0	   27047295748.0	56310477822.8	14.3	
2019-06-30-00-03	   35.0	 -34.0	  201681708567.2	407950865010.3	13.8	
2019-06-30-00-03	 -129.0	 -41.0	  174568630656.3	383903258878.9	15.1	
2019-06-30-00-03	 -167.0	 -63.5	   41472574959.1	143044327022.9	23.5	
2019-06-30-00-03	   27.0	 -47.5	    4196411938.9	8863667944.1	14.4	
2019-06-30-03-06	   35.5	 -34.0	  183948459839.7	370388729567.3	13.7	
2019-06-30-03-06	 -128.0	 -41.5	  144970555411.6	301746584519.9	14.1	
2019-06-30-03-06	 -166.5	 -63.5	   66851593191.0	241735865977.9	24.5	
2019-06-30-03-06	  143.5	 -47.0	    4255515123.2	9956089235.2	15.8	
2019-06-30-06-09	   35.5	 -34.0	  155728340910.1	309027151469.3	13.4	
2019-06-30-06-09	 -166.0	 -63.5	   66851593191.0	240604157779.8	24.2	
2019-06-30-06-09	 -127.0	 -42.5	   89530338492.3	181990434260.6	13.7	
2019-06-30-06-09	  147.0	 -47.0	    6343977422.7	18100311774.8	19.1	
2019-06-30-09-12	 -166.5	 -63.5	   55312860049.9	196773508523.1	23.8	
2019-06-30-09-12	 -126.5	 -43.5	   67659719288.8	135473154131.7	13.4	
2019-06-30-09-12	   38.0	 -35.5	   55483005974.0	98241972465.5	11.8	
2019-06-30-09-12	   34.5	 -34.0	   43816946087.1	87714260902.5	13.4	
2019-06-30-09-12	  147.5	 -47.0	    2108109930.5	2531571507.4	8.0	
2019-06-30-12-15	 -167.0	 -63.5	   55264579736.7	191153228121.5	23.2	
2019-06-30-12-15	 -126.0	 -44.5	   33294529407.1	66953682987.2	13.4	
2019-06-30-12-15	   38.0	 -35.5	   25242016907.0	43798515239.4	11.6	
2019-06-30-12-15	   34.0	 -34.0	   18072625995.3	28821503736.2	10.7	
2019-06-30-15-18	 -168.5	 -64.0	   50957955163.0	173584998412.9	22.8	
2019-06-30-15-18	   35.0	 -33.0	    2592396031.4	2618688006.7	6.7	
2019-06-30-18-21	 -169.5	 -64.0	   49360786263.3	167100228995.2	22.6	
2019-06-30-21-24	 -169.0	 -64.0	   32931487374.7	111697500452.8	22.6	
