2014-09-01-00-03	 -117.0	 -60.5	   55423944428.5	212867012907.9	34.1	
2014-09-01-00-03	  -29.0	  61.5	   26190966350.3	98726799695.6	33.4	
2014-09-01-00-03	  -33.5	  57.5	   23021680201.6	65324187627.5	25.1	
2014-09-01-03-06	 -116.5	 -61.0	   48587032373.1	166310867295.8	30.3	
2014-09-01-03-06	  -34.0	  57.0	   18313546227.5	55111161405.5	26.6	
2014-09-01-03-06	  -29.0	  62.0	    8587570058.4	32403128467.6	33.3	
2014-09-01-06-09	 -116.0	 -62.0	   17769941378.6	56416703372.1	28.0	
2014-09-01-06-09	  -33.5	  57.5	   13217863836.2	41197167670.2	27.5	
2014-09-01-06-09	  -29.0	  62.5	    2830621255.0	7992183461.5	24.9	
2014-09-01-09-12	  -30.0	  63.5	   13840076804.5	49174108729.6	31.4	
2014-09-01-09-12	   -4.5	 -53.5	    3677286667.6	9506041235.4	22.8	
2014-09-01-12-15	  -30.0	  63.5	   17953580678.1	62164019212.0	30.7	
2014-09-01-12-15	   -4.0	 -54.0	   23750089960.8	61599983635.2	23.0	
2014-09-01-15-18	   -4.0	 -54.5	   41655877647.4	107252848188.2	22.8	
2014-09-01-15-18	  -30.0	  63.5	   15219308999.6	53100394639.0	30.9	
2014-09-01-18-21	  -44.0	 -35.0	   81017522935.1	162205142080.5	17.7	
2014-09-01-18-21	  -30.5	  61.0	   42527819026.2	146964417239.7	30.6	
2014-09-01-18-21	   -4.0	 -54.5	   50344916278.7	126157586682.6	22.2	
2014-09-01-21-24	  -43.0	 -35.0	  119328770012.6	240587605351.5	17.9	
2014-09-01-21-24	  -30.5	  61.5	   48262118333.8	178278226050.0	32.8	
2014-09-01-21-24	   -3.0	 -54.5	   34037789120.0	83323954698.5	21.7	
2014-09-01-21-24	  147.0	 -47.0	    2108109930.5	3365890611.1	14.1	
2014-09-02-00-03	  -30.0	  62.0	   54635498572.7	211715460214.7	34.6	
2014-09-02-00-03	   -2.0	 -54.5	    9040666189.7	22241317277.6	21.9	
2014-09-02-00-03	  -42.0	 -34.0	   12827889312.3	20169149159.5	14.0	
2014-09-02-03-06	  -30.0	  62.5	   55274567343.9	227957041543.6	37.0	
2014-09-02-03-06	  -38.5	 -33.5	   28456999458.6	58581950734.6	18.4	
2014-09-02-06-09	  -29.5	  63.0	   53319759418.1	227434760430.5	38.5	
2014-09-02-09-12	  -29.5	  63.0	   43065428712.9	182696112552.6	38.5	
2014-09-02-09-12	  -35.5	 -31.0	    2649570932.5	5190709140.7	17.7	
2014-09-02-09-12	   56.5	 -37.0	    2468644329.0	4145217536.9	15.2	
2014-09-02-12-15	  -29.5	  63.0	   31840567859.9	125697001023.9	36.1	
2014-09-02-12-15	  -34.0	 -31.0	    2649570932.5	4960981658.1	17.1	
2014-09-02-15-18	  -29.5	  63.5	   12436756547.4	48835181086.6	35.9	
2014-09-02-15-18	   57.5	 -35.5	    5032989055.8	9085359335.8	16.5	
2014-09-02-18-21	  -26.0	 -33.0	   52050233743.3	125880692215.7	22.2	
2014-09-02-18-21	   58.5	 -35.5	   20240547707.1	34731465913.9	15.7	
2014-09-02-21-24	  -26.0	 -33.0	   91263856866.5	198573784397.2	20.0	
2014-09-02-21-24	   59.5	 -34.5	   22971904114.8	39752531431.1	15.9	
2014-09-03-00-03	  -25.5	 -32.5	  104498111293.1	203926031588.8	18.1	
2014-09-03-03-06	  -25.0	 -32.5	   91723421110.8	163415247997.7	16.6	
2014-09-03-06-09	   68.5	 -35.5	   30306334022.1	65397006615.5	20.1	
2014-09-03-09-12	   69.5	 -35.0	  106520901606.8	243284234258.4	21.3	
2014-09-03-12-15	   70.5	 -34.5	  216898019294.8	485607765884.4	21.0	
2014-09-03-15-18	   70.5	 -33.5	  247341296973.8	499642527318.3	19.0	
2014-09-03-15-18	 -124.0	 -37.0	   12359174290.8	26642518488.9	20.1	
2014-09-03-18-21	   70.5	 -33.0	  184449797961.8	332995068978.0	17.0	
2014-09-03-18-21	 -122.5	 -38.5	   34116078407.6	74253382282.2	20.4	
2014-09-03-21-24	 -121.5	 -39.0	   41037931277.1	90309448348.2	20.6	
2014-09-03-21-24	   70.5	 -33.0	   33874869651.4	56180955814.8	15.5	
2014-09-04-00-03	 -120.5	 -40.0	   54819634037.5	120478016575.3	20.6	
2014-09-04-00-03	  -13.5	 -37.0	    4953428678.4	7565140139.6	14.3	
2014-09-04-03-06	  -12.5	 -38.0	   70829011886.0	142839306163.7	18.8	
2014-09-04-03-06	 -119.5	 -41.0	   37587651024.7	81428357496.9	20.2	
2014-09-04-06-09	  -12.0	 -38.0	  129721447105.7	277959796049.0	20.1	
2014-09-04-09-12	   -9.0	 -40.5	  183662958793.5	410287785980.2	21.0	
2014-09-04-12-15	   -8.0	 -40.5	  199615148844.0	465932975631.0	22.0	
2014-09-04-15-18	   -6.5	 -42.0	  248112209106.1	574182228670.8	21.8	
2014-09-04-18-21	   -2.5	 -44.0	  295476567961.0	720275375294.7	23.0	
2014-09-04-21-24	   -1.5	 -44.5	  290474789049.3	764985621732.7	24.8	
2014-09-04-21-24	   -7.0	 -40.5	   11769799342.0	19285938343.1	15.2	
2014-09-05-00-03	   -0.5	 -44.5	  314913087954.8	835890707047.0	24.8	
2014-09-05-00-03	  -57.5	  63.0	   11009455549.6	51219975291.5	42.9	
2014-09-05-03-06	    4.0	 -48.0	  344310912310.7	914233820883.4	24.6	
2014-09-05-03-06	  -57.5	  63.0	   29323918844.6	126269473557.9	39.4	
2014-09-05-03-06	   97.5	 -40.0	   37931868714.2	81672933378.0	19.7	
2014-09-05-06-09	    7.0	 -49.5	  279456737661.1	826370752450.9	27.1	
2014-09-05-06-09	   98.5	 -40.0	  104813947146.6	228067957253.8	19.8	
2014-09-05-06-09	  -57.5	  63.0	   35104740054.1	144219574881.7	37.3	
2014-09-05-06-09	   -1.5	 -44.0	   49287768709.2	121823717595.0	22.4	
2014-09-05-06-09	  169.0	  39.5	   30954502811.8	64333008683.3	18.8	
2014-09-05-06-09	   17.5	 -40.0	    7138206009.0	14094100149.1	17.9	
2014-09-05-09-12	    7.5	 -49.5	  256111228793.4	754179345212.4	26.8	
2014-09-05-09-12	   99.5	 -39.5	  112095208323.8	242976596754.4	19.6	
2014-09-05-09-12	   18.0	 -39.5	   62009943670.0	124035213521.1	18.0	
2014-09-05-09-12	  -57.5	  63.0	   23735153505.2	98040223067.4	37.2	
2014-09-05-09-12	   -1.5	 -43.5	   15750766825.9	31756480410.9	18.1	
2014-09-05-12-15	    7.5	 -49.5	  200582942620.6	587389603938.6	26.5	
2014-09-05-12-15	  100.5	 -40.0	   78380163970.7	165383104779.5	19.0	
2014-09-05-12-15	  172.5	  42.5	   61635072801.9	153215853206.3	22.3	
2014-09-05-12-15	   15.0	 -54.5	    9040666189.7	28186548326.8	27.9	
2014-09-05-12-15	  -57.5	  62.5	    5661242509.9	20344225351.4	32.2	
2014-09-05-12-15	   18.0	 -40.0	    7155454432.9	13040298332.9	16.3	
2014-09-05-15-18	    7.5	 -49.0	   96691532082.2	293591066715.8	27.3	
2014-09-05-15-18	  173.5	  43.0	  101971888203.1	271748241243.3	23.9	
2014-09-05-15-18	   12.5	 -52.0	   96394000178.4	263717583286.1	24.6	
2014-09-05-15-18	  101.5	 -40.5	   51758052244.7	113339964222.3	19.6	
2014-09-05-18-21	  174.0	  43.0	  119300447134.3	287030703594.8	21.6	
2014-09-05-18-21	   13.5	 -52.0	   89412236957.8	239958084006.2	24.1	
2014-09-05-18-21	    7.5	 -48.5	   72221910460.4	212055351891.3	26.3	
2014-09-05-18-21	   23.0	 -38.5	   33983226594.7	78938888492.9	20.8	
2014-09-05-18-21	  102.5	 -41.0	   30431837318.8	70951128680.8	20.8	
2014-09-05-21-24	  175.0	  43.5	  107567614965.0	248743206269.5	20.7	
2014-09-05-21-24	   15.0	 -52.0	   74065174414.4	210909213251.3	25.4	
2014-09-05-21-24	   23.0	 -38.5	   46093036630.5	108505429793.9	21.0	
2014-09-05-21-24	    7.5	 -48.5	   37147323182.1	106327714423.1	25.5	
2014-09-05-21-24	  103.0	 -41.5	   16311921335.4	35261524454.7	19.3	
2014-09-06-00-03	  175.0	  44.0	  100095240410.8	228517882519.1	20.3	
2014-09-06-00-03	   23.0	 -38.5	   43624392301.5	93469419935.0	19.1	
2014-09-06-00-03	    8.0	 -48.0	   14478027407.4	41917548096.8	25.7	
2014-09-06-03-06	  176.0	  44.0	   97156600021.4	219728357714.5	20.0	
2014-09-06-03-06	   22.5	 -39.0	   26473773953.9	51416915596.0	17.2	
2014-09-06-03-06	   26.0	 -40.5	   14155131377.3	35726523526.6	22.3	
2014-09-06-03-06	  105.5	 -42.0	    2297118335.8	5388890776.5	20.7	
2014-09-06-06-09	  176.0	  45.0	  104484388535.6	244430263922.1	20.6	
2014-09-06-06-09	   22.0	 -39.0	   40801203853.7	80758048549.8	17.4	
2014-09-06-06-09	   27.0	 -55.5	   24665623139.2	70623743679.5	25.1	
2014-09-06-09-12	  176.5	  46.0	  120536773213.5	299589163474.1	21.7	
2014-09-06-09-12	   29.0	 -56.0	   85180717038.4	249811091324.2	25.5	
2014-09-06-09-12	   22.5	 -39.0	   64835882675.6	134636774829.5	18.1	
2014-09-06-12-15	  176.5	  46.0	  125851135175.7	311200662907.7	21.4	
2014-09-06-12-15	   31.0	 -56.0	  105742346354.4	295996373990.8	24.2	
2014-09-06-12-15	   23.0	 -38.5	   45824388623.7	95830077306.7	18.0	
2014-09-06-15-18	  176.5	  46.5	  116586010461.7	277266042177.9	20.5	
2014-09-06-15-18	   32.0	 -56.0	   48641662699.7	123213111128.6	21.8	
2014-09-06-18-21	  176.5	  47.0	   82025692925.2	192279134390.1	20.1	
2014-09-06-21-24	  176.5	  47.5	   72960931672.3	178908800590.2	20.9	
2014-09-07-00-03	  176.5	  47.5	   79026030464.8	204273241825.9	21.9	
2014-09-07-03-06	  177.0	  47.5	   91493569621.3	228282484185.4	21.0	
2014-09-07-06-09	  177.5	  48.0	   86879796048.5	226994239199.1	21.7	
2014-09-07-06-09	  164.5	 -58.5	   21110157127.3	69591634587.5	27.3	
2014-09-07-09-12	  168.5	 -59.5	   65913616039.4	223279693491.0	27.8	
2014-09-07-09-12	  178.0	  48.0	   72003556999.0	189758608743.9	21.6	
2014-09-07-09-12	   34.0	 -34.0	   20620455583.7	38353923102.1	15.2	
2014-09-07-09-12	  -58.5	 -43.5	    6745047773.0	21733678608.2	26.4	
2014-09-07-12-15	  171.0	 -59.0	   94933222576.1	345555576765.5	29.6	
2014-09-07-12-15	  178.5	  48.5	   57304801980.0	146954696775.9	20.8	
2014-09-07-12-15	  -58.5	 -43.5	   24606919577.2	66279721046.4	21.8	
2014-09-07-12-15	   34.0	 -34.0	   12887833932.6	22772647895.6	14.3	
2014-09-07-12-15	 -180.0	  47.5	    8313273818.2	16313389353.0	15.9	
2014-09-07-15-18	  173.5	 -59.0	  120794055110.0	420601544243.4	27.9	
2014-09-07-15-18	  178.5	  48.5	   46903542498.0	120257625632.2	20.5	
2014-09-07-15-18	   96.0	 -47.0	   25531957647.1	53717717016.5	16.8	
2014-09-07-15-18	 -179.5	  48.0	   24759017188.0	53661457280.9	17.3	
2014-09-07-15-18	  -58.5	 -44.0	   11136159371.1	23938314163.5	17.1	
2014-09-07-15-18	   34.5	 -33.5	    2577606140.7	6930175734.1	21.4	
2014-09-07-15-18	   37.5	 -36.0	    2500734600.0	4321234024.1	13.8	
2014-09-07-18-21	  176.5	 -59.5	  124788354757.2	406704893073.1	25.9	
2014-09-07-18-21	   97.0	 -47.5	   88037751220.6	212765141440.1	19.1	
2014-09-07-18-21	  178.5	  48.5	   32506633791.8	81563443188.0	19.8	
2014-09-07-18-21	 -179.0	  48.5	   20421106193.9	48961540333.9	18.9	
2014-09-07-18-21	  -56.0	 -45.0	    4390434690.8	10543254603.2	19.0	
2014-09-07-21-24	   97.5	 -48.0	  141784548694.1	382183415351.3	21.3	
2014-09-07-21-24	  178.0	 -59.5	   55669215549.8	172065931649.8	24.3	
2014-09-07-21-24	  -55.0	 -45.5	   32804156851.9	69160659132.5	16.6	
2014-09-07-21-24	 -180.0	 -59.5	    7936810541.3	26426597500.1	26.1	
2014-09-07-21-24	  178.5	  49.0	    8111719044.4	19154831949.2	18.5	
2014-09-07-21-24	 -178.5	  49.0	    2027929761.1	3717088349.9	14.4	
2014-09-08-00-03	   98.0	 -48.0	  174693339314.8	496733032789.0	22.4	
2014-09-08-00-03	  -54.5	 -46.0	   41105456927.6	84197985746.9	16.0	
2014-09-08-00-03	 -179.0	 -59.0	   20857233121.0	59262112840.9	22.2	
2014-09-08-03-06	   98.0	 -48.0	  182667685048.6	496321827455.2	21.2	
2014-09-08-03-06	   33.5	 -51.5	   44466303241.6	96950536493.0	16.9	
2014-09-08-03-06	  -55.0	 -47.0	   40562007948.0	89746729446.2	17.2	
2014-09-08-03-06	  135.0	  29.0	   29751051508.6	72714824487.2	19.0	
2014-09-08-03-06	 -177.0	 -59.5	   12759000450.8	39423364159.0	24.0	
2014-09-08-03-06	   36.5	 -37.5	    2452316933.9	4708859351.3	14.9	
2014-09-08-06-09	   98.0	 -48.0	  147055797334.7	363375424339.3	19.2	
2014-09-08-06-09	 -175.0	 -59.5	   33430416801.1	111860495902.6	25.9	
2014-09-08-06-09	  -55.5	 -47.5	   33787256951.2	79701168029.5	18.2	
2014-09-08-06-09	  135.5	  29.0	   16220694348.1	35944168257.0	17.1	
2014-09-08-06-09	   37.0	 -37.0	    9938947627.8	17244638079.0	13.4	
2014-09-08-09-12	   97.0	 -47.5	  110508815036.8	265274517129.8	18.5	
2014-09-08-09-12	 -174.0	 -59.0	   30431820737.0	96983133987.9	24.5	
2014-09-08-09-12	  136.5	  29.5	   18831951294.6	35132773593.2	14.3	
2014-09-08-09-12	  -55.5	 -48.0	   12549460418.5	30598157206.3	18.7	
2014-09-08-09-12	   45.5	 -45.5	    8704574888.7	23110234118.1	20.4	
2014-09-08-09-12	  111.5	 -34.0	    5140225619.7	11041590925.2	16.5	
2014-09-08-12-15	   97.0	 -48.0	  135444830039.1	343844046444.2	19.4	
2014-09-08-12-15	  112.5	 -34.5	   51174732060.5	116255285132.5	17.3	
2014-09-08-12-15	  139.0	  29.5	   42802832614.9	90836060480.3	16.1	
2014-09-08-12-15	 -171.0	 -59.0	   28839678528.1	89304012852.4	23.5	
2014-09-08-12-15	  127.5	 -43.0	   20492177224.8	45944076485.5	17.0	
2014-09-08-12-15	   45.5	 -45.5	    4333130635.6	9725202810.2	17.0	
2014-09-08-15-18	   98.0	 -48.0	  116517039059.4	280579117653.4	18.2	
2014-09-08-15-18	  139.0	  30.5	   74306457236.1	168598868570.1	17.1	
2014-09-08-15-18	  113.0	 -34.5	   69111313134.3	164998364786.1	18.0	
2014-09-08-15-18	 -169.0	 -59.0	   35300130623.1	105319569549.2	22.5	
2014-09-08-15-18	   45.5	 -46.0	   15146470253.1	35043238664.8	17.4	
2014-09-08-15-18	   46.5	 -50.5	    5919241847.1	16496896943.0	21.0	
2014-09-08-18-21	  139.0	  31.0	  113513274437.6	304135106537.1	20.0	
2014-09-08-18-21	  113.0	 -34.5	   89412194213.5	208097795428.6	17.3	
2014-09-08-18-21	   99.0	 -48.0	   72589330741.9	162165790962.1	16.6	
2014-09-08-18-21	 -166.5	 -59.0	   33730920906.6	100111940856.9	22.1	
2014-09-08-18-21	   48.0	 -51.0	   15708152249.1	49128963172.5	23.3	
2014-09-08-21-24	  140.0	  32.0	  133998995248.9	362580825765.0	20.0	
2014-09-08-21-24	  113.0	 -34.5	   91928688741.4	214071406048.0	17.2	
2014-09-08-21-24	 -164.0	 -59.0	   48632428644.7	144723911531.8	22.0	
2014-09-08-21-24	   48.5	 -51.0	   33109585209.4	97561982311.8	21.7	
2014-09-08-21-24	   98.0	 -48.5	    4136669064.4	9448411446.0	16.8	
2014-09-09-00-03	  140.5	  32.0	  143827078023.2	345489055047.1	17.7	
2014-09-09-00-03	   50.0	 -51.0	   72093080479.2	202012654111.4	20.6	
2014-09-09-00-03	  112.5	 -34.5	   84332693481.4	194835127959.7	17.0	
2014-09-09-00-03	 -162.5	 -59.0	   20995594524.7	59686317557.3	20.9	
2014-09-09-00-03	 -157.0	 -40.0	   14224486188.5	26258031575.0	13.6	
2014-09-09-00-03	 -105.0	 -57.0	    8485284185.2	25232583995.1	21.8	
2014-09-09-03-06	  142.5	  32.5	  158842618666.4	427320828382.5	19.9	
2014-09-09-03-06	 -156.5	 -39.5	  136368024024.9	268205824251.6	14.5	
2014-09-09-03-06	   50.5	 -51.5	   75627961433.7	211533136935.5	20.6	
2014-09-09-03-06	  112.5	 -34.5	   71673541097.8	170389836247.6	17.5	
2014-09-09-03-06	   51.0	 -47.0	    6383110919.8	15279107443.8	17.6	
2014-09-09-06-09	  143.5	  33.0	  163281320865.6	420488276448.6	19.0	
2014-09-09-06-09	 -155.5	 -39.0	  209071008132.1	406442449571.6	14.3	
2014-09-09-06-09	   51.5	 -51.5	   81210932711.8	211036286197.6	19.1	
2014-09-09-06-09	  112.5	 -34.5	   61439024855.3	139137723785.2	16.6	
2014-09-09-06-09	   47.5	 -46.0	    4313808745.4	9562408823.1	16.3	
2014-09-09-06-09	 -101.5	 -55.0	    3545939379.7	8629073337.1	17.8	
2014-09-09-09-12	  144.5	  33.5	  209308794766.2	582498076350.9	20.5	
2014-09-09-09-12	 -153.5	 -38.5	  268418621332.4	511943141007.0	14.1	
2014-09-09-09-12	   52.5	 -51.5	   92924666108.9	233806450189.1	18.5	
2014-09-09-09-12	  112.0	 -34.5	   41000937942.0	95489580767.3	17.1	
2014-09-09-09-12	   65.0	 -49.5	   12146987060.8	29612186850.1	17.8	
2014-09-09-09-12	   63.0	 -49.0	    6083788177.9	20195018138.2	24.3	
2014-09-09-09-12	 -100.5	 -53.5	    3677286667.6	9316971002.7	18.5	
2014-09-09-09-12	   48.0	 -46.0	    2147243427.7	5235158971.1	17.8	
2014-09-09-12-15	 -152.0	 -38.5	  365897004742.9	747761472959.1	15.1	
2014-09-09-12-15	  145.5	  34.0	  236327586894.0	707131470927.2	22.0	
2014-09-09-12-15	   57.5	 -51.0	  229208127569.8	546859174435.2	17.5	
2014-09-09-12-15	  112.0	 -34.5	   17938141608.6	38961081885.3	15.9	
2014-09-09-15-18	 -151.5	 -38.0	  509615161856.2	1064394891433.6	15.4	
2014-09-09-15-18	  147.0	  34.5	  274034828317.7	817120921826.5	21.9	
2014-09-09-15-18	   59.5	 -50.5	  278113423561.2	693623422007.9	18.3	
2014-09-09-18-21	 -151.5	 -38.0	  667951882948.8	1398350478602.3	15.4	
2014-09-09-18-21	  147.5	  34.5	  308905458483.1	901878572964.1	21.4	
2014-09-09-18-21	   61.0	 -50.0	  194414747011.1	505132993577.7	18.9	
2014-09-09-18-21	   52.5	 -52.0	   43765558614.6	94541760828.4	15.6	
2014-09-09-18-21	  -50.5	 -40.0	   28604024870.6	57518189531.2	14.5	
2014-09-09-21-24	 -151.0	 -38.0	  807294232023.0	1668498720916.9	15.2	
2014-09-09-21-24	  148.5	  35.0	  333183302533.3	957176730109.4	20.9	
2014-09-09-21-24	   61.0	 -50.0	  165091429073.7	405079392611.9	17.7	
2014-09-09-21-24	 -148.0	 -56.5	   61459973791.9	183438026625.2	21.5	
2014-09-09-21-24	  -50.0	 -40.0	   73487445993.2	152298696344.9	14.9	
2014-09-09-21-24	   51.5	 -53.5	    9236443668.1	14490465405.0	11.3	
2014-09-10-00-03	 -150.0	 -38.0	  914709650991.5	1867101273641.1	14.8	
2014-09-10-00-03	  149.5	  35.0	  354321277529.8	976026914428.7	19.8	
2014-09-10-00-03	 -147.5	 -57.0	  127416989650.1	441094331915.1	24.7	
2014-09-10-00-03	  -49.5	 -40.0	   83026603204.1	169505179010.0	14.5	
2014-09-10-00-03	   63.0	 -49.0	   60834020422.4	149648620540.8	17.5	
2014-09-10-00-03	   58.5	 -51.0	   62577773473.1	140847635358.9	16.0	
2014-09-10-00-03	   42.5	 -53.0	   26322304794.5	74227933207.7	20.0	
2014-09-10-00-03	   47.5	 -53.0	    5623715239.8	11248235993.3	14.2	
2014-09-10-00-03	   46.0	 -52.5	    1881729203.2	3374577449.1	12.7	
2014-09-10-03-06	 -149.5	 -38.0	  996702819938.7	2015357059083.9	14.6	
2014-09-10-03-06	  150.5	  35.5	  362484691916.2	893064516101.1	17.5	
2014-09-10-03-06	 -147.5	 -57.0	  121716049123.7	387808849817.6	22.5	
2014-09-10-03-06	   43.5	 -53.0	   75201445337.7	216934846334.6	20.3	
2014-09-10-03-06	   63.5	 -49.0	   63185953143.1	165088900348.4	18.4	
2014-09-10-03-06	  -49.5	 -40.0	   66712163272.3	132113922100.0	13.9	
2014-09-10-03-06	   47.5	 -53.0	    7483972073.2	14424734570.6	13.5	
2014-09-10-03-06	   66.5	 -50.0	    1986906671.9	5254018333.5	18.5	
2014-09-10-06-09	 -148.5	 -38.5	 1042248567973.7	2093741821178.1	14.4	
2014-09-10-06-09	  152.0	  36.5	  277072232138.1	703576831097.9	17.8	
2014-09-10-06-09	   43.5	 -53.0	   99382504538.3	330061025840.4	23.2	
2014-09-10-06-09	  -50.0	 -40.0	   85807905201.8	158721212253.5	12.9	
2014-09-10-06-09	 -147.5	 -57.0	   52048957679.1	151390474137.0	20.3	
2014-09-10-06-09	   63.5	 -49.0	   51141292028.3	142041752869.9	19.3	
2014-09-10-06-09	 -139.5	 -54.5	    7223776195.7	19999279262.8	19.3	
2014-09-10-06-09	   47.5	 -52.5	    3763458406.4	5740017052.5	10.6	
2014-09-10-09-12	 -148.0	 -39.0	 1046690646050.1	2100902218069.0	14.2	
2014-09-10-09-12	  153.0	  37.0	  262063444170.5	712320726833.0	18.9	
2014-09-10-09-12	   43.0	 -53.0	  121764585257.8	416779707867.5	23.7	
2014-09-10-09-12	  -51.0	 -40.5	  163337945618.3	329023518232.7	13.9	
2014-09-10-09-12	 -139.5	 -54.5	   36183039411.2	100934585215.5	19.3	
2014-09-10-09-12	   63.5	 -49.0	   24456215208.8	66482123391.1	18.8	
2014-09-10-12-15	 -147.5	 -39.0	 1029002582268.0	2063285420151.0	14.1	
2014-09-10-12-15	  154.0	  37.5	  289970382182.4	778382637715.0	18.5	
2014-09-10-12-15	   42.0	 -53.0	  117743360581.1	409988718816.4	23.9	
2014-09-10-12-15	  -50.5	 -40.0	  185026088738.0	396548053118.0	14.7	
2014-09-10-12-15	 -139.5	 -54.5	   30425490713.9	82321131488.5	18.5	
2014-09-10-12-15	  159.5	  38.0	    9709811368.1	18852032424.0	13.3	
2014-09-10-15-18	 -147.5	 -39.5	 1003394719801.0	2006583065222.1	13.9	
2014-09-10-15-18	  155.5	  38.0	  333572298544.7	886133822807.4	18.2	
2014-09-10-15-18	  -50.0	 -40.0	  202320668543.2	438849891153.7	14.8	
2014-09-10-15-18	   41.5	 -53.0	  106432665613.8	354046457170.5	22.7	
2014-09-10-15-18	 -138.5	 -55.0	   12520793375.1	33279996596.4	18.1	
2014-09-10-15-18	   74.5	 -49.0	   14296908270.4	31528774153.3	15.0	
2014-09-10-15-18	  158.0	 -61.5	    2973518987.9	9718107502.5	22.2	
2014-09-10-18-21	 -147.0	 -40.0	  946814918355.2	1890003105749.8	13.8	
2014-09-10-18-21	  159.0	  39.0	  402843185854.6	1092693476011.9	18.5	
2014-09-10-18-21	  -49.5	 -39.5	  212613695814.2	469189122333.2	15.0	
2014-09-10-18-21	   41.5	 -53.0	   93500150270.9	291282779463.1	21.1	
2014-09-10-18-21	  158.5	 -62.0	   29450611888.0	105996607271.7	24.3	
2014-09-10-18-21	   74.5	 -49.0	   20461506727.4	48620209026.6	16.0	
2014-09-10-18-21	  143.5	 -42.0	    9188298496.9	25755152329.6	18.9	
2014-09-10-21-24	 -146.0	 -40.5	  853605877843.7	1705948214657.4	13.6	
2014-09-10-21-24	  161.5	  40.0	  435571718856.7	1282918429250.3	20.0	
2014-09-10-21-24	  -50.0	 -39.5	  234189529249.8	529195630001.9	15.2	
2014-09-10-21-24	   42.0	 -53.0	   61708569939.4	191198251628.8	20.8	
2014-09-10-21-24	  158.5	 -62.0	   41082864178.6	143156199750.9	23.3	
2014-09-10-21-24	  144.0	 -42.5	   36697387087.7	115339795249.4	21.0	
2014-09-10-21-24	   74.5	 -49.0	   10200488476.3	24318138836.1	15.9	
2014-09-11-00-03	 -145.0	 -41.0	  721155776985.0	1451251129420.0	13.6	
2014-09-11-00-03	  164.0	  40.5	  454824151565.1	1330500731236.9	19.7	
2014-09-11-00-03	  -50.0	 -39.5	  237118717072.5	547052117560.4	15.4	
2014-09-11-00-03	  144.0	 -42.5	   55233881234.4	160531198180.3	19.3	
2014-09-11-00-03	  158.5	 -62.0	   39632251425.0	136728867866.5	22.9	
2014-09-11-00-03	   42.5	 -53.0	   45031806060.8	130571920294.3	19.3	
2014-09-11-00-03	  -37.5	 -50.5	   11859222778.5	25153678664.2	14.1	
2014-09-11-00-03	 -154.0	 -37.0	    2468644329.0	3989392578.0	10.7	
2014-09-11-03-06	  166.5	  41.0	  487641695300.3	1413692602653.2	19.3	
2014-09-11-03-06	 -144.5	 -41.0	  661083755590.5	1310397636057.7	13.2	
2014-09-11-03-06	  -49.5	 -39.0	  240499226309.7	545400639038.9	15.0	
2014-09-11-03-06	  144.0	 -42.5	   59700992721.6	167862370937.1	18.5	
2014-09-11-03-06	  -45.0	 -50.5	   57618631063.1	130076349498.1	14.8	
2014-09-11-03-06	   42.5	 -52.5	   41375417847.3	124946167399.9	19.8	
2014-09-11-03-06	  159.0	 -62.0	   23550984876.8	79058911764.8	22.0	
2014-09-11-03-06	  -52.0	 -51.5	   27191380832.4	75815266437.2	18.3	
2014-09-11-03-06	  -37.5	 -50.5	   11879961862.7	23255451671.5	12.8	
2014-09-11-06-09	  168.0	  41.0	  485599581990.9	1348979809242.4	18.3	
2014-09-11-06-09	 -143.5	 -41.0	  523436585110.6	1029044254994.9	12.9	
2014-09-11-06-09	  -46.0	 -51.0	  250384924877.7	671456540250.3	17.5	
2014-09-11-06-09	  -49.5	 -39.0	  251207660769.1	542063463066.5	14.1	
2014-09-11-06-09	  144.0	 -42.5	   36697387087.7	120927185088.8	21.4	
2014-09-11-06-09	   42.5	 -52.5	   35709190653.8	117287923556.3	21.3	
2014-09-11-06-09	   90.5	 -42.0	   34617204466.5	63831427272.5	12.0	
2014-09-11-06-09	  -38.0	 -49.5	   24191340858.9	52411607023.5	14.0	
2014-09-11-06-09	  158.5	 -61.5	    7421972779.5	24462426771.3	21.4	
2014-09-11-09-12	  169.5	  41.0	  469597356440.2	1234725302524.4	17.2	
2014-09-11-09-12	  -45.0	 -51.0	  297491597792.1	829023646410.7	18.1	
2014-09-11-09-12	 -142.5	 -41.5	  334042773635.8	660860569597.5	12.8	
2014-09-11-09-12	  -49.0	 -38.5	  250383527766.1	515677960183.6	13.3	
2014-09-11-09-12	  -35.0	 -49.5	   93280120201.8	211576973069.9	14.6	
2014-09-11-09-12	   90.5	 -41.5	   62574434260.2	117817610879.7	12.1	
2014-09-11-09-12	  144.0	 -42.5	   34364520712.6	106762666986.4	20.0	
2014-09-11-09-12	   42.0	 -53.0	   20655788708.6	57582526467.3	17.9	
2014-09-11-09-12	 -147.0	 -37.5	   19683845051.6	34748685504.2	11.4	
2014-09-11-09-12	  -42.0	 -48.0	    6205003596.6	13299311370.9	13.8	
2014-09-11-12-15	  170.0	  41.0	  442861859790.3	1042859158078.6	15.3	
2014-09-11-12-15	  -44.5	 -51.5	  333466410452.3	954566335139.3	18.6	
2014-09-11-12-15	  -48.5	 -38.0	  244763939376.3	479080434399.0	12.6	
2014-09-11-12-15	 -142.0	 -41.5	  241190621361.7	464020073284.3	12.4	
2014-09-11-12-15	  -34.5	 -49.0	  132699053331.4	294087234235.6	14.3	
2014-09-11-12-15	   90.5	 -41.5	   55755451036.6	104049444602.9	12.0	
2014-09-11-12-15	  144.0	 -42.5	   25158784574.6	66177195722.4	16.9	
2014-09-11-12-15	 -152.5	 -60.0	    1545539148.2	4865908735.1	20.2	
2014-09-11-15-18	  -44.0	 -51.5	  325343087808.8	940305173560.7	18.8	
2014-09-11-15-18	  171.0	  40.5	  294660169278.2	624109317262.6	13.7	
2014-09-11-15-18	  -48.0	 -37.5	  206103448655.5	388472178658.1	12.2	
2014-09-11-15-18	  -34.5	 -48.5	  154286205711.3	348087099902.2	14.6	
2014-09-11-15-18	 -141.5	 -41.5	  141235727200.1	259128972559.8	11.8	
2014-09-11-15-18	 -152.5	 -60.5	   15384781794.3	49053579833.4	20.5	
2014-09-11-15-18	   91.0	 -41.5	   20924652463.6	38357616167.6	11.8	
2014-09-11-15-18	  143.5	 -42.5	    9152200028.1	25053696668.9	17.6	
2014-09-11-15-18	  161.0	  39.5	    2385151846.1	4884671506.5	13.2	
2014-09-11-18-21	  -43.0	 -51.0	  503435272921.4	1296802241910.8	16.9	
2014-09-11-18-21	  -48.0	 -37.5	  152537068723.2	280261764146.8	11.9	
2014-09-11-18-21	  166.5	  40.0	   42551641963.1	76909856277.0	11.7	
2014-09-11-18-21	  174.0	  41.0	   39426985636.8	76363193862.6	12.5	
2014-09-11-18-21	 -152.5	 -60.5	   21519865692.0	67538808309.3	20.3	
2014-09-11-18-21	  -40.5	 -48.5	   10240893615.9	21304904462.7	13.4	
2014-09-11-18-21	  165.0	  45.5	    8627617122.4	18088270459.0	13.5	
2014-09-11-21-24	  -42.0	 -50.0	  447891906123.2	1094726660172.9	16.1	
2014-09-11-21-24	  -46.0	 -36.0	   62768611775.9	114373479315.4	11.9	
2014-09-11-21-24	  -50.0	 -39.5	   48024376470.6	89462342780.4	12.1	
2014-09-11-21-24	  165.5	  46.0	   14972246211.2	29548542326.3	12.8	
2014-09-11-21-24	 -152.5	 -60.5	    9202977105.0	29248103374.5	20.7	
2014-09-12-00-03	  -41.5	 -49.5	  381465039019.3	940354534419.8	16.4	
2014-09-12-00-03	  -45.5	 -35.5	   42779447991.2	76387705392.0	11.7	
2014-09-12-00-03	  -50.0	 -39.5	   24004568421.9	45042675427.3	12.3	
2014-09-12-00-03	  165.5	  46.5	    4216220229.5	7920894203.6	12.3	
2014-09-12-03-06	  -41.0	 -49.0	  329749107581.3	789468596932.3	16.0	
2014-09-12-03-06	  -50.0	 -39.5	    7172521377.8	13072835746.9	12.1	
2014-09-12-03-06	  -45.5	 -35.5	    5032989055.8	8534639951.3	11.2	
2014-09-12-06-09	  -40.5	 -48.5	  272882701844.6	619928580853.5	15.3	
2014-09-12-06-09	  -79.0	 -61.5	   39126793638.3	131613146043.6	22.5	
2014-09-12-09-12	  -37.5	 -48.0	   79271309877.1	187984874377.3	16.0	
2014-09-12-09-12	  -79.5	 -61.5	   53686274884.2	185040600034.9	23.2	
2014-09-12-09-12	  -42.5	 -48.0	   29056520831.7	60945867143.5	14.1	
2014-09-12-09-12	  -42.5	 -50.0	   26096208353.5	48516297436.7	12.5	
2014-09-12-12-15	  -37.5	 -48.0	   29195814503.0	68153503048.7	15.9	
2014-09-12-12-15	  -78.5	 -61.5	   20932538783.9	65723414669.1	21.3	
2014-09-12-18-21	  -74.5	 -54.5	    1794998103.8	10975795308.3	41.8	
2014-09-13-00-03	 -140.5	 -33.0	   20753366170.0	41241033305.2	13.5	
2014-09-13-00-03	  169.5	 -34.5	   15330172655.6	27125045134.1	12.1	
2014-09-13-00-03	  -56.5	  55.5	    6913904090.9	20855554824.2	20.6	
2014-09-13-00-03	  -77.0	 -47.5	    8392504032.7	17499419674.2	14.2	
2014-09-13-00-03	  -57.5	 -54.5	    5428778091.9	5929174126.7	7.4	
2014-09-13-03-06	  -56.0	 -54.0	   38261515761.7	75422858011.3	13.4	
2014-09-13-03-06	  -55.5	  55.5	   18990774497.4	65033616522.5	23.3	
2014-09-13-03-06	 -140.5	 -33.5	   25805247646.4	45822603081.3	12.1	
2014-09-13-03-06	  170.5	 -34.5	   20440230207.5	42193291268.5	14.0	
2014-09-13-03-06	  -77.0	 -47.5	   10539747460.4	21966678675.1	14.2	
2014-09-13-03-06	  -54.0	 -51.5	    5793761028.0	17590049774.8	20.7	
2014-09-13-06-09	  -54.5	 -53.0	   48913906016.7	120913797201.6	16.8	
2014-09-13-06-09	  173.0	 -33.5	   18146377571.8	40922214398.6	15.3	
2014-09-13-06-09	  -77.0	 -47.0	    8471412928.2	18720267726.2	15.0	
2014-09-13-06-09	 -140.0	 -34.0	    7702845098.8	10913382041.8	9.6	
2014-09-13-09-12	  173.5	 -34.0	   36188832919.8	90867171529.3	17.0	
2014-09-13-09-12	  -53.5	 -51.5	   27127976320.3	80983393847.1	20.2	
2014-09-13-09-12	  127.5	  13.5	    9004190576.4	20003770557.4	15.0	
2014-09-13-09-12	  -77.0	 -46.5	    4275000989.2	8294697537.6	13.1	
2014-09-13-12-15	  173.5	 -33.5	   31063593961.8	69959461601.1	15.2	
2014-09-13-12-15	  153.0	  42.0	   27455906595.3	68885452755.0	17.0	
2014-09-13-12-15	  -53.0	 -51.5	   13553838327.4	37857423771.8	18.9	
2014-09-13-12-15	  127.5	  14.0	   11983758985.8	24783528703.5	14.0	
2014-09-13-15-18	   31.5	 -56.0	   29406289198.0	85697201612.1	19.7	
2014-09-13-15-18	  153.5	  42.0	   27347088124.3	70836320319.7	17.5	
2014-09-13-15-18	  173.0	 -33.0	    7791780660.9	18971434240.7	16.4	
2014-09-13-18-21	   32.5	 -57.0	  109492074817.8	386496287395.7	23.8	
2014-09-13-18-21	  154.0	  42.5	   15916078684.7	37423294255.8	15.8	
2014-09-13-18-21	  -46.0	  58.5	    8006237207.0	26613366923.2	22.4	
2014-09-13-18-21	  -42.0	 -49.5	    6022330557.4	11412432929.9	12.7	
2014-09-13-18-21	  170.5	 -59.0	    3184045639.3	9941857232.4	21.0	
2014-09-13-21-24	   33.5	 -57.5	   74160820829.0	230945495768.1	21.0	
2014-09-13-21-24	  171.5	 -59.0	   66030132534.8	230605766085.7	23.6	
2014-09-13-21-24	  -42.5	 -51.0	   17756973647.3	35995844448.2	13.6	
2014-09-14-00-03	  172.0	 -58.5	   94494401285.2	327711426435.9	23.5	
2014-09-14-03-06	  173.0	 -58.0	   85401246957.6	271163084935.6	21.6	
2014-09-14-03-06	 -141.5	 -39.5	   16798096107.1	31731978747.3	12.8	
2014-09-14-06-09	 -141.5	 -39.5	   76367509579.4	147801131789.9	13.2	
2014-09-14-06-09	  174.0	 -57.5	   26595661489.6	73096476169.7	18.8	
2014-09-14-06-09	  101.5	 -47.5	   12609043738.9	25336849254.7	13.7	
2014-09-14-09-12	 -141.0	 -40.0	   87930360445.5	166717742731.1	13.0	
2014-09-14-09-12	  -36.0	  55.0	   22847928742.0	65683611947.7	19.7	
2014-09-14-12-15	  -35.5	  55.0	   64616283549.9	194768858484.8	20.9	
2014-09-14-12-15	 -141.0	 -40.5	   75540387056.0	144454304463.7	13.2	
2014-09-14-12-15	    2.0	 -45.5	   15165627061.8	37535852132.8	17.1	
2014-09-14-15-18	  -35.5	  55.5	   69421353084.1	209872228321.3	21.1	
2014-09-14-15-18	 -141.5	 -40.5	   56425047056.7	107777463019.4	13.3	
2014-09-14-15-18	    2.5	 -45.5	   28317774325.6	74962210055.0	18.5	
2014-09-14-15-18	 -171.5	 -58.0	   14879071042.5	46920179027.1	22.0	
2014-09-14-15-18	  131.5	  19.5	    2913778324.2	4586623890.0	11.0	
2014-09-14-18-21	  -35.5	  55.5	   65585990317.5	192400125237.5	20.7	
2014-09-14-18-21	    2.5	 -45.0	   35065170823.2	86043653088.3	17.3	
2014-09-14-18-21	 -171.5	 -57.5	   16744468428.8	48561272901.7	20.5	
2014-09-14-18-21	 -141.5	 -40.5	   23504204574.7	44019757693.6	13.2	
2014-09-14-21-24	  -35.0	  56.0	   36229166389.0	105919525446.2	20.9	
2014-09-14-21-24	    2.5	 -45.0	   19804096513.0	43666249317.5	15.7	
2014-09-14-21-24	 -171.5	 -56.5	    5118240687.0	14764075729.1	20.6	
2014-09-15-00-03	  -35.0	  56.0	   13805379408.6	37634393728.7	19.7	
2014-09-15-03-06	   10.0	 -46.5	   25785751094.2	71189240764.1	20.1	
2014-09-15-06-09	   10.5	 -46.5	   55902667324.0	143278092826.1	18.9	
2014-09-15-06-09	  -53.5	  25.5	   41742467985.4	114304608898.9	20.2	
2014-09-15-09-12	   11.5	 -46.0	   79344369254.2	201031152401.4	18.9	
2014-09-15-09-12	  -54.0	  26.0	   49946599065.6	128446116374.3	19.2	
2014-09-15-12-15	   12.5	 -46.5	   96480074637.1	239853939837.5	18.8	
2014-09-15-12-15	  -54.5	  26.0	   36020653509.2	80430696158.5	16.8	
2014-09-15-15-18	   13.5	 -46.5	   98353735304.0	240492519104.8	18.6	
2014-09-15-15-18	  -55.5	  26.5	   49730803997.0	122448078829.3	18.7	
2014-09-15-18-21	   16.0	 -47.0	  121267440865.8	301506835599.5	19.1	
2014-09-15-18-21	  -56.0	  27.0	   57870441691.3	138648528000.1	18.4	
2014-09-15-18-21	   73.5	 -57.0	   13648381681.5	42926201913.6	24.1	
2014-09-15-21-24	   18.0	 -47.5	  122530980314.2	304940783847.5	19.2	
2014-09-15-21-24	  -56.5	  27.0	   57624483160.9	144982079933.2	19.4	
2014-09-15-21-24	  113.0	  18.0	   35276582391.9	81226267518.1	17.7	
2014-09-15-21-24	   73.5	 -56.5	    5118240687.0	16895555751.5	25.4	
2014-09-15-21-24	  113.5	  16.5	    2963786556.7	3935537304.5	10.2	
2014-09-16-00-03	   19.0	 -47.0	  103070847235.9	295373876957.2	22.2	
2014-09-16-00-03	  -57.0	  27.5	   60266663569.9	157766831907.3	20.2	
2014-09-16-00-03	  113.0	  17.5	   53020206741.5	111545772266.2	16.2	
2014-09-16-03-06	   20.0	 -47.5	  115839147147.7	338586960989.8	22.7	
2014-09-16-03-06	  -57.0	  28.0	   60065094978.0	153561318326.4	19.8	
2014-09-16-03-06	  112.0	  17.5	   26498329807.9	44334443162.9	12.9	
2014-09-16-03-06	  112.0	  14.5	   14949363280.0	21091070954.8	10.9	
2014-09-16-06-09	   22.0	 -47.5	  138887304300.9	375394312406.9	21.1	
2014-09-16-06-09	 -151.5	 -51.0	   58604409865.6	150357092343.6	19.9	
2014-09-16-06-09	  -57.5	  28.5	   46254694958.5	123065555440.7	20.7	
2014-09-16-06-09	  -47.0	 -36.0	   52591556931.9	117938050048.9	17.4	
2014-09-16-06-09	  112.0	  14.5	    8970991533.4	19270054636.7	16.7	
2014-09-16-09-12	   24.5	 -47.5	  117866915696.6	319589787419.3	21.2	
2014-09-16-09-12	  -46.0	 -36.0	  122660286378.3	300292197303.2	19.1	
2014-09-16-09-12	 -150.0	 -51.0	   66384782961.5	176331741980.3	20.7	
2014-09-16-09-12	  -57.0	  28.5	   16298539795.2	33091427587.1	15.8	
2014-09-16-12-15	  -45.5	 -36.0	  157593831154.6	398426078090.2	19.9	
2014-09-16-12-15	   26.0	 -47.5	  124211209832.3	334008323689.8	21.1	
2014-09-16-12-15	 -149.0	 -51.0	   33152250637.2	78197635860.0	18.5	
2014-09-16-12-15	  -57.5	  29.0	   10787709813.4	28184210482.2	20.4	
2014-09-16-15-18	  -44.0	 -36.5	  201929244030.1	486983426673.8	19.1	
2014-09-16-15-18	   27.0	 -47.0	  109870872448.5	269211221989.5	19.3	
2014-09-16-15-18	  -58.0	  30.0	   37408366391.3	94350621073.6	19.8	
2014-09-16-15-18	 -146.5	 -51.0	    9747133760.5	22539215213.0	18.2	
2014-09-16-18-21	  -43.0	 -36.5	  245944414337.4	594687285580.7	19.2	
2014-09-16-18-21	   28.0	 -46.5	   63791329377.6	141900023547.9	17.6	
2014-09-16-18-21	  -58.0	  31.0	   42488265087.4	111737433620.4	20.8	
2014-09-16-18-21	 -145.0	 -51.0	   13762873534.9	31806195021.2	18.2	
2014-09-16-21-24	  -42.5	 -36.5	  284599326192.2	709841090086.3	19.9	
2014-09-16-21-24	  -58.0	  31.5	   60670437127.7	155290612134.7	20.3	
2014-09-16-21-24	 -143.5	 -51.0	    7822892603.6	17413281316.0	17.6	
2014-09-17-00-03	  -41.0	 -37.0	  330136784047.2	824984285604.0	20.0	
2014-09-17-00-03	  -58.0	  32.0	   65614339542.4	166454488365.1	20.1	
2014-09-17-03-06	  -39.5	 -37.5	  366033046163.7	935461746776.6	20.4	
2014-09-17-03-06	  -57.5	  32.5	   60157677438.2	144801563979.0	19.0	
2014-09-17-06-09	  -38.5	 -38.0	  399273975897.3	1026334656297.7	20.5	
2014-09-17-06-09	  -57.0	  33.5	   49208591925.0	110838808564.5	17.7	
2014-09-17-09-12	  -37.5	 -38.0	  426972620830.9	1065856797340.4	19.9	
2014-09-17-09-12	  -56.5	  34.0	   25625613136.2	59123830167.6	18.1	
2014-09-17-12-15	  -36.5	 -38.5	  384610532078.4	965980707394.6	20.1	
2014-09-17-12-15	  -55.5	  34.5	   15238503854.5	31691867005.2	16.4	
2014-09-17-15-18	  -35.5	 -39.0	  371446100991.9	914662148796.3	19.7	
2014-09-17-15-18	  -55.0	  35.0	    7580620214.9	15426094157.7	16.1	
2014-09-17-18-21	  -34.0	 -39.5	  342806472528.2	841221382807.5	19.6	
2014-09-17-21-24	  -33.0	 -39.5	  309364950872.7	741994680471.0	19.2	
2014-09-17-21-24	 -172.5	 -43.5	   31445059056.8	74712897208.9	18.8	
2014-09-18-00-03	  -32.5	 -40.0	  269377279439.7	626930111021.4	18.7	
2014-09-18-00-03	 -173.0	 -43.5	   27034782174.7	75329462856.1	22.2	
2014-09-18-00-03	 -168.5	 -44.5	   19936526041.9	50008755804.2	20.0	
2014-09-18-00-03	   18.0	 -39.0	   19352451937.0	36874318060.6	15.2	
2014-09-18-03-06	  -31.0	 -40.5	  215143057476.9	480500893673.6	17.8	
2014-09-18-03-06	   18.0	 -39.0	  140024570502.8	300724278088.6	17.1	
2014-09-18-03-06	 -166.5	 -44.5	   91084573154.3	225179044422.8	19.6	
2014-09-18-03-06	  -50.0	  38.0	   12145614084.9	29956091948.2	19.5	
2014-09-18-03-06	 -172.5	 -43.5	    6745047773.0	17693605865.6	20.8	
2014-09-18-06-09	   19.0	 -39.0	  189663085353.8	421643557568.8	17.6	
2014-09-18-06-09	 -166.0	 -44.0	  135718057027.4	389012328928.8	22.6	
2014-09-18-06-09	  -29.0	 -41.0	  171157306844.0	351086098421.5	16.2	
2014-09-18-06-09	   35.5	 -39.0	   16899398585.4	32929956471.2	15.3	
2014-09-18-06-09	  -49.5	  38.0	   12128914335.5	25677219184.7	16.6	
2014-09-18-09-12	   21.5	 -38.5	  309134247813.9	750549101964.9	19.1	
2014-09-18-09-12	 -165.5	 -44.0	  158193681400.8	442289926627.1	21.9	
2014-09-18-09-12	   35.5	 -39.0	  115094489402.0	239982906354.1	16.3	
2014-09-18-09-12	  -26.5	 -42.0	  102018089430.6	207721140452.3	15.9	
2014-09-18-12-15	   22.0	 -38.5	  351839059679.8	900012065462.3	20.1	
2014-09-18-12-15	 -165.0	 -44.0	  144948108214.2	369816041996.6	19.9	
2014-09-18-12-15	   35.5	 -39.5	  126929098105.8	268080421826.4	16.4	
2014-09-18-12-15	  -25.5	 -41.5	   53276249422.3	99555948473.0	14.5	
2014-09-18-15-18	   21.5	 -40.0	  299240683929.3	767727437318.8	20.0	
2014-09-18-15-18	 -165.0	 -44.0	  107395578988.2	255156727394.5	18.4	
2014-09-18-15-18	   28.5	 -36.0	   42668749324.4	98224453063.4	17.8	
2014-09-18-15-18	   36.0	 -39.0	   43305272876.3	85015176756.8	15.1	
2014-09-18-15-18	  159.0	 -48.5	   26666510323.9	64081878535.0	18.5	
2014-09-18-15-18	  -25.0	 -40.5	    2350474072.1	3809152925.7	12.5	
2014-09-18-18-21	   22.0	 -41.0	  254405705898.2	603512364043.5	18.3	
2014-09-18-18-21	   29.5	 -36.0	   75268079438.3	159832810620.1	16.3	
2014-09-18-18-21	 -164.5	 -44.0	   55959911316.1	121618410756.4	16.7	
2014-09-18-18-21	  160.0	 -48.0	   45661518347.8	110378242815.6	18.5	
2014-09-18-18-21	  -43.5	  40.0	   23661242650.9	53811759824.6	17.4	
2014-09-18-18-21	   37.0	 -44.5	    4428247721.2	11682292588.9	20.2	
2014-09-18-18-21	  -24.0	 -40.5	    4718377125.8	8766555192.1	14.2	
2014-09-18-18-21	   39.0	 -44.0	    4447070313.9	7576827266.5	13.0	
2014-09-18-21-24	   39.5	 -44.0	  214375118283.2	542465701763.7	19.4	
2014-09-18-21-24	   22.0	 -42.0	  168643032623.7	372997387239.0	16.9	
2014-09-18-21-24	   30.0	 -36.0	   52780472478.8	103873745564.8	15.0	
2014-09-18-21-24	   26.0	 -40.0	   42776042635.2	101861965020.1	18.1	
2014-09-18-21-24	  -43.0	  40.0	   28396868753.3	65106635353.8	17.4	
2014-09-19-00-03	   41.0	 -44.0	  275819230998.0	732902040611.2	20.3	
2014-09-19-00-03	   24.0	 -43.5	  170999881121.3	373138617883.6	16.6	
2014-09-19-00-03	   26.0	 -40.0	   52125115832.5	122054225543.1	17.7	
2014-09-19-00-03	   30.0	 -35.5	   27665104489.1	50302603931.6	13.7	
2014-09-19-00-03	  -43.0	  40.0	    7103709713.9	15554653539.9	16.5	
2014-09-19-00-03	   31.0	 -42.0	    4594236671.6	8249969067.6	13.6	
2014-09-19-03-06	   43.0	 -45.0	  264410324406.4	682273225079.9	19.5	
2014-09-19-03-06	   26.5	 -43.5	  257266132908.0	644723690233.2	18.9	
2014-09-19-03-06	  159.0	  44.0	  149059150606.6	423177734625.6	21.4	
2014-09-19-06-09	  158.5	  45.0	  303284592555.1	963427801470.3	23.9	
2014-09-19-06-09	   28.0	 -44.5	  323210137922.2	948920497474.7	22.1	
2014-09-19-06-09	   44.0	 -45.5	  161940840969.6	407005605446.5	18.7	
2014-09-19-06-09	   36.0	 -37.5	   53831272706.4	122787566017.6	16.9	
2014-09-19-06-09	   26.0	 -40.5	   16487997752.4	38650090844.6	17.4	
2014-09-19-09-12	   29.0	 -44.5	  384939033136.9	1208488080257.1	23.5	
2014-09-19-09-12	  159.5	  46.0	  397867847598.7	1198737614388.8	22.5	
2014-09-19-09-12	   36.5	 -37.0	   96001271411.9	220247420525.2	16.9	
2014-09-19-09-12	   42.5	 -45.5	   76497442989.6	163816525211.7	15.8	
2014-09-19-09-12	 -111.0	 -58.5	   14764756062.0	55321472342.7	27.6	
2014-09-19-12-15	   30.5	 -45.0	  501475319652.5	1418804141187.9	21.1	
2014-09-19-12-15	  160.0	  46.0	  437329996304.5	1188820219121.8	20.2	
2014-09-19-12-15	   37.0	 -37.0	  148225359790.7	334204451359.9	16.6	
2014-09-19-12-15	 -109.5	 -59.0	   22449255940.7	74358783485.6	24.2	
2014-09-19-12-15	   45.5	 -45.5	   10890297015.3	18068901918.5	12.1	
2014-09-19-12-15	   35.5	 -33.5	    2577606140.7	6740017306.1	19.1	
2014-09-19-12-15	   34.0	 -33.5	    2577606140.7	5422561203.3	15.4	
2014-09-19-15-18	   34.0	 -45.0	  880913798570.2	2205252799154.4	18.7	
2014-09-19-15-18	  160.0	  46.5	  427719580503.7	1110632445348.5	19.1	
2014-09-19-15-18	 -108.5	 -60.5	   18545998854.1	61266797930.1	24.0	
2014-09-19-18-21	   36.0	 -45.5	  960679667547.1	2490391187219.8	19.2	
2014-09-19-18-21	  160.0	  47.0	  429046231150.0	1049824070691.7	17.8	
2014-09-19-18-21	 -107.5	 -61.5	   16460435611.9	54570759819.3	23.8	
2014-09-19-18-21	   34.0	 -43.5	   11210771176.4	20004835852.4	12.8	
2014-09-19-21-24	   37.5	 -46.0	  418561507926.9	1506961360229.8	26.1	
2014-09-19-21-24	  158.5	  46.5	  546383040716.1	1221690081335.9	16.1	
2014-09-19-21-24	   38.0	 -35.5	  359806540534.3	732237877630.9	14.6	
2014-09-19-21-24	   30.5	 -44.0	   77848509649.6	159040464936.3	14.5	
2014-09-19-21-24	  157.0	  46.0	   87910582739.2	151082041929.8	12.2	
2014-09-20-00-03	   39.0	 -46.0	  463928232768.7	1622028959173.3	25.2	
2014-09-20-00-03	  158.0	  47.0	  479397646402.2	1010307327969.0	15.1	
2014-09-20-00-03	   38.5	 -35.5	  345549084869.2	668550487334.6	13.8	
2014-09-20-00-03	  158.0	  46.0	  111353271104.3	190946653437.1	12.1	
2014-09-20-00-03	   34.0	 -53.5	   27838307642.7	66063191424.5	16.7	
2014-09-20-00-03	  156.0	  44.5	   10928444446.0	17688290423.2	11.4	
2014-09-20-00-03	   35.0	 -33.0	    2592396031.4	3812842682.4	10.4	
2014-09-20-03-06	   40.0	 -45.5	  445285532526.9	1484083940130.9	23.8	
2014-09-20-03-06	   39.0	 -35.0	  294452158643.7	549759187665.2	13.2	
2014-09-20-03-06	  158.5	  43.5	  116065412170.7	241908757227.3	14.6	
2014-09-20-03-06	   47.5	 -51.0	   86558939768.3	217226012003.9	17.6	
2014-09-20-03-06	  159.5	  51.0	   88098980011.7	202926198145.4	16.2	
2014-09-20-03-06	   34.0	 -53.5	   12935343835.3	34168957584.7	18.5	
2014-09-20-03-06	  155.0	  46.5	    6363625606.5	17155531120.6	18.9	
2014-09-20-03-06	   44.0	 -52.5	    1881729203.2	10403921980.9	38.7	
2014-09-20-06-09	   42.0	 -45.5	  420392830380.9	1301086578365.8	22.0	
2014-09-20-06-09	   48.5	 -53.5	  141481643907.5	366052368169.4	18.1	
2014-09-20-06-09	   39.5	 -34.5	  188848600951.6	327513862433.5	12.2	
2014-09-20-06-09	   43.5	 -53.0	   63975057205.7	181535942824.0	19.9	
2014-09-20-06-09	  160.0	  48.5	   73299132551.0	162347822240.2	15.5	
2014-09-20-06-09	  160.0	  43.0	   33613496279.5	67585106766.0	14.0	
2014-09-20-06-09	  160.0	  51.5	    3848482682.3	5899788072.8	10.7	
2014-09-20-09-12	   43.0	 -45.5	  367976045981.1	1031653154092.1	19.8	
2014-09-20-09-12	   49.5	 -55.5	  136296941755.2	449642584323.3	23.2	
2014-09-20-09-12	   43.0	 -53.0	   69577015052.4	202333517890.5	20.3	
2014-09-20-09-12	  160.5	  49.0	   66848786899.8	153254911226.3	16.0	
2014-09-20-09-12	   52.5	 -51.5	    1924241156.9	3858440025.2	14.0	
2014-09-20-09-12	   48.5	 -52.5	    1881729203.2	3521201743.6	13.1	
2014-09-20-12-15	   44.0	 -45.5	  282782324731.5	726725583001.8	18.1	
2014-09-20-12-15	   51.0	 -56.0	  194945588638.0	707505665043.9	25.6	
2014-09-20-12-15	   42.0	 -52.5	   56384873878.6	173303848853.5	21.5	
2014-09-20-12-15	  161.0	  50.0	   55814428935.9	142130784094.2	17.8	
2014-09-20-15-18	   52.0	 -56.5	  168623665594.1	602392429334.2	25.1	
2014-09-20-15-18	   45.0	 -46.0	  193458278627.2	472813073839.3	17.2	
2014-09-20-15-18	  161.0	  50.0	   43812614543.6	117881398044.2	18.8	
2014-09-20-15-18	   42.0	 -52.5	   31945876140.9	106622590835.0	23.3	
2014-09-20-18-21	   51.5	 -57.0	   89405571060.5	289760009299.8	22.8	
2014-09-20-18-21	   46.0	 -46.0	   84626014704.8	199946593376.3	16.6	
2014-09-20-18-21	   24.5	 -47.5	   67376277338.0	164947060471.4	17.2	
2014-09-20-18-21	   29.5	 -45.0	   41868199558.7	85739177509.2	14.4	
2014-09-20-18-21	   42.0	 -53.0	   16913802672.0	47721716077.2	19.8	
2014-09-20-18-21	  161.5	  49.5	   11983204047.1	32547194467.3	19.0	
2014-09-20-18-21	  171.0	 -36.5	    2484784349.4	5073048856.6	14.3	
2014-09-20-21-24	   26.0	 -47.0	  155304509597.2	361592086099.4	16.5	
2014-09-20-21-24	   46.5	 -46.0	   32536298140.4	64780135268.0	14.0	
2014-09-20-21-24	   51.5	 -56.5	   13738355450.7	37821808294.7	19.4	
2014-09-20-21-24	  120.5	  21.0	   11533303143.1	26922718225.7	16.4	
2014-09-20-21-24	  171.0	 -37.0	    9906857356.9	20518650491.7	14.6	
2014-09-20-21-24	  -90.0	 -52.0	    3827298836.4	9316335171.1	17.1	
2014-09-21-00-03	   27.5	 -46.5	  128009365358.2	298241598949.7	16.6	
2014-09-21-00-03	  120.0	  21.5	   31645045741.8	76143264060.5	17.1	
2014-09-21-00-03	   64.0	 -49.0	   12207982969.3	39279794570.2	22.8	
2014-09-21-00-03	   46.0	 -45.5	    4333130635.6	6425499793.9	10.5	
2014-09-21-03-06	   29.5	 -46.0	   65069122202.2	154331538458.8	16.9	
2014-09-21-03-06	  116.0	 -57.0	   41010869539.5	135835757984.3	23.6	
2014-09-21-03-06	   64.0	 -49.0	   30539538726.9	85387120427.8	19.9	
2014-09-21-03-06	  120.5	  21.0	   20141291611.4	41086854788.5	14.5	
2014-09-21-03-06	   24.5	 -46.5	    6402758550.8	14362039943.6	16.0	
2014-09-21-06-09	  116.5	 -57.0	   97096569544.2	306748936318.7	22.6	
2014-09-21-06-09	   61.5	 -56.0	   43523686769.3	152029048683.5	24.9	
2014-09-21-06-09	   63.5	 -49.0	   40638161495.3	115119751730.2	20.2	
2014-09-21-06-09	   30.5	 -45.0	   41774257756.6	91557431585.8	15.6	
2014-09-21-06-09	  116.5	 -37.5	   29393281117.6	63764987661.0	15.5	
2014-09-21-09-12	  118.0	 -58.0	   88576034406.2	255569657794.5	20.7	
2014-09-21-09-12	   64.0	 -49.5	   74659714973.0	211577317222.8	20.3	
2014-09-21-09-12	   62.0	 -56.0	   50748809225.6	181991746738.1	25.6	
2014-09-21-09-12	  118.0	 -38.5	   77618218557.3	174627814709.0	16.1	
2014-09-21-09-12	  -44.5	 -38.5	   77592210871.6	146685967725.3	13.5	
2014-09-21-12-15	   64.5	 -50.0	  104356444761.3	311252248372.9	21.3	
2014-09-21-12-15	  -42.5	 -38.5	  155207270036.8	307462266566.1	14.2	
2014-09-21-12-15	  119.0	 -39.5	   95990250387.9	219578289511.7	16.3	
2014-09-21-12-15	   62.5	 -55.5	   45874229011.1	142722524447.1	22.2	
2014-09-21-12-15	  119.5	 -59.0	   17788611049.9	47939014578.6	19.2	
2014-09-21-15-18	  -39.5	 -38.5	  259450530330.3	545892330482.9	15.0	
2014-09-21-15-18	   64.5	 -50.0	  122109311825.3	383507573201.5	22.3	
2014-09-21-15-18	  119.5	 -39.5	  123925473692.6	273686016745.1	15.7	
2014-09-21-15-18	   63.5	 -55.0	   24975774555.8	62944372598.0	17.8	
2014-09-21-15-18	 -179.0	 -54.5	   14447552391.4	38619434279.6	18.9	
2014-09-21-15-18	  -39.0	  62.0	    7208122207.3	31543328176.6	30.9	
2014-09-21-18-21	  -37.5	 -38.5	  385581023719.5	827578338630.9	15.2	
2014-09-21-18-21	   64.5	 -50.0	  130115951970.9	402642037278.8	21.8	
2014-09-21-18-21	  120.0	 -40.0	  128607713290.2	274838567431.7	15.0	
2014-09-21-18-21	   74.5	 -56.0	   69538128440.3	210424095379.0	21.2	
2014-09-21-18-21	  -39.0	  62.0	   27308932679.0	122274304956.2	31.4	
2014-09-21-18-21	   67.0	 -54.5	   19875780334.8	57137004832.5	20.1	
2014-09-21-18-21	   70.5	 -53.0	   13021515574.2	51435677045.6	27.7	
2014-09-21-18-21	 -178.0	 -54.5	   14534842851.3	35810043063.9	17.2	
2014-09-21-21-24	  -35.0	 -39.0	  600116407825.1	1303420431363.9	15.4	
2014-09-21-21-24	   74.0	 -56.5	  109020897209.7	350943849346.4	22.5	
2014-09-21-21-24	   64.5	 -50.0	  120037771471.8	334631430187.2	19.5	
2014-09-21-21-24	  120.5	 -40.0	  111982094420.8	227722219376.8	14.2	
2014-09-21-21-24	  -39.5	  61.5	   33564853745.3	144744889606.1	30.1	
2014-09-21-21-24	   70.5	 -53.0	   44535413194.3	129669947906.6	20.3	
2014-09-21-21-24	 -177.0	 -53.5	   49965182142.9	123761345676.7	17.3	
2014-09-21-21-24	  172.0	 -37.0	    2468644329.0	5336400635.9	15.0	
2014-09-22-00-03	  -34.0	 -39.0	  640032210272.5	1321780267374.9	14.6	
2014-09-22-00-03	   73.0	 -55.5	  149590591390.5	474115097066.4	22.2	
2014-09-22-00-03	   65.0	 -50.0	   99660618008.8	267530896278.4	18.7	
2014-09-22-00-03	 -176.0	 -53.5	   88853021049.0	237184981622.5	18.6	
2014-09-22-00-03	  -40.0	  61.5	   26404803749.2	107875000605.6	28.4	
2014-09-22-00-03	  121.0	 -40.0	   52279980214.5	101436146427.8	13.5	
2014-09-22-00-03	  172.0	 -37.0	   19764919903.1	44123564975.2	15.5	
2014-09-22-03-06	  -36.0	 -37.5	  356899323641.9	678839725966.0	13.3	
2014-09-22-03-06	   73.5	 -56.0	   99333182241.0	306978337042.4	21.5	
2014-09-22-03-06	  -25.0	 -43.5	  115970467351.9	258062470636.0	15.5	
2014-09-22-03-06	   65.5	 -50.5	   75492459291.0	197023726617.6	18.2	
2014-09-22-03-06	 -175.5	 -53.5	   69885585298.9	173336733072.1	17.2	
2014-09-22-03-06	 -172.5	 -57.0	   43993533593.1	122872735696.1	19.4	
2014-09-22-03-06	  172.0	 -37.0	   22233564232.1	52085520202.9	16.3	
2014-09-22-06-09	  -36.0	 -37.5	  169539500746.1	310086868353.6	12.8	
2014-09-22-06-09	 -171.5	 -57.0	   84480311601.9	250854316247.9	20.7	
2014-09-22-06-09	  -24.0	 -44.0	   93770676815.4	202203701024.0	15.0	
2014-09-22-06-09	   74.5	 -56.0	   67764638633.6	191947633065.5	19.7	
2014-09-22-06-09	  124.0	 -37.0	   51966318055.2	112736127721.6	15.1	
2014-09-22-06-09	   66.0	 -50.5	   35741464430.4	89515806429.1	17.4	
2014-09-22-06-09	  172.0	 -37.0	   29639309844.5	70675174306.0	16.6	
2014-09-22-06-09	 -175.0	 -54.0	   25435905714.5	61130013073.7	16.7	
2014-09-22-09-12	  124.5	 -37.0	   88859548027.4	190097834929.4	14.9	
2014-09-22-09-12	 -171.0	 -57.0	   40987921202.2	108650068756.1	18.5	
2014-09-22-09-12	  171.5	 -37.0	   27170665515.4	64297726272.4	16.5	
2014-09-22-09-12	  -36.0	 -37.5	   24522608872.9	43252887683.7	12.3	
2014-09-22-09-12	   74.0	 -56.0	   13939422350.0	35261674369.0	17.6	
2014-09-22-09-12	  -24.0	 -44.0	   11136159371.1	21117946324.2	13.2	
2014-09-22-09-12	   77.5	 -54.5	    1794998103.8	4497954853.8	17.4	
2014-09-22-12-15	  124.5	 -37.0	   88778856216.3	181223330679.5	14.2	
2014-09-22-12-15	  -77.0	 -59.5	   50175064866.5	173552475083.5	24.1	
2014-09-22-12-15	  149.0	 -60.5	   24540569762.9	86641220495.7	24.5	
2014-09-22-12-15	  171.5	 -37.0	   22233564232.1	48172484526.6	15.1	
2014-09-22-15-18	  -77.0	 -60.5	   87965012057.1	308138091206.8	24.3	
2014-09-22-15-18	  149.0	 -60.5	   38262600950.6	140240588060.9	25.4	
2014-09-22-15-18	  125.0	 -37.0	   56774877328.5	105417690630.2	12.9	
2014-09-22-15-18	 -168.0	 -55.0	   21451183550.6	55245722240.4	17.8	
2014-09-22-18-21	  -77.0	 -61.0	   80778770869.8	258091853883.5	22.2	
2014-09-22-18-21	   66.0	 -41.0	   37465651838.0	76225722429.7	14.1	
2014-09-22-18-21	 -167.0	 -54.5	   25194554170.3	62058629930.3	17.0	
2014-09-22-18-21	  -16.5	 -48.5	   24838880644.4	61877661646.4	17.2	
2014-09-22-18-21	  149.5	 -60.5	   12247216878.6	39343363821.5	22.2	
2014-09-22-18-21	 -148.0	  42.5	   13618959980.4	34671380806.8	17.6	
2014-09-22-21-24	 -176.5	 -55.0	   56663684707.4	152048224755.5	18.6	
2014-09-22-21-24	 -147.0	  43.0	   54141610392.3	137106879929.6	17.6	
2014-09-22-21-24	  -15.5	 -49.0	   47185735652.4	123632205349.5	18.2	
2014-09-22-21-24	  -77.0	 -61.5	   28235815846.6	81990279383.0	20.1	
2014-09-22-21-24	 -166.5	 -54.5	    9040666189.7	21579019319.4	16.5	
2014-09-23-00-03	 -173.5	 -55.0	   96279802376.1	273195737296.6	19.8	
2014-09-23-00-03	  -14.5	 -48.5	   92328048951.9	236768922094.1	17.9	
2014-09-23-00-03	 -146.0	  44.0	   82037682328.3	228051814314.5	19.4	
2014-09-23-00-03	  158.0	 -55.5	    3523775731.7	11901377159.8	23.5	
2014-09-23-03-06	 -145.5	  44.5	   94509258240.1	276470527968.8	20.6	
2014-09-23-03-06	  -14.0	 -48.5	  108412147677.3	275866592471.3	17.9	
2014-09-23-03-06	 -171.0	 -55.0	   34059270701.9	86308372560.4	17.8	
2014-09-23-06-09	 -144.5	  45.0	   84852744203.4	221565481949.4	18.6	
2014-09-23-06-09	  -12.5	 -51.0	   60756012657.5	162572041344.6	19.0	
2014-09-23-06-09	  -13.5	 -47.0	   42119856344.4	104353975355.7	17.6	
2014-09-23-09-12	 -144.0	  45.5	   64760654394.6	156386531683.9	17.4	
2014-09-23-09-12	  -12.0	 -52.0	   53937316299.6	154250830962.3	20.6	
2014-09-23-09-12	  -14.0	 -47.0	   14756448931.6	41076185861.0	20.0	
2014-09-23-09-12	  -11.0	 -48.5	   14377562680.3	36310896788.3	18.1	
2014-09-23-12-15	  -11.0	 -52.5	   49412326104.5	143636741302.0	21.1	
2014-09-23-12-15	 -143.5	  45.5	   23638507482.3	54777300192.6	16.8	
2014-09-23-12-15	 -150.5	 -47.5	   21080618432.1	47850673161.5	16.5	
2014-09-23-12-15	  -11.0	 -48.5	   14417967819.8	38344906845.3	19.3	
2014-09-23-15-18	  -10.0	 -52.5	   54843234225.1	160527859489.6	21.5	
2014-09-23-15-18	  -11.0	 -48.5	   12349633287.6	32288499259.5	19.2	
2014-09-23-15-18	 -151.0	 -48.5	   14478027407.4	29857561833.3	15.1	
2014-09-23-18-21	   -9.0	 -52.5	   58755839965.5	183920180426.5	23.2	
2014-09-23-18-21	  -10.5	 -48.5	    8233088858.4	22136387707.5	19.9	
2014-09-23-21-24	   -7.5	 -52.5	  102497885539.3	324144660550.7	23.5	
2014-09-23-21-24	  -10.5	 -48.5	    8233088858.4	21916372096.7	19.7	
2014-09-24-00-03	   -6.0	 -52.5	  178784632742.7	639716280339.3	26.7	
2014-09-24-00-03	  -10.5	 -48.5	   10301423390.6	27424367625.5	19.7	
2014-09-24-03-06	   -5.0	 -52.5	  214781125045.5	800283356907.6	27.8	
2014-09-24-03-06	  -10.5	 -48.5	   16506269828.2	45742157288.5	20.5	
2014-09-24-03-06	 -152.5	 -40.0	    9523357486.6	19133778292.0	14.8	
2014-09-24-06-09	   -4.5	 -52.5	  222651975814.1	809276382007.4	27.2	
2014-09-24-06-09	 -150.5	 -40.0	   40476767924.0	86114648632.2	15.7	
2014-09-24-06-09	  -10.5	 -48.5	   10301423390.6	27280862990.1	19.6	
2014-09-24-09-12	   -4.0	 -52.0	  210728369089.9	660618318769.9	23.5	
2014-09-24-09-12	 -149.5	 -41.0	   58651380674.5	123602979895.9	15.7	
2014-09-24-09-12	  -10.0	 -48.0	    2068334532.2	5601718661.9	20.1	
2014-09-24-12-15	   -2.5	 -51.5	  132128395035.8	348213643754.1	19.7	
2014-09-24-12-15	 -148.5	 -42.0	  106369910741.2	247436583435.9	17.3	
2014-09-24-12-15	  -39.0	  62.0	    2878474401.7	12424105221.6	32.1	
2014-09-24-15-18	  -36.5	  63.5	   58330906974.1	280923326211.1	35.9	
2014-09-24-15-18	 -147.5	 -42.5	  121493014242.1	270796460129.5	16.6	
2014-09-24-18-21	  -36.0	  63.5	  100953189208.9	473146994791.0	34.8	
2014-09-24-18-21	 -146.5	 -43.0	   99972030197.5	206293933261.7	15.3	
2014-09-24-18-21	 -126.5	  43.5	   20141198937.4	48234268881.1	17.7	
2014-09-24-21-24	  -35.0	  63.5	  144657558368.1	703428873124.0	36.0	
2014-09-24-21-24	 -126.5	  44.0	  142318372656.0	376438615976.0	19.5	
2014-09-24-21-24	 -146.0	 -45.0	   75096219781.7	159392414300.6	15.6	
2014-09-25-00-03	  -35.0	  63.5	  165554159895.5	850181349848.6	37.9	
2014-09-25-00-03	 -127.0	  44.5	  196621161608.5	541532771533.1	20.2	
2014-09-25-00-03	 -146.5	 -45.0	  121351855482.9	246457475416.9	14.8	
2014-09-25-00-03	  -38.0	 -42.0	   18448093072.4	36773139324.9	14.5	
2014-09-25-03-06	  -35.0	  63.5	  172860792752.9	889952485136.2	37.9	
2014-09-25-03-06	 -127.0	  44.0	  166848367262.0	420130436932.2	18.4	
2014-09-25-03-06	 -145.5	 -45.0	  105202992166.5	206950894772.2	14.3	
2014-09-25-03-06	  -37.0	 -43.5	   70072880248.0	141205872750.4	14.7	
2014-09-25-03-06	 -150.5	 -46.0	    2147243427.7	4696017428.5	15.9	
2014-09-25-06-09	  -35.0	  63.5	  181543314723.4	907455313892.6	36.9	
2014-09-25-06-09	  -36.0	 -44.5	   97641739534.0	210017838089.2	15.7	
2014-09-25-06-09	 -126.5	  42.5	   47409731359.3	100988169649.6	15.5	
2014-09-25-06-09	 -144.0	 -46.0	    2147243427.7	4301895009.3	14.6	
2014-09-25-09-12	  -35.0	  63.5	  187276275692.8	897364579560.2	35.5	
2014-09-25-09-12	  -35.0	 -45.0	  122602504213.5	275043570761.3	16.5	
2014-09-25-12-15	  -34.5	  63.5	  175864813748.4	811544847938.9	34.3	
2014-09-25-12-15	  -35.0	 -46.5	  140081013408.1	318248118334.4	16.8	
2014-09-25-15-18	  -34.0	  64.0	  163169292335.8	725416524337.1	33.1	
2014-09-25-15-18	  -35.0	 -47.0	  100250935911.2	223365976444.8	16.5	
2014-09-25-15-18	 -141.0	 -50.5	   15833036122.2	35231708709.6	16.4	
2014-09-25-15-18	 -139.5	 -49.0	    2027929392.6	3565678538.6	13.0	
2014-09-25-18-21	  -33.5	  64.0	  156417361443.4	665033411805.0	31.9	
2014-09-25-18-21	  -34.5	 -47.5	   10500933808.4	19611054816.9	13.9	
2014-09-25-18-21	 -137.5	 -50.5	    3953074259.5	8849037337.2	16.6	
2014-09-25-21-24	  -33.0	  64.0	  141489207711.2	592334990909.7	31.6	
2014-09-25-21-24	 -140.5	 -54.0	   44146116867.5	132308570185.8	22.4	
2014-09-26-00-03	  -32.0	  64.0	  137380734397.6	558233238491.2	30.6	
2014-09-26-00-03	 -140.0	 -54.0	   50869321206.1	158402227109.5	23.3	
2014-09-26-03-06	  -31.5	  64.0	  137720143447.2	562356036777.3	30.7	
2014-09-26-03-06	 -138.5	 -54.5	   57479894725.7	189041110041.1	24.6	
2014-09-26-06-09	  -32.0	  63.0	  212488552251.1	808677006019.2	28.5	
2014-09-26-06-09	 -138.0	 -55.0	   56907873403.4	188075626260.7	24.5	
2014-09-26-09-12	  -32.0	  62.0	  242438729571.0	917431309792.2	28.1	
2014-09-26-09-12	 -138.0	 -55.5	   33508172706.4	99946364493.5	21.9	
2014-09-26-09-12	  151.0	  43.0	   13526891188.7	34174211984.5	18.5	
2014-09-26-12-15	  -32.0	  61.0	  246755265567.6	910931812700.0	27.1	
2014-09-26-12-15	  151.5	  43.0	   43005448994.5	93657826912.7	15.8	
2014-09-26-12-15	  155.0	  45.5	   10832496057.8	27420950540.9	18.3	
2014-09-26-15-18	  -31.5	  61.0	  242537366427.3	897845435954.2	26.7	
2014-09-26-15-18	  156.5	  45.5	  141407856219.4	362470647690.2	18.4	
2014-09-26-15-18	  -51.0	 -38.5	   75193571730.1	145133290427.0	13.8	
2014-09-26-15-18	 -148.0	 -57.5	   15128750905.1	46469460814.0	21.9	
2014-09-26-18-21	  -31.0	  61.0	  235872830644.7	872839809953.5	26.4	
2014-09-26-18-21	  157.5	  47.0	  219629231440.6	597819179076.7	19.3	
2014-09-26-18-21	  -50.0	 -38.5	  159993209477.4	315530325510.9	14.0	
2014-09-26-18-21	   -8.5	  67.5	    8205432754.2	35102422878.8	30.2	
2014-09-26-18-21	 -148.0	 -57.5	   10055755963.5	30279455784.9	21.2	
2014-09-26-21-24	  -30.5	  61.5	  210366093414.6	767409742125.9	25.9	
2014-09-26-21-24	  158.0	  47.5	  229305018174.8	553055958496.8	17.0	
2014-09-26-21-24	  -49.0	 -39.0	  181391551328.6	357682457854.7	13.9	
2014-09-26-21-24	   -8.0	  67.5	   29471487956.6	136323099905.6	32.5	
2014-09-27-00-03	  -30.5	  62.0	  128441671093.7	485283043330.0	26.6	
2014-09-27-00-03	  158.5	  48.0	  145221932332.8	329044669057.7	15.9	
2014-09-27-00-03	  -49.5	 -39.5	  108052515883.4	201493913437.5	13.1	
2014-09-27-00-03	   -8.0	  67.0	   42805445912.0	197830079238.3	32.4	
2014-09-27-00-03	  -28.5	  59.0	   17488707759.6	56744939033.2	22.7	
2014-09-27-00-03	  -45.5	 -35.0	    2532062659.2	4172450192.1	11.5	
2014-09-27-03-06	  160.0	  47.5	  164275397033.6	379325212991.7	16.2	
2014-09-27-03-06	  -30.0	  62.0	   89230764351.3	367711310561.1	28.8	
2014-09-27-03-06	 -138.5	 -55.5	   65284209226.6	217152815616.3	23.2	
2014-09-27-03-06	   -7.5	  66.5	   41034878837.8	198368677670.3	33.7	
2014-09-27-03-06	  -44.5	 -36.0	   75363207947.0	142446324697.5	13.2	
2014-09-27-03-06	  144.5	  24.0	    5647680596.2	14652342385.0	18.1	
2014-09-27-03-06	  -49.0	 -39.5	    4770302955.2	8425831790.7	12.3	
2014-09-27-06-09	 -138.0	 -55.5	  127101459455.0	480454151092.8	26.4	
2014-09-27-06-09	  160.5	  48.5	  153632358380.3	388942812022.5	17.7	
2014-09-27-06-09	  -30.0	  62.5	   80386178811.3	323033026612.1	28.0	
2014-09-27-06-09	   -7.5	  66.5	   46236053752.6	215423736198.7	32.4	
2014-09-27-06-09	  -44.5	 -35.5	   80522649148.9	155003037823.6	13.4	
2014-09-27-06-09	  144.5	  24.0	    8449362773.6	19977014798.3	16.4	
2014-09-27-06-09	  121.5	 -53.5	    1838643333.8	5479192100.4	20.7	
2014-09-27-09-12	 -138.0	 -55.5	  163656521527.9	625410551561.6	26.7	
2014-09-27-09-12	  161.5	  48.5	  144527867052.7	361710872145.7	17.4	
2014-09-27-09-12	  -30.5	  62.0	   74724450914.2	288759079663.3	26.9	
2014-09-27-09-12	   -7.5	  66.5	   41653382449.8	190525259949.4	31.8	
2014-09-27-09-12	  -44.0	 -35.5	   60534060201.1	111564096934.0	12.8	
2014-09-27-09-12	  121.5	 -55.0	   17993491771.1	49324650698.8	19.0	
2014-09-27-09-12	  144.5	  24.0	    8449362773.6	17047876272.8	14.0	
2014-09-27-12-15	 -138.5	 -55.5	  163524753245.7	607006588105.6	25.9	
2014-09-27-12-15	  -30.5	  62.0	   66140516791.5	247500798163.4	26.0	
2014-09-27-12-15	  161.5	  49.0	   67076653359.4	174162962045.7	18.0	
2014-09-27-12-15	   -7.5	  66.5	   35690207770.0	152753699936.7	29.7	
2014-09-27-12-15	  165.0	  46.5	   25512958918.5	55749627153.1	15.2	
2014-09-27-12-15	  -44.0	 -35.5	   15145671561.4	27034766778.1	12.4	
2014-09-27-12-15	  144.0	  24.5	    5614229141.0	9736564116.5	12.0	
2014-09-27-12-15	   34.5	 -39.5	    2385151477.6	6477049856.3	18.8	
2014-09-27-15-18	 -138.5	 -55.5	  133926455804.4	488491478694.1	25.3	
2014-09-27-15-18	  -30.5	  62.0	   54225381910.6	195961485722.2	25.0	
2014-09-27-15-18	   35.5	 -40.0	   80827910398.3	188684043055.0	16.2	
2014-09-27-15-18	  144.5	  28.0	   87197420529.2	140141938404.5	11.1	
2014-09-27-15-18	   -8.0	  65.5	   27730132178.4	131319779143.9	32.8	
2014-09-27-15-18	  162.5	  48.5	   36643614226.1	86917518442.1	16.4	
2014-09-27-15-18	  144.5	  24.5	   14018419866.2	20008069127.6	9.9	
2014-09-27-15-18	 -145.5	 -57.0	    5050565247.2	12533280359.0	17.1	
2014-09-27-18-21	 -138.5	 -55.5	  118173488753.3	398846553455.4	23.4	
2014-09-27-18-21	  144.0	  27.5	  199408855903.3	358431181034.4	12.4	
2014-09-27-18-21	   36.0	 -39.5	  117368561751.9	266757650308.8	15.7	
2014-09-27-18-21	   -8.0	  65.0	   31723421531.3	151255019690.5	32.9	
2014-09-27-18-21	  -30.0	  63.0	   40713079603.9	145947328212.0	24.7	
2014-09-27-18-21	  164.0	  48.5	   14296755533.3	33113994131.5	16.0	
2014-09-27-18-21	  -15.0	  61.5	    8778325451.9	30137394980.1	23.7	
2014-09-27-21-24	  143.5	  28.0	  220977971485.1	441863417772.5	13.9	
2014-09-27-21-24	 -138.0	 -55.5	   98856583110.0	319167473847.6	22.4	
2014-09-27-21-24	   36.5	 -39.0	  134674200719.2	299379088183.6	15.4	
2014-09-27-21-24	   -7.5	  65.5	   31452895539.5	144232173251.6	31.7	
2014-09-27-21-24	  -30.0	  63.5	   35880550183.8	134372262956.3	25.9	
2014-09-27-21-24	  -15.0	  62.0	   20411029689.6	80090289429.0	27.1	
2014-09-27-21-24	   34.5	 -33.0	    7791780660.9	15152047825.5	13.4	
2014-09-28-00-03	  143.5	  28.0	  220220604684.7	470535554377.8	14.8	
2014-09-28-00-03	   37.5	 -39.0	  147610476085.2	315265844840.0	14.8	
2014-09-28-00-03	 -138.0	 -55.5	   90037408217.5	289763144960.9	22.3	
2014-09-28-00-03	  -30.0	  64.0	   34163594574.6	143503917083.3	29.0	
2014-09-28-00-03	   -8.0	  65.0	   28197365336.8	125871396003.3	30.8	
2014-09-28-00-03	  -15.5	  62.0	   24835499240.0	99068998573.0	27.6	
2014-09-28-00-03	   35.0	 -32.5	   28660297351.5	57393823007.7	13.8	
2014-09-28-00-03	  145.0	  24.5	    2801467903.2	4712756475.1	11.6	
2014-09-28-03-06	  144.0	  28.5	  214066754388.4	473623975726.3	15.4	
2014-09-28-03-06	   37.5	 -38.0	  156212091601.9	309436981394.8	13.7	
2014-09-28-03-06	 -138.0	 -55.5	   94843784768.7	305742215363.9	22.3	
2014-09-28-03-06	   -8.0	  64.5	   35219671510.3	176890216123.7	34.7	
2014-09-28-03-06	  -30.0	  64.0	   35591312329.2	145642056628.4	28.3	
2014-09-28-03-06	  -15.5	  61.5	   27809018596.3	104338736631.3	25.9	
2014-09-28-03-06	   35.0	 -33.0	   38897567283.9	83132870839.3	14.8	
2014-09-28-03-06	   42.0	 -40.5	   28169399520.7	62771786273.6	15.4	
2014-09-28-06-09	  144.0	  29.0	  224321761540.3	506076850440.7	15.7	
2014-09-28-06-09	 -138.0	 -55.5	   84051245956.7	280174849128.2	23.1	
2014-09-28-06-09	   38.0	 -37.0	  116288026058.1	213129746944.0	12.7	
2014-09-28-06-09	   -8.0	  65.0	   28468178562.7	133623118798.4	32.5	
2014-09-28-06-09	  -29.5	  63.5	   30220260392.4	122020764877.7	27.9	
2014-09-28-06-09	  -15.5	  62.0	   24835499240.0	93819673547.8	26.1	
2014-09-28-06-09	   42.5	 -40.5	   35412713538.9	81269563148.0	15.9	
2014-09-28-06-09	   35.0	 -33.5	   23316379743.9	48568574804.2	14.4	
2014-09-28-06-09	   73.0	 -56.5	    8642412171.8	26713731550.1	21.4	
2014-09-28-09-12	  143.5	  29.5	  231734531770.3	551720493994.5	16.6	
2014-09-28-09-12	 -138.0	 -56.0	   57615997315.1	190948232780.4	23.0	
2014-09-28-09-12	  -29.5	  63.5	   26179541006.0	107818691879.3	28.6	
2014-09-28-09-12	   -8.0	  66.0	   21347398679.6	88090210193.6	28.6	
2014-09-28-09-12	   73.0	 -56.5	   22425362438.9	72721069977.8	22.5	
2014-09-28-09-12	   38.5	 -36.0	   37620192137.3	67333386449.6	12.4	
2014-09-28-09-12	  -15.5	  62.0	   13084100851.5	50849978157.2	26.9	
2014-09-28-09-12	   35.0	 -33.0	    2592396031.4	3132901940.7	8.4	
2014-09-28-12-15	  144.0	  29.5	  217736454129.8	505390817890.1	16.2	
2014-09-28-12-15	   73.5	 -56.5	   32661322590.6	99270503991.8	21.1	
2014-09-28-12-15	  -29.5	  63.5	   20735713333.6	85124019735.3	28.5	
2014-09-28-12-15	   -8.0	  66.5	   14839402781.3	66372235099.2	31.1	
2014-09-28-12-15	 -138.0	 -55.5	   12255374772.5	37638398397.4	21.3	
2014-09-28-12-15	  150.5	  31.0	   10598082537.2	18424674750.4	12.1	
2014-09-28-12-15	 -166.0	 -58.5	    1638021380.4	4932308462.0	20.9	
2014-09-28-12-15	  -15.5	  62.0	    1451173403.9	4709487171.0	22.5	
2014-09-28-15-18	  144.0	  29.5	  222360602772.0	505189653999.5	15.9	
2014-09-28-15-18	  -29.5	  63.0	   11057736323.4	45630185711.1	28.8	
2014-09-28-15-18	   -8.5	  66.5	    7395199750.0	30632657804.7	28.9	
2014-09-28-15-18	   73.5	 -56.5	   10303766588.0	29383718189.6	19.9	
2014-09-28-15-18	  150.5	  31.0	    2649571116.8	4756271115.2	12.5	
2014-09-28-18-21	  144.0	  30.0	  258853048522.7	587623907474.3	16.0	
2014-09-28-18-21	   40.0	 -45.0	   13190126665.2	28976276556.1	15.3	
2014-09-28-21-24	  144.0	  30.5	  274104739357.2	666408922526.2	17.1	
2014-09-28-21-24	   40.0	 -45.0	   67868494161.6	156527065868.5	16.1	
2014-09-28-21-24	  -32.0	  58.5	    1615084097.6	4793312025.6	20.7	
2014-09-29-00-03	  144.5	  31.0	  275597626760.1	692913736566.3	17.7	
2014-09-29-00-03	   40.5	 -45.0	   98466602506.2	216713998477.5	15.4	
2014-09-29-00-03	  -31.5	  58.0	   32230899998.7	90165127618.1	19.5	
2014-09-29-00-03	  159.0	 -61.5	   13463380921.4	49749167167.2	25.7	
2014-09-29-00-03	   45.0	 -34.0	    2562619479.0	2457351797.8	6.7	
2014-09-29-03-06	  145.0	  31.5	  271798468033.2	673944100763.3	17.4	
2014-09-29-03-06	  -30.5	  58.5	  104962825486.5	337994471341.2	22.5	
2014-09-29-03-06	   40.0	 -45.0	   52569437686.3	113471348401.0	15.0	
2014-09-29-03-06	  159.0	 -61.5	   23811235842.8	87536920536.5	25.6	
2014-09-29-03-06	  150.5	  32.5	   23345367369.4	40666215515.0	12.1	
2014-09-29-03-06	   44.0	 -32.0	   18448638983.2	34402963060.8	13.0	
2014-09-29-03-06	   45.5	 -45.5	   13095175950.6	19803893167.0	10.5	
2014-09-29-06-09	  145.5	  32.0	  324390870454.4	717284939683.0	15.5	
2014-09-29-06-09	  -30.5	  58.5	  103583945286.9	338682667670.7	22.8	
2014-09-29-06-09	   44.5	 -32.0	   44830188828.8	87746990276.5	13.6	
2014-09-29-06-09	  159.0	 -61.5	   23811235842.8	84648545174.8	24.7	
2014-09-29-06-09	  166.0	 -62.0	    2902346439.3	12555782562.2	30.0	
2014-09-29-06-09	   45.5	 -45.5	    6538009570.9	11847568154.5	12.6	
2014-09-29-09-12	  146.0	  32.5	  291214065805.6	603159957334.3	14.5	
2014-09-29-09-12	  -31.5	  59.5	   67522194254.4	216101167775.5	22.3	
2014-09-29-09-12	   45.0	 -31.5	   60795966586.9	121331944734.7	13.9	
2014-09-29-09-12	  158.5	 -61.5	   13416195838.3	47556166652.6	24.6	
2014-09-29-09-12	  165.5	 -62.5	    4329646884.4	16667101870.5	26.7	
2014-09-29-12-15	  145.5	  33.0	  176160457810.4	358371077312.4	14.2	
2014-09-29-12-15	  -31.5	  60.5	   46993040276.4	154370826868.9	22.8	
2014-09-29-12-15	   45.0	 -31.5	   45040284168.3	89373316856.8	13.8	
2014-09-29-12-15	  152.5	  34.5	   35662003175.6	59447799996.0	11.6	
2014-09-29-12-15	  158.5	 -61.0	    4495752552.4	16427397831.0	25.3	
2014-09-29-15-18	  -32.5	  61.5	  116261514008.3	420763745814.6	25.1	
2014-09-29-15-18	  146.0	  33.5	  115614802301.1	219704019021.9	13.1	
2014-09-29-15-18	   45.0	 -31.0	   26536478712.5	48814211477.3	12.7	
2014-09-29-15-18	  153.5	  34.5	   25320050281.6	46478199443.0	12.7	
2014-09-29-15-18	  158.0	 -61.5	    2997168368.2	11059565058.6	25.4	
2014-09-29-18-21	  -33.0	  62.5	  219673807648.4	1176878218540.4	37.1	
2014-09-29-18-21	  146.0	  34.5	   53293039266.3	102973943288.7	13.2	
2014-09-29-18-21	 -176.5	 -34.5	   28127505148.2	65822052732.0	16.0	
2014-09-29-18-21	  158.5	 -61.5	    2973518987.9	10199956235.2	23.4	
2014-09-29-21-24	  -33.5	  63.0	  230674876659.0	1651841776034.9	49.4	
2014-09-29-21-24	 -176.5	 -35.0	   56040341134.3	146307711907.3	17.7	
2014-09-30-00-03	  -33.5	  63.0	  213571677382.6	1657723161092.5	53.3	
2014-09-30-00-03	 -176.0	 -35.0	   50747335469.1	123574136719.0	16.4	
2014-09-30-00-03	  -41.5	  59.5	   10818538206.7	56103863823.6	34.9	
2014-09-30-03-06	  -33.0	  63.5	  282387664365.5	1648522312835.8	40.0	
2014-09-30-03-06	 -176.0	 -35.5	   65583001902.5	125435945562.4	12.8	
2014-09-30-03-06	  143.5	 -42.5	    9152200028.1	23438917684.8	17.2	
2014-09-30-06-09	  -33.0	  63.5	  266200873788.3	1415488532860.7	36.4	
2014-09-30-06-09	 -177.0	 -36.0	    7502203799.9	12300857908.2	11.0	
2014-09-30-09-12	  -32.5	  64.0	  263074473790.0	1236892677163.0	32.1	
2014-09-30-09-12	 -173.5	 -36.5	    7454353048.3	15153722356.7	13.7	
2014-09-30-12-15	  -33.0	  64.0	  267385226595.6	1357107814054.7	34.6	
2014-09-30-12-15	 -176.0	 -33.5	   56733376866.7	121075398937.3	14.3	
2014-09-30-12-15	 -173.5	 -37.0	   12391641706.3	25733355614.8	13.9	
2014-09-30-15-18	  -34.0	  63.5	  258880097087.0	1347858928917.1	35.3	
2014-09-30-15-18	 -176.0	 -34.0	  102956815804.7	223888880348.4	14.5	
2014-09-30-15-18	  167.0	  39.0	   28689179406.1	59662627897.8	13.9	
2014-09-30-15-18	   37.5	 -36.0	    5017229127.8	9250814965.9	12.3	
2014-09-30-15-18	   -2.0	 -54.0	    1816889994.0	5169753813.1	19.0	
2014-09-30-18-21	  -34.0	  63.5	  262390998682.6	1371298421280.1	35.3	
2014-09-30-18-21	 -175.5	 -34.0	  166870080252.6	361326951500.1	14.4	
2014-09-30-18-21	   37.5	 -36.0	   25054053341.6	46047483619.0	12.2	
2014-09-30-18-21	  168.0	  39.0	   14362111911.4	28360237224.4	13.1	
2014-09-30-18-21	   -2.0	 -54.0	   10944846643.6	28095064311.3	17.1	
2014-09-30-21-24	  -33.5	  63.0	  290826368704.6	1416221290102.6	32.8	
2014-09-30-21-24	 -174.5	 -34.0	  217416053113.0	484799424250.6	14.9	
2014-09-30-21-24	  156.5	  45.5	   45262885895.7	116295248018.1	17.0	
2014-09-30-21-24	   37.5	 -36.5	   39978139826.3	75563083651.1	12.5	
2014-09-30-21-24	  165.5	  40.0	   37798227605.9	74219714705.5	13.0	
2014-09-30-21-24	  152.5	 -36.5	   29864503312.5	62329950385.6	13.8	
2014-09-30-21-24	   -2.0	 -54.0	   10944846643.6	27987296777.0	16.9	
2014-09-30-21-24	 -179.5	 -42.0	   11539477112.7	25061049653.1	14.4	
2014-09-30-21-24	 -135.0	 -47.5	    6304521869.5	13265388942.3	13.9	
2014-09-30-21-24	 -164.5	 -35.0	    5064125318.5	7945812843.5	10.4	
2014-09-30-21-24	  168.5	  39.5	    4753055084.1	7682087468.0	10.7	
